%!PS-Adobe-3.0 EPSF-3.0
%%Creator: MATLAB, The MathWorks, Inc. Version 8.2.0.701 (R2013b). Operating System: Microsoft Windows 8.
%%Title: .\add1.eps
%%CreationDate: 05/17/2016  19:03:53
%%DocumentNeededFonts: Helvetica
%%DocumentProcessColors: Cyan Magenta Yellow Black
%%LanguageLevel: 2
%%Pages: 1
%%BoundingBox:  -304    59   919   786
%%EndComments

%%BeginProlog
% MathWorks dictionary
/MathWorks 160 dict begin
% definition operators
/bdef {bind def} bind def
/ldef {load def} bind def
/xdef {exch def} bdef
/xstore {exch store} bdef
% operator abbreviations
/c  /clip ldef
/cc /concat ldef
/cp /closepath ldef
/gr /grestore ldef
/gs /gsave ldef
/mt /moveto ldef
/np /newpath ldef
/cm /currentmatrix ldef
/sm /setmatrix ldef
/rm /rmoveto ldef
/rl /rlineto ldef
/s {show newpath} bdef
/sc {setcmykcolor} bdef
/sr /setrgbcolor ldef
/sg /setgray ldef
/w /setlinewidth ldef
/j /setlinejoin ldef
/cap /setlinecap ldef
/rc {rectclip} bdef
/rf {rectfill} bdef
% page state control
/pgsv () def
/bpage {/pgsv save def} bdef
/epage {pgsv restore} bdef
/bplot /gsave ldef
/eplot {stroke grestore} bdef
% orientation switch
/portraitMode 0 def /landscapeMode 1 def /rotateMode 2 def
% coordinate system mappings
/dpi2point 0 def
% font control
/FontSize 0 def
/FMS {/FontSize xstore findfont [FontSize 0 0 FontSize neg 0 0]
  makefont setfont} bdef
/ISOLatin1Encoding where {pop /WindowsLatin1Encoding 256 array bdef
ISOLatin1Encoding WindowsLatin1Encoding copy pop
/.notdef/.notdef/quotesinglbase/florin/quotedblbase/ellipsis/dagger
/daggerdbl/circumflex/perthousand/Scaron/guilsinglleft/OE/.notdef/.notdef
/.notdef/.notdef/quoteleft/quoteright/quotedblleft/quotedblright/bullet
/endash/emdash/tilde/trademark/scaron/guilsinglright/oe/.notdef/.notdef
/Ydieresis WindowsLatin1Encoding 128 32 getinterval astore pop}
{/WindowsLatin1Encoding StandardEncoding bdef} ifelse
/reencode {exch dup where {pop load} {pop StandardEncoding} ifelse
  exch dup 3 1 roll findfont dup length dict begin
  { 1 index /FID ne {def}{pop pop} ifelse } forall
  /Encoding exch def currentdict end definefont pop} bdef
/isroman {findfont /CharStrings get /Agrave known} bdef
/FMSR {3 1 roll 1 index dup isroman {reencode} {pop pop} ifelse
  exch FMS} bdef
/csm {1 dpi2point div -1 dpi2point div scale neg translate
 dup landscapeMode eq {pop -90 rotate}
  {rotateMode eq {90 rotate} if} ifelse} bdef
% line types: solid, dotted, dashed, dotdash
/SO { [] 0 setdash } bdef
/DO { [.5 dpi2point mul 4 dpi2point mul] 0 setdash } bdef
/DA { [6 dpi2point mul] 0 setdash } bdef
/DD { [.5 dpi2point mul 4 dpi2point mul 6 dpi2point mul 4
  dpi2point mul] 0 setdash } bdef
% macros for lines and objects
/L {lineto stroke} bdef
/MP {3 1 roll moveto 1 sub {rlineto} repeat} bdef
/AP {{rlineto} repeat} bdef
/PDlw -1 def
/W {/PDlw currentlinewidth def setlinewidth} def
/PP {closepath eofill} bdef
/DP {closepath stroke} bdef
/MR {4 -2 roll moveto dup  0 exch rlineto exch 0 rlineto
  neg 0 exch rlineto closepath} bdef
/FR {MR stroke} bdef
/PR {MR fill} bdef
/L1i {{currentfile picstr readhexstring pop} image} bdef
/tMatrix matrix def
/MakeOval {newpath tMatrix currentmatrix pop translate scale
0 0 1 0 360 arc tMatrix setmatrix} bdef
/FO {MakeOval stroke} bdef
/PO {MakeOval fill} bdef
/PD {currentlinewidth 2 div 0 360 arc fill
   PDlw -1 eq not {PDlw w /PDlw -1 def} if} def
/FA {newpath tMatrix currentmatrix pop translate scale
  0 0 1 5 -2 roll arc tMatrix setmatrix stroke} bdef
/PA {newpath tMatrix currentmatrix pop	translate 0 0 moveto scale
  0 0 1 5 -2 roll arc closepath tMatrix setmatrix fill} bdef
/FAn {newpath tMatrix currentmatrix pop translate scale
  0 0 1 5 -2 roll arcn tMatrix setmatrix stroke} bdef
/PAn {newpath tMatrix currentmatrix pop translate 0 0 moveto scale
  0 0 1 5 -2 roll arcn closepath tMatrix setmatrix fill} bdef
/vradius 0 def /hradius 0 def /lry 0 def
/lrx 0 def /uly 0 def /ulx 0 def /rad 0 def
/MRR {/vradius xdef /hradius xdef /lry xdef /lrx xdef /uly xdef
  /ulx xdef newpath tMatrix currentmatrix pop ulx hradius add uly
  vradius add translate hradius vradius scale 0 0 1 180 270 arc 
  tMatrix setmatrix lrx hradius sub uly vradius add translate
  hradius vradius scale 0 0 1 270 360 arc tMatrix setmatrix
  lrx hradius sub lry vradius sub translate hradius vradius scale
  0 0 1 0 90 arc tMatrix setmatrix ulx hradius add lry vradius sub
  translate hradius vradius scale 0 0 1 90 180 arc tMatrix setmatrix
  closepath} bdef
/FRR {MRR stroke } bdef
/PRR {MRR fill } bdef
/MlrRR {/lry xdef /lrx xdef /uly xdef /ulx xdef /rad lry uly sub 2 div def
  newpath tMatrix currentmatrix pop ulx rad add uly rad add translate
  rad rad scale 0 0 1 90 270 arc tMatrix setmatrix lrx rad sub lry rad
  sub translate rad rad scale 0 0 1 270 90 arc tMatrix setmatrix
  closepath} bdef
/FlrRR {MlrRR stroke } bdef
/PlrRR {MlrRR fill } bdef
/MtbRR {/lry xdef /lrx xdef /uly xdef /ulx xdef /rad lrx ulx sub 2 div def
  newpath tMatrix currentmatrix pop ulx rad add uly rad add translate
  rad rad scale 0 0 1 180 360 arc tMatrix setmatrix lrx rad sub lry rad
  sub translate rad rad scale 0 0 1 0 180 arc tMatrix setmatrix
  closepath} bdef
/FtbRR {MtbRR stroke } bdef
/PtbRR {MtbRR fill } bdef
/stri 6 array def /dtri 6 array def
/smat 6 array def /dmat 6 array def
/tmat1 6 array def /tmat2 6 array def /dif 3 array def
/asub {/ind2 exch def /ind1 exch def dup dup
  ind1 get exch ind2 get sub exch } bdef
/tri_to_matrix {
  2 0 asub 3 1 asub 4 0 asub 5 1 asub
  dup 0 get exch 1 get 7 -1 roll astore } bdef
/compute_transform {
  dmat dtri tri_to_matrix tmat1 invertmatrix 
  smat stri tri_to_matrix tmat2 concatmatrix } bdef
/ds {stri astore pop} bdef
/dt {dtri astore pop} bdef
/db {2 copy /cols xdef /rows xdef mul dup 3 mul string
  currentfile 
  3 index 0 eq {/ASCIIHexDecode filter}
  {/ASCII85Decode filter 3 index 2 eq {/RunLengthDecode filter} if }
  ifelse exch readstring pop
  dup 0 3 index getinterval /rbmap xdef
  dup 2 index dup getinterval /gbmap xdef
  1 index dup 2 mul exch getinterval /bbmap xdef pop pop}bdef
/it {gs np dtri aload pop moveto lineto lineto cp c
  cols rows 8 compute_transform 
  rbmap gbmap bbmap true 3 colorimage gr}bdef
/il {newpath moveto lineto stroke}bdef
currentdict end def
%%EndProlog

%%BeginSetup
MathWorks begin

0 cap

end
%%EndSetup

%%Page: 1 1
%%BeginPageSetup
%%PageBoundingBox:  -304    59   919   786
MathWorks begin
bpage
%%EndPageSetup

%%BeginObject: obj1
bplot

/dpi2point 12 def
portraitMode -5064 9384 csm

 1413   -48 14687  8719 rc
94 dict begin %Colortable dictionary
/c0 { 0.000000 0.000000 0.000000 sr} bdef
/c1 { 1.000000 1.000000 1.000000 sr} bdef
/c2 { 0.900000 0.000000 0.000000 sr} bdef
/c3 { 0.000000 0.820000 0.000000 sr} bdef
/c4 { 0.000000 0.000000 0.800000 sr} bdef
/c5 { 0.910000 0.820000 0.320000 sr} bdef
/c6 { 1.000000 0.260000 0.820000 sr} bdef
/c7 { 0.000000 0.820000 0.820000 sr} bdef
c0
1 j
1 sg
   0    0 17295 8672 rf
6 w
0 6625 13403 0 0 -6625 2248 7673 4 MP
PP
-13403 0 0 6625 13403 0 0 -6625 2248 7673 5 MP stroke
4 w
DO
0 sg
2248 7673 mt 2248 1048 L
2248 1048 mt 2248 1048 L
3737 7673 mt 3737 1048 L
3737 1048 mt 3737 1048 L
5226 7673 mt 5226 1048 L
5226 1048 mt 5226 1048 L
6715 7673 mt 6715 1048 L
6715 1048 mt 6715 1048 L
8204 7673 mt 8204 1048 L
8204 1048 mt 8204 1048 L
9694 7673 mt 9694 1048 L
9694 1048 mt 9694 1048 L
11183 7673 mt 11183 1048 L
11183 1048 mt 11183 1048 L
12672 7673 mt 12672 1048 L
12672 1048 mt 12672 1048 L
14161 7673 mt 14161 1048 L
14161 1048 mt 14161 1048 L
15651 7673 mt 15651 1048 L
15651 1048 mt 15651 1048 L
2248 7673 mt 15651 7673 L
15651 7673 mt 15651 7673 L
2248 6016 mt 15651 6016 L
15651 6016 mt 15651 6016 L
2248 4360 mt 15651 4360 L
15651 4360 mt 15651 4360 L
2248 2704 mt 15651 2704 L
15651 2704 mt 15651 2704 L
2248 1048 mt 15651 1048 L
15651 1048 mt 15651 1048 L
SO
6 w
2248 1048 mt 15651 1048 L
2248 7673 mt 15651 7673 L
15651 7673 mt 15651 1048 L
2248 7673 mt 2248 1048 L
2248 7673 mt 15651 7673 L
2248 7673 mt 2248 1048 L
2248 7673 mt 2248 7538 L
2248 1048 mt 2248 1182 L
%%IncludeResource: font Helvetica
/Helvetica /WindowsLatin1Encoding 480 FMSR

1982 8153 mt 
(10) s
3737 7673 mt 3737 7538 L
3737 1048 mt 3737 1182 L
3471 8153 mt 
(20) s
5226 7673 mt 5226 7538 L
5226 1048 mt 5226 1182 L
4960 8153 mt 
(30) s
6715 7673 mt 6715 7538 L
6715 1048 mt 6715 1182 L
6449 8153 mt 
(40) s
8204 7673 mt 8204 7538 L
8204 1048 mt 8204 1182 L
7938 8153 mt 
(50) s
9694 7673 mt 9694 7538 L
9694 1048 mt 9694 1182 L
9428 8153 mt 
(60) s
11183 7673 mt 11183 7538 L
11183 1048 mt 11183 1182 L
10917 8153 mt 
(70) s
12672 7673 mt 12672 7538 L
12672 1048 mt 12672 1182 L
12406 8153 mt 
(80) s
14161 7673 mt 14161 7538 L
14161 1048 mt 14161 1182 L
13895 8153 mt 
(90) s
15651 7673 mt 15651 7538 L
15651 1048 mt 15651 1182 L
15251 8153 mt 
(100) s
2248 7673 mt 2382 7673 L
15651 7673 mt 15516 7673 L
1947 7851 mt 
(0) s
2248 6016 mt 2382 6016 L
15651 6016 mt 15516 6016 L
1413 6194 mt 
(100) s
2248 4360 mt 2382 4360 L
15651 4360 mt 15516 4360 L
1413 4538 mt 
(200) s
2248 2704 mt 2382 2704 L
15651 2704 mt 15516 2704 L
1413 2882 mt 
(300) s
2248 1048 mt 2382 1048 L
15651 1048 mt 15516 1048 L
1413 1226 mt 
(400) s
2248 1048 mt 15651 1048 L
2248 7673 mt 15651 7673 L
15651 7673 mt 15651 1048 L
2248 7673 mt 2248 1048 L
gs 2248 1048 13404 6626 rc
36 w
/c8 { 0.000000 0.000000 1.000000 sr} bdef
c8
1490 -83 1489 95 1489 -63 1489 -28 1490 157 1489 -104 1489 3 1489 130 
1489 -113 2248 5659 10 MP stroke
gr

36 w
c8
gs 2030 5328 13840 627 rc
  90   90 2248 5659 FO
  90   90 3737 5546 FO
  90   90 5226 5676 FO
  90   90 6715 5679 FO
  90   90 8204 5575 FO
  90   90 9694 5732 FO
  90   90 11183 5704 FO
  90   90 12672 5641 FO
  90   90 14161 5736 FO
  90   90 15651 5653 FO
gr

gs 2248 1048 13404 6626 rc
DO
/c9 { 1.000000 0.000000 0.000000 sr} bdef
c9
1490 456 1489 -329 1489 400 1489 -107 1490 -16 1489 45 1489 -223 1489 -162 
1489 102 2248 2461 10 MP stroke
gr

c9
DO
gs 2030 1882 13840 964 rc
SO
0 j
104 179 -208 0 104 -179 2248 2580 4 MP
DP
104 179 -208 0 104 -179 3737 2682 4 MP
DP
104 179 -208 0 104 -179 5226 2520 4 MP
DP
104 179 -208 0 104 -179 6715 2297 4 MP
DP
104 179 -208 0 104 -179 8204 2342 4 MP
DP
104 179 -208 0 104 -179 9694 2326 4 MP
DP
104 179 -208 0 104 -179 11183 2219 4 MP
DP
104 179 -208 0 104 -179 12672 2619 4 MP
DP
104 179 -208 0 104 -179 14161 2290 4 MP
DP
104 179 -208 0 104 -179 15651 2746 4 MP
DP
DO
gr

gs 2248 1048 13404 6626 rc
DD
/c10 { 0.000000 1.000000 0.000000 sr} bdef
c10
1490 -14 1489 5 1489 -12 1489 24 1490 16 1489 -39 1489 36 1489 -25 
1489 0 2248 7267 10 MP stroke
gr

c10
DD
gs 2030 7021 13840 477 rc
SO
2185 7204 mt 2311 7330 L
2311 7204 mt 2185 7330 L
3674 7204 mt 3800 7330 L
3800 7204 mt 3674 7330 L
5163 7179 mt 5289 7305 L
5289 7179 mt 5163 7305 L
6652 7215 mt 6778 7341 L
6778 7215 mt 6652 7341 L
8141 7176 mt 8267 7302 L
8267 7176 mt 8141 7302 L
9631 7192 mt 9757 7318 L
9757 7192 mt 9631 7318 L
11120 7216 mt 11246 7342 L
11246 7216 mt 11120 7342 L
12609 7204 mt 12735 7330 L
12735 7204 mt 12609 7330 L
14098 7209 mt 14224 7335 L
14224 7209 mt 14098 7335 L
15588 7195 mt 15714 7321 L
15714 7195 mt 15588 7321 L
DD
gr

gs 2248 1048 13404 6626 rc
DA
/c11 { 0.000000 0.000000 0.172414 sr} bdef
c11
1490 -44 1489 32 1489 2 1489 -25 1490 47 1489 -29 1489 63 1489 -55 
1489 23 2248 6769 10 MP stroke
gr

c11
DA
gs 2030 6519 13840 527 rc
SO
2158 6769 mt 2338 6769 L
2248 6679 mt 2248 6859 L
3647 6792 mt 3827 6792 L
3737 6702 mt 3737 6882 L
5136 6737 mt 5316 6737 L
5226 6647 mt 5226 6827 L
6625 6800 mt 6805 6800 L
6715 6710 mt 6715 6890 L
8114 6771 mt 8294 6771 L
8204 6681 mt 8204 6861 L
9604 6818 mt 9784 6818 L
9694 6728 mt 9694 6908 L
11093 6793 mt 11273 6793 L
11183 6703 mt 11183 6883 L
12582 6795 mt 12762 6795 L
12672 6705 mt 12672 6885 L
14071 6827 mt 14251 6827 L
14161 6737 mt 14161 6917 L
15561 6783 mt 15741 6783 L
15651 6693 mt 15651 6873 L
2185 6706 mt 2311 6832 L
2311 6706 mt 2185 6832 L
3674 6729 mt 3800 6855 L
3800 6729 mt 3674 6855 L
5163 6674 mt 5289 6800 L
5289 6674 mt 5163 6800 L
6652 6737 mt 6778 6863 L
6778 6737 mt 6652 6863 L
8141 6708 mt 8267 6834 L
8267 6708 mt 8141 6834 L
9631 6755 mt 9757 6881 L
9757 6755 mt 9631 6881 L
11120 6730 mt 11246 6856 L
11246 6730 mt 11120 6856 L
12609 6732 mt 12735 6858 L
12735 6732 mt 12609 6858 L
14098 6764 mt 14224 6890 L
14224 6764 mt 14098 6890 L
15588 6720 mt 15714 6846 L
15714 6720 mt 15588 6846 L
DA
gr

gs 2248 1048 13404 6626 rc
SO
/c12 { 1.000000 0.103448 0.724138 sr} bdef
c12
1490 19 1489 29 1489 -10 1489 -17 1490 -8 1489 76 1489 -67 1489 18 
1489 14 2248 7390 10 MP stroke
gr

c12
SO
gs 2030 7137 13840 526 rc
0 j
0 -142 -142 0 0 142 142 0 2177 7319 5 MP
DP
0 -142 -142 0 0 142 142 0 3666 7333 5 MP
DP
0 -142 -142 0 0 142 142 0 5155 7351 5 MP
DP
0 -142 -142 0 0 142 142 0 6644 7284 5 MP
DP
0 -142 -142 0 0 142 142 0 8133 7360 5 MP
DP
0 -142 -142 0 0 142 142 0 9623 7352 5 MP
DP
0 -142 -142 0 0 142 142 0 11112 7335 5 MP
DP
0 -142 -142 0 0 142 142 0 12601 7325 5 MP
DP
0 -142 -142 0 0 142 142 0 14090 7354 5 MP
DP
0 -142 -142 0 0 142 142 0 15580 7373 5 MP
DP
gr

gs 2248 1048 13404 6626 rc
DO
/c13 { 0.000000 0.344828 0.000000 sr} bdef
c13
1490 -48 1489 37 1489 65 1489 -81 1490 141 1489 12 1489 -131 1489 -58 
1489 66 2248 5892 10 MP stroke
gr

c13
DO
gs 2030 5551 13840 626 rc
SO
0 j
90 119 -90 119 -90 -119 90 -119 2248 6011 5 MP
DP
90 119 -90 119 -90 -119 90 -119 3737 6077 5 MP
DP
90 119 -90 119 -90 -119 90 -119 5226 6019 5 MP
DP
90 119 -90 119 -90 -119 90 -119 6715 5888 5 MP
DP
90 119 -90 119 -90 -119 90 -119 8204 5900 5 MP
DP
90 119 -90 119 -90 -119 90 -119 9694 6041 5 MP
DP
90 119 -90 119 -90 -119 90 -119 11183 5960 5 MP
DP
90 119 -90 119 -90 -119 90 -119 12672 6025 5 MP
DP
90 119 -90 119 -90 -119 90 -119 14161 6062 5 MP
DP
90 119 -90 119 -90 -119 90 -119 15651 6014 5 MP
DP
DO
gr

gs 2248 1048 13404 6626 rc
DD
1490 363 1489 -277 1489 -162 1489 682 1490 -655 1489 -146 1489 708 1489 -275 
1489 244 2248 2480 10 MP stroke
gr

DD
gs 2030 2138 13840 1238 rc
SO
60 W
2248 2480 PD
60 W
3737 2724 PD
60 W
5226 2449 PD
60 W
6715 3157 PD
60 W
8204 3011 PD
60 W
9694 2356 PD
60 W
11183 3038 PD
60 W
12672 2876 PD
60 W
14161 2599 PD
60 W
15651 2962 PD
DD
gr

gs 2248 1048 13404 6626 rc
DA
/c14 { 0.517241 0.517241 1.000000 sr} bdef
c14
1490 -118 1489 224 1489 -15 1489 -78 1490 -89 1489 55 1489 -128 1489 245 
1489 -15 2248 5836 10 MP stroke
gr

c14
DA
gs 2030 5593 13840 692 rc
SO
0 j
-104 179 -104 -179 208 0 2144 5896 4 MP
DP
-104 179 -104 -179 208 0 3633 5881 4 MP
DP
-104 179 -104 -179 208 0 5122 6126 4 MP
DP
-104 179 -104 -179 208 0 6611 5998 4 MP
DP
-104 179 -104 -179 208 0 8100 6053 4 MP
DP
-104 179 -104 -179 208 0 9590 5964 4 MP
DP
-104 179 -104 -179 208 0 11079 5886 4 MP
DP
-104 179 -104 -179 208 0 12568 5871 4 MP
DP
-104 179 -104 -179 208 0 14057 6095 4 MP
DP
-104 179 -104 -179 208 0 15547 5977 4 MP
DP
DA
gr

gs 2248 1048 13404 6626 rc
SO
/c15 { 0.620690 0.310345 0.275862 sr} bdef
c15
1490 357 1489 -699 1489 273 1489 -100 1490 222 1489 346 1489 -226 1489 -138 
1489 157 2248 2835 10 MP stroke
gr

c15
SO
gs 2030 2410 13840 1178 rc
0 j
-179 104 0 -208 179 104 2129 2835 4 MP
DP
-179 104 0 -208 179 104 3618 2992 4 MP
DP
-179 104 0 -208 179 104 5107 2854 4 MP
DP
-179 104 0 -208 179 104 6596 2628 4 MP
DP
-179 104 0 -208 179 104 8085 2974 4 MP
DP
-179 104 0 -208 179 104 9575 3196 4 MP
DP
-179 104 0 -208 179 104 11064 3096 4 MP
DP
-179 104 0 -208 179 104 12553 3369 4 MP
DP
-179 104 0 -208 179 104 14042 2670 4 MP
DP
-179 104 0 -208 179 104 15532 3027 4 MP
DP
gr

gs 2248 1048 13404 6626 rc
DO
/c16 { 0.000000 1.000000 0.758621 sr} bdef
c16
1490 115 1489 -192 1489 96 1489 64 1490 23 1489 -21 1489 -49 1489 -18 
1489 -12 2248 6005 10 MP stroke
gr

c16
DO
gs 2030 5678 13840 629 rc
SO
0 j
0 208 -179 -104 179 -104 2188 6109 4 MP
DP
0 208 -179 -104 179 -104 3677 6097 4 MP
DP
0 208 -179 -104 179 -104 5166 6079 4 MP
DP
0 208 -179 -104 179 -104 6655 6030 4 MP
DP
0 208 -179 -104 179 -104 8144 6009 4 MP
DP
0 208 -179 -104 179 -104 9634 6032 4 MP
DP
0 208 -179 -104 179 -104 11123 6096 4 MP
DP
0 208 -179 -104 179 -104 12612 6192 4 MP
DP
0 208 -179 -104 179 -104 14101 6000 4 MP
DP
0 208 -179 -104 179 -104 15591 6115 4 MP
DP
DO
gr

gs 2248 1048 13404 6626 rc
SO
/c17 { 0.000000 0.517241 0.586207 sr} bdef
c17
1490 540 1489 -434 1489 0 1489 210 1490 332 1489 -250 1489 138 1489 -565 
1489 103 2248 3341 10 MP stroke
gr

c17
SO
gs 2030 2549 13840 1114 rc
0 j
-51 -39 18 -61 -53 36 -52 -36 18 61 -51 39 64 0 21 62 
22 -62 64 0 2162 3313 11 MP
DP
-51 -39 18 -61 -53 36 -52 -36 18 61 -51 39 64 0 21 62 
22 -62 64 0 3651 3416 11 MP
DP
-51 -39 18 -61 -53 36 -52 -36 18 61 -51 39 64 0 21 62 
22 -62 64 0 5140 2851 11 MP
DP
-51 -39 18 -61 -53 36 -52 -36 18 61 -51 39 64 0 21 62 
22 -62 64 0 6629 2989 11 MP
DP
-51 -39 18 -61 -53 36 -52 -36 18 61 -51 39 64 0 21 62 
22 -62 64 0 8118 2739 11 MP
DP
-51 -39 18 -61 -53 36 -52 -36 18 61 -51 39 64 0 21 62 
22 -62 64 0 9608 3071 11 MP
DP
-51 -39 18 -61 -53 36 -52 -36 18 61 -51 39 64 0 21 62 
22 -62 64 0 11097 3281 11 MP
DP
-51 -39 18 -61 -53 36 -52 -36 18 61 -51 39 64 0 21 62 
22 -62 64 0 12586 3281 11 MP
DP
-51 -39 18 -61 -53 36 -52 -36 18 61 -51 39 64 0 21 62 
22 -62 64 0 14075 2847 11 MP
DP
-51 -39 18 -61 -53 36 -52 -36 18 61 -51 39 64 0 21 62 
22 -62 64 0 15565 3387 11 MP
DP
gr

gs 2248 1048 13404 6626 rc
DO
/c18 { 0.000000 0.000000 0.482759 sr} bdef
c18
1490 279 1489 -306 1489 329 1489 -30 1490 -22 1489 -123 1489 247 1489 552 
1489 -678 2248 2895 10 MP stroke
gr

c18
DO
gs 2030 1999 13840 1390 rc
SO
0 j
-32 -45 32 -45 -52 0 -25 -45 -25 45 -52 0 32 45 -32 45 
52 0 25 45 25 -45 52 0 2171 2850 13 MP
DP
-32 -45 32 -45 -52 0 -25 -45 -25 45 -52 0 32 45 -32 45 
52 0 25 45 25 -45 52 0 3660 2172 13 MP
DP
-32 -45 32 -45 -52 0 -25 -45 -25 45 -52 0 32 45 -32 45 
52 0 25 45 25 -45 52 0 5149 2724 13 MP
DP
-32 -45 32 -45 -52 0 -25 -45 -25 45 -52 0 32 45 -32 45 
52 0 25 45 25 -45 52 0 6638 2971 13 MP
DP
-32 -45 32 -45 -52 0 -25 -45 -25 45 -52 0 32 45 -32 45 
52 0 25 45 25 -45 52 0 8127 2848 13 MP
DP
-32 -45 32 -45 -52 0 -25 -45 -25 45 -52 0 32 45 -32 45 
52 0 25 45 25 -45 52 0 9617 2826 13 MP
DP
-32 -45 32 -45 -52 0 -25 -45 -25 45 -52 0 32 45 -32 45 
52 0 25 45 25 -45 52 0 11106 2796 13 MP
DP
-32 -45 32 -45 -52 0 -25 -45 -25 45 -52 0 32 45 -32 45 
52 0 25 45 25 -45 52 0 12595 3125 13 MP
DP
-32 -45 32 -45 -52 0 -25 -45 -25 45 -52 0 32 45 -32 45 
52 0 25 45 25 -45 52 0 14084 2819 13 MP
DP
-32 -45 32 -45 -52 0 -25 -45 -25 45 -52 0 32 45 -32 45 
52 0 25 45 25 -45 52 0 15574 3098 13 MP
DP
DO
gr

gs 2248 1048 13404 6626 rc
gr

0 sg
4587  446 mt 
(Generations to reach feasible region \(D) s
%%IncludeResource: font Helvetica
/Helvetica /WindowsLatin1Encoding 384 FMSR

12935  686 mt 
(g) s
%%IncludeResource: font Helvetica
/Helvetica /WindowsLatin1Encoding 480 FMSR

13148  446 mt 
(\)) s
7267 8561 mt 
(Columns added) s
SO
6 w

end %%Color Dict

eplot
%%EndObject

epage
end

showpage

%%Trailer
%%EOF
