%!PS-Adobe-3.0 EPSF-3.0
%%Creator: MATLAB, The MathWorks, Inc. Version 8.2.0.701 (R2013b). Operating System: Microsoft Windows 8.
%%Title: .\add3.eps
%%CreationDate: 05/17/2016  19:03:54
%%DocumentNeededFonts: Helvetica
%%DocumentProcessColors: Cyan Magenta Yellow Black
%%LanguageLevel: 2
%%Pages: 1
%%BoundingBox:  -259    59   919   786
%%EndComments

%%BeginProlog
% MathWorks dictionary
/MathWorks 160 dict begin
% definition operators
/bdef {bind def} bind def
/ldef {load def} bind def
/xdef {exch def} bdef
/xstore {exch store} bdef
% operator abbreviations
/c  /clip ldef
/cc /concat ldef
/cp /closepath ldef
/gr /grestore ldef
/gs /gsave ldef
/mt /moveto ldef
/np /newpath ldef
/cm /currentmatrix ldef
/sm /setmatrix ldef
/rm /rmoveto ldef
/rl /rlineto ldef
/s {show newpath} bdef
/sc {setcmykcolor} bdef
/sr /setrgbcolor ldef
/sg /setgray ldef
/w /setlinewidth ldef
/j /setlinejoin ldef
/cap /setlinecap ldef
/rc {rectclip} bdef
/rf {rectfill} bdef
% page state control
/pgsv () def
/bpage {/pgsv save def} bdef
/epage {pgsv restore} bdef
/bplot /gsave ldef
/eplot {stroke grestore} bdef
% orientation switch
/portraitMode 0 def /landscapeMode 1 def /rotateMode 2 def
% coordinate system mappings
/dpi2point 0 def
% font control
/FontSize 0 def
/FMS {/FontSize xstore findfont [FontSize 0 0 FontSize neg 0 0]
  makefont setfont} bdef
/ISOLatin1Encoding where {pop /WindowsLatin1Encoding 256 array bdef
ISOLatin1Encoding WindowsLatin1Encoding copy pop
/.notdef/.notdef/quotesinglbase/florin/quotedblbase/ellipsis/dagger
/daggerdbl/circumflex/perthousand/Scaron/guilsinglleft/OE/.notdef/.notdef
/.notdef/.notdef/quoteleft/quoteright/quotedblleft/quotedblright/bullet
/endash/emdash/tilde/trademark/scaron/guilsinglright/oe/.notdef/.notdef
/Ydieresis WindowsLatin1Encoding 128 32 getinterval astore pop}
{/WindowsLatin1Encoding StandardEncoding bdef} ifelse
/reencode {exch dup where {pop load} {pop StandardEncoding} ifelse
  exch dup 3 1 roll findfont dup length dict begin
  { 1 index /FID ne {def}{pop pop} ifelse } forall
  /Encoding exch def currentdict end definefont pop} bdef
/isroman {findfont /CharStrings get /Agrave known} bdef
/FMSR {3 1 roll 1 index dup isroman {reencode} {pop pop} ifelse
  exch FMS} bdef
/csm {1 dpi2point div -1 dpi2point div scale neg translate
 dup landscapeMode eq {pop -90 rotate}
  {rotateMode eq {90 rotate} if} ifelse} bdef
% line types: solid, dotted, dashed, dotdash
/SO { [] 0 setdash } bdef
/DO { [.5 dpi2point mul 4 dpi2point mul] 0 setdash } bdef
/DA { [6 dpi2point mul] 0 setdash } bdef
/DD { [.5 dpi2point mul 4 dpi2point mul 6 dpi2point mul 4
  dpi2point mul] 0 setdash } bdef
% macros for lines and objects
/L {lineto stroke} bdef
/MP {3 1 roll moveto 1 sub {rlineto} repeat} bdef
/AP {{rlineto} repeat} bdef
/PDlw -1 def
/W {/PDlw currentlinewidth def setlinewidth} def
/PP {closepath eofill} bdef
/DP {closepath stroke} bdef
/MR {4 -2 roll moveto dup  0 exch rlineto exch 0 rlineto
  neg 0 exch rlineto closepath} bdef
/FR {MR stroke} bdef
/PR {MR fill} bdef
/L1i {{currentfile picstr readhexstring pop} image} bdef
/tMatrix matrix def
/MakeOval {newpath tMatrix currentmatrix pop translate scale
0 0 1 0 360 arc tMatrix setmatrix} bdef
/FO {MakeOval stroke} bdef
/PO {MakeOval fill} bdef
/PD {currentlinewidth 2 div 0 360 arc fill
   PDlw -1 eq not {PDlw w /PDlw -1 def} if} def
/FA {newpath tMatrix currentmatrix pop translate scale
  0 0 1 5 -2 roll arc tMatrix setmatrix stroke} bdef
/PA {newpath tMatrix currentmatrix pop	translate 0 0 moveto scale
  0 0 1 5 -2 roll arc closepath tMatrix setmatrix fill} bdef
/FAn {newpath tMatrix currentmatrix pop translate scale
  0 0 1 5 -2 roll arcn tMatrix setmatrix stroke} bdef
/PAn {newpath tMatrix currentmatrix pop translate 0 0 moveto scale
  0 0 1 5 -2 roll arcn closepath tMatrix setmatrix fill} bdef
/vradius 0 def /hradius 0 def /lry 0 def
/lrx 0 def /uly 0 def /ulx 0 def /rad 0 def
/MRR {/vradius xdef /hradius xdef /lry xdef /lrx xdef /uly xdef
  /ulx xdef newpath tMatrix currentmatrix pop ulx hradius add uly
  vradius add translate hradius vradius scale 0 0 1 180 270 arc 
  tMatrix setmatrix lrx hradius sub uly vradius add translate
  hradius vradius scale 0 0 1 270 360 arc tMatrix setmatrix
  lrx hradius sub lry vradius sub translate hradius vradius scale
  0 0 1 0 90 arc tMatrix setmatrix ulx hradius add lry vradius sub
  translate hradius vradius scale 0 0 1 90 180 arc tMatrix setmatrix
  closepath} bdef
/FRR {MRR stroke } bdef
/PRR {MRR fill } bdef
/MlrRR {/lry xdef /lrx xdef /uly xdef /ulx xdef /rad lry uly sub 2 div def
  newpath tMatrix currentmatrix pop ulx rad add uly rad add translate
  rad rad scale 0 0 1 90 270 arc tMatrix setmatrix lrx rad sub lry rad
  sub translate rad rad scale 0 0 1 270 90 arc tMatrix setmatrix
  closepath} bdef
/FlrRR {MlrRR stroke } bdef
/PlrRR {MlrRR fill } bdef
/MtbRR {/lry xdef /lrx xdef /uly xdef /ulx xdef /rad lrx ulx sub 2 div def
  newpath tMatrix currentmatrix pop ulx rad add uly rad add translate
  rad rad scale 0 0 1 180 360 arc tMatrix setmatrix lrx rad sub lry rad
  sub translate rad rad scale 0 0 1 0 180 arc tMatrix setmatrix
  closepath} bdef
/FtbRR {MtbRR stroke } bdef
/PtbRR {MtbRR fill } bdef
/stri 6 array def /dtri 6 array def
/smat 6 array def /dmat 6 array def
/tmat1 6 array def /tmat2 6 array def /dif 3 array def
/asub {/ind2 exch def /ind1 exch def dup dup
  ind1 get exch ind2 get sub exch } bdef
/tri_to_matrix {
  2 0 asub 3 1 asub 4 0 asub 5 1 asub
  dup 0 get exch 1 get 7 -1 roll astore } bdef
/compute_transform {
  dmat dtri tri_to_matrix tmat1 invertmatrix 
  smat stri tri_to_matrix tmat2 concatmatrix } bdef
/ds {stri astore pop} bdef
/dt {dtri astore pop} bdef
/db {2 copy /cols xdef /rows xdef mul dup 3 mul string
  currentfile 
  3 index 0 eq {/ASCIIHexDecode filter}
  {/ASCII85Decode filter 3 index 2 eq {/RunLengthDecode filter} if }
  ifelse exch readstring pop
  dup 0 3 index getinterval /rbmap xdef
  dup 2 index dup getinterval /gbmap xdef
  1 index dup 2 mul exch getinterval /bbmap xdef pop pop}bdef
/it {gs np dtri aload pop moveto lineto lineto cp c
  cols rows 8 compute_transform 
  rbmap gbmap bbmap true 3 colorimage gr}bdef
/il {newpath moveto lineto stroke}bdef
currentdict end def
%%EndProlog

%%BeginSetup
MathWorks begin

0 cap

end
%%EndSetup

%%Page: 1 1
%%BeginPageSetup
%%PageBoundingBox:  -259    59   919   786
MathWorks begin
bpage
%%EndPageSetup

%%BeginObject: obj1
bplot

/dpi2point 12 def
portraitMode -5064 9384 csm

 1947   -48 14153  8719 rc
94 dict begin %Colortable dictionary
/c0 { 0.000000 0.000000 0.000000 sr} bdef
/c1 { 1.000000 1.000000 1.000000 sr} bdef
/c2 { 0.900000 0.000000 0.000000 sr} bdef
/c3 { 0.000000 0.820000 0.000000 sr} bdef
/c4 { 0.000000 0.000000 0.800000 sr} bdef
/c5 { 0.910000 0.820000 0.320000 sr} bdef
/c6 { 1.000000 0.260000 0.820000 sr} bdef
/c7 { 0.000000 0.820000 0.820000 sr} bdef
c0
1 j
1 sg
   0    0 17295 8672 rf
6 w
0 6626 13403 0 0 -6626 2248 7673 4 MP
PP
-13403 0 0 6626 13403 0 0 -6626 2248 7673 5 MP stroke
4 w
DO
0 sg
2248 7673 mt 2248 1047 L
2248 1047 mt 2248 1047 L
3737 7673 mt 3737 1047 L
3737 1047 mt 3737 1047 L
5226 7673 mt 5226 1047 L
5226 1047 mt 5226 1047 L
6715 7673 mt 6715 1047 L
6715 1047 mt 6715 1047 L
8204 7673 mt 8204 1047 L
8204 1047 mt 8204 1047 L
9694 7673 mt 9694 1047 L
9694 1047 mt 9694 1047 L
11183 7673 mt 11183 1047 L
11183 1047 mt 11183 1047 L
12672 7673 mt 12672 1047 L
12672 1047 mt 12672 1047 L
14161 7673 mt 14161 1047 L
14161 1047 mt 14161 1047 L
15651 7673 mt 15651 1047 L
15651 1047 mt 15651 1047 L
2248 7673 mt 15651 7673 L
15651 7673 mt 15651 7673 L
2248 6016 mt 15651 6016 L
15651 6016 mt 15651 6016 L
2248 4360 mt 15651 4360 L
15651 4360 mt 15651 4360 L
2248 2704 mt 15651 2704 L
15651 2704 mt 15651 2704 L
2248 1047 mt 15651 1047 L
15651 1047 mt 15651 1047 L
SO
6 w
2248 1047 mt 15651 1047 L
2248 7673 mt 15651 7673 L
15651 7673 mt 15651 1047 L
2248 7673 mt 2248 1047 L
2248 7673 mt 15651 7673 L
2248 7673 mt 2248 1047 L
2248 7673 mt 2248 7538 L
2248 1047 mt 2248 1182 L
%%IncludeResource: font Helvetica
/Helvetica /WindowsLatin1Encoding 480 FMSR

1982 8153 mt 
(10) s
3737 7673 mt 3737 7538 L
3737 1047 mt 3737 1182 L
3471 8153 mt 
(20) s
5226 7673 mt 5226 7538 L
5226 1047 mt 5226 1182 L
4960 8153 mt 
(30) s
6715 7673 mt 6715 7538 L
6715 1047 mt 6715 1182 L
6449 8153 mt 
(40) s
8204 7673 mt 8204 7538 L
8204 1047 mt 8204 1182 L
7938 8153 mt 
(50) s
9694 7673 mt 9694 7538 L
9694 1047 mt 9694 1182 L
9428 8153 mt 
(60) s
11183 7673 mt 11183 7538 L
11183 1047 mt 11183 1182 L
10917 8153 mt 
(70) s
12672 7673 mt 12672 7538 L
12672 1047 mt 12672 1182 L
12406 8153 mt 
(80) s
14161 7673 mt 14161 7538 L
14161 1047 mt 14161 1182 L
13895 8153 mt 
(90) s
15651 7673 mt 15651 7538 L
15651 1047 mt 15651 1182 L
15251 8153 mt 
(100) s
2248 7673 mt 2382 7673 L
15651 7673 mt 15516 7673 L
1947 7851 mt 
(0) s
2248 6016 mt 2382 6016 L
15651 6016 mt 15516 6016 L
1947 6194 mt 
(1) s
2248 4360 mt 2382 4360 L
15651 4360 mt 15516 4360 L
1947 4538 mt 
(2) s
2248 2704 mt 2382 2704 L
15651 2704 mt 15516 2704 L
1947 2882 mt 
(3) s
2248 1047 mt 2382 1047 L
15651 1047 mt 15516 1047 L
1947 1225 mt 
(4) s
2248  993 mt 
(x 10) s
%%IncludeResource: font Helvetica
/Helvetica /WindowsLatin1Encoding 320 FMSR

3155  696 mt 
(4) s
2248 1047 mt 15651 1047 L
2248 7673 mt 15651 7673 L
15651 7673 mt 15651 1047 L
2248 7673 mt 2248 1047 L
gs 2248 1048 13404 6626 rc
36 w
/c8 { 0.000000 0.000000 1.000000 sr} bdef
c8
1490 -45 1489 62 1489 -40 1489 -26 1490 104 1489 -58 1489 7 1489 76 
1489 -89 2248 6730 10 MP stroke
gr

36 w
c8
gs 2030 6423 13840 566 rc
  90   90 2248 6730 FO
  90   90 3737 6641 FO
  90   90 5226 6717 FO
  90   90 6715 6724 FO
  90   90 8204 6666 FO
  90   90 9694 6770 FO
  90   90 11183 6744 FO
  90   90 12672 6704 FO
  90   90 14161 6766 FO
  90   90 15651 6721 FO
gr

gs 2248 1048 13404 6626 rc
DO
/c9 { 1.000000 0.000000 0.000000 sr} bdef
c9
1490 526 1489 -344 1489 432 1489 -114 1490 -27 1489 37 1489 -211 1489 -196 
1489 122 2248 2801 10 MP stroke
gr

c9
DO
gs 2030 2194 13840 1051 rc
SO
0 j
104 179 -208 0 104 -179 2248 2920 4 MP
DP
104 179 -208 0 104 -179 3737 3042 4 MP
DP
104 179 -208 0 104 -179 5226 2846 4 MP
DP
104 179 -208 0 104 -179 6715 2635 4 MP
DP
104 179 -208 0 104 -179 8204 2672 4 MP
DP
104 179 -208 0 104 -179 9694 2645 4 MP
DP
104 179 -208 0 104 -179 11183 2531 4 MP
DP
104 179 -208 0 104 -179 12672 2963 4 MP
DP
104 179 -208 0 104 -179 14161 2619 4 MP
DP
104 179 -208 0 104 -179 15651 3145 4 MP
DP
DO
gr

gs 2248 1048 13404 6626 rc
DD
/c10 { 0.000000 1.000000 0.000000 sr} bdef
c10
1490 -3 1489 3 1489 -5 1489 6 1490 2 1489 -6 1489 6 1489 -3 
1489 0 2248 7620 10 MP stroke
gr

c10
DD
gs 2030 7399 13840 445 rc
SO
2185 7557 mt 2311 7683 L
2311 7557 mt 2185 7683 L
3674 7557 mt 3800 7683 L
3800 7557 mt 3674 7683 L
5163 7554 mt 5289 7680 L
5289 7554 mt 5163 7680 L
6652 7560 mt 6778 7686 L
6778 7560 mt 6652 7686 L
8141 7554 mt 8267 7680 L
8267 7554 mt 8141 7680 L
9631 7556 mt 9757 7682 L
9757 7556 mt 9631 7682 L
11120 7562 mt 11246 7688 L
11246 7562 mt 11120 7688 L
12609 7557 mt 12735 7683 L
12735 7557 mt 12609 7683 L
14098 7560 mt 14224 7686 L
14224 7560 mt 14098 7686 L
15588 7557 mt 15714 7683 L
15714 7557 mt 15588 7683 L
DD
gr

gs 2248 1048 13404 6626 rc
DA
/c11 { 0.000000 0.000000 0.172414 sr} bdef
c11
1490 -11 1489 6 1489 2 1489 -5 1490 10 1489 -6 1489 15 1489 -19 
1489 13 2248 7463 10 MP stroke
gr

c11
DA
gs 2030 7239 13840 459 rc
SO
2158 7463 mt 2338 7463 L
2248 7373 mt 2248 7553 L
3647 7476 mt 3827 7476 L
3737 7386 mt 3737 7566 L
5136 7457 mt 5316 7457 L
5226 7367 mt 5226 7547 L
6625 7472 mt 6805 7472 L
6715 7382 mt 6715 7562 L
8114 7466 mt 8294 7466 L
8204 7376 mt 8204 7556 L
9604 7476 mt 9784 7476 L
9694 7386 mt 9694 7566 L
11093 7471 mt 11273 7471 L
11183 7381 mt 11183 7561 L
12582 7473 mt 12762 7473 L
12672 7383 mt 12672 7563 L
14071 7479 mt 14251 7479 L
14161 7389 mt 14161 7569 L
15561 7468 mt 15741 7468 L
15651 7378 mt 15651 7558 L
2185 7400 mt 2311 7526 L
2311 7400 mt 2185 7526 L
3674 7413 mt 3800 7539 L
3800 7413 mt 3674 7539 L
5163 7394 mt 5289 7520 L
5289 7394 mt 5163 7520 L
6652 7409 mt 6778 7535 L
6778 7409 mt 6652 7535 L
8141 7403 mt 8267 7529 L
8267 7403 mt 8141 7529 L
9631 7413 mt 9757 7539 L
9757 7413 mt 9631 7539 L
11120 7408 mt 11246 7534 L
11246 7408 mt 11120 7534 L
12609 7410 mt 12735 7536 L
12735 7410 mt 12609 7536 L
14098 7416 mt 14224 7542 L
14224 7416 mt 14098 7542 L
15588 7405 mt 15714 7531 L
15714 7405 mt 15588 7531 L
DA
gr

gs 2248 1048 13404 6626 rc
SO
/c12 { 1.000000 0.103448 0.724138 sr} bdef
c12
1490 1 1489 3 1489 -1 1489 -2 1490 0 1489 7 1489 -7 1489 2 
1489 0 2248 7653 10 MP stroke
gr

c12
SO
gs 2030 7430 13840 445 rc
0 j
0 -142 -142 0 0 142 142 0 2177 7582 5 MP
DP
0 -142 -142 0 0 142 142 0 3666 7582 5 MP
DP
0 -142 -142 0 0 142 142 0 5155 7584 5 MP
DP
0 -142 -142 0 0 142 142 0 6644 7577 5 MP
DP
0 -142 -142 0 0 142 142 0 8133 7584 5 MP
DP
0 -142 -142 0 0 142 142 0 9623 7584 5 MP
DP
0 -142 -142 0 0 142 142 0 11112 7582 5 MP
DP
0 -142 -142 0 0 142 142 0 12601 7581 5 MP
DP
0 -142 -142 0 0 142 142 0 14090 7584 5 MP
DP
0 -142 -142 0 0 142 142 0 15580 7585 5 MP
DP
gr

gs 2248 1048 13404 6626 rc
DO
/c13 { 0.000000 0.344828 0.000000 sr} bdef
c13
1490 -27 1489 23 1489 28 1489 -29 1490 61 1489 -12 1489 -50 1489 -27 
1489 35 2248 7016 10 MP stroke
gr

c13
DO
gs 2030 6744 13840 526 rc
SO
0 j
90 119 -90 119 -90 -119 90 -119 2248 7135 5 MP
DP
90 119 -90 119 -90 -119 90 -119 3737 7170 5 MP
DP
90 119 -90 119 -90 -119 90 -119 5226 7143 5 MP
DP
90 119 -90 119 -90 -119 90 -119 6715 7093 5 MP
DP
90 119 -90 119 -90 -119 90 -119 8204 7081 5 MP
DP
90 119 -90 119 -90 -119 90 -119 9694 7142 5 MP
DP
90 119 -90 119 -90 -119 90 -119 11183 7113 5 MP
DP
90 119 -90 119 -90 -119 90 -119 12672 7141 5 MP
DP
90 119 -90 119 -90 -119 90 -119 14161 7164 5 MP
DP
90 119 -90 119 -90 -119 90 -119 15651 7137 5 MP
DP
DO
gr

gs 2248 1048 13404 6626 rc
DD
1490 326 1489 -239 1489 -159 1489 578 1490 -505 1489 -115 1489 538 1489 -221 
1489 187 2248 4142 10 MP stroke
gr

DD
gs 2030 3808 13840 1057 rc
SO
60 W
2248 4142 PD
60 W
3737 4329 PD
60 W
5226 4108 PD
60 W
6715 4646 PD
60 W
8204 4531 PD
60 W
9694 4026 PD
60 W
11183 4604 PD
60 W
12672 4445 PD
60 W
14161 4206 PD
60 W
15651 4532 PD
DD
gr

gs 2248 1048 13404 6626 rc
DA
/c14 { 0.517241 0.517241 1.000000 sr} bdef
c14
1490 -51 1489 92 1489 -4 1489 -43 1490 -31 1489 14 1489 -44 1489 97 
1489 -15 2248 7060 10 MP stroke
gr

c14
DA
gs 2030 6816 13840 545 rc
SO
0 j
-104 179 -104 -179 208 0 2144 7120 4 MP
DP
-104 179 -104 -179 208 0 3633 7105 4 MP
DP
-104 179 -104 -179 208 0 5122 7202 4 MP
DP
-104 179 -104 -179 208 0 6611 7158 4 MP
DP
-104 179 -104 -179 208 0 8100 7172 4 MP
DP
-104 179 -104 -179 208 0 9590 7141 4 MP
DP
-104 179 -104 -179 208 0 11079 7098 4 MP
DP
-104 179 -104 -179 208 0 12568 7094 4 MP
DP
-104 179 -104 -179 208 0 14057 7186 4 MP
DP
-104 179 -104 -179 208 0 15547 7135 4 MP
DP
DA
gr

gs 2248 1048 13404 6626 rc
SO
/c15 { 0.620690 0.310345 0.275862 sr} bdef
c15
1490 235 1489 -489 1489 170 1489 -65 1490 138 1489 288 1489 -175 1489 -113 
1489 141 2248 4756 10 MP stroke
gr

c15
SO
gs 2030 4391 13840 968 rc
0 j
-179 104 0 -208 179 104 2129 4756 4 MP
DP
-179 104 0 -208 179 104 3618 4897 4 MP
DP
-179 104 0 -208 179 104 5107 4784 4 MP
DP
-179 104 0 -208 179 104 6596 4609 4 MP
DP
-179 104 0 -208 179 104 8085 4897 4 MP
DP
-179 104 0 -208 179 104 9575 5035 4 MP
DP
-179 104 0 -208 179 104 11064 4970 4 MP
DP
-179 104 0 -208 179 104 12553 5140 4 MP
DP
-179 104 0 -208 179 104 14042 4651 4 MP
DP
-179 104 0 -208 179 104 15532 4886 4 MP
DP
gr

gs 2248 1048 13404 6626 rc
DO
/c16 { 0.000000 1.000000 0.758621 sr} bdef
c16
1490 43 1489 -67 1489 29 1489 24 1490 2 1489 -14 1489 -16 1489 0 
1489 -5 2248 7180 10 MP stroke
gr

c16
DO
gs 2030 6915 13840 504 rc
SO
0 j
0 208 -179 -104 179 -104 2188 7284 4 MP
DP
0 208 -179 -104 179 -104 3677 7279 4 MP
DP
0 208 -179 -104 179 -104 5166 7279 4 MP
DP
0 208 -179 -104 179 -104 6655 7263 4 MP
DP
0 208 -179 -104 179 -104 8144 7249 4 MP
DP
0 208 -179 -104 179 -104 9634 7251 4 MP
DP
0 208 -179 -104 179 -104 11123 7275 4 MP
DP
0 208 -179 -104 179 -104 12612 7304 4 MP
DP
0 208 -179 -104 179 -104 14101 7237 4 MP
DP
0 208 -179 -104 179 -104 15591 7280 4 MP
DP
DO
gr

gs 2248 1048 13404 6626 rc
SO
/c17 { 0.000000 0.517241 0.586207 sr} bdef
c17
1490 294 1489 -247 1489 30 1489 90 1490 216 1489 -170 1489 86 1489 -330 
1489 55 2248 5468 10 MP stroke
gr

c17
SO
gs 2030 4891 13840 851 rc
0 j
-51 -39 18 -61 -53 36 -52 -36 18 61 -51 39 64 0 21 62 
22 -62 64 0 2162 5440 11 MP
DP
-51 -39 18 -61 -53 36 -52 -36 18 61 -51 39 64 0 21 62 
22 -62 64 0 3651 5495 11 MP
DP
-51 -39 18 -61 -53 36 -52 -36 18 61 -51 39 64 0 21 62 
22 -62 64 0 5140 5165 11 MP
DP
-51 -39 18 -61 -53 36 -52 -36 18 61 -51 39 64 0 21 62 
22 -62 64 0 6629 5251 11 MP
DP
-51 -39 18 -61 -53 36 -52 -36 18 61 -51 39 64 0 21 62 
22 -62 64 0 8118 5081 11 MP
DP
-51 -39 18 -61 -53 36 -52 -36 18 61 -51 39 64 0 21 62 
22 -62 64 0 9608 5297 11 MP
DP
-51 -39 18 -61 -53 36 -52 -36 18 61 -51 39 64 0 21 62 
22 -62 64 0 11097 5387 11 MP
DP
-51 -39 18 -61 -53 36 -52 -36 18 61 -51 39 64 0 21 62 
22 -62 64 0 12586 5417 11 MP
DP
-51 -39 18 -61 -53 36 -52 -36 18 61 -51 39 64 0 21 62 
22 -62 64 0 14075 5170 11 MP
DP
-51 -39 18 -61 -53 36 -52 -36 18 61 -51 39 64 0 21 62 
22 -62 64 0 15565 5464 11 MP
DP
gr

gs 2248 1048 13404 6626 rc
DO
/c18 { 0.000000 0.000000 0.482759 sr} bdef
c18
1490 176 1489 -176 1489 179 1489 -32 1490 -10 1489 -72 1489 136 1489 295 
1489 -373 2248 5198 10 MP stroke
gr

c18
DO
gs 2030 4607 13840 933 rc
SO
0 j
-32 -45 32 -45 -52 0 -25 -45 -25 45 -52 0 32 45 -32 45 
52 0 25 45 25 -45 52 0 2171 5153 13 MP
DP
-32 -45 32 -45 -52 0 -25 -45 -25 45 -52 0 32 45 -32 45 
52 0 25 45 25 -45 52 0 3660 4780 13 MP
DP
-32 -45 32 -45 -52 0 -25 -45 -25 45 -52 0 32 45 -32 45 
52 0 25 45 25 -45 52 0 5149 5075 13 MP
DP
-32 -45 32 -45 -52 0 -25 -45 -25 45 -52 0 32 45 -32 45 
52 0 25 45 25 -45 52 0 6638 5211 13 MP
DP
-32 -45 32 -45 -52 0 -25 -45 -25 45 -52 0 32 45 -32 45 
52 0 25 45 25 -45 52 0 8127 5139 13 MP
DP
-32 -45 32 -45 -52 0 -25 -45 -25 45 -52 0 32 45 -32 45 
52 0 25 45 25 -45 52 0 9617 5129 13 MP
DP
-32 -45 32 -45 -52 0 -25 -45 -25 45 -52 0 32 45 -32 45 
52 0 25 45 25 -45 52 0 11106 5097 13 MP
DP
-32 -45 32 -45 -52 0 -25 -45 -25 45 -52 0 32 45 -32 45 
52 0 25 45 25 -45 52 0 12595 5276 13 MP
DP
-32 -45 32 -45 -52 0 -25 -45 -25 45 -52 0 32 45 -32 45 
52 0 25 45 25 -45 52 0 14084 5100 13 MP
DP
-32 -45 32 -45 -52 0 -25 -45 -25 45 -52 0 32 45 -32 45 
52 0 25 45 25 -45 52 0 15574 5276 13 MP
DP
DO
gr

gs 2248 1048 13404 6626 rc
gr

0 sg
%%IncludeResource: font Helvetica
/Helvetica /WindowsLatin1Encoding 480 FMSR

3762  446 mt 
(Evaluations to reach feasible region \(D) s
%%IncludeResource: font Helvetica
/Helvetica /WindowsLatin1Encoding 384 FMSR

11969  686 mt 
(e) s
%%IncludeResource: font Helvetica
/Helvetica /WindowsLatin1Encoding 480 FMSR

12182  446 mt 
( feasible\)) s
7267 8561 mt 
(Columns added) s
SO
6 w

end %%Color Dict

eplot
%%EndObject

epage
end

showpage

%%Trailer
%%EOF
