%!PS-Adobe-3.0 EPSF-3.0
%%Creator: MATLAB, The MathWorks, Inc. Version 8.2.0.701 (R2013b). Operating System: Microsoft Windows 8.
%%Title: .\add5.eps
%%CreationDate: 05/17/2016  19:03:55
%%DocumentNeededFonts: Helvetica
%%DocumentProcessColors: Cyan Magenta Yellow Black
%%LanguageLevel: 2
%%Pages: 1
%%BoundingBox:  -282    59   919   786
%%EndComments

%%BeginProlog
% MathWorks dictionary
/MathWorks 160 dict begin
% definition operators
/bdef {bind def} bind def
/ldef {load def} bind def
/xdef {exch def} bdef
/xstore {exch store} bdef
% operator abbreviations
/c  /clip ldef
/cc /concat ldef
/cp /closepath ldef
/gr /grestore ldef
/gs /gsave ldef
/mt /moveto ldef
/np /newpath ldef
/cm /currentmatrix ldef
/sm /setmatrix ldef
/rm /rmoveto ldef
/rl /rlineto ldef
/s {show newpath} bdef
/sc {setcmykcolor} bdef
/sr /setrgbcolor ldef
/sg /setgray ldef
/w /setlinewidth ldef
/j /setlinejoin ldef
/cap /setlinecap ldef
/rc {rectclip} bdef
/rf {rectfill} bdef
% page state control
/pgsv () def
/bpage {/pgsv save def} bdef
/epage {pgsv restore} bdef
/bplot /gsave ldef
/eplot {stroke grestore} bdef
% orientation switch
/portraitMode 0 def /landscapeMode 1 def /rotateMode 2 def
% coordinate system mappings
/dpi2point 0 def
% font control
/FontSize 0 def
/FMS {/FontSize xstore findfont [FontSize 0 0 FontSize neg 0 0]
  makefont setfont} bdef
/ISOLatin1Encoding where {pop /WindowsLatin1Encoding 256 array bdef
ISOLatin1Encoding WindowsLatin1Encoding copy pop
/.notdef/.notdef/quotesinglbase/florin/quotedblbase/ellipsis/dagger
/daggerdbl/circumflex/perthousand/Scaron/guilsinglleft/OE/.notdef/.notdef
/.notdef/.notdef/quoteleft/quoteright/quotedblleft/quotedblright/bullet
/endash/emdash/tilde/trademark/scaron/guilsinglright/oe/.notdef/.notdef
/Ydieresis WindowsLatin1Encoding 128 32 getinterval astore pop}
{/WindowsLatin1Encoding StandardEncoding bdef} ifelse
/reencode {exch dup where {pop load} {pop StandardEncoding} ifelse
  exch dup 3 1 roll findfont dup length dict begin
  { 1 index /FID ne {def}{pop pop} ifelse } forall
  /Encoding exch def currentdict end definefont pop} bdef
/isroman {findfont /CharStrings get /Agrave known} bdef
/FMSR {3 1 roll 1 index dup isroman {reencode} {pop pop} ifelse
  exch FMS} bdef
/csm {1 dpi2point div -1 dpi2point div scale neg translate
 dup landscapeMode eq {pop -90 rotate}
  {rotateMode eq {90 rotate} if} ifelse} bdef
% line types: solid, dotted, dashed, dotdash
/SO { [] 0 setdash } bdef
/DO { [.5 dpi2point mul 4 dpi2point mul] 0 setdash } bdef
/DA { [6 dpi2point mul] 0 setdash } bdef
/DD { [.5 dpi2point mul 4 dpi2point mul 6 dpi2point mul 4
  dpi2point mul] 0 setdash } bdef
% macros for lines and objects
/L {lineto stroke} bdef
/MP {3 1 roll moveto 1 sub {rlineto} repeat} bdef
/AP {{rlineto} repeat} bdef
/PDlw -1 def
/W {/PDlw currentlinewidth def setlinewidth} def
/PP {closepath eofill} bdef
/DP {closepath stroke} bdef
/MR {4 -2 roll moveto dup  0 exch rlineto exch 0 rlineto
  neg 0 exch rlineto closepath} bdef
/FR {MR stroke} bdef
/PR {MR fill} bdef
/L1i {{currentfile picstr readhexstring pop} image} bdef
/tMatrix matrix def
/MakeOval {newpath tMatrix currentmatrix pop translate scale
0 0 1 0 360 arc tMatrix setmatrix} bdef
/FO {MakeOval stroke} bdef
/PO {MakeOval fill} bdef
/PD {currentlinewidth 2 div 0 360 arc fill
   PDlw -1 eq not {PDlw w /PDlw -1 def} if} def
/FA {newpath tMatrix currentmatrix pop translate scale
  0 0 1 5 -2 roll arc tMatrix setmatrix stroke} bdef
/PA {newpath tMatrix currentmatrix pop	translate 0 0 moveto scale
  0 0 1 5 -2 roll arc closepath tMatrix setmatrix fill} bdef
/FAn {newpath tMatrix currentmatrix pop translate scale
  0 0 1 5 -2 roll arcn tMatrix setmatrix stroke} bdef
/PAn {newpath tMatrix currentmatrix pop translate 0 0 moveto scale
  0 0 1 5 -2 roll arcn closepath tMatrix setmatrix fill} bdef
/vradius 0 def /hradius 0 def /lry 0 def
/lrx 0 def /uly 0 def /ulx 0 def /rad 0 def
/MRR {/vradius xdef /hradius xdef /lry xdef /lrx xdef /uly xdef
  /ulx xdef newpath tMatrix currentmatrix pop ulx hradius add uly
  vradius add translate hradius vradius scale 0 0 1 180 270 arc 
  tMatrix setmatrix lrx hradius sub uly vradius add translate
  hradius vradius scale 0 0 1 270 360 arc tMatrix setmatrix
  lrx hradius sub lry vradius sub translate hradius vradius scale
  0 0 1 0 90 arc tMatrix setmatrix ulx hradius add lry vradius sub
  translate hradius vradius scale 0 0 1 90 180 arc tMatrix setmatrix
  closepath} bdef
/FRR {MRR stroke } bdef
/PRR {MRR fill } bdef
/MlrRR {/lry xdef /lrx xdef /uly xdef /ulx xdef /rad lry uly sub 2 div def
  newpath tMatrix currentmatrix pop ulx rad add uly rad add translate
  rad rad scale 0 0 1 90 270 arc tMatrix setmatrix lrx rad sub lry rad
  sub translate rad rad scale 0 0 1 270 90 arc tMatrix setmatrix
  closepath} bdef
/FlrRR {MlrRR stroke } bdef
/PlrRR {MlrRR fill } bdef
/MtbRR {/lry xdef /lrx xdef /uly xdef /ulx xdef /rad lrx ulx sub 2 div def
  newpath tMatrix currentmatrix pop ulx rad add uly rad add translate
  rad rad scale 0 0 1 180 360 arc tMatrix setmatrix lrx rad sub lry rad
  sub translate rad rad scale 0 0 1 0 180 arc tMatrix setmatrix
  closepath} bdef
/FtbRR {MtbRR stroke } bdef
/PtbRR {MtbRR fill } bdef
/stri 6 array def /dtri 6 array def
/smat 6 array def /dmat 6 array def
/tmat1 6 array def /tmat2 6 array def /dif 3 array def
/asub {/ind2 exch def /ind1 exch def dup dup
  ind1 get exch ind2 get sub exch } bdef
/tri_to_matrix {
  2 0 asub 3 1 asub 4 0 asub 5 1 asub
  dup 0 get exch 1 get 7 -1 roll astore } bdef
/compute_transform {
  dmat dtri tri_to_matrix tmat1 invertmatrix 
  smat stri tri_to_matrix tmat2 concatmatrix } bdef
/ds {stri astore pop} bdef
/dt {dtri astore pop} bdef
/db {2 copy /cols xdef /rows xdef mul dup 3 mul string
  currentfile 
  3 index 0 eq {/ASCIIHexDecode filter}
  {/ASCII85Decode filter 3 index 2 eq {/RunLengthDecode filter} if }
  ifelse exch readstring pop
  dup 0 3 index getinterval /rbmap xdef
  dup 2 index dup getinterval /gbmap xdef
  1 index dup 2 mul exch getinterval /bbmap xdef pop pop}bdef
/it {gs np dtri aload pop moveto lineto lineto cp c
  cols rows 8 compute_transform 
  rbmap gbmap bbmap true 3 colorimage gr}bdef
/il {newpath moveto lineto stroke}bdef
currentdict end def
%%EndProlog

%%BeginSetup
MathWorks begin

0 cap

end
%%EndSetup

%%Page: 1 1
%%BeginPageSetup
%%PageBoundingBox:  -282    59   919   786
MathWorks begin
bpage
%%EndPageSetup

%%BeginObject: obj1
bplot

/dpi2point 12 def
portraitMode -5064 9384 csm

 1680   -48 14420  8719 rc
94 dict begin %Colortable dictionary
/c0 { 0.000000 0.000000 0.000000 sr} bdef
/c1 { 1.000000 1.000000 1.000000 sr} bdef
/c2 { 0.900000 0.000000 0.000000 sr} bdef
/c3 { 0.000000 0.820000 0.000000 sr} bdef
/c4 { 0.000000 0.000000 0.800000 sr} bdef
/c5 { 0.910000 0.820000 0.320000 sr} bdef
/c6 { 1.000000 0.260000 0.820000 sr} bdef
/c7 { 0.000000 0.820000 0.820000 sr} bdef
c0
1 j
1 sg
   0    0 17295 8672 rf
6 w
0 6625 13403 0 0 -6625 2248 7673 4 MP
PP
-13403 0 0 6625 13403 0 0 -6625 2248 7673 5 MP stroke
4 w
DO
0 sg
2248 7673 mt 2248 1048 L
2248 1048 mt 2248 1048 L
3737 7673 mt 3737 1048 L
3737 1048 mt 3737 1048 L
5226 7673 mt 5226 1048 L
5226 1048 mt 5226 1048 L
6715 7673 mt 6715 1048 L
6715 1048 mt 6715 1048 L
8204 7673 mt 8204 1048 L
8204 1048 mt 8204 1048 L
9694 7673 mt 9694 1048 L
9694 1048 mt 9694 1048 L
11183 7673 mt 11183 1048 L
11183 1048 mt 11183 1048 L
12672 7673 mt 12672 1048 L
12672 1048 mt 12672 1048 L
14161 7673 mt 14161 1048 L
14161 1048 mt 14161 1048 L
15651 7673 mt 15651 1048 L
15651 1048 mt 15651 1048 L
2248 7673 mt 15651 7673 L
15651 7673 mt 15651 7673 L
2248 6348 mt 15651 6348 L
15651 6348 mt 15651 6348 L
2248 5023 mt 15651 5023 L
15651 5023 mt 15651 5023 L
2248 3698 mt 15651 3698 L
15651 3698 mt 15651 3698 L
2248 2373 mt 15651 2373 L
15651 2373 mt 15651 2373 L
2248 1048 mt 15651 1048 L
15651 1048 mt 15651 1048 L
SO
6 w
2248 1048 mt 15651 1048 L
2248 7673 mt 15651 7673 L
15651 7673 mt 15651 1048 L
2248 7673 mt 2248 1048 L
2248 7673 mt 15651 7673 L
2248 7673 mt 2248 1048 L
2248 7673 mt 2248 7538 L
2248 1048 mt 2248 1182 L
%%IncludeResource: font Helvetica
/Helvetica /WindowsLatin1Encoding 480 FMSR

1982 8153 mt 
(10) s
3737 7673 mt 3737 7538 L
3737 1048 mt 3737 1182 L
3471 8153 mt 
(20) s
5226 7673 mt 5226 7538 L
5226 1048 mt 5226 1182 L
4960 8153 mt 
(30) s
6715 7673 mt 6715 7538 L
6715 1048 mt 6715 1182 L
6449 8153 mt 
(40) s
8204 7673 mt 8204 7538 L
8204 1048 mt 8204 1182 L
7938 8153 mt 
(50) s
9694 7673 mt 9694 7538 L
9694 1048 mt 9694 1182 L
9428 8153 mt 
(60) s
11183 7673 mt 11183 7538 L
11183 1048 mt 11183 1182 L
10917 8153 mt 
(70) s
12672 7673 mt 12672 7538 L
12672 1048 mt 12672 1182 L
12406 8153 mt 
(80) s
14161 7673 mt 14161 7538 L
14161 1048 mt 14161 1182 L
13895 8153 mt 
(90) s
15651 7673 mt 15651 7538 L
15651 1048 mt 15651 1182 L
15251 8153 mt 
(100) s
2248 7673 mt 2382 7673 L
15651 7673 mt 15516 7673 L
1947 7851 mt 
(0) s
2248 6348 mt 2382 6348 L
15651 6348 mt 15516 6348 L
1947 6526 mt 
(2) s
2248 5023 mt 2382 5023 L
15651 5023 mt 15516 5023 L
1947 5201 mt 
(4) s
2248 3698 mt 2382 3698 L
15651 3698 mt 15516 3698 L
1947 3876 mt 
(6) s
2248 2373 mt 2382 2373 L
15651 2373 mt 15516 2373 L
1947 2551 mt 
(8) s
2248 1048 mt 2382 1048 L
15651 1048 mt 15516 1048 L
1680 1226 mt 
(10) s
2248 1048 mt 15651 1048 L
2248 7673 mt 15651 7673 L
15651 7673 mt 15651 1048 L
2248 7673 mt 2248 1048 L
gs 2248 1048 13404 6626 rc
36 w
/c8 { 0.000000 0.000000 1.000000 sr} bdef
c8
1490 0 1489 0 1489 -88 1489 66 1490 66 1489 -243 1489 221 1489 -132 
1489 176 2248 4515 10 MP stroke
gr

36 w
c8
gs 2030 4297 13840 702 rc
  90   90 2248 4515 FO
  90   90 3737 4691 FO
  90   90 5226 4559 FO
  90   90 6715 4780 FO
  90   90 8204 4537 FO
  90   90 9694 4603 FO
  90   90 11183 4669 FO
  90   90 12672 4581 FO
  90   90 14161 4581 FO
  90   90 15651 4581 FO
gr

gs 2248 1048 13404 6626 rc
DO
/c9 { 1.000000 0.000000 0.000000 sr} bdef
c9
1490 66 1489 0 1489 -88 1489 154 1490 -22 1489 -22 1489 44 1489 -88 
1489 154 2248 1335 10 MP stroke
gr

c9
DO
gs 2030 1117 13840 657 rc
SO
0 j
104 179 -208 0 104 -179 2248 1454 4 MP
DP
104 179 -208 0 104 -179 3737 1608 4 MP
DP
104 179 -208 0 104 -179 5226 1520 4 MP
DP
104 179 -208 0 104 -179 6715 1564 4 MP
DP
104 179 -208 0 104 -179 8204 1542 4 MP
DP
104 179 -208 0 104 -179 9694 1520 4 MP
DP
104 179 -208 0 104 -179 11183 1674 4 MP
DP
104 179 -208 0 104 -179 12672 1586 4 MP
DP
104 179 -208 0 104 -179 14161 1586 4 MP
DP
104 179 -208 0 104 -179 15651 1652 4 MP
DP
DO
gr

gs 2248 1048 13404 6626 rc
DD
/c10 { 0.000000 1.000000 0.000000 sr} bdef
c10
1490 -67 1489 0 1489 22 1489 22 1490 -132 1489 44 1489 0 1489 44 
1489 89 2248 7363 10 MP stroke
gr

c10
DD
gs 2030 7145 13840 614 rc
SO
2185 7300 mt 2311 7426 L
2311 7300 mt 2185 7426 L
3674 7389 mt 3800 7515 L
3800 7389 mt 3674 7515 L
5163 7433 mt 5289 7559 L
5289 7433 mt 5163 7559 L
6652 7433 mt 6778 7559 L
6778 7433 mt 6652 7559 L
8141 7477 mt 8267 7603 L
8267 7477 mt 8141 7603 L
9631 7345 mt 9757 7471 L
9757 7345 mt 9631 7471 L
11120 7367 mt 11246 7493 L
11246 7367 mt 11120 7493 L
12609 7389 mt 12735 7515 L
12735 7389 mt 12609 7515 L
14098 7389 mt 14224 7515 L
14224 7389 mt 14098 7515 L
15588 7322 mt 15714 7448 L
15714 7322 mt 15588 7448 L
DD
gr

gs 2248 1048 13404 6626 rc
DA
/c11 { 0.000000 0.000000 0.172414 sr} bdef
c11
1490 22 1489 0 1489 44 1489 -22 1490 0 1489 -22 1489 22 1489 22 
1489 -66 2248 6215 10 MP stroke
gr

c11
DA
gs 2030 5931 13840 503 rc
SO
2158 6215 mt 2338 6215 L
2248 6125 mt 2248 6305 L
3647 6149 mt 3827 6149 L
3737 6059 mt 3737 6239 L
5136 6171 mt 5316 6171 L
5226 6081 mt 5226 6261 L
6625 6193 mt 6805 6193 L
6715 6103 mt 6715 6283 L
8114 6171 mt 8294 6171 L
8204 6081 mt 8204 6261 L
9604 6171 mt 9784 6171 L
9694 6081 mt 9694 6261 L
11093 6149 mt 11273 6149 L
11183 6059 mt 11183 6239 L
12582 6193 mt 12762 6193 L
12672 6103 mt 12672 6283 L
14071 6193 mt 14251 6193 L
14161 6103 mt 14161 6283 L
15561 6215 mt 15741 6215 L
15651 6125 mt 15651 6305 L
2185 6152 mt 2311 6278 L
2311 6152 mt 2185 6278 L
3674 6086 mt 3800 6212 L
3800 6086 mt 3674 6212 L
5163 6108 mt 5289 6234 L
5289 6108 mt 5163 6234 L
6652 6130 mt 6778 6256 L
6778 6130 mt 6652 6256 L
8141 6108 mt 8267 6234 L
8267 6108 mt 8141 6234 L
9631 6108 mt 9757 6234 L
9757 6108 mt 9631 6234 L
11120 6086 mt 11246 6212 L
11246 6086 mt 11120 6212 L
12609 6130 mt 12735 6256 L
12735 6130 mt 12609 6256 L
14098 6130 mt 14224 6256 L
14224 6130 mt 14098 6256 L
15588 6152 mt 15714 6278 L
15714 6152 mt 15588 6278 L
DA
gr

gs 2248 1048 13404 6626 rc
SO
/c12 { 1.000000 0.103448 0.724138 sr} bdef
c12
1490 -22 1489 132 1489 -176 1489 154 1490 -88 1489 22 1489 44 1489 -66 
1489 44 2248 7518 10 MP stroke
gr

c12
SO
gs 2030 7234 13840 613 rc
0 j
0 -142 -142 0 0 142 142 0 2177 7447 5 MP
DP
0 -142 -142 0 0 142 142 0 3666 7491 5 MP
DP
0 -142 -142 0 0 142 142 0 5155 7425 5 MP
DP
0 -142 -142 0 0 142 142 0 6644 7469 5 MP
DP
0 -142 -142 0 0 142 142 0 8133 7491 5 MP
DP
0 -142 -142 0 0 142 142 0 9623 7403 5 MP
DP
0 -142 -142 0 0 142 142 0 11112 7557 5 MP
DP
0 -142 -142 0 0 142 142 0 12601 7381 5 MP
DP
0 -142 -142 0 0 142 142 0 14090 7513 5 MP
DP
0 -142 -142 0 0 142 142 0 15580 7491 5 MP
DP
gr

gs 2248 1048 13404 6626 rc
DO
/c13 { 0.000000 0.344828 0.000000 sr} bdef
c13
1490 -88 1489 44 1489 -66 1489 -111 1490 155 1489 110 1489 -66 1489 0 
1489 0 2248 5155 10 MP stroke
gr

c13
DO
gs 2030 4871 13840 702 rc
SO
0 j
90 119 -90 119 -90 -119 90 -119 2248 5274 5 MP
DP
90 119 -90 119 -90 -119 90 -119 3737 5274 5 MP
DP
90 119 -90 119 -90 -119 90 -119 5226 5274 5 MP
DP
90 119 -90 119 -90 -119 90 -119 6715 5208 5 MP
DP
90 119 -90 119 -90 -119 90 -119 8204 5318 5 MP
DP
90 119 -90 119 -90 -119 90 -119 9694 5473 5 MP
DP
90 119 -90 119 -90 -119 90 -119 11183 5362 5 MP
DP
90 119 -90 119 -90 -119 90 -119 12672 5296 5 MP
DP
90 119 -90 119 -90 -119 90 -119 14161 5340 5 MP
DP
90 119 -90 119 -90 -119 90 -119 15651 5252 5 MP
DP
DO
gr

gs 2248 1048 13404 6626 rc
DD
1490 199 1489 -133 1489 66 1489 -44 1490 111 1489 -243 1489 198 1489 45 
1489 -89 2248 3234 10 MP stroke
gr

DD
gs 2030 2927 13840 680 rc
SO
60 W
2248 3234 PD
60 W
3737 3145 PD
60 W
5226 3190 PD
60 W
6715 3388 PD
60 W
8204 3145 PD
60 W
9694 3256 PD
60 W
11183 3212 PD
60 W
12672 3278 PD
60 W
14161 3145 PD
60 W
15651 3344 PD
DD
gr

gs 2248 1048 13404 6626 rc
DA
/c14 { 0.517241 0.517241 1.000000 sr} bdef
c14
1490 132 1489 0 1489 66 1489 -88 1490 44 1489 -66 1489 110 1489 -22 
1489 -110 2248 5994 10 MP stroke
gr

c14
DA
gs 2030 5644 13840 635 rc
SO
0 j
-104 179 -104 -179 208 0 2144 6054 4 MP
DP
-104 179 -104 -179 208 0 3633 5944 4 MP
DP
-104 179 -104 -179 208 0 5122 5922 4 MP
DP
-104 179 -104 -179 208 0 6611 6032 4 MP
DP
-104 179 -104 -179 208 0 8100 5966 4 MP
DP
-104 179 -104 -179 208 0 9590 6010 4 MP
DP
-104 179 -104 -179 208 0 11079 5922 4 MP
DP
-104 179 -104 -179 208 0 12568 5988 4 MP
DP
-104 179 -104 -179 208 0 14057 5988 4 MP
DP
-104 179 -104 -179 208 0 15547 6120 4 MP
DP
DA
gr

gs 2248 1048 13404 6626 rc
SO
/c15 { 0.620690 0.310345 0.275862 sr} bdef
c15
1490 -287 1489 287 1489 -199 1489 331 1490 -221 1489 -110 1489 243 1489 -44 
1489 154 2248 3455 10 MP stroke
gr

c15
SO
gs 2030 3237 13840 878 rc
0 j
-179 104 0 -208 179 104 2129 3455 4 MP
DP
-179 104 0 -208 179 104 3618 3609 4 MP
DP
-179 104 0 -208 179 104 5107 3565 4 MP
DP
-179 104 0 -208 179 104 6596 3808 4 MP
DP
-179 104 0 -208 179 104 8085 3698 4 MP
DP
-179 104 0 -208 179 104 9575 3477 4 MP
DP
-179 104 0 -208 179 104 11064 3808 4 MP
DP
-179 104 0 -208 179 104 12553 3609 4 MP
DP
-179 104 0 -208 179 104 14042 3896 4 MP
DP
-179 104 0 -208 179 104 15532 3609 4 MP
DP
gr

gs 2248 1048 13404 6626 rc
DO
/c16 { 0.000000 1.000000 0.758621 sr} bdef
c16
1490 -110 1489 66 1489 -22 1489 0 1490 89 1489 -133 1489 221 1489 -177 
1489 44 2248 6657 10 MP stroke
gr

c16
DO
gs 2030 6306 13840 658 rc
SO
0 j
0 208 -179 -104 179 -104 2188 6761 4 MP
DP
0 208 -179 -104 179 -104 3677 6805 4 MP
DP
0 208 -179 -104 179 -104 5166 6628 4 MP
DP
0 208 -179 -104 179 -104 6655 6849 4 MP
DP
0 208 -179 -104 179 -104 8144 6716 4 MP
DP
0 208 -179 -104 179 -104 9634 6805 4 MP
DP
0 208 -179 -104 179 -104 11123 6805 4 MP
DP
0 208 -179 -104 179 -104 12612 6783 4 MP
DP
0 208 -179 -104 179 -104 14101 6849 4 MP
DP
0 208 -179 -104 179 -104 15591 6739 4 MP
DP
DO
gr

gs 2248 1048 13404 6626 rc
SO
/c17 { 0.000000 0.517241 0.586207 sr} bdef
c17
1490 -66 1489 -88 1489 177 1489 -67 1490 111 1489 -199 1489 -44 1489 -44 
1489 309 2248 4934 10 MP stroke
gr

c17
SO
gs 2030 4716 13840 746 rc
0 j
-51 -39 18 -61 -53 36 -52 -36 18 61 -51 39 64 0 21 62 
22 -62 64 0 2162 4906 11 MP
DP
-51 -39 18 -61 -53 36 -52 -36 18 61 -51 39 64 0 21 62 
22 -62 64 0 3651 5215 11 MP
DP
-51 -39 18 -61 -53 36 -52 -36 18 61 -51 39 64 0 21 62 
22 -62 64 0 5140 5171 11 MP
DP
-51 -39 18 -61 -53 36 -52 -36 18 61 -51 39 64 0 21 62 
22 -62 64 0 6629 5127 11 MP
DP
-51 -39 18 -61 -53 36 -52 -36 18 61 -51 39 64 0 21 62 
22 -62 64 0 8118 4928 11 MP
DP
-51 -39 18 -61 -53 36 -52 -36 18 61 -51 39 64 0 21 62 
22 -62 64 0 9608 5039 11 MP
DP
-51 -39 18 -61 -53 36 -52 -36 18 61 -51 39 64 0 21 62 
22 -62 64 0 11097 4972 11 MP
DP
-51 -39 18 -61 -53 36 -52 -36 18 61 -51 39 64 0 21 62 
22 -62 64 0 12586 5149 11 MP
DP
-51 -39 18 -61 -53 36 -52 -36 18 61 -51 39 64 0 21 62 
22 -62 64 0 14075 5061 11 MP
DP
-51 -39 18 -61 -53 36 -52 -36 18 61 -51 39 64 0 21 62 
22 -62 64 0 15565 4995 11 MP
DP
gr

gs 2248 1048 13404 6626 rc
DO
/c18 { 0.000000 0.000000 0.482759 sr} bdef
c18
1490 -110 1489 44 1489 132 1489 -44 1490 155 1489 -67 1489 221 1489 -132 
1489 176 2248 5575 10 MP stroke
gr

c18
DO
gs 2030 5357 13840 922 rc
SO
0 j
-32 -45 32 -45 -52 0 -25 -45 -25 45 -52 0 32 45 -32 45 
52 0 25 45 25 -45 52 0 2171 5530 13 MP
DP
-32 -45 32 -45 -52 0 -25 -45 -25 45 -52 0 32 45 -32 45 
52 0 25 45 25 -45 52 0 3660 5706 13 MP
DP
-32 -45 32 -45 -52 0 -25 -45 -25 45 -52 0 32 45 -32 45 
52 0 25 45 25 -45 52 0 5149 5574 13 MP
DP
-32 -45 32 -45 -52 0 -25 -45 -25 45 -52 0 32 45 -32 45 
52 0 25 45 25 -45 52 0 6638 5795 13 MP
DP
-32 -45 32 -45 -52 0 -25 -45 -25 45 -52 0 32 45 -32 45 
52 0 25 45 25 -45 52 0 8127 5728 13 MP
DP
-32 -45 32 -45 -52 0 -25 -45 -25 45 -52 0 32 45 -32 45 
52 0 25 45 25 -45 52 0 9617 5883 13 MP
DP
-32 -45 32 -45 -52 0 -25 -45 -25 45 -52 0 32 45 -32 45 
52 0 25 45 25 -45 52 0 11106 5839 13 MP
DP
-32 -45 32 -45 -52 0 -25 -45 -25 45 -52 0 32 45 -32 45 
52 0 25 45 25 -45 52 0 12595 5971 13 MP
DP
-32 -45 32 -45 -52 0 -25 -45 -25 45 -52 0 32 45 -32 45 
52 0 25 45 25 -45 52 0 14084 6015 13 MP
DP
-32 -45 32 -45 -52 0 -25 -45 -25 45 -52 0 32 45 -32 45 
52 0 25 45 25 -45 52 0 15574 5905 13 MP
DP
DO
gr

gs 2248 1048 13404 6626 rc
gr

0 sg
6778  446 mt 
(Solution Quality \(D) s
%%IncludeResource: font Helvetica
/Helvetica /WindowsLatin1Encoding 384 FMSR

10779  686 mt 
(s) s
%%IncludeResource: font Helvetica
/Helvetica /WindowsLatin1Encoding 480 FMSR

10971  446 mt 
(\)) s
7267 8561 mt 
(Columns added) s
SO
6 w

end %%Color Dict

eplot
%%EndObject

epage
end

showpage

%%Trailer
%%EOF
