%!PS-Adobe-3.0 EPSF-3.0
%%Creator: MATLAB, The MathWorks, Inc. Version 8.2.0.701 (R2013b). Operating System: Microsoft Windows 8.
%%Title: .\add6.eps
%%CreationDate: 05/17/2016  19:03:55
%%DocumentNeededFonts: Helvetica
%%DocumentProcessColors: Cyan Magenta Yellow Black
%%LanguageLevel: 2
%%Pages: 1
%%BoundingBox:  -315    59   919   786
%%EndComments

%%BeginProlog
% MathWorks dictionary
/MathWorks 160 dict begin
% definition operators
/bdef {bind def} bind def
/ldef {load def} bind def
/xdef {exch def} bdef
/xstore {exch store} bdef
% operator abbreviations
/c  /clip ldef
/cc /concat ldef
/cp /closepath ldef
/gr /grestore ldef
/gs /gsave ldef
/mt /moveto ldef
/np /newpath ldef
/cm /currentmatrix ldef
/sm /setmatrix ldef
/rm /rmoveto ldef
/rl /rlineto ldef
/s {show newpath} bdef
/sc {setcmykcolor} bdef
/sr /setrgbcolor ldef
/sg /setgray ldef
/w /setlinewidth ldef
/j /setlinejoin ldef
/cap /setlinecap ldef
/rc {rectclip} bdef
/rf {rectfill} bdef
% page state control
/pgsv () def
/bpage {/pgsv save def} bdef
/epage {pgsv restore} bdef
/bplot /gsave ldef
/eplot {stroke grestore} bdef
% orientation switch
/portraitMode 0 def /landscapeMode 1 def /rotateMode 2 def
% coordinate system mappings
/dpi2point 0 def
% font control
/FontSize 0 def
/FMS {/FontSize xstore findfont [FontSize 0 0 FontSize neg 0 0]
  makefont setfont} bdef
/ISOLatin1Encoding where {pop /WindowsLatin1Encoding 256 array bdef
ISOLatin1Encoding WindowsLatin1Encoding copy pop
/.notdef/.notdef/quotesinglbase/florin/quotedblbase/ellipsis/dagger
/daggerdbl/circumflex/perthousand/Scaron/guilsinglleft/OE/.notdef/.notdef
/.notdef/.notdef/quoteleft/quoteright/quotedblleft/quotedblright/bullet
/endash/emdash/tilde/trademark/scaron/guilsinglright/oe/.notdef/.notdef
/Ydieresis WindowsLatin1Encoding 128 32 getinterval astore pop}
{/WindowsLatin1Encoding StandardEncoding bdef} ifelse
/reencode {exch dup where {pop load} {pop StandardEncoding} ifelse
  exch dup 3 1 roll findfont dup length dict begin
  { 1 index /FID ne {def}{pop pop} ifelse } forall
  /Encoding exch def currentdict end definefont pop} bdef
/isroman {findfont /CharStrings get /Agrave known} bdef
/FMSR {3 1 roll 1 index dup isroman {reencode} {pop pop} ifelse
  exch FMS} bdef
/csm {1 dpi2point div -1 dpi2point div scale neg translate
 dup landscapeMode eq {pop -90 rotate}
  {rotateMode eq {90 rotate} if} ifelse} bdef
% line types: solid, dotted, dashed, dotdash
/SO { [] 0 setdash } bdef
/DO { [.5 dpi2point mul 4 dpi2point mul] 0 setdash } bdef
/DA { [6 dpi2point mul] 0 setdash } bdef
/DD { [.5 dpi2point mul 4 dpi2point mul 6 dpi2point mul 4
  dpi2point mul] 0 setdash } bdef
% macros for lines and objects
/L {lineto stroke} bdef
/MP {3 1 roll moveto 1 sub {rlineto} repeat} bdef
/AP {{rlineto} repeat} bdef
/PDlw -1 def
/W {/PDlw currentlinewidth def setlinewidth} def
/PP {closepath eofill} bdef
/DP {closepath stroke} bdef
/MR {4 -2 roll moveto dup  0 exch rlineto exch 0 rlineto
  neg 0 exch rlineto closepath} bdef
/FR {MR stroke} bdef
/PR {MR fill} bdef
/L1i {{currentfile picstr readhexstring pop} image} bdef
/tMatrix matrix def
/MakeOval {newpath tMatrix currentmatrix pop translate scale
0 0 1 0 360 arc tMatrix setmatrix} bdef
/FO {MakeOval stroke} bdef
/PO {MakeOval fill} bdef
/PD {currentlinewidth 2 div 0 360 arc fill
   PDlw -1 eq not {PDlw w /PDlw -1 def} if} def
/FA {newpath tMatrix currentmatrix pop translate scale
  0 0 1 5 -2 roll arc tMatrix setmatrix stroke} bdef
/PA {newpath tMatrix currentmatrix pop	translate 0 0 moveto scale
  0 0 1 5 -2 roll arc closepath tMatrix setmatrix fill} bdef
/FAn {newpath tMatrix currentmatrix pop translate scale
  0 0 1 5 -2 roll arcn tMatrix setmatrix stroke} bdef
/PAn {newpath tMatrix currentmatrix pop translate 0 0 moveto scale
  0 0 1 5 -2 roll arcn closepath tMatrix setmatrix fill} bdef
/vradius 0 def /hradius 0 def /lry 0 def
/lrx 0 def /uly 0 def /ulx 0 def /rad 0 def
/MRR {/vradius xdef /hradius xdef /lry xdef /lrx xdef /uly xdef
  /ulx xdef newpath tMatrix currentmatrix pop ulx hradius add uly
  vradius add translate hradius vradius scale 0 0 1 180 270 arc 
  tMatrix setmatrix lrx hradius sub uly vradius add translate
  hradius vradius scale 0 0 1 270 360 arc tMatrix setmatrix
  lrx hradius sub lry vradius sub translate hradius vradius scale
  0 0 1 0 90 arc tMatrix setmatrix ulx hradius add lry vradius sub
  translate hradius vradius scale 0 0 1 90 180 arc tMatrix setmatrix
  closepath} bdef
/FRR {MRR stroke } bdef
/PRR {MRR fill } bdef
/MlrRR {/lry xdef /lrx xdef /uly xdef /ulx xdef /rad lry uly sub 2 div def
  newpath tMatrix currentmatrix pop ulx rad add uly rad add translate
  rad rad scale 0 0 1 90 270 arc tMatrix setmatrix lrx rad sub lry rad
  sub translate rad rad scale 0 0 1 270 90 arc tMatrix setmatrix
  closepath} bdef
/FlrRR {MlrRR stroke } bdef
/PlrRR {MlrRR fill } bdef
/MtbRR {/lry xdef /lrx xdef /uly xdef /ulx xdef /rad lrx ulx sub 2 div def
  newpath tMatrix currentmatrix pop ulx rad add uly rad add translate
  rad rad scale 0 0 1 180 360 arc tMatrix setmatrix lrx rad sub lry rad
  sub translate rad rad scale 0 0 1 0 180 arc tMatrix setmatrix
  closepath} bdef
/FtbRR {MtbRR stroke } bdef
/PtbRR {MtbRR fill } bdef
/stri 6 array def /dtri 6 array def
/smat 6 array def /dmat 6 array def
/tmat1 6 array def /tmat2 6 array def /dif 3 array def
/asub {/ind2 exch def /ind1 exch def dup dup
  ind1 get exch ind2 get sub exch } bdef
/tri_to_matrix {
  2 0 asub 3 1 asub 4 0 asub 5 1 asub
  dup 0 get exch 1 get 7 -1 roll astore } bdef
/compute_transform {
  dmat dtri tri_to_matrix tmat1 invertmatrix 
  smat stri tri_to_matrix tmat2 concatmatrix } bdef
/ds {stri astore pop} bdef
/dt {dtri astore pop} bdef
/db {2 copy /cols xdef /rows xdef mul dup 3 mul string
  currentfile 
  3 index 0 eq {/ASCIIHexDecode filter}
  {/ASCII85Decode filter 3 index 2 eq {/RunLengthDecode filter} if }
  ifelse exch readstring pop
  dup 0 3 index getinterval /rbmap xdef
  dup 2 index dup getinterval /gbmap xdef
  1 index dup 2 mul exch getinterval /bbmap xdef pop pop}bdef
/it {gs np dtri aload pop moveto lineto lineto cp c
  cols rows 8 compute_transform 
  rbmap gbmap bbmap true 3 colorimage gr}bdef
/il {newpath moveto lineto stroke}bdef
currentdict end def
%%EndProlog

%%BeginSetup
MathWorks begin

0 cap

end
%%EndSetup

%%Page: 1 1
%%BeginPageSetup
%%PageBoundingBox:  -315    59   919   786
MathWorks begin
bpage
%%EndPageSetup

%%BeginObject: obj1
bplot

/dpi2point 12 def
portraitMode -5064 9384 csm

 1279   -48 14821  8719 rc
94 dict begin %Colortable dictionary
/c0 { 0.000000 0.000000 0.000000 sr} bdef
/c1 { 1.000000 1.000000 1.000000 sr} bdef
/c2 { 0.900000 0.000000 0.000000 sr} bdef
/c3 { 0.000000 0.820000 0.000000 sr} bdef
/c4 { 0.000000 0.000000 0.800000 sr} bdef
/c5 { 0.910000 0.820000 0.320000 sr} bdef
/c6 { 1.000000 0.260000 0.820000 sr} bdef
/c7 { 0.000000 0.820000 0.820000 sr} bdef
c0
1 j
1 sg
   0    0 17295 8672 rf
6 w
0 6843 13403 0 0 -6843 2248 7673 4 MP
PP
-13403 0 0 6843 13403 0 0 -6843 2248 7673 5 MP stroke
4 w
DO
0 sg
2248 7673 mt 2248  830 L
2248  830 mt 2248  830 L
3737 7673 mt 3737  830 L
3737  830 mt 3737  830 L
5226 7673 mt 5226  830 L
5226  830 mt 5226  830 L
6715 7673 mt 6715  830 L
6715  830 mt 6715  830 L
8204 7673 mt 8204  830 L
8204  830 mt 8204  830 L
9694 7673 mt 9694  830 L
9694  830 mt 9694  830 L
11183 7673 mt 11183  830 L
11183  830 mt 11183  830 L
12672 7673 mt 12672  830 L
12672  830 mt 12672  830 L
14161 7673 mt 14161  830 L
14161  830 mt 14161  830 L
15651 7673 mt 15651  830 L
15651  830 mt 15651  830 L
2248 7673 mt 15651 7673 L
15651 7673 mt 15651 7673 L
2248 5962 mt 15651 5962 L
15651 5962 mt 15651 5962 L
2248 4251 mt 15651 4251 L
15651 4251 mt 15651 4251 L
2248 2540 mt 15651 2540 L
15651 2540 mt 15651 2540 L
2248  830 mt 15651  830 L
15651  830 mt 15651  830 L
SO
6 w
2248  830 mt 15651  830 L
2248 7673 mt 15651 7673 L
15651 7673 mt 15651  830 L
2248 7673 mt 2248  830 L
2248 7673 mt 15651 7673 L
2248 7673 mt 2248  830 L
2248 7673 mt 2248 7538 L
2248  830 mt 2248  964 L
%%IncludeResource: font Helvetica
/Helvetica /WindowsLatin1Encoding 480 FMSR

1982 8153 mt 
(10) s
3737 7673 mt 3737 7538 L
3737  830 mt 3737  964 L
3471 8153 mt 
(20) s
5226 7673 mt 5226 7538 L
5226  830 mt 5226  964 L
4960 8153 mt 
(30) s
6715 7673 mt 6715 7538 L
6715  830 mt 6715  964 L
6449 8153 mt 
(40) s
8204 7673 mt 8204 7538 L
8204  830 mt 8204  964 L
7938 8153 mt 
(50) s
9694 7673 mt 9694 7538 L
9694  830 mt 9694  964 L
9428 8153 mt 
(60) s
11183 7673 mt 11183 7538 L
11183  830 mt 11183  964 L
10917 8153 mt 
(70) s
12672 7673 mt 12672 7538 L
12672  830 mt 12672  964 L
12406 8153 mt 
(80) s
14161 7673 mt 14161 7538 L
14161  830 mt 14161  964 L
13895 8153 mt 
(90) s
15651 7673 mt 15651 7538 L
15651  830 mt 15651  964 L
15251 8153 mt 
(100) s
2248 7673 mt 2382 7673 L
15651 7673 mt 15516 7673 L
1947 7851 mt 
(0) s
2248 5962 mt 2382 5962 L
15651 5962 mt 15516 5962 L
1279 6140 mt 
(0.05) s
2248 4251 mt 2382 4251 L
15651 4251 mt 15516 4251 L
1546 4429 mt 
(0.1) s
2248 2540 mt 2382 2540 L
15651 2540 mt 15516 2540 L
1279 2718 mt 
(0.15) s
2248  830 mt 2382  830 L
15651  830 mt 15516  830 L
1546 1008 mt 
(0.2) s
2248  830 mt 15651  830 L
2248 7673 mt 15651 7673 L
15651 7673 mt 15651  830 L
2248 7673 mt 2248  830 L
gs 2248 830 13404 6844 rc
36 w
/c8 { 0.000000 0.000000 1.000000 sr} bdef
c8
1490 0 1489 0 1489 0 1489 0 1490 0 1489 0 1489 0 1489 0 
1489 0 2248 7672 10 MP stroke
gr

36 w
c8
gs 2030 7454 13840 437 rc
  90   90 2248 7672 FO
  90   90 3737 7672 FO
  90   90 5226 7672 FO
  90   90 6715 7672 FO
  90   90 8204 7672 FO
  90   90 9694 7672 FO
  90   90 11183 7672 FO
  90   90 12672 7672 FO
  90   90 14161 7672 FO
  90   90 15651 7672 FO
gr

gs 2248 830 13404 6844 rc
DO
/c9 { 1.000000 0.000000 0.000000 sr} bdef
c9
1490 0 1489 0 1489 0 1489 0 1490 0 1489 0 1489 0 1489 0 
1489 0 2248 7672 10 MP stroke
gr

c9
DO
gs 2030 7454 13840 437 rc
SO
0 j
104 179 -208 0 104 -179 2248 7791 4 MP
DP
104 179 -208 0 104 -179 3737 7791 4 MP
DP
104 179 -208 0 104 -179 5226 7791 4 MP
DP
104 179 -208 0 104 -179 6715 7791 4 MP
DP
104 179 -208 0 104 -179 8204 7791 4 MP
DP
104 179 -208 0 104 -179 9694 7791 4 MP
DP
104 179 -208 0 104 -179 11183 7791 4 MP
DP
104 179 -208 0 104 -179 12672 7791 4 MP
DP
104 179 -208 0 104 -179 14161 7791 4 MP
DP
104 179 -208 0 104 -179 15651 7791 4 MP
DP
DO
gr

gs 2248 830 13404 6844 rc
DD
/c10 { 0.000000 1.000000 0.000000 sr} bdef
c10
1490 20 1489 0 1489 -12 1489 -5 1490 368 1489 -280 1489 0 1489 -71 
1489 -21 2248 7672 10 MP stroke
gr

c10
DD
gs 2030 7082 13840 809 rc
SO
2185 7609 mt 2311 7735 L
2311 7609 mt 2185 7735 L
3674 7588 mt 3800 7714 L
3800 7588 mt 3674 7714 L
5163 7517 mt 5289 7643 L
5289 7517 mt 5163 7643 L
6652 7517 mt 6778 7643 L
6778 7517 mt 6652 7643 L
8141 7237 mt 8267 7363 L
8267 7237 mt 8141 7363 L
9631 7605 mt 9757 7731 L
9757 7605 mt 9631 7731 L
11120 7600 mt 11246 7726 L
11246 7600 mt 11120 7726 L
12609 7588 mt 12735 7714 L
12735 7588 mt 12609 7714 L
14098 7588 mt 14224 7714 L
14224 7588 mt 14098 7714 L
15588 7608 mt 15714 7734 L
15714 7608 mt 15588 7734 L
DD
gr

gs 2248 830 13404 6844 rc
DA
/c11 { 0.000000 0.000000 0.172414 sr} bdef
c11
1490 0 1489 0 1489 0 1489 0 1490 0 1489 0 1489 0 1489 0 
1489 0 2248 7672 10 MP stroke
gr

c11
DA
gs 2030 7454 13840 437 rc
SO
2158 7672 mt 2338 7672 L
2248 7582 mt 2248 7762 L
3647 7672 mt 3827 7672 L
3737 7582 mt 3737 7762 L
5136 7672 mt 5316 7672 L
5226 7582 mt 5226 7762 L
6625 7672 mt 6805 7672 L
6715 7582 mt 6715 7762 L
8114 7672 mt 8294 7672 L
8204 7582 mt 8204 7762 L
9604 7672 mt 9784 7672 L
9694 7582 mt 9694 7762 L
11093 7672 mt 11273 7672 L
11183 7582 mt 11183 7762 L
12582 7672 mt 12762 7672 L
12672 7582 mt 12672 7762 L
14071 7672 mt 14251 7672 L
14161 7582 mt 14161 7762 L
15561 7672 mt 15741 7672 L
15651 7582 mt 15651 7762 L
2185 7609 mt 2311 7735 L
2311 7609 mt 2185 7735 L
3674 7609 mt 3800 7735 L
3800 7609 mt 3674 7735 L
5163 7609 mt 5289 7735 L
5289 7609 mt 5163 7735 L
6652 7609 mt 6778 7735 L
6778 7609 mt 6652 7735 L
8141 7609 mt 8267 7735 L
8267 7609 mt 8141 7735 L
9631 7609 mt 9757 7735 L
9757 7609 mt 9631 7735 L
11120 7609 mt 11246 7735 L
11246 7609 mt 11120 7735 L
12609 7609 mt 12735 7735 L
12735 7609 mt 12609 7735 L
14098 7609 mt 14224 7735 L
14224 7609 mt 14098 7735 L
15588 7609 mt 15714 7735 L
15714 7609 mt 15588 7735 L
DA
gr

gs 2248 830 13404 6844 rc
SO
/c12 { 1.000000 0.103448 0.724138 sr} bdef
c12
1490 697 1489 -1408 1489 5478 1489 -5455 1490 688 1489 -360 1489 -280 1489 640 
1489 -545 2248 7485 10 MP stroke
gr

c12
SO
gs 2030 1955 13840 5915 rc
0 j
0 -142 -142 0 0 142 142 0 2177 7414 5 MP
DP
0 -142 -142 0 0 142 142 0 3666 6869 5 MP
DP
0 -142 -142 0 0 142 142 0 5155 7509 5 MP
DP
0 -142 -142 0 0 142 142 0 6644 7229 5 MP
DP
0 -142 -142 0 0 142 142 0 8133 6869 5 MP
DP
0 -142 -142 0 0 142 142 0 9623 7557 5 MP
DP
0 -142 -142 0 0 142 142 0 11112 2102 5 MP
DP
0 -142 -142 0 0 142 142 0 12601 7580 5 MP
DP
0 -142 -142 0 0 142 142 0 14090 6172 5 MP
DP
0 -142 -142 0 0 142 142 0 15580 6869 5 MP
DP
gr

gs 2248 830 13404 6844 rc
DO
/c13 { 0.000000 0.344828 0.000000 sr} bdef
c13
1490 0 1489 0 1489 0 1489 0 1490 0 1489 0 1489 0 1489 0 
1489 0 2248 7672 10 MP stroke
gr

c13
DO
gs 2030 7454 13840 437 rc
SO
0 j
90 119 -90 119 -90 -119 90 -119 2248 7791 5 MP
DP
90 119 -90 119 -90 -119 90 -119 3737 7791 5 MP
DP
90 119 -90 119 -90 -119 90 -119 5226 7791 5 MP
DP
90 119 -90 119 -90 -119 90 -119 6715 7791 5 MP
DP
90 119 -90 119 -90 -119 90 -119 8204 7791 5 MP
DP
90 119 -90 119 -90 -119 90 -119 9694 7791 5 MP
DP
90 119 -90 119 -90 -119 90 -119 11183 7791 5 MP
DP
90 119 -90 119 -90 -119 90 -119 12672 7791 5 MP
DP
90 119 -90 119 -90 -119 90 -119 14161 7791 5 MP
DP
90 119 -90 119 -90 -119 90 -119 15651 7791 5 MP
DP
DO
gr

gs 2248 830 13404 6844 rc
DD
1490 0 1489 0 1489 0 1489 0 1490 0 1489 0 1489 0 1489 0 
1489 0 2248 7672 10 MP stroke
gr

DD
gs 2030 7454 13840 437 rc
SO
60 W
2248 7672 PD
60 W
3737 7672 PD
60 W
5226 7672 PD
60 W
6715 7672 PD
60 W
8204 7672 PD
60 W
9694 7672 PD
60 W
11183 7672 PD
60 W
12672 7672 PD
60 W
14161 7672 PD
60 W
15651 7672 PD
DD
gr

gs 2248 830 13404 6844 rc
DA
/c14 { 0.517241 0.517241 1.000000 sr} bdef
c14
1490 0 1489 0 1489 0 1489 0 1490 0 1489 0 1489 0 1489 0 
1489 0 2248 7672 10 MP stroke
gr

c14
DA
gs 2030 7454 13840 437 rc
SO
0 j
-104 179 -104 -179 208 0 2144 7732 4 MP
DP
-104 179 -104 -179 208 0 3633 7732 4 MP
DP
-104 179 -104 -179 208 0 5122 7732 4 MP
DP
-104 179 -104 -179 208 0 6611 7732 4 MP
DP
-104 179 -104 -179 208 0 8100 7732 4 MP
DP
-104 179 -104 -179 208 0 9590 7732 4 MP
DP
-104 179 -104 -179 208 0 11079 7732 4 MP
DP
-104 179 -104 -179 208 0 12568 7732 4 MP
DP
-104 179 -104 -179 208 0 14057 7732 4 MP
DP
-104 179 -104 -179 208 0 15547 7732 4 MP
DP
DA
gr

gs 2248 830 13404 6844 rc
SO
/c15 { 0.620690 0.310345 0.275862 sr} bdef
c15
1490 0 1489 0 1489 0 1489 0 1490 0 1489 0 1489 0 1489 0 
1489 0 2248 7672 10 MP stroke
gr

c15
SO
gs 2030 7454 13840 437 rc
0 j
-179 104 0 -208 179 104 2129 7672 4 MP
DP
-179 104 0 -208 179 104 3618 7672 4 MP
DP
-179 104 0 -208 179 104 5107 7672 4 MP
DP
-179 104 0 -208 179 104 6596 7672 4 MP
DP
-179 104 0 -208 179 104 8085 7672 4 MP
DP
-179 104 0 -208 179 104 9575 7672 4 MP
DP
-179 104 0 -208 179 104 11064 7672 4 MP
DP
-179 104 0 -208 179 104 12553 7672 4 MP
DP
-179 104 0 -208 179 104 14042 7672 4 MP
DP
-179 104 0 -208 179 104 15532 7672 4 MP
DP
gr

gs 2248 830 13404 6844 rc
DO
/c16 { 0.000000 1.000000 0.758621 sr} bdef
c16
1490 0 1489 0 1489 0 1489 0 1490 0 1489 0 1489 0 1489 0 
1489 0 2248 7672 10 MP stroke
gr

c16
DO
gs 2030 7454 13840 437 rc
SO
0 j
0 208 -179 -104 179 -104 2188 7776 4 MP
DP
0 208 -179 -104 179 -104 3677 7776 4 MP
DP
0 208 -179 -104 179 -104 5166 7776 4 MP
DP
0 208 -179 -104 179 -104 6655 7776 4 MP
DP
0 208 -179 -104 179 -104 8144 7776 4 MP
DP
0 208 -179 -104 179 -104 9634 7776 4 MP
DP
0 208 -179 -104 179 -104 11123 7776 4 MP
DP
0 208 -179 -104 179 -104 12612 7776 4 MP
DP
0 208 -179 -104 179 -104 14101 7776 4 MP
DP
0 208 -179 -104 179 -104 15591 7776 4 MP
DP
DO
gr

gs 2248 830 13404 6844 rc
SO
/c17 { 0.000000 0.517241 0.586207 sr} bdef
c17
1490 0 1489 0 1489 0 1489 0 1490 0 1489 0 1489 0 1489 0 
1489 0 2248 7672 10 MP stroke
gr

c17
SO
gs 2030 7454 13840 437 rc
0 j
-51 -39 18 -61 -53 36 -52 -36 18 61 -51 39 64 0 21 62 
22 -62 64 0 2162 7644 11 MP
DP
-51 -39 18 -61 -53 36 -52 -36 18 61 -51 39 64 0 21 62 
22 -62 64 0 3651 7644 11 MP
DP
-51 -39 18 -61 -53 36 -52 -36 18 61 -51 39 64 0 21 62 
22 -62 64 0 5140 7644 11 MP
DP
-51 -39 18 -61 -53 36 -52 -36 18 61 -51 39 64 0 21 62 
22 -62 64 0 6629 7644 11 MP
DP
-51 -39 18 -61 -53 36 -52 -36 18 61 -51 39 64 0 21 62 
22 -62 64 0 8118 7644 11 MP
DP
-51 -39 18 -61 -53 36 -52 -36 18 61 -51 39 64 0 21 62 
22 -62 64 0 9608 7644 11 MP
DP
-51 -39 18 -61 -53 36 -52 -36 18 61 -51 39 64 0 21 62 
22 -62 64 0 11097 7644 11 MP
DP
-51 -39 18 -61 -53 36 -52 -36 18 61 -51 39 64 0 21 62 
22 -62 64 0 12586 7644 11 MP
DP
-51 -39 18 -61 -53 36 -52 -36 18 61 -51 39 64 0 21 62 
22 -62 64 0 14075 7644 11 MP
DP
-51 -39 18 -61 -53 36 -52 -36 18 61 -51 39 64 0 21 62 
22 -62 64 0 15565 7644 11 MP
DP
gr

gs 2248 830 13404 6844 rc
DO
/c18 { 0.000000 0.000000 0.482759 sr} bdef
c18
1490 0 1489 0 1489 0 1489 0 1490 0 1489 0 1489 0 1489 0 
1489 0 2248 7672 10 MP stroke
gr

c18
DO
gs 2030 7454 13840 437 rc
SO
0 j
-32 -45 32 -45 -52 0 -25 -45 -25 45 -52 0 32 45 -32 45 
52 0 25 45 25 -45 52 0 2171 7627 13 MP
DP
-32 -45 32 -45 -52 0 -25 -45 -25 45 -52 0 32 45 -32 45 
52 0 25 45 25 -45 52 0 3660 7627 13 MP
DP
-32 -45 32 -45 -52 0 -25 -45 -25 45 -52 0 32 45 -32 45 
52 0 25 45 25 -45 52 0 5149 7627 13 MP
DP
-32 -45 32 -45 -52 0 -25 -45 -25 45 -52 0 32 45 -32 45 
52 0 25 45 25 -45 52 0 6638 7627 13 MP
DP
-32 -45 32 -45 -52 0 -25 -45 -25 45 -52 0 32 45 -32 45 
52 0 25 45 25 -45 52 0 8127 7627 13 MP
DP
-32 -45 32 -45 -52 0 -25 -45 -25 45 -52 0 32 45 -32 45 
52 0 25 45 25 -45 52 0 9617 7627 13 MP
DP
-32 -45 32 -45 -52 0 -25 -45 -25 45 -52 0 32 45 -32 45 
52 0 25 45 25 -45 52 0 11106 7627 13 MP
DP
-32 -45 32 -45 -52 0 -25 -45 -25 45 -52 0 32 45 -32 45 
52 0 25 45 25 -45 52 0 12595 7627 13 MP
DP
-32 -45 32 -45 -52 0 -25 -45 -25 45 -52 0 32 45 -32 45 
52 0 25 45 25 -45 52 0 14084 7627 13 MP
DP
-32 -45 32 -45 -52 0 -25 -45 -25 45 -52 0 32 45 -32 45 
52 0 25 45 25 -45 52 0 15574 7627 13 MP
DP
DO
gr

gs 2248 830 13404 6844 rc
gr

0 sg
6478  446 mt 
(Wilcoxon rank sum test) s
7267 8561 mt 
(Columns added) s
SO
6 w

end %%Color Dict

eplot
%%EndObject

epage
end

showpage

%%Trailer
%%EOF
