%!PS-Adobe-3.0 EPSF-3.0
%%Creator: MATLAB, The MathWorks, Inc. Version 8.2.0.701 (R2013b). Operating System: Microsoft Windows 8.
%%Title: .\add7.eps
%%CreationDate: 05/17/2016  19:03:56
%%DocumentNeededFonts: Helvetica
%%DocumentProcessColors: Cyan Magenta Yellow Black
%%LanguageLevel: 2
%%Pages: 1
%%BoundingBox:  -259    59   919   786
%%EndComments

%%BeginProlog
% MathWorks dictionary
/MathWorks 160 dict begin
% definition operators
/bdef {bind def} bind def
/ldef {load def} bind def
/xdef {exch def} bdef
/xstore {exch store} bdef
% operator abbreviations
/c  /clip ldef
/cc /concat ldef
/cp /closepath ldef
/gr /grestore ldef
/gs /gsave ldef
/mt /moveto ldef
/np /newpath ldef
/cm /currentmatrix ldef
/sm /setmatrix ldef
/rm /rmoveto ldef
/rl /rlineto ldef
/s {show newpath} bdef
/sc {setcmykcolor} bdef
/sr /setrgbcolor ldef
/sg /setgray ldef
/w /setlinewidth ldef
/j /setlinejoin ldef
/cap /setlinecap ldef
/rc {rectclip} bdef
/rf {rectfill} bdef
% page state control
/pgsv () def
/bpage {/pgsv save def} bdef
/epage {pgsv restore} bdef
/bplot /gsave ldef
/eplot {stroke grestore} bdef
% orientation switch
/portraitMode 0 def /landscapeMode 1 def /rotateMode 2 def
% coordinate system mappings
/dpi2point 0 def
% font control
/FontSize 0 def
/FMS {/FontSize xstore findfont [FontSize 0 0 FontSize neg 0 0]
  makefont setfont} bdef
/ISOLatin1Encoding where {pop /WindowsLatin1Encoding 256 array bdef
ISOLatin1Encoding WindowsLatin1Encoding copy pop
/.notdef/.notdef/quotesinglbase/florin/quotedblbase/ellipsis/dagger
/daggerdbl/circumflex/perthousand/Scaron/guilsinglleft/OE/.notdef/.notdef
/.notdef/.notdef/quoteleft/quoteright/quotedblleft/quotedblright/bullet
/endash/emdash/tilde/trademark/scaron/guilsinglright/oe/.notdef/.notdef
/Ydieresis WindowsLatin1Encoding 128 32 getinterval astore pop}
{/WindowsLatin1Encoding StandardEncoding bdef} ifelse
/reencode {exch dup where {pop load} {pop StandardEncoding} ifelse
  exch dup 3 1 roll findfont dup length dict begin
  { 1 index /FID ne {def}{pop pop} ifelse } forall
  /Encoding exch def currentdict end definefont pop} bdef
/isroman {findfont /CharStrings get /Agrave known} bdef
/FMSR {3 1 roll 1 index dup isroman {reencode} {pop pop} ifelse
  exch FMS} bdef
/csm {1 dpi2point div -1 dpi2point div scale neg translate
 dup landscapeMode eq {pop -90 rotate}
  {rotateMode eq {90 rotate} if} ifelse} bdef
% line types: solid, dotted, dashed, dotdash
/SO { [] 0 setdash } bdef
/DO { [.5 dpi2point mul 4 dpi2point mul] 0 setdash } bdef
/DA { [6 dpi2point mul] 0 setdash } bdef
/DD { [.5 dpi2point mul 4 dpi2point mul 6 dpi2point mul 4
  dpi2point mul] 0 setdash } bdef
% macros for lines and objects
/L {lineto stroke} bdef
/MP {3 1 roll moveto 1 sub {rlineto} repeat} bdef
/AP {{rlineto} repeat} bdef
/PDlw -1 def
/W {/PDlw currentlinewidth def setlinewidth} def
/PP {closepath eofill} bdef
/DP {closepath stroke} bdef
/MR {4 -2 roll moveto dup  0 exch rlineto exch 0 rlineto
  neg 0 exch rlineto closepath} bdef
/FR {MR stroke} bdef
/PR {MR fill} bdef
/L1i {{currentfile picstr readhexstring pop} image} bdef
/tMatrix matrix def
/MakeOval {newpath tMatrix currentmatrix pop translate scale
0 0 1 0 360 arc tMatrix setmatrix} bdef
/FO {MakeOval stroke} bdef
/PO {MakeOval fill} bdef
/PD {currentlinewidth 2 div 0 360 arc fill
   PDlw -1 eq not {PDlw w /PDlw -1 def} if} def
/FA {newpath tMatrix currentmatrix pop translate scale
  0 0 1 5 -2 roll arc tMatrix setmatrix stroke} bdef
/PA {newpath tMatrix currentmatrix pop	translate 0 0 moveto scale
  0 0 1 5 -2 roll arc closepath tMatrix setmatrix fill} bdef
/FAn {newpath tMatrix currentmatrix pop translate scale
  0 0 1 5 -2 roll arcn tMatrix setmatrix stroke} bdef
/PAn {newpath tMatrix currentmatrix pop translate 0 0 moveto scale
  0 0 1 5 -2 roll arcn closepath tMatrix setmatrix fill} bdef
/vradius 0 def /hradius 0 def /lry 0 def
/lrx 0 def /uly 0 def /ulx 0 def /rad 0 def
/MRR {/vradius xdef /hradius xdef /lry xdef /lrx xdef /uly xdef
  /ulx xdef newpath tMatrix currentmatrix pop ulx hradius add uly
  vradius add translate hradius vradius scale 0 0 1 180 270 arc 
  tMatrix setmatrix lrx hradius sub uly vradius add translate
  hradius vradius scale 0 0 1 270 360 arc tMatrix setmatrix
  lrx hradius sub lry vradius sub translate hradius vradius scale
  0 0 1 0 90 arc tMatrix setmatrix ulx hradius add lry vradius sub
  translate hradius vradius scale 0 0 1 90 180 arc tMatrix setmatrix
  closepath} bdef
/FRR {MRR stroke } bdef
/PRR {MRR fill } bdef
/MlrRR {/lry xdef /lrx xdef /uly xdef /ulx xdef /rad lry uly sub 2 div def
  newpath tMatrix currentmatrix pop ulx rad add uly rad add translate
  rad rad scale 0 0 1 90 270 arc tMatrix setmatrix lrx rad sub lry rad
  sub translate rad rad scale 0 0 1 270 90 arc tMatrix setmatrix
  closepath} bdef
/FlrRR {MlrRR stroke } bdef
/PlrRR {MlrRR fill } bdef
/MtbRR {/lry xdef /lrx xdef /uly xdef /ulx xdef /rad lrx ulx sub 2 div def
  newpath tMatrix currentmatrix pop ulx rad add uly rad add translate
  rad rad scale 0 0 1 180 360 arc tMatrix setmatrix lrx rad sub lry rad
  sub translate rad rad scale 0 0 1 0 180 arc tMatrix setmatrix
  closepath} bdef
/FtbRR {MtbRR stroke } bdef
/PtbRR {MtbRR fill } bdef
/stri 6 array def /dtri 6 array def
/smat 6 array def /dmat 6 array def
/tmat1 6 array def /tmat2 6 array def /dif 3 array def
/asub {/ind2 exch def /ind1 exch def dup dup
  ind1 get exch ind2 get sub exch } bdef
/tri_to_matrix {
  2 0 asub 3 1 asub 4 0 asub 5 1 asub
  dup 0 get exch 1 get 7 -1 roll astore } bdef
/compute_transform {
  dmat dtri tri_to_matrix tmat1 invertmatrix 
  smat stri tri_to_matrix tmat2 concatmatrix } bdef
/ds {stri astore pop} bdef
/dt {dtri astore pop} bdef
/db {2 copy /cols xdef /rows xdef mul dup 3 mul string
  currentfile 
  3 index 0 eq {/ASCIIHexDecode filter}
  {/ASCII85Decode filter 3 index 2 eq {/RunLengthDecode filter} if }
  ifelse exch readstring pop
  dup 0 3 index getinterval /rbmap xdef
  dup 2 index dup getinterval /gbmap xdef
  1 index dup 2 mul exch getinterval /bbmap xdef pop pop}bdef
/it {gs np dtri aload pop moveto lineto lineto cp c
  cols rows 8 compute_transform 
  rbmap gbmap bbmap true 3 colorimage gr}bdef
/il {newpath moveto lineto stroke}bdef
currentdict end def
%%EndProlog

%%BeginSetup
MathWorks begin

0 cap

end
%%EndSetup

%%Page: 1 1
%%BeginPageSetup
%%PageBoundingBox:  -259    59   919   786
MathWorks begin
bpage
%%EndPageSetup

%%BeginObject: obj1
bplot

/dpi2point 12 def
portraitMode -5064 9384 csm

 1947   -48 14153  8719 rc
94 dict begin %Colortable dictionary
/c0 { 0.000000 0.000000 0.000000 sr} bdef
/c1 { 1.000000 1.000000 1.000000 sr} bdef
/c2 { 0.900000 0.000000 0.000000 sr} bdef
/c3 { 0.000000 0.820000 0.000000 sr} bdef
/c4 { 0.000000 0.000000 0.800000 sr} bdef
/c5 { 0.910000 0.820000 0.320000 sr} bdef
/c6 { 1.000000 0.260000 0.820000 sr} bdef
/c7 { 0.000000 0.820000 0.820000 sr} bdef
c0
1 j
1 sg
   0    0 17295 8672 rf
6 w
0 6625 13403 0 0 -6625 2248 7673 4 MP
PP
-13403 0 0 6625 13403 0 0 -6625 2248 7673 5 MP stroke
4 w
DO
0 sg
2248 7673 mt 2248 1048 L
2248 1048 mt 2248 1048 L
3737 7673 mt 3737 1048 L
3737 1048 mt 3737 1048 L
5226 7673 mt 5226 1048 L
5226 1048 mt 5226 1048 L
6715 7673 mt 6715 1048 L
6715 1048 mt 6715 1048 L
8204 7673 mt 8204 1048 L
8204 1048 mt 8204 1048 L
9694 7673 mt 9694 1048 L
9694 1048 mt 9694 1048 L
11183 7673 mt 11183 1048 L
11183 1048 mt 11183 1048 L
12672 7673 mt 12672 1048 L
12672 1048 mt 12672 1048 L
14161 7673 mt 14161 1048 L
14161 1048 mt 14161 1048 L
15651 7673 mt 15651 1048 L
15651 1048 mt 15651 1048 L
2248 7673 mt 15651 7673 L
15651 7673 mt 15651 7673 L
2248 6016 mt 15651 6016 L
15651 6016 mt 15651 6016 L
2248 4360 mt 15651 4360 L
15651 4360 mt 15651 4360 L
2248 2704 mt 15651 2704 L
15651 2704 mt 15651 2704 L
2248 1048 mt 15651 1048 L
15651 1048 mt 15651 1048 L
SO
6 w
2248 1048 mt 15651 1048 L
2248 7673 mt 15651 7673 L
15651 7673 mt 15651 1048 L
2248 7673 mt 2248 1048 L
2248 7673 mt 15651 7673 L
2248 7673 mt 2248 1048 L
2248 7673 mt 2248 7538 L
2248 1048 mt 2248 1182 L
%%IncludeResource: font Helvetica
/Helvetica /WindowsLatin1Encoding 480 FMSR

1982 8153 mt 
(10) s
3737 7673 mt 3737 7538 L
3737 1048 mt 3737 1182 L
3471 8153 mt 
(20) s
5226 7673 mt 5226 7538 L
5226 1048 mt 5226 1182 L
4960 8153 mt 
(30) s
6715 7673 mt 6715 7538 L
6715 1048 mt 6715 1182 L
6449 8153 mt 
(40) s
8204 7673 mt 8204 7538 L
8204 1048 mt 8204 1182 L
7938 8153 mt 
(50) s
9694 7673 mt 9694 7538 L
9694 1048 mt 9694 1182 L
9428 8153 mt 
(60) s
11183 7673 mt 11183 7538 L
11183 1048 mt 11183 1182 L
10917 8153 mt 
(70) s
12672 7673 mt 12672 7538 L
12672 1048 mt 12672 1182 L
12406 8153 mt 
(80) s
14161 7673 mt 14161 7538 L
14161 1048 mt 14161 1182 L
13895 8153 mt 
(90) s
15651 7673 mt 15651 7538 L
15651 1048 mt 15651 1182 L
15251 8153 mt 
(100) s
2248 7673 mt 2382 7673 L
15651 7673 mt 15516 7673 L
1947 7851 mt 
(0) s
2248 6016 mt 2382 6016 L
15651 6016 mt 15516 6016 L
1947 6194 mt 
(2) s
2248 4360 mt 2382 4360 L
15651 4360 mt 15516 4360 L
1947 4538 mt 
(4) s
2248 2704 mt 2382 2704 L
15651 2704 mt 15516 2704 L
1947 2882 mt 
(6) s
2248 1048 mt 2382 1048 L
15651 1048 mt 15516 1048 L
1947 1226 mt 
(8) s
2248  994 mt 
(x 10) s
%%IncludeResource: font Helvetica
/Helvetica /WindowsLatin1Encoding 320 FMSR

3155  697 mt 
(5) s
2248 1048 mt 15651 1048 L
2248 7673 mt 15651 7673 L
15651 7673 mt 15651 1048 L
2248 7673 mt 2248 1048 L
gs 2248 1048 13404 6626 rc
36 w
/c8 { 0.000000 0.000000 1.000000 sr} bdef
c8
1490 -25 1489 -56 1489 45 1489 -19 1490 6 1489 -37 1489 75 1489 -95 
1489 67 2248 4489 10 MP stroke
gr

36 w
c8
gs 2030 4232 13840 543 rc
  90   90 2248 4489 FO
  90   90 3737 4556 FO
  90   90 5226 4461 FO
  90   90 6715 4536 FO
  90   90 8204 4499 FO
  90   90 9694 4505 FO
  90   90 11183 4486 FO
  90   90 12672 4531 FO
  90   90 14161 4475 FO
  90   90 15651 4450 FO
gr

gs 2248 1048 13404 6626 rc
DO
/c9 { 1.000000 0.000000 0.000000 sr} bdef
c9
1490 -1 1489 -8 1489 -13 1489 26 1490 -43 1489 14 1489 -12 1489 -33 
1489 12 2248 1578 10 MP stroke
gr

c9
DO
gs 2030 1298 13840 511 rc
SO
0 j
104 179 -208 0 104 -179 2248 1697 4 MP
DP
104 179 -208 0 104 -179 3737 1709 4 MP
DP
104 179 -208 0 104 -179 5226 1676 4 MP
DP
104 179 -208 0 104 -179 6715 1664 4 MP
DP
104 179 -208 0 104 -179 8204 1678 4 MP
DP
104 179 -208 0 104 -179 9694 1635 4 MP
DP
104 179 -208 0 104 -179 11183 1661 4 MP
DP
104 179 -208 0 104 -179 12672 1648 4 MP
DP
104 179 -208 0 104 -179 14161 1640 4 MP
DP
104 179 -208 0 104 -179 15651 1639 4 MP
DP
DO
gr

gs 2248 1048 13404 6626 rc
DD
/c10 { 0.000000 1.000000 0.000000 sr} bdef
c10
1490 20 1489 -28 1489 -1 1489 18 1490 -26 1489 4 1489 -2 1489 36 
1489 -41 2248 6950 10 MP stroke
gr

c10
DD
gs 2030 6691 13840 478 rc
SO
2185 6887 mt 2311 7013 L
2311 6887 mt 2185 7013 L
3674 6846 mt 3800 6972 L
3800 6846 mt 3674 6972 L
5163 6882 mt 5289 7008 L
5289 6882 mt 5163 7008 L
6652 6880 mt 6778 7006 L
6778 6880 mt 6652 7006 L
8141 6884 mt 8267 7010 L
8267 6884 mt 8141 7010 L
9631 6858 mt 9757 6984 L
9757 6858 mt 9631 6984 L
11120 6876 mt 11246 7002 L
11246 6876 mt 11120 7002 L
12609 6875 mt 12735 7001 L
12735 6875 mt 12609 7001 L
14098 6847 mt 14224 6973 L
14224 6847 mt 14098 6973 L
15588 6867 mt 15714 6993 L
15714 6867 mt 15588 6993 L
DD
gr

gs 2248 1048 13404 6626 rc
DA
/c11 { 0.000000 0.000000 0.172414 sr} bdef
c11
1490 0 1489 -37 1489 70 1489 -42 1490 46 1489 -48 1489 20 1489 -26 
1489 6 2248 6376 10 MP stroke
gr

c11
DA
gs 2030 6110 13840 511 rc
SO
2158 6376 mt 2338 6376 L
2248 6286 mt 2248 6466 L
3647 6382 mt 3827 6382 L
3737 6292 mt 3737 6472 L
5136 6356 mt 5316 6356 L
5226 6266 mt 5226 6446 L
6625 6376 mt 6805 6376 L
6715 6286 mt 6715 6466 L
8114 6328 mt 8294 6328 L
8204 6238 mt 8204 6418 L
9604 6374 mt 9784 6374 L
9694 6284 mt 9694 6464 L
11093 6332 mt 11273 6332 L
11183 6242 mt 11183 6422 L
12582 6402 mt 12762 6402 L
12672 6312 mt 12672 6492 L
14071 6365 mt 14251 6365 L
14161 6275 mt 14161 6455 L
15561 6365 mt 15741 6365 L
15651 6275 mt 15651 6455 L
2185 6313 mt 2311 6439 L
2311 6313 mt 2185 6439 L
3674 6319 mt 3800 6445 L
3800 6319 mt 3674 6445 L
5163 6293 mt 5289 6419 L
5289 6293 mt 5163 6419 L
6652 6313 mt 6778 6439 L
6778 6313 mt 6652 6439 L
8141 6265 mt 8267 6391 L
8267 6265 mt 8141 6391 L
9631 6311 mt 9757 6437 L
9757 6311 mt 9631 6437 L
11120 6269 mt 11246 6395 L
11246 6269 mt 11120 6395 L
12609 6339 mt 12735 6465 L
12735 6339 mt 12609 6465 L
14098 6302 mt 14224 6428 L
14224 6302 mt 14098 6428 L
15588 6302 mt 15714 6428 L
15714 6302 mt 15588 6428 L
DA
gr

gs 2248 1048 13404 6626 rc
SO
/c12 { 1.000000 0.103448 0.724138 sr} bdef
c12
1490 -14 1489 17 1489 -22 1489 18 1490 -13 1489 -1 1489 -5 1489 7 
1489 -3 2248 7572 10 MP stroke
gr

c12
SO
gs 2030 7335 13840 460 rc
0 j
0 -142 -142 0 0 142 142 0 2177 7501 5 MP
DP
0 -142 -142 0 0 142 142 0 3666 7498 5 MP
DP
0 -142 -142 0 0 142 142 0 5155 7505 5 MP
DP
0 -142 -142 0 0 142 142 0 6644 7500 5 MP
DP
0 -142 -142 0 0 142 142 0 8133 7499 5 MP
DP
0 -142 -142 0 0 142 142 0 9623 7486 5 MP
DP
0 -142 -142 0 0 142 142 0 11112 7504 5 MP
DP
0 -142 -142 0 0 142 142 0 12601 7482 5 MP
DP
0 -142 -142 0 0 142 142 0 14090 7499 5 MP
DP
0 -142 -142 0 0 142 142 0 15580 7485 5 MP
DP
gr

gs 2248 1048 13404 6626 rc
DO
/c13 { 0.000000 0.344828 0.000000 sr} bdef
c13
1490 -37 1489 30 1489 -39 1489 5 1490 -2 1489 -27 1489 -8 1489 34 
1489 25 2248 5754 10 MP stroke
gr

c13
DO
gs 2030 5517 13840 515 rc
SO
0 j
90 119 -90 119 -90 -119 90 -119 2248 5873 5 MP
DP
90 119 -90 119 -90 -119 90 -119 3737 5898 5 MP
DP
90 119 -90 119 -90 -119 90 -119 5226 5932 5 MP
DP
90 119 -90 119 -90 -119 90 -119 6715 5924 5 MP
DP
90 119 -90 119 -90 -119 90 -119 8204 5897 5 MP
DP
90 119 -90 119 -90 -119 90 -119 9694 5895 5 MP
DP
90 119 -90 119 -90 -119 90 -119 11183 5900 5 MP
DP
90 119 -90 119 -90 -119 90 -119 12672 5861 5 MP
DP
90 119 -90 119 -90 -119 90 -119 14161 5891 5 MP
DP
90 119 -90 119 -90 -119 90 -119 15651 5854 5 MP
DP
DO
gr

gs 2248 1048 13404 6626 rc
DD
1490 -3 1489 23 1489 58 1489 -51 1490 -24 1489 -2 1489 34 1489 -30 
1489 26 2248 4193 10 MP stroke
gr

DD
gs 2030 3928 13840 518 rc
SO
60 W
2248 4193 PD
60 W
3737 4219 PD
60 W
5226 4189 PD
60 W
6715 4223 PD
60 W
8204 4221 PD
60 W
9694 4197 PD
60 W
11183 4146 PD
60 W
12672 4204 PD
60 W
14161 4227 PD
60 W
15651 4224 PD
DD
gr

gs 2248 1048 13404 6626 rc
DA
/c14 { 0.517241 0.517241 1.000000 sr} bdef
c14
1490 4 1489 -39 1489 35 1489 -2 1490 -22 1489 -1 1489 6 1489 -41 
1489 35 2248 6156 10 MP stroke
gr

c14
DA
gs 2030 5909 13840 501 rc
SO
0 j
-104 179 -104 -179 208 0 2144 6216 4 MP
DP
-104 179 -104 -179 208 0 3633 6251 4 MP
DP
-104 179 -104 -179 208 0 5122 6210 4 MP
DP
-104 179 -104 -179 208 0 6611 6216 4 MP
DP
-104 179 -104 -179 208 0 8100 6215 4 MP
DP
-104 179 -104 -179 208 0 9590 6193 4 MP
DP
-104 179 -104 -179 208 0 11079 6191 4 MP
DP
-104 179 -104 -179 208 0 12568 6226 4 MP
DP
-104 179 -104 -179 208 0 14057 6187 4 MP
DP
-104 179 -104 -179 208 0 15547 6191 4 MP
DP
DA
gr

gs 2248 1048 13404 6626 rc
SO
/c15 { 0.620690 0.310345 0.275862 sr} bdef
c15
1490 32 1489 16 1489 -22 1489 17 1490 -37 1489 49 1489 47 1489 -28 
1489 -62 2248 4929 10 MP stroke
gr

c15
SO
gs 2030 4621 13840 539 rc
0 j
-179 104 0 -208 179 104 2129 4929 4 MP
DP
-179 104 0 -208 179 104 3618 4867 4 MP
DP
-179 104 0 -208 179 104 5107 4839 4 MP
DP
-179 104 0 -208 179 104 6596 4886 4 MP
DP
-179 104 0 -208 179 104 8085 4935 4 MP
DP
-179 104 0 -208 179 104 9575 4898 4 MP
DP
-179 104 0 -208 179 104 11064 4915 4 MP
DP
-179 104 0 -208 179 104 12553 4893 4 MP
DP
-179 104 0 -208 179 104 14042 4909 4 MP
DP
-179 104 0 -208 179 104 15532 4941 4 MP
DP
gr

gs 2248 1048 13404 6626 rc
DO
/c16 { 0.000000 1.000000 0.758621 sr} bdef
c16
1490 1 1489 14 1489 -33 1489 4 1490 26 1489 -41 1489 5 1489 28 
1489 -32 2248 6954 10 MP stroke
gr

c16
DO
gs 2030 6693 13840 481 rc
SO
0 j
0 208 -179 -104 179 -104 2188 7058 4 MP
DP
0 208 -179 -104 179 -104 3677 7026 4 MP
DP
0 208 -179 -104 179 -104 5166 7054 4 MP
DP
0 208 -179 -104 179 -104 6655 7059 4 MP
DP
0 208 -179 -104 179 -104 8144 7018 4 MP
DP
0 208 -179 -104 179 -104 9634 7044 4 MP
DP
0 208 -179 -104 179 -104 11123 7048 4 MP
DP
0 208 -179 -104 179 -104 12612 7015 4 MP
DP
0 208 -179 -104 179 -104 14101 7029 4 MP
DP
0 208 -179 -104 179 -104 15591 7030 4 MP
DP
DO
gr

gs 2248 1048 13404 6626 rc
SO
/c17 { 0.000000 0.517241 0.586207 sr} bdef
c17
1490 -86 1489 91 1489 -48 1489 23 1490 -40 1489 -47 1489 -12 1489 42 
1489 -24 2248 5722 10 MP stroke
gr

c17
SO
gs 2030 5398 13840 561 rc
0 j
-51 -39 18 -61 -53 36 -52 -36 18 61 -51 39 64 0 21 62 
22 -62 64 0 2162 5694 11 MP
DP
-51 -39 18 -61 -53 36 -52 -36 18 61 -51 39 64 0 21 62 
22 -62 64 0 3651 5670 11 MP
DP
-51 -39 18 -61 -53 36 -52 -36 18 61 -51 39 64 0 21 62 
22 -62 64 0 5140 5712 11 MP
DP
-51 -39 18 -61 -53 36 -52 -36 18 61 -51 39 64 0 21 62 
22 -62 64 0 6629 5700 11 MP
DP
-51 -39 18 -61 -53 36 -52 -36 18 61 -51 39 64 0 21 62 
22 -62 64 0 8118 5653 11 MP
DP
-51 -39 18 -61 -53 36 -52 -36 18 61 -51 39 64 0 21 62 
22 -62 64 0 9608 5613 11 MP
DP
-51 -39 18 -61 -53 36 -52 -36 18 61 -51 39 64 0 21 62 
22 -62 64 0 11097 5636 11 MP
DP
-51 -39 18 -61 -53 36 -52 -36 18 61 -51 39 64 0 21 62 
22 -62 64 0 12586 5588 11 MP
DP
-51 -39 18 -61 -53 36 -52 -36 18 61 -51 39 64 0 21 62 
22 -62 64 0 14075 5679 11 MP
DP
-51 -39 18 -61 -53 36 -52 -36 18 61 -51 39 64 0 21 62 
22 -62 64 0 15565 5593 11 MP
DP
gr

gs 2248 1048 13404 6626 rc
DO
/c18 { 0.000000 0.000000 0.482759 sr} bdef
c18
1490 49 1489 -64 1489 0 1489 7 1490 13 1489 -16 1489 18 1489 28 
1489 -30 2248 6314 10 MP stroke
gr

c18
DO
gs 2030 6052 13840 501 rc
SO
0 j
-32 -45 32 -45 -52 0 -25 -45 -25 45 -52 0 32 45 -32 45 
52 0 25 45 25 -45 52 0 2171 6269 13 MP
DP
-32 -45 32 -45 -52 0 -25 -45 -25 45 -52 0 32 45 -32 45 
52 0 25 45 25 -45 52 0 3660 6239 13 MP
DP
-32 -45 32 -45 -52 0 -25 -45 -25 45 -52 0 32 45 -32 45 
52 0 25 45 25 -45 52 0 5149 6267 13 MP
DP
-32 -45 32 -45 -52 0 -25 -45 -25 45 -52 0 32 45 -32 45 
52 0 25 45 25 -45 52 0 6638 6285 13 MP
DP
-32 -45 32 -45 -52 0 -25 -45 -25 45 -52 0 32 45 -32 45 
52 0 25 45 25 -45 52 0 8127 6269 13 MP
DP
-32 -45 32 -45 -52 0 -25 -45 -25 45 -52 0 32 45 -32 45 
52 0 25 45 25 -45 52 0 9617 6282 13 MP
DP
-32 -45 32 -45 -52 0 -25 -45 -25 45 -52 0 32 45 -32 45 
52 0 25 45 25 -45 52 0 11106 6289 13 MP
DP
-32 -45 32 -45 -52 0 -25 -45 -25 45 -52 0 32 45 -32 45 
52 0 25 45 25 -45 52 0 12595 6289 13 MP
DP
-32 -45 32 -45 -52 0 -25 -45 -25 45 -52 0 32 45 -32 45 
52 0 25 45 25 -45 52 0 14084 6225 13 MP
DP
-32 -45 32 -45 -52 0 -25 -45 -25 45 -52 0 32 45 -32 45 
52 0 25 45 25 -45 52 0 15574 6274 13 MP
DP
DO
gr

gs 2248 1048 13404 6626 rc
gr

0 sg
%%IncludeResource: font Helvetica
/Helvetica /WindowsLatin1Encoding 480 FMSR

5211  446 mt 
(Evaluations at end fo runs \(D) s
%%IncludeResource: font Helvetica
/Helvetica /WindowsLatin1Encoding 384 FMSR

11381  686 mt 
(e) s
%%IncludeResource: font Helvetica
/Helvetica /WindowsLatin1Encoding 480 FMSR

11594  446 mt 
( end\)) s
7267 8561 mt 
(Columns added) s
SO
6 w

end %%Color Dict

eplot
%%EndObject

epage
end

showpage

%%Trailer
%%EOF
