%!PS-Adobe-3.0 EPSF-3.0
%%Creator: MATLAB, The MathWorks, Inc. Version 8.2.0.701 (R2013b). Operating System: Microsoft Windows 8.
%%Title: D:\journal\12plots\Add.eps
%%CreationDate: 09/05/2015  19:13:36
%%DocumentNeededFonts: Helvetica
%%+ Helvetica-Bold
%%DocumentProcessColors: Cyan Magenta Yellow Black
%%LanguageLevel: 2
%%Pages: 1
%%BoundingBox:  -138   199   733   643
%%EndComments

%%BeginProlog
% MathWorks dictionary
/MathWorks 160 dict begin
% definition operators
/bdef {bind def} bind def
/ldef {load def} bind def
/xdef {exch def} bdef
/xstore {exch store} bdef
% operator abbreviations
/c  /clip ldef
/cc /concat ldef
/cp /closepath ldef
/gr /grestore ldef
/gs /gsave ldef
/mt /moveto ldef
/np /newpath ldef
/cm /currentmatrix ldef
/sm /setmatrix ldef
/rm /rmoveto ldef
/rl /rlineto ldef
/s {show newpath} bdef
/sc {setcmykcolor} bdef
/sr /setrgbcolor ldef
/sg /setgray ldef
/w /setlinewidth ldef
/j /setlinejoin ldef
/cap /setlinecap ldef
/rc {rectclip} bdef
/rf {rectfill} bdef
% page state control
/pgsv () def
/bpage {/pgsv save def} bdef
/epage {pgsv restore} bdef
/bplot /gsave ldef
/eplot {stroke grestore} bdef
% orientation switch
/portraitMode 0 def /landscapeMode 1 def /rotateMode 2 def
% coordinate system mappings
/dpi2point 0 def
% font control
/FontSize 0 def
/FMS {/FontSize xstore findfont [FontSize 0 0 FontSize neg 0 0]
  makefont setfont} bdef
/ISOLatin1Encoding where {pop /WindowsLatin1Encoding 256 array bdef
ISOLatin1Encoding WindowsLatin1Encoding copy pop
/.notdef/.notdef/quotesinglbase/florin/quotedblbase/ellipsis/dagger
/daggerdbl/circumflex/perthousand/Scaron/guilsinglleft/OE/.notdef/.notdef
/.notdef/.notdef/quoteleft/quoteright/quotedblleft/quotedblright/bullet
/endash/emdash/tilde/trademark/scaron/guilsinglright/oe/.notdef/.notdef
/Ydieresis WindowsLatin1Encoding 128 32 getinterval astore pop}
{/WindowsLatin1Encoding StandardEncoding bdef} ifelse
/reencode {exch dup where {pop load} {pop StandardEncoding} ifelse
  exch dup 3 1 roll findfont dup length dict begin
  { 1 index /FID ne {def}{pop pop} ifelse } forall
  /Encoding exch def currentdict end definefont pop} bdef
/isroman {findfont /CharStrings get /Agrave known} bdef
/FMSR {3 1 roll 1 index dup isroman {reencode} {pop pop} ifelse
  exch FMS} bdef
/csm {1 dpi2point div -1 dpi2point div scale neg translate
 dup landscapeMode eq {pop -90 rotate}
  {rotateMode eq {90 rotate} if} ifelse} bdef
% line types: solid, dotted, dashed, dotdash
/SO { [] 0 setdash } bdef
/DO { [.5 dpi2point mul 4 dpi2point mul] 0 setdash } bdef
/DA { [6 dpi2point mul] 0 setdash } bdef
/DD { [.5 dpi2point mul 4 dpi2point mul 6 dpi2point mul 4
  dpi2point mul] 0 setdash } bdef
% macros for lines and objects
/L {lineto stroke} bdef
/MP {3 1 roll moveto 1 sub {rlineto} repeat} bdef
/AP {{rlineto} repeat} bdef
/PDlw -1 def
/W {/PDlw currentlinewidth def setlinewidth} def
/PP {closepath eofill} bdef
/DP {closepath stroke} bdef
/MR {4 -2 roll moveto dup  0 exch rlineto exch 0 rlineto
  neg 0 exch rlineto closepath} bdef
/FR {MR stroke} bdef
/PR {MR fill} bdef
/L1i {{currentfile picstr readhexstring pop} image} bdef
/tMatrix matrix def
/MakeOval {newpath tMatrix currentmatrix pop translate scale
0 0 1 0 360 arc tMatrix setmatrix} bdef
/FO {MakeOval stroke} bdef
/PO {MakeOval fill} bdef
/PD {currentlinewidth 2 div 0 360 arc fill
   PDlw -1 eq not {PDlw w /PDlw -1 def} if} def
/FA {newpath tMatrix currentmatrix pop translate scale
  0 0 1 5 -2 roll arc tMatrix setmatrix stroke} bdef
/PA {newpath tMatrix currentmatrix pop	translate 0 0 moveto scale
  0 0 1 5 -2 roll arc closepath tMatrix setmatrix fill} bdef
/FAn {newpath tMatrix currentmatrix pop translate scale
  0 0 1 5 -2 roll arcn tMatrix setmatrix stroke} bdef
/PAn {newpath tMatrix currentmatrix pop translate 0 0 moveto scale
  0 0 1 5 -2 roll arcn closepath tMatrix setmatrix fill} bdef
/vradius 0 def /hradius 0 def /lry 0 def
/lrx 0 def /uly 0 def /ulx 0 def /rad 0 def
/MRR {/vradius xdef /hradius xdef /lry xdef /lrx xdef /uly xdef
  /ulx xdef newpath tMatrix currentmatrix pop ulx hradius add uly
  vradius add translate hradius vradius scale 0 0 1 180 270 arc 
  tMatrix setmatrix lrx hradius sub uly vradius add translate
  hradius vradius scale 0 0 1 270 360 arc tMatrix setmatrix
  lrx hradius sub lry vradius sub translate hradius vradius scale
  0 0 1 0 90 arc tMatrix setmatrix ulx hradius add lry vradius sub
  translate hradius vradius scale 0 0 1 90 180 arc tMatrix setmatrix
  closepath} bdef
/FRR {MRR stroke } bdef
/PRR {MRR fill } bdef
/MlrRR {/lry xdef /lrx xdef /uly xdef /ulx xdef /rad lry uly sub 2 div def
  newpath tMatrix currentmatrix pop ulx rad add uly rad add translate
  rad rad scale 0 0 1 90 270 arc tMatrix setmatrix lrx rad sub lry rad
  sub translate rad rad scale 0 0 1 270 90 arc tMatrix setmatrix
  closepath} bdef
/FlrRR {MlrRR stroke } bdef
/PlrRR {MlrRR fill } bdef
/MtbRR {/lry xdef /lrx xdef /uly xdef /ulx xdef /rad lrx ulx sub 2 div def
  newpath tMatrix currentmatrix pop ulx rad add uly rad add translate
  rad rad scale 0 0 1 180 360 arc tMatrix setmatrix lrx rad sub lry rad
  sub translate rad rad scale 0 0 1 0 180 arc tMatrix setmatrix
  closepath} bdef
/FtbRR {MtbRR stroke } bdef
/PtbRR {MtbRR fill } bdef
/stri 6 array def /dtri 6 array def
/smat 6 array def /dmat 6 array def
/tmat1 6 array def /tmat2 6 array def /dif 3 array def
/asub {/ind2 exch def /ind1 exch def dup dup
  ind1 get exch ind2 get sub exch } bdef
/tri_to_matrix {
  2 0 asub 3 1 asub 4 0 asub 5 1 asub
  dup 0 get exch 1 get 7 -1 roll astore } bdef
/compute_transform {
  dmat dtri tri_to_matrix tmat1 invertmatrix 
  smat stri tri_to_matrix tmat2 concatmatrix } bdef
/ds {stri astore pop} bdef
/dt {dtri astore pop} bdef
/db {2 copy /cols xdef /rows xdef mul dup 3 mul string
  currentfile 
  3 index 0 eq {/ASCIIHexDecode filter}
  {/ASCII85Decode filter 3 index 2 eq {/RunLengthDecode filter} if }
  ifelse exch readstring pop
  dup 0 3 index getinterval /rbmap xdef
  dup 2 index dup getinterval /gbmap xdef
  1 index dup 2 mul exch getinterval /bbmap xdef pop pop}bdef
/it {gs np dtri aload pop moveto lineto lineto cp c
  cols rows 8 compute_transform 
  rbmap gbmap bbmap true 3 colorimage gr}bdef
/il {newpath moveto lineto stroke}bdef
currentdict end def
%%EndProlog

%%BeginSetup
MathWorks begin

0 cap

end
%%EndSetup

%%Page: 1 1
%%BeginPageSetup
%%PageBoundingBox:  -138   199   733   643
MathWorks begin
bpage
%%EndPageSetup

%%BeginObject: obj1
bplot

/dpi2point 12 def
portraitMode -1656 7716 csm

    0     0 10457  5321 rc
95 dict begin %Colortable dictionary
/c0 { 0.000000 0.000000 0.000000 sr} bdef
/c1 { 1.000000 1.000000 1.000000 sr} bdef
/c2 { 0.900000 0.000000 0.000000 sr} bdef
/c3 { 0.000000 0.820000 0.000000 sr} bdef
/c4 { 0.000000 0.000000 0.800000 sr} bdef
/c5 { 0.910000 0.820000 0.320000 sr} bdef
/c6 { 1.000000 0.260000 0.820000 sr} bdef
/c7 { 0.000000 0.820000 0.820000 sr} bdef
c0
1 j
1 sg
   0    0 10458 5322 rf
6 w
0 1862 3623 0 0 -1862 4539 2232 4 MP
PP
-3623 0 0 1862 3623 0 0 -1862 4539 2232 5 MP stroke
4 w
DO
SO
6 w
0 sg
4539 2232 mt 8162 2232 L
4539 2232 mt 4539  370 L
4539 2232 mt 4539 2195 L
5263 2232 mt 5263 2195 L
5988 2232 mt 5988 2195 L
6712 2232 mt 6712 2195 L
7437 2232 mt 7437 2195 L
8162 2232 mt 8162 2195 L
4539 2232 mt 4575 2232 L
4539 1859 mt 4575 1859 L
4539 1487 mt 4575 1487 L
4539 1114 mt 4575 1114 L
4539  742 mt 4575  742 L
4539  370 mt 4575  370 L
1 sg
0 1863 3796 0 0 -1863 325 4510 4 MP
PP
-3796 0 0 1863 3796 0 0 -1863 325 4510 5 MP stroke
4 w
DO
SO
6 w
0 sg
 325 4510 mt 4121 4510 L
 325 4510 mt  325 2647 L
 325 4510 mt  325 4472 L
1084 4510 mt 1084 4472 L
1843 4510 mt 1843 4472 L
2602 4510 mt 2602 4472 L
3361 4510 mt 3361 4472 L
4121 4510 mt 4121 4472 L
 325 4510 mt  362 4510 L
 325 4137 mt  362 4137 L
 325 3764 mt  362 3764 L
 325 3392 mt  362 3392 L
 325 3019 mt  362 3019 L
 325 2647 mt  362 2647 L
1 sg
0 1863 3646 0 0 -1863 4548 4519 4 MP
PP
-3646 0 0 1863 3646 0 0 -1863 4548 4519 5 MP stroke
4 w
DO
SO
6 w
0 sg
4548 4519 mt 8194 4519 L
4548 4519 mt 4548 2656 L
4548 4519 mt 4548 4482 L
5277 4519 mt 5277 4482 L
6006 4519 mt 6006 4482 L
6735 4519 mt 6735 4482 L
7464 4519 mt 7464 4482 L
8194 4519 mt 8194 4482 L
4548 4519 mt 4584 4519 L
4548 4146 mt 4584 4146 L
4548 3773 mt 4584 3773 L
4548 3401 mt 4584 3401 L
4548 3028 mt 4584 3028 L
4548 2656 mt 4584 2656 L
1 sg
0 1862 3796 0 0 -1862 289 2232 4 MP
PP
-3796 0 0 1862 3796 0 0 -1862 289 2232 5 MP stroke
4 w
DO
SO
6 w
0 sg
 289 2232 mt 4085 2232 L
 289 2232 mt  289  370 L
 289 2232 mt  289 2194 L
1048 2232 mt 1048 2194 L
1807 2232 mt 1807 2194 L
2566 2232 mt 2566 2194 L
3325 2232 mt 3325 2194 L
4085 2232 mt 4085 2194 L
 289 2232 mt  326 2232 L
 289 1859 mt  326 1859 L
 289 1487 mt  326 1487 L
 289 1114 mt  326 1114 L
 289  742 mt  326  742 L
 289  370 mt  326  370 L
1 sg
0 1862 3789 0 0 -1862 288 2232 4 MP
PP
-3789 0 0 1862 3789 0 0 -1862 288 2232 5 MP stroke
4 w
DO
0 sg
 288 2232 mt  288  370 L
 288  370 mt  288  370 L
 762 2232 mt  762  370 L
 762  370 mt  762  370 L
1236 2232 mt 1236  370 L
1236  370 mt 1236  370 L
1709 2232 mt 1709  370 L
1709  370 mt 1709  370 L
2183 2232 mt 2183  370 L
2183  370 mt 2183  370 L
2656 2232 mt 2656  370 L
2656  370 mt 2656  370 L
3130 2232 mt 3130  370 L
3130  370 mt 3130  370 L
3603 2232 mt 3603  370 L
3603  370 mt 3603  370 L
4077 2232 mt 4077  370 L
4077  370 mt 4077  370 L
 288 2232 mt 4077 2232 L
4077 2232 mt 4077 2232 L
 288 1684 mt 4077 1684 L
4077 1684 mt 4077 1684 L
 288 1136 mt 4077 1136 L
4077 1136 mt 4077 1136 L
 288  589 mt 4077  589 L
4077  589 mt 4077  589 L
SO
6 w
 288  370 mt 4077  370 L
 288 2232 mt 4077 2232 L
4077 2232 mt 4077  370 L
 288 2232 mt  288  370 L
 288 2232 mt 4077 2232 L
 288 2232 mt  288  370 L
 288 2232 mt  288 2194 L
 288  370 mt  288  407 L
%%IncludeResource: font Helvetica
/Helvetica /WindowsLatin1Encoding 120 FMSR

 222 2377 mt 
(10) s
 762 2232 mt  762 2194 L
 762  370 mt  762  407 L
 696 2377 mt 
(20) s
1236 2232 mt 1236 2194 L
1236  370 mt 1236  407 L
1170 2377 mt 
(30) s
1709 2232 mt 1709 2194 L
1709  370 mt 1709  407 L
1643 2377 mt 
(40) s
2183 2232 mt 2183 2194 L
2183  370 mt 2183  407 L
2117 2377 mt 
(50) s
2656 2232 mt 2656 2194 L
2656  370 mt 2656  407 L
2590 2377 mt 
(60) s
3130 2232 mt 3130 2194 L
3130  370 mt 3130  407 L
3064 2377 mt 
(70) s
3603 2232 mt 3603 2194 L
3603  370 mt 3603  407 L
3537 2377 mt 
(80) s
4077 2232 mt 4077 2194 L
4077  370 mt 4077  407 L
4011 2377 mt 
(90) s
 288 2232 mt  326 2232 L
4077 2232 mt 4039 2232 L
 188 2276 mt 
(0) s
 288 1684 mt  326 1684 L
4077 1684 mt 4039 1684 L
 121 1728 mt 
(50) s
 288 1136 mt  326 1136 L
4077 1136 mt 4039 1136 L
  54 1180 mt 
(100) s
 288  589 mt  326  589 L
4077  589 mt 4039  589 L
  54  633 mt 
(150) s
 288  370 mt 4077  370 L
 288 2232 mt 4077 2232 L
4077 2232 mt 4077  370 L
 288 2232 mt  288  370 L
gs 289 370 3789 1863 rc
18 w
/c8 { 0.000000 0.000000 1.000000 sr} bdef
c8
474 -14 473 36 474 -35 473 43 474 30 473 43 474 -9 473 119 
289 1533 9 MP stroke
gr

18 w
c8
gs 197 1441 3973 412 rc
  36   36  762 1652 FO
  36   36 1236 1643 FO
  36   36 1709 1686 FO
  36   36 2183 1716 FO
  36   36 2656 1759 FO
  36   36 3130 1724 FO
  36   36 3603 1760 FO
  36   36 4077 1746 FO
gr

gs 289 370 3789 1863 rc
gr

0 sg
%%IncludeResource: font Helvetica-Bold
/Helvetica-Bold /WindowsLatin1Encoding 120 FMSR

1245  221 mt 
(Time to reach feasible region \(D) s
%%IncludeResource: font Helvetica-Bold
/Helvetica-Bold /WindowsLatin1Encoding 96 FMSR

3061  281 mt 
(f) s
%%IncludeResource: font Helvetica-Bold
/Helvetica-Bold /WindowsLatin1Encoding 120 FMSR

3092  221 mt 
(\)) s
gs 289 370 3789 1863 rc
DO
/c9 { 1.000000 0.000000 0.000000 sr} bdef
c9
474 -52 473 187 474 -209 473 455 474 -346 473 233 474 71 473 399 
289 647 9 MP stroke
gr

c9
DO
gs 197 555 3973 997 rc
SO
0 j
41 71 -82 0 41 -71 762 1093 4 MP
DP
41 71 -82 0 41 -71 1236 1164 4 MP
DP
41 71 -82 0 41 -71 1709 1397 4 MP
DP
41 71 -82 0 41 -71 2183 1051 4 MP
DP
41 71 -82 0 41 -71 2656 1506 4 MP
DP
41 71 -82 0 41 -71 3130 1297 4 MP
DP
41 71 -82 0 41 -71 3603 1484 4 MP
DP
41 71 -82 0 41 -71 4077 1432 4 MP
DP
DO
gr

gs 289 370 3789 1863 rc
DD
/c10 { 0.000000 1.000000 0.000000 sr} bdef
c10
474 -20 473 11 474 26 473 3 474 19 473 -25 474 27 473 7 
289 2057 9 MP stroke
gr

c10
DD
gs 197 1965 3973 253 rc
SO
 737 2039 mt  787 2089 L
 787 2039 mt  737 2089 L
1211 2066 mt 1261 2116 L
1261 2066 mt 1211 2116 L
1684 2041 mt 1734 2091 L
1734 2041 mt 1684 2091 L
2158 2060 mt 2208 2110 L
2208 2060 mt 2158 2110 L
2631 2063 mt 2681 2113 L
2681 2063 mt 2631 2113 L
3105 2089 mt 3155 2139 L
3155 2089 mt 3105 2139 L
3578 2100 mt 3628 2150 L
3628 2100 mt 3578 2150 L
4052 2080 mt 4102 2130 L
4102 2080 mt 4052 2130 L
DD
gr

gs 289 370 3789 1863 rc
DA
/c11 { 0.000000 0.000000 0.172414 sr} bdef
c11
474 20 473 4 474 76 473 -45 474 -15 473 70 474 47 473 49 
289 1861 9 MP stroke
gr

c11
DA
gs 197 1769 3973 391 rc
SO
 726 1910 mt  798 1910 L
 762 1874 mt  762 1946 L
1200 1957 mt 1272 1957 L
1236 1921 mt 1236 1993 L
1673 2027 mt 1745 2027 L
1709 1991 mt 1709 2063 L
2147 2012 mt 2219 2012 L
2183 1976 mt 2183 2048 L
2620 1967 mt 2692 1967 L
2656 1931 mt 2656 2003 L
3094 2043 mt 3166 2043 L
3130 2007 mt 3130 2079 L
3567 2047 mt 3639 2047 L
3603 2011 mt 3603 2083 L
4041 2067 mt 4113 2067 L
4077 2031 mt 4077 2103 L
 737 1885 mt  787 1935 L
 787 1885 mt  737 1935 L
1211 1932 mt 1261 1982 L
1261 1932 mt 1211 1982 L
1684 2002 mt 1734 2052 L
1734 2002 mt 1684 2052 L
2158 1987 mt 2208 2037 L
2208 1987 mt 2158 2037 L
2631 1942 mt 2681 1992 L
2681 1942 mt 2631 1992 L
3105 2018 mt 3155 2068 L
3155 2018 mt 3105 2068 L
3578 2022 mt 3628 2072 L
3628 2022 mt 3578 2072 L
4052 2042 mt 4102 2092 L
4102 2042 mt 4052 2092 L
DA
gr

gs 289 370 3789 1863 rc
SO
/c12 { 1.000000 0.103448 0.724138 sr} bdef
c12
474 -12 473 -11 474 20 473 -21 474 3 473 10 474 -4 473 8 
289 2079 9 MP stroke
gr

c12
SO
gs 197 1980 3973 209 rc
0 j
0 -58 -58 0 0 58 58 0 733 2058 5 MP
DP
0 -58 -58 0 0 58 58 0 1207 2054 5 MP
DP
0 -58 -58 0 0 58 58 0 1680 2064 5 MP
DP
0 -58 -58 0 0 58 58 0 2154 2067 5 MP
DP
0 -58 -58 0 0 58 58 0 2627 2046 5 MP
DP
0 -58 -58 0 0 58 58 0 3101 2066 5 MP
DP
0 -58 -58 0 0 58 58 0 3574 2055 5 MP
DP
0 -58 -58 0 0 58 58 0 4048 2043 5 MP
DP
gr

gs 289 370 3789 1863 rc
DO
/c13 { 1.000000 0.827586 0.000000 sr} bdef
c13
474 62 473 -118 474 55 473 67 474 -75 473 191 474 2 473 204 
289 1581 9 MP stroke
gr

c13
DO
gs 197 1489 3973 629 rc
SO
0 j
36 47 -36 47 -36 -47 36 -47 762 1832 5 MP
DP
36 47 -36 47 -36 -47 36 -47 1236 1834 5 MP
DP
36 47 -36 47 -36 -47 36 -47 1709 2025 5 MP
DP
36 47 -36 47 -36 -47 36 -47 2183 1950 5 MP
DP
36 47 -36 47 -36 -47 36 -47 2656 2017 5 MP
DP
36 47 -36 47 -36 -47 36 -47 3130 2072 5 MP
DP
36 47 -36 47 -36 -47 36 -47 3603 1954 5 MP
DP
36 47 -36 47 -36 -47 36 -47 4077 2016 5 MP
DP
DO
gr

gs 289 370 3789 1863 rc
DD
/c14 { 0.000000 0.344828 0.000000 sr} bdef
c14
474 -163 473 631 474 -167 473 -318 474 211 473 180 474 -100 473 734 
289 680 9 MP stroke
gr

c14
DD
gs 197 588 3973 1356 rc
SO
24 W
762 1414 PD
24 W
1236 1314 PD
24 W
1709 1494 PD
24 W
2183 1705 PD
24 W
2656 1387 PD
24 W
3130 1220 PD
24 W
3603 1851 PD
24 W
4077 1688 PD
DD
gr

gs 289 370 3789 1863 rc
DA
/c15 { 0.517241 0.517241 1.000000 sr} bdef
c15
474 79 473 89 474 -208 473 30 474 225 473 -182 474 159 473 200 
289 1460 9 MP stroke
gr

c15
DA
gs 197 1368 3973 617 rc
SO
0 j
-41 71 -41 -71 82 0 721 1684 4 MP
DP
-41 71 -41 -71 82 0 1195 1843 4 MP
DP
-41 71 -41 -71 82 0 1668 1661 4 MP
DP
-41 71 -41 -71 82 0 2142 1886 4 MP
DP
-41 71 -41 -71 82 0 2615 1916 4 MP
DP
-41 71 -41 -71 82 0 3089 1708 4 MP
DP
-41 71 -41 -71 82 0 3562 1797 4 MP
DP
-41 71 -41 -71 82 0 4036 1876 4 MP
DP
DA
gr

gs 289 370 3789 1863 rc
SO
/c16 { 0.620690 0.310345 0.275862 sr} bdef
c16
474 572 473 111 474 26 473 -85 474 155 473 233 474 128 473 -8 
289 788 9 MP stroke
gr

c16
SO
gs 197 688 3973 1325 rc
0 j
-71 41 0 -82 71 41 715 780 4 MP
DP
-71 41 0 -82 71 41 1189 908 4 MP
DP
-71 41 0 -82 71 41 1662 1141 4 MP
DP
-71 41 0 -82 71 41 2136 1296 4 MP
DP
-71 41 0 -82 71 41 2609 1211 4 MP
DP
-71 41 0 -82 71 41 3083 1237 4 MP
DP
-71 41 0 -82 71 41 3556 1348 4 MP
DP
-71 41 0 -82 71 41 4030 1920 4 MP
DP
gr

gs 289 370 3789 1863 rc
DO
/c17 { 0.000000 1.000000 0.758621 sr} bdef
c17
474 -63 473 18 474 82 473 28 474 -31 473 127 474 93 473 31 
289 1679 9 MP stroke
gr

c17
DO
gs 197 1587 3973 533 rc
SO
0 j
0 82 -71 -41 71 -41 738 1751 4 MP
DP
0 82 -71 -41 71 -41 1212 1844 4 MP
DP
0 82 -71 -41 71 -41 1685 1971 4 MP
DP
0 82 -71 -41 71 -41 2159 1940 4 MP
DP
0 82 -71 -41 71 -41 2632 1968 4 MP
DP
0 82 -71 -41 71 -41 3106 2050 4 MP
DP
0 82 -71 -41 71 -41 3579 2068 4 MP
DP
0 82 -71 -41 71 -41 4053 2005 4 MP
DP
DO
gr

gs 289 370 3789 1863 rc
SO
/c18 { 0.000000 0.517241 0.586207 sr} bdef
c18
474 21 473 375 474 -173 473 4 474 293 473 -417 474 247 473 796 
289 572 9 MP stroke
gr

c18
SO
gs 197 480 3973 1331 rc
0 j
-21 -16 8 -25 -22 15 -21 -15 8 25 -21 16 26 0 8 24 
9 -24 26 0 727 1356 11 MP
DP
-21 -16 8 -25 -22 15 -21 -15 8 25 -21 16 26 0 8 24 
9 -24 26 0 1201 1603 11 MP
DP
-21 -16 8 -25 -22 15 -21 -15 8 25 -21 16 26 0 8 24 
9 -24 26 0 1674 1186 11 MP
DP
-21 -16 8 -25 -22 15 -21 -15 8 25 -21 16 26 0 8 24 
9 -24 26 0 2148 1479 11 MP
DP
-21 -16 8 -25 -22 15 -21 -15 8 25 -21 16 26 0 8 24 
9 -24 26 0 2621 1483 11 MP
DP
-21 -16 8 -25 -22 15 -21 -15 8 25 -21 16 26 0 8 24 
9 -24 26 0 3095 1310 11 MP
DP
-21 -16 8 -25 -22 15 -21 -15 8 25 -21 16 26 0 8 24 
9 -24 26 0 3568 1685 11 MP
DP
-21 -16 8 -25 -22 15 -21 -15 8 25 -21 16 26 0 8 24 
9 -24 26 0 4042 1706 11 MP
DP
gr

gs 289 370 3789 1863 rc
DO
/c19 { 0.000000 0.000000 0.482759 sr} bdef
c19
474 -339 473 512 474 -594 473 267 474 -361 473 259 474 439 473 360 
289 437 9 MP stroke
gr

c19
DO
gs 197 345 3973 1243 rc
SO
0 j
-13 -18 13 -18 -21 0 -10 -18 -10 18 -21 0 13 18 -13 18 
21 0 10 18 10 -18 21 0 731 779 13 MP
DP
-13 -18 13 -18 -21 0 -10 -18 -10 18 -21 0 13 18 -13 18 
21 0 10 18 10 -18 21 0 1205 1218 13 MP
DP
-13 -18 13 -18 -21 0 -10 -18 -10 18 -21 0 13 18 -13 18 
21 0 10 18 10 -18 21 0 1678 1477 13 MP
DP
-13 -18 13 -18 -21 0 -10 -18 -10 18 -21 0 13 18 -13 18 
21 0 10 18 10 -18 21 0 2152 1116 13 MP
DP
-13 -18 13 -18 -21 0 -10 -18 -10 18 -21 0 13 18 -13 18 
21 0 10 18 10 -18 21 0 2625 1383 13 MP
DP
-13 -18 13 -18 -21 0 -10 -18 -10 18 -21 0 13 18 -13 18 
21 0 10 18 10 -18 21 0 3099 789 13 MP
DP
-13 -18 13 -18 -21 0 -10 -18 -10 18 -21 0 13 18 -13 18 
21 0 10 18 10 -18 21 0 3572 1301 13 MP
DP
-13 -18 13 -18 -21 0 -10 -18 -10 18 -21 0 13 18 -13 18 
21 0 10 18 10 -18 21 0 4046 962 13 MP
DP
DO
gr

gs 289 370 3789 1863 rc
SO
6 w
gr

6 w
SO
1 sg
0 1862 3638 0 0 -1862 4539 2232 4 MP
PP
-3638 0 0 1862 3638 0 0 -1862 4539 2232 5 MP stroke
4 w
DO
0 sg
4539 2232 mt 4539  370 L
4539  370 mt 4539  370 L
4993 2232 mt 4993  370 L
4993  370 mt 4993  370 L
5448 2232 mt 5448  370 L
5448  370 mt 5448  370 L
5903 2232 mt 5903  370 L
5903  370 mt 5903  370 L
6358 2232 mt 6358  370 L
6358  370 mt 6358  370 L
6812 2232 mt 6812  370 L
6812  370 mt 6812  370 L
7267 2232 mt 7267  370 L
7267  370 mt 7267  370 L
7722 2232 mt 7722  370 L
7722  370 mt 7722  370 L
8177 2232 mt 8177  370 L
8177  370 mt 8177  370 L
4539 2232 mt 8177 2232 L
8177 2232 mt 8177 2232 L
4539 1921 mt 8177 1921 L
8177 1921 mt 8177 1921 L
4539 1611 mt 8177 1611 L
8177 1611 mt 8177 1611 L
4539 1301 mt 8177 1301 L
8177 1301 mt 8177 1301 L
4539  990 mt 8177  990 L
8177  990 mt 8177  990 L
4539  680 mt 8177  680 L
8177  680 mt 8177  680 L
4539  370 mt 8177  370 L
8177  370 mt 8177  370 L
SO
6 w
4539  370 mt 8177  370 L
4539 2232 mt 8177 2232 L
8177 2232 mt 8177  370 L
4539 2232 mt 4539  370 L
4539 2232 mt 8177 2232 L
4539 2232 mt 4539  370 L
4539 2232 mt 4539 2195 L
4539  370 mt 4539  406 L
%%IncludeResource: font Helvetica
/Helvetica /WindowsLatin1Encoding 120 FMSR

4473 2377 mt 
(10) s
4993 2232 mt 4993 2195 L
4993  370 mt 4993  406 L
4927 2377 mt 
(20) s
5448 2232 mt 5448 2195 L
5448  370 mt 5448  406 L
5382 2377 mt 
(30) s
5903 2232 mt 5903 2195 L
5903  370 mt 5903  406 L
5837 2377 mt 
(40) s
6358 2232 mt 6358 2195 L
6358  370 mt 6358  406 L
6292 2377 mt 
(50) s
6812 2232 mt 6812 2195 L
6812  370 mt 6812  406 L
6746 2377 mt 
(60) s
7267 2232 mt 7267 2195 L
7267  370 mt 7267  406 L
7201 2377 mt 
(70) s
7722 2232 mt 7722 2195 L
7722  370 mt 7722  406 L
7656 2377 mt 
(80) s
8177 2232 mt 8177 2195 L
8177  370 mt 8177  406 L
8111 2377 mt 
(90) s
4539 2232 mt 4575 2232 L
8177 2232 mt 8140 2232 L
4438 2276 mt 
(0) s
4539 1921 mt 4575 1921 L
8177 1921 mt 8140 1921 L
4204 1965 mt 
(0.005) s
4539 1611 mt 4575 1611 L
8177 1611 mt 8140 1611 L
4271 1655 mt 
(0.01) s
4539 1301 mt 4575 1301 L
8177 1301 mt 8140 1301 L
4204 1345 mt 
(0.015) s
4539  990 mt 4575  990 L
8177  990 mt 8140  990 L
4271 1034 mt 
(0.02) s
4539  680 mt 4575  680 L
8177  680 mt 8140  680 L
4204  724 mt 
(0.025) s
4539  370 mt 4575  370 L
8177  370 mt 8140  370 L
4271  414 mt 
(0.03) s
4539  370 mt 8177  370 L
4539 2232 mt 8177 2232 L
8177 2232 mt 8177  370 L
4539 2232 mt 4539  370 L
gs 4539 370 3639 1863 rc
18 w
c8
455 0 455 0 455 0 454 0 455 0 455 0 455 0 454 0 
4539 2231 9 MP stroke
gr

18 w
c8
gs 4447 2139 3823 185 rc
  36   36 4539 2231 FO
  36   36 4993 2231 FO
  36   36 5448 2231 FO
  36   36 5903 2231 FO
  36   36 6358 2231 FO
  36   36 6812 2231 FO
  36   36 7267 2231 FO
  36   36 7722 2231 FO
  36   36 8177 2231 FO
gr

gs 4539 370 3639 1863 rc
gr

0 sg
%%IncludeResource: font Helvetica-Bold
/Helvetica-Bold /WindowsLatin1Encoding 120 FMSR

5685  275 mt 
(Wilcoxon rank sum test) s
gs 4539 370 3639 1863 rc
DO
c9
455 0 455 0 455 19 454 -19 455 0 455 0 455 0 454 0 
4539 2231 9 MP stroke
gr

c9
DO
gs 4447 2120 3823 204 rc
SO
0 j
41 71 -82 0 41 -71 4539 2278 4 MP
DP
41 71 -82 0 41 -71 4993 2278 4 MP
DP
41 71 -82 0 41 -71 5448 2278 4 MP
DP
41 71 -82 0 41 -71 5903 2278 4 MP
DP
41 71 -82 0 41 -71 6358 2278 4 MP
DP
41 71 -82 0 41 -71 6812 2259 4 MP
DP
41 71 -82 0 41 -71 7267 2278 4 MP
DP
41 71 -82 0 41 -71 7722 2278 4 MP
DP
41 71 -82 0 41 -71 8177 2278 4 MP
DP
DO
gr

gs 4539 370 3639 1863 rc
DD
c10
455 0 455 0 455 0 454 0 455 0 455 0 455 0 454 0 
4539 2231 9 MP stroke
gr

c10
DD
gs 4447 2139 3823 185 rc
SO
4514 2206 mt 4564 2256 L
4564 2206 mt 4514 2256 L
4968 2206 mt 5018 2256 L
5018 2206 mt 4968 2256 L
5423 2206 mt 5473 2256 L
5473 2206 mt 5423 2256 L
5878 2206 mt 5928 2256 L
5928 2206 mt 5878 2256 L
6333 2206 mt 6383 2256 L
6383 2206 mt 6333 2256 L
6787 2206 mt 6837 2256 L
6837 2206 mt 6787 2256 L
7242 2206 mt 7292 2256 L
7292 2206 mt 7242 2256 L
7697 2206 mt 7747 2256 L
7747 2206 mt 7697 2256 L
8152 2206 mt 8202 2256 L
8202 2206 mt 8152 2256 L
DD
gr

gs 4539 370 3639 1863 rc
DA
c11
455 0 455 0 455 0 454 0 455 0 455 0 455 0 454 0 
4539 2231 9 MP stroke
gr

c11
DA
gs 4447 2139 3823 185 rc
SO
4503 2231 mt 4575 2231 L
4539 2195 mt 4539 2267 L
4957 2231 mt 5029 2231 L
4993 2195 mt 4993 2267 L
5412 2231 mt 5484 2231 L
5448 2195 mt 5448 2267 L
5867 2231 mt 5939 2231 L
5903 2195 mt 5903 2267 L
6322 2231 mt 6394 2231 L
6358 2195 mt 6358 2267 L
6776 2231 mt 6848 2231 L
6812 2195 mt 6812 2267 L
7231 2231 mt 7303 2231 L
7267 2195 mt 7267 2267 L
7686 2231 mt 7758 2231 L
7722 2195 mt 7722 2267 L
8141 2231 mt 8213 2231 L
8177 2195 mt 8177 2267 L
4514 2206 mt 4564 2256 L
4564 2206 mt 4514 2256 L
4968 2206 mt 5018 2256 L
5018 2206 mt 4968 2256 L
5423 2206 mt 5473 2256 L
5473 2206 mt 5423 2256 L
5878 2206 mt 5928 2256 L
5928 2206 mt 5878 2256 L
6333 2206 mt 6383 2256 L
6383 2206 mt 6333 2256 L
6787 2206 mt 6837 2256 L
6837 2206 mt 6787 2256 L
7242 2206 mt 7292 2256 L
7292 2206 mt 7242 2256 L
7697 2206 mt 7747 2256 L
7747 2206 mt 7697 2256 L
8152 2206 mt 8202 2256 L
8202 2206 mt 8152 2256 L
DA
gr

gs 4539 370 3639 1863 rc
SO
c12
455 0 455 0 455 0 454 0 455 0 455 0 455 0 454 0 
4539 2231 9 MP stroke
gr

c12
SO
gs 4447 2139 3823 185 rc
0 j
0 -58 -58 0 0 58 58 0 4510 2202 5 MP
DP
0 -58 -58 0 0 58 58 0 4964 2202 5 MP
DP
0 -58 -58 0 0 58 58 0 5419 2202 5 MP
DP
0 -58 -58 0 0 58 58 0 5874 2202 5 MP
DP
0 -58 -58 0 0 58 58 0 6329 2202 5 MP
DP
0 -58 -58 0 0 58 58 0 6783 2202 5 MP
DP
0 -58 -58 0 0 58 58 0 7238 2202 5 MP
DP
0 -58 -58 0 0 58 58 0 7693 2202 5 MP
DP
0 -58 -58 0 0 58 58 0 8148 2202 5 MP
DP
gr

gs 4539 370 3639 1863 rc
DO
c13
455 -130 455 352 455 -344 454 -7 455 119 455 -120 455 0 454 0 
4539 2231 9 MP stroke
gr

c13
DO
gs 4447 1787 3823 537 rc
SO
0 j
36 47 -36 47 -36 -47 36 -47 4539 2278 5 MP
DP
36 47 -36 47 -36 -47 36 -47 4993 2278 5 MP
DP
36 47 -36 47 -36 -47 36 -47 5448 2278 5 MP
DP
36 47 -36 47 -36 -47 36 -47 5903 2158 5 MP
DP
36 47 -36 47 -36 -47 36 -47 6358 2277 5 MP
DP
36 47 -36 47 -36 -47 36 -47 6812 2270 5 MP
DP
36 47 -36 47 -36 -47 36 -47 7267 1926 5 MP
DP
36 47 -36 47 -36 -47 36 -47 7722 2278 5 MP
DP
36 47 -36 47 -36 -47 36 -47 8177 2148 5 MP
DP
DO
gr

gs 4539 370 3639 1863 rc
DD
c14
455 250 455 -452 455 1 454 695 455 -666 455 -30 455 6 454 -6 
4539 2231 9 MP stroke
gr

c14
DD
gs 4447 1443 3823 881 rc
SO
24 W
4539 2231 PD
24 W
4993 2225 PD
24 W
5448 2231 PD
24 W
5903 2201 PD
24 W
6358 1535 PD
24 W
6812 2230 PD
24 W
7267 2231 PD
24 W
7722 1779 PD
24 W
8177 2029 PD
DD
gr

gs 4539 370 3639 1863 rc
DA
c15
455 -1 455 0 455 0 454 0 455 0 455 0 455 0 454 0 
4539 2231 9 MP stroke
gr

c15
DA
gs 4447 2138 3823 186 rc
SO
0 j
-41 71 -41 -71 82 0 4498 2255 4 MP
DP
-41 71 -41 -71 82 0 4952 2255 4 MP
DP
-41 71 -41 -71 82 0 5407 2255 4 MP
DP
-41 71 -41 -71 82 0 5862 2255 4 MP
DP
-41 71 -41 -71 82 0 6317 2255 4 MP
DP
-41 71 -41 -71 82 0 6771 2255 4 MP
DP
-41 71 -41 -71 82 0 7226 2255 4 MP
DP
-41 71 -41 -71 82 0 7681 2255 4 MP
DP
-41 71 -41 -71 82 0 8136 2254 4 MP
DP
DA
gr

gs 4539 370 3639 1863 rc
SO
c16
455 -1617 455 0 455 0 454 5 455 -5 455 0 455 0 454 0 
4539 2231 9 MP stroke
gr

c16
SO
gs 4447 522 3823 1802 rc
0 j
-71 41 0 -82 71 41 4492 2231 4 MP
DP
-71 41 0 -82 71 41 4946 2231 4 MP
DP
-71 41 0 -82 71 41 5401 2231 4 MP
DP
-71 41 0 -82 71 41 5856 2231 4 MP
DP
-71 41 0 -82 71 41 6311 2226 4 MP
DP
-71 41 0 -82 71 41 6765 2231 4 MP
DP
-71 41 0 -82 71 41 7220 2231 4 MP
DP
-71 41 0 -82 71 41 7675 2231 4 MP
DP
-71 41 0 -82 71 41 8130 614 4 MP
DP
gr

gs 4539 370 3639 1863 rc
DO
c17
455 106 455 171 455 -277 454 -2 455 0 455 -1 455 0 454 0 
4539 2231 9 MP stroke
gr

c17
DO
gs 4447 1859 3823 465 rc
SO
0 j
0 82 -71 -41 71 -41 4515 2272 4 MP
DP
0 82 -71 -41 71 -41 4969 2272 4 MP
DP
0 82 -71 -41 71 -41 5424 2272 4 MP
DP
0 82 -71 -41 71 -41 5879 2271 4 MP
DP
0 82 -71 -41 71 -41 6334 2271 4 MP
DP
0 82 -71 -41 71 -41 6788 2269 4 MP
DP
0 82 -71 -41 71 -41 7243 1992 4 MP
DP
0 82 -71 -41 71 -41 7698 2163 4 MP
DP
0 82 -71 -41 71 -41 8153 2269 4 MP
DP
DO
gr

gs 4539 370 3639 1863 rc
SO
c18
455 54 455 -313 455 15 454 2 455 -18 455 267 455 -268 454 0 
4539 2231 9 MP stroke
gr

c18
SO
gs 4447 1824 3823 500 rc
0 j
-21 -16 8 -25 -22 15 -21 -15 8 25 -21 16 26 0 8 24 
9 -24 26 0 4504 2219 11 MP
DP
-21 -16 8 -25 -22 15 -21 -15 8 25 -21 16 26 0 8 24 
9 -24 26 0 4958 2219 11 MP
DP
-21 -16 8 -25 -22 15 -21 -15 8 25 -21 16 26 0 8 24 
9 -24 26 0 5413 1951 11 MP
DP
-21 -16 8 -25 -22 15 -21 -15 8 25 -21 16 26 0 8 24 
9 -24 26 0 5868 2218 11 MP
DP
-21 -16 8 -25 -22 15 -21 -15 8 25 -21 16 26 0 8 24 
9 -24 26 0 6323 2200 11 MP
DP
-21 -16 8 -25 -22 15 -21 -15 8 25 -21 16 26 0 8 24 
9 -24 26 0 6777 2202 11 MP
DP
-21 -16 8 -25 -22 15 -21 -15 8 25 -21 16 26 0 8 24 
9 -24 26 0 7232 2217 11 MP
DP
-21 -16 8 -25 -22 15 -21 -15 8 25 -21 16 26 0 8 24 
9 -24 26 0 7687 1904 11 MP
DP
-21 -16 8 -25 -22 15 -21 -15 8 25 -21 16 26 0 8 24 
9 -24 26 0 8142 1958 11 MP
DP
gr

gs 4539 370 3639 1863 rc
DO
c19
455 2 455 -2 455 24 454 -24 455 55 455 -53 455 -2 454 0 
4539 2231 9 MP stroke
gr

c19
DO
gs 4447 2084 3823 240 rc
SO
0 j
-13 -18 13 -18 -21 0 -10 -18 -10 18 -21 0 13 18 -13 18 
21 0 10 18 10 -18 21 0 4508 2213 13 MP
DP
-13 -18 13 -18 -21 0 -10 -18 -10 18 -21 0 13 18 -13 18 
21 0 10 18 10 -18 21 0 4962 2213 13 MP
DP
-13 -18 13 -18 -21 0 -10 -18 -10 18 -21 0 13 18 -13 18 
21 0 10 18 10 -18 21 0 5417 2211 13 MP
DP
-13 -18 13 -18 -21 0 -10 -18 -10 18 -21 0 13 18 -13 18 
21 0 10 18 10 -18 21 0 5872 2158 13 MP
DP
-13 -18 13 -18 -21 0 -10 -18 -10 18 -21 0 13 18 -13 18 
21 0 10 18 10 -18 21 0 6327 2213 13 MP
DP
-13 -18 13 -18 -21 0 -10 -18 -10 18 -21 0 13 18 -13 18 
21 0 10 18 10 -18 21 0 6781 2189 13 MP
DP
-13 -18 13 -18 -21 0 -10 -18 -10 18 -21 0 13 18 -13 18 
21 0 10 18 10 -18 21 0 7236 2213 13 MP
DP
-13 -18 13 -18 -21 0 -10 -18 -10 18 -21 0 13 18 -13 18 
21 0 10 18 10 -18 21 0 7691 2211 13 MP
DP
-13 -18 13 -18 -21 0 -10 -18 -10 18 -21 0 13 18 -13 18 
21 0 10 18 10 -18 21 0 8146 2213 13 MP
DP
DO
gr

gs 4539 370 3639 1863 rc
SO
6 w
gr

6 w
SO
1 sg
0 1863 3803 0 0 -1863 325 4510 4 MP
PP
-3803 0 0 1863 3803 0 0 -1863 325 4510 5 MP stroke
4 w
DO
0 sg
 325 4510 mt  325 2647 L
 325 2647 mt  325 2647 L
 800 4510 mt  800 2647 L
 800 2647 mt  800 2647 L
1275 4510 mt 1275 2647 L
1275 2647 mt 1275 2647 L
1751 4510 mt 1751 2647 L
1751 2647 mt 1751 2647 L
2226 4510 mt 2226 2647 L
2226 2647 mt 2226 2647 L
2701 4510 mt 2701 2647 L
2701 2647 mt 2701 2647 L
3177 4510 mt 3177 2647 L
3177 2647 mt 3177 2647 L
3652 4510 mt 3652 2647 L
3652 2647 mt 3652 2647 L
4128 4510 mt 4128 2647 L
4128 2647 mt 4128 2647 L
 325 4421 mt 4128 4421 L
4128 4421 mt 4128 4421 L
 325 3977 mt 4128 3977 L
4128 3977 mt 4128 3977 L
 325 3534 mt 4128 3534 L
4128 3534 mt 4128 3534 L
 325 3090 mt 4128 3090 L
4128 3090 mt 4128 3090 L
 325 2647 mt 4128 2647 L
4128 2647 mt 4128 2647 L
SO
6 w
 325 2647 mt 4128 2647 L
 325 4510 mt 4128 4510 L
4128 4510 mt 4128 2647 L
 325 4510 mt  325 2647 L
 325 4510 mt 4128 4510 L
 325 4510 mt  325 2647 L
 325 4510 mt  325 4471 L
 325 2647 mt  325 2685 L
%%IncludeResource: font Helvetica
/Helvetica /WindowsLatin1Encoding 120 FMSR

 259 4655 mt 
(10) s
 800 4510 mt  800 4471 L
 800 2647 mt  800 2685 L
 734 4655 mt 
(20) s
1275 4510 mt 1275 4471 L
1275 2647 mt 1275 2685 L
1209 4655 mt 
(30) s
1751 4510 mt 1751 4471 L
1751 2647 mt 1751 2685 L
1685 4655 mt 
(40) s
2226 4510 mt 2226 4471 L
2226 2647 mt 2226 2685 L
2160 4655 mt 
(50) s
2701 4510 mt 2701 4471 L
2701 2647 mt 2701 2685 L
2635 4655 mt 
(60) s
3177 4510 mt 3177 4471 L
3177 2647 mt 3177 2685 L
3111 4655 mt 
(70) s
3652 4510 mt 3652 4471 L
3652 2647 mt 3652 2685 L
3586 4655 mt 
(80) s
4128 4510 mt 4128 4471 L
4128 2647 mt 4128 2685 L
4062 4655 mt 
(90) s
 325 4421 mt  363 4421 L
4128 4421 mt 4089 4421 L
 224 4465 mt 
(0) s
 325 3977 mt  363 3977 L
4128 3977 mt 4089 3977 L
 224 4021 mt 
(5) s
 325 3534 mt  363 3534 L
4128 3534 mt 4089 3534 L
 157 3578 mt 
(10) s
 325 3090 mt  363 3090 L
4128 3090 mt 4089 3090 L
 157 3134 mt 
(15) s
 325 2647 mt  363 2647 L
4128 2647 mt 4089 2647 L
 157 2691 mt 
(20) s
 325 2647 mt 4128 2647 L
 325 4510 mt 4128 4510 L
4128 4510 mt 4128 2647 L
 325 4510 mt  325 2647 L
gs 325 2647 3804 1864 rc
18 w
c8
476 80 475 -6 476 26 475 48 475 53 476 77 475 95 475 103 
325 3924 9 MP stroke
gr

18 w
c8
gs 233 3832 3988 661 rc
  36   36  325 3924 FO
  36   36  800 4027 FO
  36   36 1275 4122 FO
  36   36 1751 4199 FO
  36   36 2226 4252 FO
  36   36 2701 4300 FO
  36   36 3177 4326 FO
  36   36 3652 4320 FO
  36   36 4128 4400 FO
gr

gs 325 2647 3804 1864 rc
gr

0 sg
%%IncludeResource: font Helvetica-Bold
/Helvetica-Bold /WindowsLatin1Encoding 120 FMSR

1644 2498 mt 
(Solution Quality \(D) s
%%IncludeResource: font Helvetica-Bold
/Helvetica-Bold /WindowsLatin1Encoding 96 FMSR

2724 2558 mt 
(s) s
%%IncludeResource: font Helvetica-Bold
/Helvetica-Bold /WindowsLatin1Encoding 120 FMSR

2777 2498 mt 
(\)) s
gs 325 2647 3804 1864 rc
DO
c9
476 95 475 103 476 83 475 3 475 169 476 189 475 115 475 494 
325 2954 9 MP stroke
gr

c9
DO
gs 233 2862 3988 1436 rc
SO
0 j
41 71 -82 0 41 -71 325 3001 4 MP
DP
41 71 -82 0 41 -71 800 3495 4 MP
DP
41 71 -82 0 41 -71 1275 3610 4 MP
DP
41 71 -82 0 41 -71 1751 3799 4 MP
DP
41 71 -82 0 41 -71 2226 3968 4 MP
DP
41 71 -82 0 41 -71 2701 3971 4 MP
DP
41 71 -82 0 41 -71 3177 4054 4 MP
DP
41 71 -82 0 41 -71 3652 4157 4 MP
DP
41 71 -82 0 41 -71 4128 4252 4 MP
DP
DO
gr

gs 325 2647 3804 1864 rc
DD
c10
476 -9 475 15 476 3 475 41 475 -15 476 15 475 18 475 35 
325 4365 9 MP stroke
gr

c10
DD
gs 233 4273 3988 297 rc
SO
 300 4340 mt  350 4390 L
 350 4340 mt  300 4390 L
 775 4375 mt  825 4425 L
 825 4375 mt  775 4425 L
1250 4393 mt 1300 4443 L
1300 4393 mt 1250 4443 L
1726 4408 mt 1776 4458 L
1776 4408 mt 1726 4458 L
2201 4393 mt 2251 4443 L
2251 4393 mt 2201 4443 L
2676 4434 mt 2726 4484 L
2726 4434 mt 2676 4484 L
3152 4437 mt 3202 4487 L
3202 4437 mt 3152 4487 L
3627 4452 mt 3677 4502 L
3677 4452 mt 3627 4502 L
4103 4443 mt 4153 4493 L
4153 4443 mt 4103 4493 L
DD
gr

gs 325 2647 3804 1864 rc
DA
c11
476 20 475 0 476 27 475 15 475 26 476 0 475 45 475 41 
325 4214 9 MP stroke
gr

c11
DA
gs 233 4122 3988 359 rc
SO
 289 4214 mt  361 4214 L
 325 4178 mt  325 4250 L
 764 4255 mt  836 4255 L
 800 4219 mt  800 4291 L
1239 4300 mt 1311 4300 L
1275 4264 mt 1275 4336 L
1715 4300 mt 1787 4300 L
1751 4264 mt 1751 4336 L
2190 4326 mt 2262 4326 L
2226 4290 mt 2226 4362 L
2665 4341 mt 2737 4341 L
2701 4305 mt 2701 4377 L
3141 4368 mt 3213 4368 L
3177 4332 mt 3177 4404 L
3616 4368 mt 3688 4368 L
3652 4332 mt 3652 4404 L
4092 4388 mt 4164 4388 L
4128 4352 mt 4128 4424 L
 300 4189 mt  350 4239 L
 350 4189 mt  300 4239 L
 775 4230 mt  825 4280 L
 825 4230 mt  775 4280 L
1250 4275 mt 1300 4325 L
1300 4275 mt 1250 4325 L
1726 4275 mt 1776 4325 L
1776 4275 mt 1726 4325 L
2201 4301 mt 2251 4351 L
2251 4301 mt 2201 4351 L
2676 4316 mt 2726 4366 L
2726 4316 mt 2676 4366 L
3152 4343 mt 3202 4393 L
3202 4343 mt 3152 4393 L
3627 4343 mt 3677 4393 L
3677 4343 mt 3627 4393 L
4103 4363 mt 4153 4413 L
4153 4363 mt 4103 4413 L
DA
gr

gs 325 2647 3804 1864 rc
SO
c12
476 0 475 -3 476 0 475 6 475 -3 476 0 475 -3 475 3 
325 4418 9 MP stroke
gr

c12
SO
gs 233 4323 3988 191 rc
0 j
0 -58 -58 0 0 58 58 0 296 4389 5 MP
DP
0 -58 -58 0 0 58 58 0 771 4392 5 MP
DP
0 -58 -58 0 0 58 58 0 1246 4389 5 MP
DP
0 -58 -58 0 0 58 58 0 1722 4389 5 MP
DP
0 -58 -58 0 0 58 58 0 2197 4386 5 MP
DP
0 -58 -58 0 0 58 58 0 2672 4392 5 MP
DP
0 -58 -58 0 0 58 58 0 3148 4392 5 MP
DP
0 -58 -58 0 0 58 58 0 3623 4389 5 MP
DP
0 -58 -58 0 0 58 58 0 4099 4389 5 MP
DP
gr

gs 325 2647 3804 1864 rc
DO
c13
344 13 475 62 476 15 475 21 475 83 476 20 475 95 475 95 
325 4107 9 MP stroke
gr

c13
DO
gs 233 4015 3856 589 rc
SO
0 j
36 47 -36 47 -36 -47 36 -47 325 4154 5 MP
DP
36 47 -36 47 -36 -47 36 -47 800 4249 5 MP
DP
36 47 -36 47 -36 -47 36 -47 1275 4344 5 MP
DP
36 47 -36 47 -36 -47 36 -47 1751 4364 5 MP
DP
36 47 -36 47 -36 -47 36 -47 2226 4447 5 MP
DP
36 47 -36 47 -36 -47 36 -47 2701 4468 5 MP
DP
36 47 -36 47 -36 -47 36 -47 3177 4483 5 MP
DP
36 47 -36 47 -36 -47 36 -47 3652 4545 5 MP
DP
DO
gr

gs 325 2647 3804 1864 rc
DD
c14
476 79 475 21 476 30 475 174 475 39 476 91 475 127 475 240 
325 3436 9 MP stroke
gr

c14
DD
gs 233 3344 3988 986 rc
SO
24 W
325 3436 PD
24 W
800 3676 PD
24 W
1275 3803 PD
24 W
1751 3894 PD
24 W
2226 3933 PD
24 W
2701 4107 PD
24 W
3177 4137 PD
24 W
3652 4158 PD
24 W
4128 4237 PD
DD
gr

gs 325 2647 3804 1864 rc
DA
c15
476 38 475 18 476 12 475 6 475 74 476 -33 475 110 475 59 
325 4042 9 MP stroke
gr

c15
DA
gs 233 3950 3988 469 rc
SO
0 j
-41 71 -41 -71 82 0 284 4066 4 MP
DP
-41 71 -41 -71 82 0 759 4125 4 MP
DP
-41 71 -41 -71 82 0 1234 4235 4 MP
DP
-41 71 -41 -71 82 0 1710 4202 4 MP
DP
-41 71 -41 -71 82 0 2185 4276 4 MP
DP
-41 71 -41 -71 82 0 2660 4282 4 MP
DP
-41 71 -41 -71 82 0 3136 4294 4 MP
DP
-41 71 -41 -71 82 0 3611 4312 4 MP
DP
-41 71 -41 -71 82 0 4087 4350 4 MP
DP
DA
gr

gs 325 2647 3804 1864 rc
SO
c16
476 35 475 -17 476 44 475 71 475 30 476 56 475 109 475 101 
325 3489 9 MP stroke
gr

c16
SO
gs 233 3397 3988 614 rc
0 j
-71 41 0 -82 71 41 278 3489 4 MP
DP
-71 41 0 -82 71 41 753 3590 4 MP
DP
-71 41 0 -82 71 41 1228 3699 4 MP
DP
-71 41 0 -82 71 41 1704 3755 4 MP
DP
-71 41 0 -82 71 41 2179 3785 4 MP
DP
-71 41 0 -82 71 41 2654 3856 4 MP
DP
-71 41 0 -82 71 41 3130 3900 4 MP
DP
-71 41 0 -82 71 41 3605 3883 4 MP
DP
-71 41 0 -82 71 41 4081 3918 4 MP
DP
gr

gs 325 2647 3804 1864 rc
DO
c17
476 42 475 23 476 9 475 15 475 26 476 68 475 42 475 56 
325 4202 9 MP stroke
gr

c17
DO
gs 233 4110 3988 466 rc
SO
0 j
0 82 -71 -41 71 -41 301 4243 4 MP
DP
0 82 -71 -41 71 -41 776 4299 4 MP
DP
0 82 -71 -41 71 -41 1251 4341 4 MP
DP
0 82 -71 -41 71 -41 1727 4409 4 MP
DP
0 82 -71 -41 71 -41 2202 4435 4 MP
DP
0 82 -71 -41 71 -41 2677 4450 4 MP
DP
0 82 -71 -41 71 -41 3153 4459 4 MP
DP
0 82 -71 -41 71 -41 3628 4482 4 MP
DP
0 82 -71 -41 71 -41 4104 4524 4 MP
DP
DO
gr

gs 325 2647 3804 1864 rc
SO
c18
476 -80 475 103 476 15 475 18 475 109 476 89 475 74 475 41 
325 3815 9 MP stroke
gr

c18
SO
gs 233 3723 3988 634 rc
0 j
-21 -16 8 -25 -22 15 -21 -15 8 25 -21 16 26 0 8 24 
9 -24 26 0 290 3803 11 MP
DP
-21 -16 8 -25 -22 15 -21 -15 8 25 -21 16 26 0 8 24 
9 -24 26 0 765 3844 11 MP
DP
-21 -16 8 -25 -22 15 -21 -15 8 25 -21 16 26 0 8 24 
9 -24 26 0 1240 3918 11 MP
DP
-21 -16 8 -25 -22 15 -21 -15 8 25 -21 16 26 0 8 24 
9 -24 26 0 1716 4007 11 MP
DP
-21 -16 8 -25 -22 15 -21 -15 8 25 -21 16 26 0 8 24 
9 -24 26 0 2191 4116 11 MP
DP
-21 -16 8 -25 -22 15 -21 -15 8 25 -21 16 26 0 8 24 
9 -24 26 0 2666 4134 11 MP
DP
-21 -16 8 -25 -22 15 -21 -15 8 25 -21 16 26 0 8 24 
9 -24 26 0 3142 4149 11 MP
DP
-21 -16 8 -25 -22 15 -21 -15 8 25 -21 16 26 0 8 24 
9 -24 26 0 3617 4252 11 MP
DP
-21 -16 8 -25 -22 15 -21 -15 8 25 -21 16 26 0 8 24 
9 -24 26 0 4093 4172 11 MP
DP
gr

gs 325 2647 3804 1864 rc
DO
c19
476 -24 475 18 476 12 475 47 475 33 476 53 475 50 475 104 
325 3900 9 MP stroke
gr

c19
DO
gs 233 3808 3988 502 rc
SO
0 j
-13 -18 13 -18 -21 0 -10 -18 -10 18 -21 0 13 18 -13 18 
21 0 10 18 10 -18 21 0 294 3882 13 MP
DP
-13 -18 13 -18 -21 0 -10 -18 -10 18 -21 0 13 18 -13 18 
21 0 10 18 10 -18 21 0 769 3986 13 MP
DP
-13 -18 13 -18 -21 0 -10 -18 -10 18 -21 0 13 18 -13 18 
21 0 10 18 10 -18 21 0 1244 4036 13 MP
DP
-13 -18 13 -18 -21 0 -10 -18 -10 18 -21 0 13 18 -13 18 
21 0 10 18 10 -18 21 0 1720 4089 13 MP
DP
-13 -18 13 -18 -21 0 -10 -18 -10 18 -21 0 13 18 -13 18 
21 0 10 18 10 -18 21 0 2195 4122 13 MP
DP
-13 -18 13 -18 -21 0 -10 -18 -10 18 -21 0 13 18 -13 18 
21 0 10 18 10 -18 21 0 2670 4169 13 MP
DP
-13 -18 13 -18 -21 0 -10 -18 -10 18 -21 0 13 18 -13 18 
21 0 10 18 10 -18 21 0 3146 4181 13 MP
DP
-13 -18 13 -18 -21 0 -10 -18 -10 18 -21 0 13 18 -13 18 
21 0 10 18 10 -18 21 0 3621 4199 13 MP
DP
-13 -18 13 -18 -21 0 -10 -18 -10 18 -21 0 13 18 -13 18 
21 0 10 18 10 -18 21 0 4097 4175 13 MP
DP
DO
gr

gs 325 2647 3804 1864 rc
SO
6 w
gr

6 w
SO
1 sg
0 1863 3654 0 0 -1863 4548 4528 4 MP
PP
-3654 0 0 1863 3654 0 0 -1863 4548 4528 5 MP stroke
4 w
DO
0 sg
4548 4528 mt 4548 2665 L
4548 2665 mt 4548 2665 L
5004 4528 mt 5004 2665 L
5004 2665 mt 5004 2665 L
5461 4528 mt 5461 2665 L
5461 2665 mt 5461 2665 L
5918 4528 mt 5918 2665 L
5918 2665 mt 5918 2665 L
6375 4528 mt 6375 2665 L
6375 2665 mt 6375 2665 L
6831 4528 mt 6831 2665 L
6831 2665 mt 6831 2665 L
7288 4528 mt 7288 2665 L
7288 2665 mt 7288 2665 L
7745 4528 mt 7745 2665 L
7745 2665 mt 7745 2665 L
8202 4528 mt 8202 2665 L
8202 2665 mt 8202 2665 L
4548 4528 mt 8202 4528 L
8202 4528 mt 8202 4528 L
4548 4155 mt 8202 4155 L
8202 4155 mt 8202 4155 L
4548 3782 mt 8202 3782 L
8202 3782 mt 8202 3782 L
4548 3410 mt 8202 3410 L
8202 3410 mt 8202 3410 L
4548 3037 mt 8202 3037 L
8202 3037 mt 8202 3037 L
4548 2665 mt 8202 2665 L
8202 2665 mt 8202 2665 L
SO
6 w
4548 2665 mt 8202 2665 L
4548 4528 mt 8202 4528 L
8202 4528 mt 8202 2665 L
4548 4528 mt 4548 2665 L
4548 4528 mt 8202 4528 L
4548 4528 mt 4548 2665 L
4548 4528 mt 4548 4491 L
4548 2665 mt 4548 2701 L
%%IncludeResource: font Helvetica
/Helvetica /WindowsLatin1Encoding 120 FMSR

4482 4673 mt 
(10) s
5004 4528 mt 5004 4491 L
5004 2665 mt 5004 2701 L
4938 4673 mt 
(20) s
5461 4528 mt 5461 4491 L
5461 2665 mt 5461 2701 L
5395 4673 mt 
(30) s
5918 4528 mt 5918 4491 L
5918 2665 mt 5918 2701 L
5852 4673 mt 
(40) s
6375 4528 mt 6375 4491 L
6375 2665 mt 6375 2701 L
6309 4673 mt 
(50) s
6831 4528 mt 6831 4491 L
6831 2665 mt 6831 2701 L
6765 4673 mt 
(60) s
7288 4528 mt 7288 4491 L
7288 2665 mt 7288 2701 L
7222 4673 mt 
(70) s
7745 4528 mt 7745 4491 L
7745 2665 mt 7745 2701 L
7679 4673 mt 
(80) s
8202 4528 mt 8202 4491 L
8202 2665 mt 8202 2701 L
8136 4673 mt 
(90) s
4548 4528 mt 4584 4528 L
8202 4528 mt 8165 4528 L
4447 4572 mt 
(0) s
4548 4155 mt 4584 4155 L
8202 4155 mt 8165 4155 L
4347 4199 mt 
(0.2) s
4548 3782 mt 4584 3782 L
8202 3782 mt 8165 3782 L
4347 3826 mt 
(0.4) s
4548 3410 mt 4584 3410 L
8202 3410 mt 8165 3410 L
4347 3454 mt 
(0.6) s
4548 3037 mt 4584 3037 L
8202 3037 mt 8165 3037 L
4347 3081 mt 
(0.8) s
4548 2665 mt 4584 2665 L
8202 2665 mt 8165 2665 L
4447 2709 mt 
(1) s
4548 2665 mt 8202 2665 L
4548 4528 mt 8202 4528 L
8202 4528 mt 8202 2665 L
4548 4528 mt 4548 2665 L
gs 4548 2665 3655 1864 rc
18 w
c8
457 -621 457 0 457 0 456 0 457 0 457 0 457 0 456 0 
4548 4527 9 MP stroke
gr

18 w
c8
gs 4456 3814 3839 806 rc
  36   36 4548 4527 FO
  36   36 5004 4527 FO
  36   36 5461 4527 FO
  36   36 5918 4527 FO
  36   36 6375 4527 FO
  36   36 6831 4527 FO
  36   36 7288 4527 FO
  36   36 7745 4527 FO
  36   36 8202 3906 FO
gr

gs 4548 2665 3655 1864 rc
gr

0 sg
%%IncludeResource: font Helvetica-Bold
/Helvetica-Bold /WindowsLatin1Encoding 120 FMSR

5702 2570 mt 
(Wilcoxon rank sum test) s
gs 4548 2665 3655 1864 rc
DO
c9
457 0 457 0 457 0 456 0 457 0 457 0 457 0 456 0 
4548 4527 9 MP stroke
gr

c9
DO
gs 4456 4435 3839 185 rc
SO
0 j
41 71 -82 0 41 -71 4548 4574 4 MP
DP
41 71 -82 0 41 -71 5004 4574 4 MP
DP
41 71 -82 0 41 -71 5461 4574 4 MP
DP
41 71 -82 0 41 -71 5918 4574 4 MP
DP
41 71 -82 0 41 -71 6375 4574 4 MP
DP
41 71 -82 0 41 -71 6831 4574 4 MP
DP
41 71 -82 0 41 -71 7288 4574 4 MP
DP
41 71 -82 0 41 -71 7745 4574 4 MP
DP
41 71 -82 0 41 -71 8202 4574 4 MP
DP
DO
gr

gs 4548 2665 3655 1864 rc
DD
c10
457 0 457 0 457 0 456 1481 457 -866 457 845 457 -1421 456 -39 
4548 4527 9 MP stroke
gr

c10
DD
gs 4456 2954 3839 1666 rc
SO
4523 4502 mt 4573 4552 L
4573 4502 mt 4523 4552 L
4979 4463 mt 5029 4513 L
5029 4463 mt 4979 4513 L
5436 3042 mt 5486 3092 L
5486 3042 mt 5436 3092 L
5893 3887 mt 5943 3937 L
5943 3887 mt 5893 3937 L
6350 3021 mt 6400 3071 L
6400 3021 mt 6350 3071 L
6806 4502 mt 6856 4552 L
6856 4502 mt 6806 4552 L
7263 4502 mt 7313 4552 L
7313 4502 mt 7263 4552 L
7720 4502 mt 7770 4552 L
7770 4502 mt 7720 4552 L
8177 4502 mt 8227 4552 L
8227 4502 mt 8177 4552 L
DD
gr

gs 4548 2665 3655 1864 rc
DA
c11
457 -56 457 0 457 0 456 0 457 0 457 0 457 0 456 0 
4548 4527 9 MP stroke
gr

c11
DA
gs 4456 4379 3839 241 rc
SO
4512 4527 mt 4584 4527 L
4548 4491 mt 4548 4563 L
4968 4527 mt 5040 4527 L
5004 4491 mt 5004 4563 L
5425 4527 mt 5497 4527 L
5461 4491 mt 5461 4563 L
5882 4527 mt 5954 4527 L
5918 4491 mt 5918 4563 L
6339 4527 mt 6411 4527 L
6375 4491 mt 6375 4563 L
6795 4527 mt 6867 4527 L
6831 4491 mt 6831 4563 L
7252 4527 mt 7324 4527 L
7288 4491 mt 7288 4563 L
7709 4527 mt 7781 4527 L
7745 4491 mt 7745 4563 L
8166 4471 mt 8238 4471 L
8202 4435 mt 8202 4507 L
4523 4502 mt 4573 4552 L
4573 4502 mt 4523 4552 L
4979 4502 mt 5029 4552 L
5029 4502 mt 4979 4552 L
5436 4502 mt 5486 4552 L
5486 4502 mt 5436 4552 L
5893 4502 mt 5943 4552 L
5943 4502 mt 5893 4552 L
6350 4502 mt 6400 4552 L
6400 4502 mt 6350 4552 L
6806 4502 mt 6856 4552 L
6856 4502 mt 6806 4552 L
7263 4502 mt 7313 4552 L
7313 4502 mt 7263 4552 L
7720 4502 mt 7770 4552 L
7770 4502 mt 7720 4552 L
8177 4446 mt 8227 4496 L
8227 4446 mt 8177 4496 L
DA
gr

gs 4548 2665 3655 1864 rc
SO
c12
4548 3906 PD
gr

c12
SO
gs 4456 3814 3839 507 rc
0 j
0 -58 -58 0 0 58 58 0 4519 3877 5 MP
DP
gr

gs 4548 2665 3655 1864 rc
457 322 457 0 5461 3906 3 MP stroke
gr

gs 4456 3814 3839 507 rc
0 j
0 -58 -58 0 0 58 58 0 5432 3877 5 MP
DP
0 -58 -58 0 0 58 58 0 5889 3877 5 MP
DP
0 -58 -58 0 0 58 58 0 6346 4199 5 MP
DP
gr

gs 4548 2665 3655 1864 rc
457 0 7745 3906 2 MP stroke
gr

gs 4456 3814 3839 507 rc
0 j
0 -58 -58 0 0 58 58 0 7716 3877 5 MP
DP
0 -58 -58 0 0 58 58 0 8173 3877 5 MP
DP
gr

gs 4548 2665 3655 1864 rc
DO
c13
457 0 457 1233 457 274 456 -998 457 -509 457 0 457 0 456 0 
4548 4527 9 MP stroke
gr

c13
DO
gs 4456 2928 3839 1692 rc
SO
0 j
36 47 -36 47 -36 -47 36 -47 4548 4574 5 MP
DP
36 47 -36 47 -36 -47 36 -47 5004 4574 5 MP
DP
36 47 -36 47 -36 -47 36 -47 5461 4574 5 MP
DP
36 47 -36 47 -36 -47 36 -47 5918 4574 5 MP
DP
36 47 -36 47 -36 -47 36 -47 6375 4065 5 MP
DP
36 47 -36 47 -36 -47 36 -47 6831 3067 5 MP
DP
36 47 -36 47 -36 -47 36 -47 7288 3341 5 MP
DP
36 47 -36 47 -36 -47 36 -47 7745 4574 5 MP
DP
36 47 -36 47 -36 -47 36 -47 8202 4574 5 MP
DP
DO
gr

gs 4548 2665 3655 1864 rc
DD
c14
457 0 457 0 457 0 456 0 457 0 457 0 457 0 456 0 
4548 4527 9 MP stroke
gr

c14
DD
gs 4456 4435 3839 185 rc
SO
24 W
4548 4527 PD
24 W
5004 4527 PD
24 W
5461 4527 PD
24 W
5918 4527 PD
24 W
6375 4527 PD
24 W
6831 4527 PD
24 W
7288 4527 PD
24 W
7745 4527 PD
24 W
8202 4527 PD
DD
gr

gs 4548 2665 3655 1864 rc
DA
c15
457 0 457 0 457 0 456 0 457 0 457 0 457 0 456 0 
4548 4527 9 MP stroke
gr

c15
DA
gs 4456 4435 3839 185 rc
SO
0 j
-41 71 -41 -71 82 0 4507 4551 4 MP
DP
-41 71 -41 -71 82 0 4963 4551 4 MP
DP
-41 71 -41 -71 82 0 5420 4551 4 MP
DP
-41 71 -41 -71 82 0 5877 4551 4 MP
DP
-41 71 -41 -71 82 0 6334 4551 4 MP
DP
-41 71 -41 -71 82 0 6790 4551 4 MP
DP
-41 71 -41 -71 82 0 7247 4551 4 MP
DP
-41 71 -41 -71 82 0 7704 4551 4 MP
DP
-41 71 -41 -71 82 0 8161 4551 4 MP
DP
DA
gr

gs 4548 2665 3655 1864 rc
SO
c16
457 0 457 0 457 0 456 0 457 0 457 0 457 0 456 0 
4548 4527 9 MP stroke
gr

c16
SO
gs 4456 4435 3839 185 rc
0 j
-71 41 0 -82 71 41 4501 4527 4 MP
DP
-71 41 0 -82 71 41 4957 4527 4 MP
DP
-71 41 0 -82 71 41 5414 4527 4 MP
DP
-71 41 0 -82 71 41 5871 4527 4 MP
DP
-71 41 0 -82 71 41 6328 4527 4 MP
DP
-71 41 0 -82 71 41 6784 4527 4 MP
DP
-71 41 0 -82 71 41 7241 4527 4 MP
DP
-71 41 0 -82 71 41 7698 4527 4 MP
DP
-71 41 0 -82 71 41 8155 4527 4 MP
DP
gr

gs 4548 2665 3655 1864 rc
DO
c17
457 805 457 716 457 -337 456 -978 457 -154 457 -54 457 0 456 0 
4548 4527 9 MP stroke
gr

c17
DO
gs 4456 2912 3839 1708 rc
SO
0 j
0 82 -71 -41 71 -41 4524 4568 4 MP
DP
0 82 -71 -41 71 -41 4980 4568 4 MP
DP
0 82 -71 -41 71 -41 5437 4568 4 MP
DP
0 82 -71 -41 71 -41 5894 4514 4 MP
DP
0 82 -71 -41 71 -41 6351 4360 4 MP
DP
0 82 -71 -41 71 -41 6807 3382 4 MP
DP
0 82 -71 -41 71 -41 7264 3045 4 MP
DP
0 82 -71 -41 71 -41 7721 3761 4 MP
DP
0 82 -71 -41 71 -41 8178 4566 4 MP
DP
DO
gr

gs 4548 2665 3655 1864 rc
SO
c18
457 0 457 0 457 0 456 0 457 0 457 0 457 0 456 0 
4548 4527 9 MP stroke
gr

c18
SO
gs 4456 4435 3839 185 rc
0 j
-21 -16 8 -25 -22 15 -21 -15 8 25 -21 16 26 0 8 24 
9 -24 26 0 4513 4515 11 MP
DP
-21 -16 8 -25 -22 15 -21 -15 8 25 -21 16 26 0 8 24 
9 -24 26 0 4969 4515 11 MP
DP
-21 -16 8 -25 -22 15 -21 -15 8 25 -21 16 26 0 8 24 
9 -24 26 0 5426 4515 11 MP
DP
-21 -16 8 -25 -22 15 -21 -15 8 25 -21 16 26 0 8 24 
9 -24 26 0 5883 4515 11 MP
DP
-21 -16 8 -25 -22 15 -21 -15 8 25 -21 16 26 0 8 24 
9 -24 26 0 6340 4515 11 MP
DP
-21 -16 8 -25 -22 15 -21 -15 8 25 -21 16 26 0 8 24 
9 -24 26 0 6796 4515 11 MP
DP
-21 -16 8 -25 -22 15 -21 -15 8 25 -21 16 26 0 8 24 
9 -24 26 0 7253 4515 11 MP
DP
-21 -16 8 -25 -22 15 -21 -15 8 25 -21 16 26 0 8 24 
9 -24 26 0 7710 4515 11 MP
DP
-21 -16 8 -25 -22 15 -21 -15 8 25 -21 16 26 0 8 24 
9 -24 26 0 8167 4515 11 MP
DP
gr

gs 4548 2665 3655 1864 rc
DO
c19
457 0 457 0 457 0 456 0 457 0 457 0 457 0 456 0 
4548 4527 9 MP stroke
gr

c19
DO
gs 4456 4435 3839 185 rc
SO
0 j
-13 -18 13 -18 -21 0 -10 -18 -10 18 -21 0 13 18 -13 18 
21 0 10 18 10 -18 21 0 4517 4509 13 MP
DP
-13 -18 13 -18 -21 0 -10 -18 -10 18 -21 0 13 18 -13 18 
21 0 10 18 10 -18 21 0 4973 4509 13 MP
DP
-13 -18 13 -18 -21 0 -10 -18 -10 18 -21 0 13 18 -13 18 
21 0 10 18 10 -18 21 0 5430 4509 13 MP
DP
-13 -18 13 -18 -21 0 -10 -18 -10 18 -21 0 13 18 -13 18 
21 0 10 18 10 -18 21 0 5887 4509 13 MP
DP
-13 -18 13 -18 -21 0 -10 -18 -10 18 -21 0 13 18 -13 18 
21 0 10 18 10 -18 21 0 6344 4509 13 MP
DP
-13 -18 13 -18 -21 0 -10 -18 -10 18 -21 0 13 18 -13 18 
21 0 10 18 10 -18 21 0 6800 4509 13 MP
DP
-13 -18 13 -18 -21 0 -10 -18 -10 18 -21 0 13 18 -13 18 
21 0 10 18 10 -18 21 0 7257 4509 13 MP
DP
-13 -18 13 -18 -21 0 -10 -18 -10 18 -21 0 13 18 -13 18 
21 0 10 18 10 -18 21 0 7714 4509 13 MP
DP
-13 -18 13 -18 -21 0 -10 -18 -10 18 -21 0 13 18 -13 18 
21 0 10 18 10 -18 21 0 8171 4509 13 MP
DP
DO
gr

gs 4548 2665 3655 1864 rc
gr

0 sg
%%IncludeResource: font Helvetica
/Helvetica /WindowsLatin1Encoding 120 FMSR

4523 4580 mt 
( ) s
8178 2716 mt 
( ) s
SO
6 w
1 sg
0 2058 936 0 0 -2058 8360 3260 4 MP
PP
-936 0 0 2058 936 0 0 -2058 8360 3260 5 MP stroke
4 w
DO
SO
6 w
0 sg
8360 1202 mt 9296 1202 L
8360 3260 mt 9296 3260 L
9296 3260 mt 9296 1202 L
8360 3260 mt 8360 1202 L
8360 3260 mt 9296 3260 L
8360 3260 mt 8360 1202 L
8360 1202 mt 9296 1202 L
8360 3260 mt 9296 3260 L
9296 3260 mt 9296 1202 L
8360 3260 mt 8360 1202 L
8829 1349 mt 
(scpnrh4) s
gs 8360 1202 937 2059 rc
18 w
c8
360 0 8432 1307 2 MP stroke
gs 8520 1215 185 185 rc
  36   36 8612 1307 FO
gr

gr

18 w
c8
0 sg
8829 1517 mt 
(scpnrg3) s
gs 8360 1202 937 2059 rc
DO
c9
360 0 8432 1474 2 MP stroke
SO
gs 8520 1382 185 185 rc
0 j
41 71 -82 0 41 -71 8612 1521 4 MP
DP
gr

gr

c9
0 sg
8829 1685 mt 
(scpnrf2) s
gs 8360 1202 937 2059 rc
DD
c10
360 0 8432 1642 2 MP stroke
SO
gs 8520 1550 185 185 rc
8587 1617 mt 8637 1667 L
8637 1617 mt 8587 1667 L
gr

gr

c10
0 sg
8829 1853 mt 
(scpnre1) s
gs 8360 1202 937 2059 rc
DA
c11
360 0 8432 1810 2 MP stroke
SO
gs 8520 1718 185 185 rc
8576 1810 mt 8648 1810 L
8612 1774 mt 8612 1846 L
8587 1785 mt 8637 1835 L
8637 1785 mt 8587 1835 L
gr

gr

c11
0 sg
8829 2021 mt 
(scpe1) s
gs 8360 1202 937 2059 rc
c12
360 0 8432 1978 2 MP stroke
gs 8520 1886 185 186 rc
0 j
0 -58 -58 0 0 58 58 0 8583 1949 5 MP
DP
gr

gr

c12
0 sg
8829 2189 mt 
(scpd2) s
gs 8360 1202 937 2059 rc
DO
c13
360 0 8432 2147 2 MP stroke
SO
gs 8520 2055 185 185 rc
0 j
36 47 -36 47 -36 -47 36 -47 8612 2194 5 MP
DP
gr

gr

c13
0 sg
8829 2358 mt 
(scpc3) s
gs 8360 1202 937 2059 rc
DD
c14
360 0 8432 2314 2 MP stroke
SO
gs 8520 2222 185 185 rc
24 W
8612 2314 PD
gr

gr

c14
0 sg
8829 2526 mt 
(scpb4) s
gs 8360 1202 937 2059 rc
DA
c15
360 0 8432 2482 2 MP stroke
SO
gs 8520 2390 185 185 rc
0 j
-41 71 -41 -71 82 0 8571 2506 4 MP
DP
gr

gr

c15
0 sg
8829 2694 mt 
(scpa5) s
gs 8360 1202 937 2059 rc
c16
360 0 8432 2650 2 MP stroke
gs 8520 2558 185 185 rc
0 j
-71 41 0 -82 71 41 8565 2650 4 MP
DP
gr

gr

c16
0 sg
8829 2862 mt 
(scp63) s
gs 8360 1202 937 2059 rc
DO
c17
360 0 8432 2818 2 MP stroke
SO
gs 8520 2726 185 185 rc
0 j
0 82 -71 -41 71 -41 8588 2859 4 MP
DP
gr

gr

c17
0 sg
8829 3030 mt 
(scp52) s
gs 8360 1202 937 2059 rc
c18
360 0 8432 2986 2 MP stroke
gs 8520 2894 185 185 rc
0 j
-21 -16 8 -25 -22 15 -21 -15 8 25 -21 16 26 0 8 24 
9 -24 26 0 8577 2974 11 MP
DP
gr

gr

c18
0 sg
8829 3198 mt 
(scp41) s
gs 8360 1202 937 2059 rc
DO
c19
360 0 8432 3154 2 MP stroke
SO
gs 8520 3062 185 185 rc
0 j
-13 -18 13 -18 -21 0 -10 -18 -10 18 -21 0 13 18 -13 18 
21 0 10 18 10 -18 21 0 8581 3136 13 MP
DP
gr

6 w
gr

6 w
c19
0 sg
%%IncludeResource: font Helvetica-Bold
/Helvetica-Bold /WindowsLatin1Encoding 120 FMSR

1762 4917 mt 
(Elements Added) s
5943 4897 mt 
(Elements Added) s

end %%Color Dict

eplot
%%EndObject

epage
end

showpage

%%Trailer
%%EOF
