%!PS-Adobe-3.0 EPSF-3.0
%%Creator: MATLAB, The MathWorks, Inc. Version 8.2.0.701 (R2013b). Operating System: Microsoft Windows 8.
%%Title: D:\ch3\journal\jadd.eps
%%CreationDate: 05/17/2016  16:25:49
%%DocumentNeededFonts: Helvetica
%%+ Helvetica-Bold
%%DocumentProcessColors: Cyan Magenta Yellow Black
%%LanguageLevel: 2
%%Pages: 1
%%BoundingBox:  -422    59  1019   782
%%EndComments

%%BeginProlog
% MathWorks dictionary
/MathWorks 160 dict begin
% definition operators
/bdef {bind def} bind def
/ldef {load def} bind def
/xdef {exch def} bdef
/xstore {exch store} bdef
% operator abbreviations
/c  /clip ldef
/cc /concat ldef
/cp /closepath ldef
/gr /grestore ldef
/gs /gsave ldef
/mt /moveto ldef
/np /newpath ldef
/cm /currentmatrix ldef
/sm /setmatrix ldef
/rm /rmoveto ldef
/rl /rlineto ldef
/s {show newpath} bdef
/sc {setcmykcolor} bdef
/sr /setrgbcolor ldef
/sg /setgray ldef
/w /setlinewidth ldef
/j /setlinejoin ldef
/cap /setlinecap ldef
/rc {rectclip} bdef
/rf {rectfill} bdef
% page state control
/pgsv () def
/bpage {/pgsv save def} bdef
/epage {pgsv restore} bdef
/bplot /gsave ldef
/eplot {stroke grestore} bdef
% orientation switch
/portraitMode 0 def /landscapeMode 1 def /rotateMode 2 def
% coordinate system mappings
/dpi2point 0 def
% font control
/FontSize 0 def
/FMS {/FontSize xstore findfont [FontSize 0 0 FontSize neg 0 0]
  makefont setfont} bdef
/ISOLatin1Encoding where {pop /WindowsLatin1Encoding 256 array bdef
ISOLatin1Encoding WindowsLatin1Encoding copy pop
/.notdef/.notdef/quotesinglbase/florin/quotedblbase/ellipsis/dagger
/daggerdbl/circumflex/perthousand/Scaron/guilsinglleft/OE/.notdef/.notdef
/.notdef/.notdef/quoteleft/quoteright/quotedblleft/quotedblright/bullet
/endash/emdash/tilde/trademark/scaron/guilsinglright/oe/.notdef/.notdef
/Ydieresis WindowsLatin1Encoding 128 32 getinterval astore pop}
{/WindowsLatin1Encoding StandardEncoding bdef} ifelse
/reencode {exch dup where {pop load} {pop StandardEncoding} ifelse
  exch dup 3 1 roll findfont dup length dict begin
  { 1 index /FID ne {def}{pop pop} ifelse } forall
  /Encoding exch def currentdict end definefont pop} bdef
/isroman {findfont /CharStrings get /Agrave known} bdef
/FMSR {3 1 roll 1 index dup isroman {reencode} {pop pop} ifelse
  exch FMS} bdef
/csm {1 dpi2point div -1 dpi2point div scale neg translate
 dup landscapeMode eq {pop -90 rotate}
  {rotateMode eq {90 rotate} if} ifelse} bdef
% line types: solid, dotted, dashed, dotdash
/SO { [] 0 setdash } bdef
/DO { [.5 dpi2point mul 4 dpi2point mul] 0 setdash } bdef
/DA { [6 dpi2point mul] 0 setdash } bdef
/DD { [.5 dpi2point mul 4 dpi2point mul 6 dpi2point mul 4
  dpi2point mul] 0 setdash } bdef
% macros for lines and objects
/L {lineto stroke} bdef
/MP {3 1 roll moveto 1 sub {rlineto} repeat} bdef
/AP {{rlineto} repeat} bdef
/PDlw -1 def
/W {/PDlw currentlinewidth def setlinewidth} def
/PP {closepath eofill} bdef
/DP {closepath stroke} bdef
/MR {4 -2 roll moveto dup  0 exch rlineto exch 0 rlineto
  neg 0 exch rlineto closepath} bdef
/FR {MR stroke} bdef
/PR {MR fill} bdef
/L1i {{currentfile picstr readhexstring pop} image} bdef
/tMatrix matrix def
/MakeOval {newpath tMatrix currentmatrix pop translate scale
0 0 1 0 360 arc tMatrix setmatrix} bdef
/FO {MakeOval stroke} bdef
/PO {MakeOval fill} bdef
/PD {currentlinewidth 2 div 0 360 arc fill
   PDlw -1 eq not {PDlw w /PDlw -1 def} if} def
/FA {newpath tMatrix currentmatrix pop translate scale
  0 0 1 5 -2 roll arc tMatrix setmatrix stroke} bdef
/PA {newpath tMatrix currentmatrix pop	translate 0 0 moveto scale
  0 0 1 5 -2 roll arc closepath tMatrix setmatrix fill} bdef
/FAn {newpath tMatrix currentmatrix pop translate scale
  0 0 1 5 -2 roll arcn tMatrix setmatrix stroke} bdef
/PAn {newpath tMatrix currentmatrix pop translate 0 0 moveto scale
  0 0 1 5 -2 roll arcn closepath tMatrix setmatrix fill} bdef
/vradius 0 def /hradius 0 def /lry 0 def
/lrx 0 def /uly 0 def /ulx 0 def /rad 0 def
/MRR {/vradius xdef /hradius xdef /lry xdef /lrx xdef /uly xdef
  /ulx xdef newpath tMatrix currentmatrix pop ulx hradius add uly
  vradius add translate hradius vradius scale 0 0 1 180 270 arc 
  tMatrix setmatrix lrx hradius sub uly vradius add translate
  hradius vradius scale 0 0 1 270 360 arc tMatrix setmatrix
  lrx hradius sub lry vradius sub translate hradius vradius scale
  0 0 1 0 90 arc tMatrix setmatrix ulx hradius add lry vradius sub
  translate hradius vradius scale 0 0 1 90 180 arc tMatrix setmatrix
  closepath} bdef
/FRR {MRR stroke } bdef
/PRR {MRR fill } bdef
/MlrRR {/lry xdef /lrx xdef /uly xdef /ulx xdef /rad lry uly sub 2 div def
  newpath tMatrix currentmatrix pop ulx rad add uly rad add translate
  rad rad scale 0 0 1 90 270 arc tMatrix setmatrix lrx rad sub lry rad
  sub translate rad rad scale 0 0 1 270 90 arc tMatrix setmatrix
  closepath} bdef
/FlrRR {MlrRR stroke } bdef
/PlrRR {MlrRR fill } bdef
/MtbRR {/lry xdef /lrx xdef /uly xdef /ulx xdef /rad lrx ulx sub 2 div def
  newpath tMatrix currentmatrix pop ulx rad add uly rad add translate
  rad rad scale 0 0 1 180 360 arc tMatrix setmatrix lrx rad sub lry rad
  sub translate rad rad scale 0 0 1 0 180 arc tMatrix setmatrix
  closepath} bdef
/FtbRR {MtbRR stroke } bdef
/PtbRR {MtbRR fill } bdef
/stri 6 array def /dtri 6 array def
/smat 6 array def /dmat 6 array def
/tmat1 6 array def /tmat2 6 array def /dif 3 array def
/asub {/ind2 exch def /ind1 exch def dup dup
  ind1 get exch ind2 get sub exch } bdef
/tri_to_matrix {
  2 0 asub 3 1 asub 4 0 asub 5 1 asub
  dup 0 get exch 1 get 7 -1 roll astore } bdef
/compute_transform {
  dmat dtri tri_to_matrix tmat1 invertmatrix 
  smat stri tri_to_matrix tmat2 concatmatrix } bdef
/ds {stri astore pop} bdef
/dt {dtri astore pop} bdef
/db {2 copy /cols xdef /rows xdef mul dup 3 mul string
  currentfile 
  3 index 0 eq {/ASCIIHexDecode filter}
  {/ASCII85Decode filter 3 index 2 eq {/RunLengthDecode filter} if }
  ifelse exch readstring pop
  dup 0 3 index getinterval /rbmap xdef
  dup 2 index dup getinterval /gbmap xdef
  1 index dup 2 mul exch getinterval /bbmap xdef pop pop}bdef
/it {gs np dtri aload pop moveto lineto lineto cp c
  cols rows 8 compute_transform 
  rbmap gbmap bbmap true 3 colorimage gr}bdef
/il {newpath moveto lineto stroke}bdef
currentdict end def
%%EndProlog

%%BeginSetup
MathWorks begin

0 cap

end
%%EndSetup

%%Page: 1 1
%%BeginPageSetup
%%PageBoundingBox:  -422    59  1019   782
MathWorks begin
bpage
%%EndPageSetup

%%BeginObject: obj1
bplot

/dpi2point 12 def
portraitMode -5064 9384 csm

    0     0 17294  8671 rc
94 dict begin %Colortable dictionary
/c0 { 0.000000 0.000000 0.000000 sr} bdef
/c1 { 1.000000 1.000000 1.000000 sr} bdef
/c2 { 0.900000 0.000000 0.000000 sr} bdef
/c3 { 0.000000 0.820000 0.000000 sr} bdef
/c4 { 0.000000 0.000000 0.800000 sr} bdef
/c5 { 0.910000 0.820000 0.320000 sr} bdef
/c6 { 1.000000 0.260000 0.820000 sr} bdef
/c7 { 0.000000 0.820000 0.820000 sr} bdef
c0
1 j
1 sg
   0    0 17295 8672 rf
6 w
0 1084 6659 0 0 -1084 1729 1951 4 MP
PP
-6659 0 0 1084 6659 0 0 -1084 1729 1951 5 MP stroke
4 w
DO
0 sg
1729 1951 mt 1729  867 L
1729  867 mt 1729  867 L
2561 1951 mt 2561  867 L
2561  867 mt 2561  867 L
3393 1951 mt 3393  867 L
3393  867 mt 3393  867 L
4226 1951 mt 4226  867 L
4226  867 mt 4226  867 L
5058 1951 mt 5058  867 L
5058  867 mt 5058  867 L
5890 1951 mt 5890  867 L
5890  867 mt 5890  867 L
6723 1951 mt 6723  867 L
6723  867 mt 6723  867 L
7555 1951 mt 7555  867 L
7555  867 mt 7555  867 L
8388 1951 mt 8388  867 L
8388  867 mt 8388  867 L
1729 1951 mt 8388 1951 L
8388 1951 mt 8388 1951 L
1729 1680 mt 8388 1680 L
8388 1680 mt 8388 1680 L
1729 1409 mt 8388 1409 L
8388 1409 mt 8388 1409 L
1729 1138 mt 8388 1138 L
8388 1138 mt 8388 1138 L
1729  867 mt 8388  867 L
8388  867 mt 8388  867 L
SO
6 w
1729  867 mt 8388  867 L
1729 1951 mt 8388 1951 L
8388 1951 mt 8388  867 L
1729 1951 mt 1729  867 L
1729 1951 mt 8388 1951 L
1729 1951 mt 1729  867 L
1729 1951 mt 1729 1884 L
1729  867 mt 1729  933 L
%%IncludeResource: font Helvetica
/Helvetica /WindowsLatin1Encoding 120 FMSR

1663 2096 mt 
(10) s
2561 1951 mt 2561 1884 L
2561  867 mt 2561  933 L
2495 2096 mt 
(20) s
3393 1951 mt 3393 1884 L
3393  867 mt 3393  933 L
3327 2096 mt 
(30) s
4226 1951 mt 4226 1884 L
4226  867 mt 4226  933 L
4160 2096 mt 
(40) s
5058 1951 mt 5058 1884 L
5058  867 mt 5058  933 L
4992 2096 mt 
(50) s
5890 1951 mt 5890 1884 L
5890  867 mt 5890  933 L
5824 2096 mt 
(60) s
6723 1951 mt 6723 1884 L
6723  867 mt 6723  933 L
6657 2096 mt 
(70) s
7555 1951 mt 7555 1884 L
7555  867 mt 7555  933 L
7489 2096 mt 
(80) s
8388 1951 mt 8388 1884 L
8388  867 mt 8388  933 L
8322 2096 mt 
(90) s
1729 1951 mt 1795 1951 L
8388 1951 mt 8321 1951 L
1628 1995 mt 
(0) s
1729 1680 mt 1795 1680 L
8388 1680 mt 8321 1680 L
1561 1724 mt 
(50) s
1729 1409 mt 1795 1409 L
8388 1409 mt 8321 1409 L
1494 1453 mt 
(100) s
1729 1138 mt 1795 1138 L
8388 1138 mt 8321 1138 L
1494 1182 mt 
(150) s
1729  867 mt 1795  867 L
8388  867 mt 8321  867 L
1494  911 mt 
(200) s
1729  867 mt 8388  867 L
1729 1951 mt 8388 1951 L
8388 1951 mt 8388  867 L
1729 1951 mt 1729  867 L
gs 1729 867 6660 1085 rc
18 w
/c8 { 0.000000 0.000000 1.000000 sr} bdef
c8
833 -10 832 -7 833 29 832 15 832 -25 833 18 832 49 832 21 
1729 1661 9 MP stroke
gr

18 w
c8
  36   36 1729 1661 FO
  36   36 2561 1682 FO
  36   36 3393 1731 FO
  36   36 4226 1749 FO
  36   36 5058 1724 FO
  36   36 5890 1739 FO
  36   36 6723 1768 FO
  36   36 7555 1761 FO
  36   36 8388 1751 FO
gs 1729 867 6660 1085 rc
gr

0 sg
%%IncludeResource: font Helvetica-Bold
/Helvetica-Bold /WindowsLatin1Encoding 120 FMSR

3900  718 mt 
(Generations to reach feasible region \(D) s
%%IncludeResource: font Helvetica-Bold
/Helvetica-Bold /WindowsLatin1Encoding 96 FMSR

6137  778 mt 
(g) s
%%IncludeResource: font Helvetica-Bold
/Helvetica-Bold /WindowsLatin1Encoding 120 FMSR

6195  718 mt 
(\)) s
gs 1729 867 6660 1085 rc
DO
/c9 { 1.000000 0.000000 0.000000 sr} bdef
c9
833 58 832 -130 833 192 832 -70 832 -18 833 -29 832 105 832 122 
1729 1304 9 MP stroke
gr

c9
DO
SO
0 j
41 71 -82 0 41 -71 1729 1351 4 MP
DP
41 71 -82 0 41 -71 2561 1473 4 MP
DP
41 71 -82 0 41 -71 3393 1578 4 MP
DP
41 71 -82 0 41 -71 4226 1549 4 MP
DP
41 71 -82 0 41 -71 5058 1531 4 MP
DP
41 71 -82 0 41 -71 5890 1461 4 MP
DP
41 71 -82 0 41 -71 6723 1653 4 MP
DP
41 71 -82 0 41 -71 7555 1523 4 MP
DP
41 71 -82 0 41 -71 8388 1581 4 MP
DP
DO
gs 1729 867 6660 1085 rc
DD
/c10 { 0.000000 1.000000 0.000000 sr} bdef
c10
833 4 832 0 833 2 832 7 832 -1 833 6 832 0 832 8 
1729 1865 9 MP stroke
gr

c10
DD
SO
1704 1840 mt 1754 1890 L
1754 1840 mt 1704 1890 L
2536 1848 mt 2586 1898 L
2586 1848 mt 2536 1898 L
3368 1848 mt 3418 1898 L
3418 1848 mt 3368 1898 L
4201 1854 mt 4251 1904 L
4251 1854 mt 4201 1904 L
5033 1853 mt 5083 1903 L
5083 1853 mt 5033 1903 L
5865 1860 mt 5915 1910 L
5915 1860 mt 5865 1910 L
6698 1862 mt 6748 1912 L
6748 1862 mt 6698 1912 L
7530 1862 mt 7580 1912 L
7580 1862 mt 7530 1912 L
8363 1866 mt 8413 1916 L
8413 1866 mt 8363 1916 L
DD
gs 1729 867 6660 1085 rc
DA
/c11 { 0.000000 0.000000 0.172414 sr} bdef
c11
833 -13 832 21 833 -7 832 -2 832 13 833 39 832 -29 832 74 
1729 1747 9 MP stroke
gr

c11
DA
SO
1693 1747 mt 1765 1747 L
1729 1711 mt 1729 1783 L
2525 1821 mt 2597 1821 L
2561 1785 mt 2561 1857 L
3357 1792 mt 3429 1792 L
3393 1756 mt 3393 1828 L
4190 1831 mt 4262 1831 L
4226 1795 mt 4226 1867 L
5022 1844 mt 5094 1844 L
5058 1808 mt 5058 1880 L
5854 1842 mt 5926 1842 L
5890 1806 mt 5890 1878 L
6687 1835 mt 6759 1835 L
6723 1799 mt 6723 1871 L
7519 1856 mt 7591 1856 L
7555 1820 mt 7555 1892 L
8352 1843 mt 8424 1843 L
8388 1807 mt 8388 1879 L
1704 1722 mt 1754 1772 L
1754 1722 mt 1704 1772 L
2536 1796 mt 2586 1846 L
2586 1796 mt 2536 1846 L
3368 1767 mt 3418 1817 L
3418 1767 mt 3368 1817 L
4201 1806 mt 4251 1856 L
4251 1806 mt 4201 1856 L
5033 1819 mt 5083 1869 L
5083 1819 mt 5033 1869 L
5865 1817 mt 5915 1867 L
5915 1817 mt 5865 1867 L
6698 1810 mt 6748 1860 L
6748 1810 mt 6698 1860 L
7530 1831 mt 7580 1881 L
7580 1831 mt 7530 1881 L
8363 1818 mt 8413 1868 L
8413 1818 mt 8363 1868 L
DA
gs 1729 867 6660 1085 rc
SO
/c12 { 1.000000 0.103448 0.724138 sr} bdef
c12
833 6 832 4 833 6 832 -10 832 2 833 2 832 -7 832 8 
1729 1874 9 MP stroke
gr

c12
SO
0 -58 -58 0 0 58 58 0 1700 1845 5 MP
DP
0 -58 -58 0 0 58 58 0 2532 1853 5 MP
DP
0 -58 -58 0 0 58 58 0 3364 1846 5 MP
DP
0 -58 -58 0 0 58 58 0 4197 1848 5 MP
DP
0 -58 -58 0 0 58 58 0 5029 1850 5 MP
DP
0 -58 -58 0 0 58 58 0 5861 1840 5 MP
DP
0 -58 -58 0 0 58 58 0 6694 1846 5 MP
DP
0 -58 -58 0 0 58 58 0 7526 1850 5 MP
DP
0 -58 -58 0 0 58 58 0 8359 1856 5 MP
DP
gs 1729 867 6660 1085 rc
DO
/c13 { 0.000000 0.344828 0.000000 sr} bdef
c13
833 21 832 74 833 -12 832 14 832 20 833 -25 832 58 832 25 
1729 1675 9 MP stroke
gr

c13
DO
SO
36 47 -36 47 -36 -47 36 -47 1729 1722 5 MP
DP
36 47 -36 47 -36 -47 36 -47 2561 1747 5 MP
DP
36 47 -36 47 -36 -47 36 -47 3393 1805 5 MP
DP
36 47 -36 47 -36 -47 36 -47 4226 1780 5 MP
DP
36 47 -36 47 -36 -47 36 -47 5058 1800 5 MP
DP
36 47 -36 47 -36 -47 36 -47 5890 1814 5 MP
DP
36 47 -36 47 -36 -47 36 -47 6723 1802 5 MP
DP
36 47 -36 47 -36 -47 36 -47 7555 1876 5 MP
DP
36 47 -36 47 -36 -47 36 -47 8388 1897 5 MP
DP
DO
gs 1729 867 6660 1085 rc
DD
833 -25 832 -69 833 31 832 28 832 76 833 142 832 105 832 216 
1729 1129 9 MP stroke
gr

DD
SO
24 W
1729 1129 PD
24 W
2561 1345 PD
24 W
3393 1450 PD
24 W
4226 1592 PD
24 W
5058 1668 PD
24 W
5890 1696 PD
24 W
6723 1727 PD
24 W
7555 1658 PD
24 W
8388 1633 PD
DD
gs 1729 867 6660 1085 rc
DA
/c14 { 0.517241 0.517241 1.000000 sr} bdef
c14
833 6 832 -7 833 57 832 -12 832 3 833 76 832 8 832 -13 
1729 1660 9 MP stroke
gr

c14
DA
SO
-41 71 -41 -71 82 0 1688 1684 4 MP
DP
-41 71 -41 -71 82 0 2520 1671 4 MP
DP
-41 71 -41 -71 82 0 3352 1679 4 MP
DP
-41 71 -41 -71 82 0 4185 1755 4 MP
DP
-41 71 -41 -71 82 0 5017 1758 4 MP
DP
-41 71 -41 -71 82 0 5849 1746 4 MP
DP
-41 71 -41 -71 82 0 6682 1803 4 MP
DP
-41 71 -41 -71 82 0 7514 1796 4 MP
DP
-41 71 -41 -71 82 0 8347 1802 4 MP
DP
DA
gs 1729 867 6660 1085 rc
SO
/c15 { 0.620690 0.310345 0.275862 sr} bdef
c15
833 -361 832 78 833 -46 832 48 832 117 833 10 832 106 832 146 
1729 1195 9 MP stroke
gr

c15
SO
-71 41 0 -82 71 41 1682 1195 4 MP
DP
-71 41 0 -82 71 41 2514 1341 4 MP
DP
-71 41 0 -82 71 41 3346 1447 4 MP
DP
-71 41 0 -82 71 41 4179 1457 4 MP
DP
-71 41 0 -82 71 41 5011 1574 4 MP
DP
-71 41 0 -82 71 41 5843 1622 4 MP
DP
-71 41 0 -82 71 41 6676 1576 4 MP
DP
-71 41 0 -82 71 41 7508 1654 4 MP
DP
-71 41 0 -82 71 41 8341 1293 4 MP
DP
gs 1729 867 6660 1085 rc
DO
/c16 { 0.000000 1.000000 0.758621 sr} bdef
c16
833 85 832 -83 833 8 832 74 832 -69 833 120 832 -6 832 13 
1729 1672 9 MP stroke
gr

c16
DO
SO
0 82 -71 -41 71 -41 1705 1713 4 MP
DP
0 82 -71 -41 71 -41 2537 1726 4 MP
DP
0 82 -71 -41 71 -41 3369 1720 4 MP
DP
0 82 -71 -41 71 -41 4202 1840 4 MP
DP
0 82 -71 -41 71 -41 5034 1771 4 MP
DP
0 82 -71 -41 71 -41 5866 1845 4 MP
DP
0 82 -71 -41 71 -41 6699 1853 4 MP
DP
0 82 -71 -41 71 -41 7531 1770 4 MP
DP
0 82 -71 -41 71 -41 8364 1855 4 MP
DP
DO
gs 1729 867 6660 1085 rc
SO
/c17 { 0.000000 0.517241 0.586207 sr} bdef
c17
833 9 832 29 833 66 832 104 832 -208 833 319 832 95 832 -60 
1729 1334 9 MP stroke
gr

c17
SO
-21 -16 8 -25 -22 15 -21 -15 8 25 -21 16 26 0 8 24 
9 -24 26 0 1694 1322 11 MP
DP
-21 -16 8 -25 -22 15 -21 -15 8 25 -21 16 26 0 8 24 
9 -24 26 0 2526 1262 11 MP
DP
-21 -16 8 -25 -22 15 -21 -15 8 25 -21 16 26 0 8 24 
9 -24 26 0 3358 1357 11 MP
DP
-21 -16 8 -25 -22 15 -21 -15 8 25 -21 16 26 0 8 24 
9 -24 26 0 4191 1676 11 MP
DP
-21 -16 8 -25 -22 15 -21 -15 8 25 -21 16 26 0 8 24 
9 -24 26 0 5023 1468 11 MP
DP
-21 -16 8 -25 -22 15 -21 -15 8 25 -21 16 26 0 8 24 
9 -24 26 0 5855 1572 11 MP
DP
-21 -16 8 -25 -22 15 -21 -15 8 25 -21 16 26 0 8 24 
9 -24 26 0 6688 1638 11 MP
DP
-21 -16 8 -25 -22 15 -21 -15 8 25 -21 16 26 0 8 24 
9 -24 26 0 7520 1667 11 MP
DP
-21 -16 8 -25 -22 15 -21 -15 8 25 -21 16 26 0 8 24 
9 -24 26 0 8353 1676 11 MP
DP
gs 1729 867 6660 1085 rc
DO
/c18 { 0.000000 0.000000 0.482759 sr} bdef
c18
833 37 832 -67 833 103 832 -63 832 -59 833 212 832 208 832 -5 
1729 1145 9 MP stroke
gr

c18
DO
SO
-13 -18 13 -18 -21 0 -10 -18 -10 18 -21 0 13 18 -13 18 
21 0 10 18 10 -18 21 0 1698 1127 13 MP
DP
-13 -18 13 -18 -21 0 -10 -18 -10 18 -21 0 13 18 -13 18 
21 0 10 18 10 -18 21 0 2530 1122 13 MP
DP
-13 -18 13 -18 -21 0 -10 -18 -10 18 -21 0 13 18 -13 18 
21 0 10 18 10 -18 21 0 3362 1330 13 MP
DP
-13 -18 13 -18 -21 0 -10 -18 -10 18 -21 0 13 18 -13 18 
21 0 10 18 10 -18 21 0 4195 1542 13 MP
DP
-13 -18 13 -18 -21 0 -10 -18 -10 18 -21 0 13 18 -13 18 
21 0 10 18 10 -18 21 0 5027 1483 13 MP
DP
-13 -18 13 -18 -21 0 -10 -18 -10 18 -21 0 13 18 -13 18 
21 0 10 18 10 -18 21 0 5859 1420 13 MP
DP
-13 -18 13 -18 -21 0 -10 -18 -10 18 -21 0 13 18 -13 18 
21 0 10 18 10 -18 21 0 6692 1523 13 MP
DP
-13 -18 13 -18 -21 0 -10 -18 -10 18 -21 0 13 18 -13 18 
21 0 10 18 10 -18 21 0 7524 1456 13 MP
DP
-13 -18 13 -18 -21 0 -10 -18 -10 18 -21 0 13 18 -13 18 
21 0 10 18 10 -18 21 0 8357 1493 13 MP
DP
DO
gs 1729 867 6660 1085 rc
SO
6 w
gr

6 w
SO
1 sg
0 1084 6659 0 0 -1084 8906 1951 4 MP
PP
-6659 0 0 1084 6659 0 0 -1084 8906 1951 5 MP stroke
4 w
DO
0 sg
8906 1951 mt 8906  867 L
8906  867 mt 8906  867 L
9738 1951 mt 9738  867 L
9738  867 mt 9738  867 L
10570 1951 mt 10570  867 L
10570  867 mt 10570  867 L
11403 1951 mt 11403  867 L
11403  867 mt 11403  867 L
12235 1951 mt 12235  867 L
12235  867 mt 12235  867 L
13067 1951 mt 13067  867 L
13067  867 mt 13067  867 L
13900 1951 mt 13900  867 L
13900  867 mt 13900  867 L
14732 1951 mt 14732  867 L
14732  867 mt 14732  867 L
15565 1951 mt 15565  867 L
15565  867 mt 15565  867 L
8906 1951 mt 15565 1951 L
15565 1951 mt 15565 1951 L
8906 1680 mt 15565 1680 L
15565 1680 mt 15565 1680 L
8906 1409 mt 15565 1409 L
15565 1409 mt 15565 1409 L
8906 1138 mt 15565 1138 L
15565 1138 mt 15565 1138 L
8906  867 mt 15565  867 L
15565  867 mt 15565  867 L
SO
6 w
8906  867 mt 15565  867 L
8906 1951 mt 15565 1951 L
15565 1951 mt 15565  867 L
8906 1951 mt 8906  867 L
8906 1951 mt 15565 1951 L
8906 1951 mt 8906  867 L
8906 1951 mt 8906 1884 L
8906  867 mt 8906  933 L
%%IncludeResource: font Helvetica
/Helvetica /WindowsLatin1Encoding 120 FMSR

8840 2096 mt 
(10) s
9738 1951 mt 9738 1884 L
9738  867 mt 9738  933 L
9672 2096 mt 
(20) s
10570 1951 mt 10570 1884 L
10570  867 mt 10570  933 L
10504 2096 mt 
(30) s
11403 1951 mt 11403 1884 L
11403  867 mt 11403  933 L
11337 2096 mt 
(40) s
12235 1951 mt 12235 1884 L
12235  867 mt 12235  933 L
12169 2096 mt 
(50) s
13067 1951 mt 13067 1884 L
13067  867 mt 13067  933 L
13001 2096 mt 
(60) s
13900 1951 mt 13900 1884 L
13900  867 mt 13900  933 L
13834 2096 mt 
(70) s
14732 1951 mt 14732 1884 L
14732  867 mt 14732  933 L
14666 2096 mt 
(80) s
15565 1951 mt 15565 1884 L
15565  867 mt 15565  933 L
15499 2096 mt 
(90) s
8906 1951 mt 8972 1951 L
15565 1951 mt 15498 1951 L
8805 1995 mt 
(0) s
8906 1680 mt 8972 1680 L
15565 1680 mt 15498 1680 L
8805 1724 mt 
(2) s
8906 1409 mt 8972 1409 L
15565 1409 mt 15498 1409 L
8805 1453 mt 
(4) s
8906 1138 mt 8972 1138 L
15565 1138 mt 15498 1138 L
8805 1182 mt 
(6) s
8906  867 mt 8972  867 L
15565  867 mt 15498  867 L
8805  911 mt 
(8) s
8906  813 mt 
(x 10) s
%%IncludeResource: font Helvetica
/Helvetica /WindowsLatin1Encoding 80 FMSR

9132  739 mt 
(-3) s
8906  867 mt 15565  867 L
8906 1951 mt 15565 1951 L
15565 1951 mt 15565  867 L
8906 1951 mt 8906  867 L
gs 8906 867 6660 1085 rc
18 w
c8
833 0 832 0 833 0 832 0 832 3 833 -3 832 0 832 0 
8906 1950 9 MP stroke
gr

18 w
c8
  36   36 8906 1950 FO
  36   36 9738 1950 FO
  36   36 10570 1950 FO
  36   36 11403 1947 FO
  36   36 12235 1950 FO
  36   36 13067 1950 FO
  36   36 13900 1950 FO
  36   36 14732 1950 FO
  36   36 15565 1950 FO
gs 8906 867 6660 1085 rc
gr

0 sg
%%IncludeResource: font Helvetica-Bold
/Helvetica-Bold /WindowsLatin1Encoding 120 FMSR

11563  772 mt 
(Wilcoxon rank sum test) s
gs 8906 867 6660 1085 rc
DO
c9
833 -7 832 7 833 -7 832 0 832 0 833 8 832 -8 832 0 
8906 1950 9 MP stroke
gr

c9
DO
SO
41 71 -82 0 41 -71 8906 1997 4 MP
DP
41 71 -82 0 41 -71 9738 1997 4 MP
DP
41 71 -82 0 41 -71 10570 1989 4 MP
DP
41 71 -82 0 41 -71 11403 1997 4 MP
DP
41 71 -82 0 41 -71 12235 1997 4 MP
DP
41 71 -82 0 41 -71 13067 1997 4 MP
DP
41 71 -82 0 41 -71 13900 1990 4 MP
DP
41 71 -82 0 41 -71 14732 1997 4 MP
DP
41 71 -82 0 41 -71 15565 1990 4 MP
DP
DO
gs 8906 867 6660 1085 rc
DD
c10
833 0 832 0 833 0 832 0 832 0 833 0 832 0 832 0 
8906 1950 9 MP stroke
gr

c10
DD
SO
8881 1925 mt 8931 1975 L
8931 1925 mt 8881 1975 L
9713 1925 mt 9763 1975 L
9763 1925 mt 9713 1975 L
10545 1925 mt 10595 1975 L
10595 1925 mt 10545 1975 L
11378 1925 mt 11428 1975 L
11428 1925 mt 11378 1975 L
12210 1925 mt 12260 1975 L
12260 1925 mt 12210 1975 L
13042 1925 mt 13092 1975 L
13092 1925 mt 13042 1975 L
13875 1925 mt 13925 1975 L
13925 1925 mt 13875 1975 L
14707 1925 mt 14757 1975 L
14757 1925 mt 14707 1975 L
15540 1925 mt 15590 1975 L
15590 1925 mt 15540 1975 L
DD
gs 8906 867 6660 1085 rc
DA
c11
833 0 832 0 833 0 832 0 832 0 833 0 832 0 832 0 
8906 1950 9 MP stroke
gr

c11
DA
SO
8870 1950 mt 8942 1950 L
8906 1914 mt 8906 1986 L
9702 1950 mt 9774 1950 L
9738 1914 mt 9738 1986 L
10534 1950 mt 10606 1950 L
10570 1914 mt 10570 1986 L
11367 1950 mt 11439 1950 L
11403 1914 mt 11403 1986 L
12199 1950 mt 12271 1950 L
12235 1914 mt 12235 1986 L
13031 1950 mt 13103 1950 L
13067 1914 mt 13067 1986 L
13864 1950 mt 13936 1950 L
13900 1914 mt 13900 1986 L
14696 1950 mt 14768 1950 L
14732 1914 mt 14732 1986 L
15529 1950 mt 15601 1950 L
15565 1914 mt 15565 1986 L
8881 1925 mt 8931 1975 L
8931 1925 mt 8881 1975 L
9713 1925 mt 9763 1975 L
9763 1925 mt 9713 1975 L
10545 1925 mt 10595 1975 L
10595 1925 mt 10545 1975 L
11378 1925 mt 11428 1975 L
11428 1925 mt 11378 1975 L
12210 1925 mt 12260 1975 L
12260 1925 mt 12210 1975 L
13042 1925 mt 13092 1975 L
13092 1925 mt 13042 1975 L
13875 1925 mt 13925 1975 L
13925 1925 mt 13875 1975 L
14707 1925 mt 14757 1975 L
14757 1925 mt 14707 1975 L
15540 1925 mt 15590 1975 L
15590 1925 mt 15540 1975 L
DA
gs 8906 867 6660 1085 rc
SO
c12
833 0 832 0 833 0 832 0 832 0 833 0 832 0 832 0 
8906 1950 9 MP stroke
gr

c12
SO
0 -58 -58 0 0 58 58 0 8877 1921 5 MP
DP
0 -58 -58 0 0 58 58 0 9709 1921 5 MP
DP
0 -58 -58 0 0 58 58 0 10541 1921 5 MP
DP
0 -58 -58 0 0 58 58 0 11374 1921 5 MP
DP
0 -58 -58 0 0 58 58 0 12206 1921 5 MP
DP
0 -58 -58 0 0 58 58 0 13038 1921 5 MP
DP
0 -58 -58 0 0 58 58 0 13871 1921 5 MP
DP
0 -58 -58 0 0 58 58 0 14703 1921 5 MP
DP
0 -58 -58 0 0 58 58 0 15536 1921 5 MP
DP
gs 8906 867 6660 1085 rc
DO
c13
833 -63 832 -5 833 0 832 0 832 0 833 0 832 0 832 0 
8906 1950 9 MP stroke
gr

c13
DO
SO
36 47 -36 47 -36 -47 36 -47 8906 1997 5 MP
DP
36 47 -36 47 -36 -47 36 -47 9738 1997 5 MP
DP
36 47 -36 47 -36 -47 36 -47 10570 1997 5 MP
DP
36 47 -36 47 -36 -47 36 -47 11403 1997 5 MP
DP
36 47 -36 47 -36 -47 36 -47 12235 1997 5 MP
DP
36 47 -36 47 -36 -47 36 -47 13067 1997 5 MP
DP
36 47 -36 47 -36 -47 36 -47 13900 1997 5 MP
DP
36 47 -36 47 -36 -47 36 -47 14732 1992 5 MP
DP
36 47 -36 47 -36 -47 36 -47 15565 1929 5 MP
DP
DO
gs 8906 867 6660 1085 rc
DD
833 592 832 -334 833 435 832 264 832 -1052 833 -1 832 0 832 0 
8906 1950 9 MP stroke
gr

DD
SO
24 W
8906 1950 PD
24 W
9738 1950 PD
24 W
10570 1950 PD
24 W
11403 1949 PD
24 W
12235 897 PD
24 W
13067 1161 PD
24 W
13900 1596 PD
24 W
14732 1262 PD
24 W
15565 1854 PD
DD
gs 8906 867 6660 1085 rc
DA
c14
833 -1 832 0 833 0 832 0 832 0 833 0 832 0 832 0 
8906 1950 9 MP stroke
gr

c14
DA
SO
-41 71 -41 -71 82 0 8865 1974 4 MP
DP
-41 71 -41 -71 82 0 9697 1974 4 MP
DP
-41 71 -41 -71 82 0 10529 1974 4 MP
DP
-41 71 -41 -71 82 0 11362 1974 4 MP
DP
-41 71 -41 -71 82 0 12194 1974 4 MP
DP
-41 71 -41 -71 82 0 13026 1974 4 MP
DP
-41 71 -41 -71 82 0 13859 1974 4 MP
DP
-41 71 -41 -71 82 0 14691 1974 4 MP
DP
-41 71 -41 -71 82 0 15524 1973 4 MP
DP
DA
gs 8906 867 6660 1085 rc
SO
c15
833 306 832 -305 833 127 832 -117 832 -7 833 -4 832 0 832 0 
8906 1950 9 MP stroke
gr

c15
SO
-71 41 0 -82 71 41 8859 1950 4 MP
DP
-71 41 0 -82 71 41 9691 1950 4 MP
DP
-71 41 0 -82 71 41 10523 1950 4 MP
DP
-71 41 0 -82 71 41 11356 1946 4 MP
DP
-71 41 0 -82 71 41 12188 1939 4 MP
DP
-71 41 0 -82 71 41 13020 1822 4 MP
DP
-71 41 0 -82 71 41 13853 1949 4 MP
DP
-71 41 0 -82 71 41 14685 1644 4 MP
DP
-71 41 0 -82 71 41 15518 1950 4 MP
DP
gs 8906 867 6660 1085 rc
DO
c16
833 -44 832 0 833 17 832 -17 832 1 833 -1 832 0 832 0 
8906 1950 9 MP stroke
gr

c16
DO
SO
0 82 -71 -41 71 -41 8882 1991 4 MP
DP
0 82 -71 -41 71 -41 9714 1991 4 MP
DP
0 82 -71 -41 71 -41 10546 1991 4 MP
DP
0 82 -71 -41 71 -41 11379 1990 4 MP
DP
0 82 -71 -41 71 -41 12211 1991 4 MP
DP
0 82 -71 -41 71 -41 13043 1974 4 MP
DP
0 82 -71 -41 71 -41 13876 1991 4 MP
DP
0 82 -71 -41 71 -41 14708 1991 4 MP
DP
0 82 -71 -41 71 -41 15541 1947 4 MP
DP
DO
gs 8906 867 6660 1085 rc
SO
c17
833 617 832 -808 833 -115 832 0 832 143 833 -143 832 0 832 0 
8906 1950 9 MP stroke
gr

c17
SO
-21 -16 8 -25 -22 15 -21 -15 8 25 -21 16 26 0 8 24 
9 -24 26 0 8871 1938 11 MP
DP
-21 -16 8 -25 -22 15 -21 -15 8 25 -21 16 26 0 8 24 
9 -24 26 0 9703 1938 11 MP
DP
-21 -16 8 -25 -22 15 -21 -15 8 25 -21 16 26 0 8 24 
9 -24 26 0 10535 1938 11 MP
DP
-21 -16 8 -25 -22 15 -21 -15 8 25 -21 16 26 0 8 24 
9 -24 26 0 11368 1795 11 MP
DP
-21 -16 8 -25 -22 15 -21 -15 8 25 -21 16 26 0 8 24 
9 -24 26 0 12200 1938 11 MP
DP
-21 -16 8 -25 -22 15 -21 -15 8 25 -21 16 26 0 8 24 
9 -24 26 0 13032 1938 11 MP
DP
-21 -16 8 -25 -22 15 -21 -15 8 25 -21 16 26 0 8 24 
9 -24 26 0 13865 1823 11 MP
DP
-21 -16 8 -25 -22 15 -21 -15 8 25 -21 16 26 0 8 24 
9 -24 26 0 14697 1015 11 MP
DP
-21 -16 8 -25 -22 15 -21 -15 8 25 -21 16 26 0 8 24 
9 -24 26 0 15530 1632 11 MP
DP
gs 8906 867 6660 1085 rc
DO
c18
833 0 832 93 833 -93 832 -5 832 27 833 -27 832 0 832 0 
8906 1950 9 MP stroke
gr

c18
DO
SO
-13 -18 13 -18 -21 0 -10 -18 -10 18 -21 0 13 18 -13 18 
21 0 10 18 10 -18 21 0 8875 1932 13 MP
DP
-13 -18 13 -18 -21 0 -10 -18 -10 18 -21 0 13 18 -13 18 
21 0 10 18 10 -18 21 0 9707 1932 13 MP
DP
-13 -18 13 -18 -21 0 -10 -18 -10 18 -21 0 13 18 -13 18 
21 0 10 18 10 -18 21 0 10539 1932 13 MP
DP
-13 -18 13 -18 -21 0 -10 -18 -10 18 -21 0 13 18 -13 18 
21 0 10 18 10 -18 21 0 11372 1905 13 MP
DP
-13 -18 13 -18 -21 0 -10 -18 -10 18 -21 0 13 18 -13 18 
21 0 10 18 10 -18 21 0 12204 1932 13 MP
DP
-13 -18 13 -18 -21 0 -10 -18 -10 18 -21 0 13 18 -13 18 
21 0 10 18 10 -18 21 0 13036 1927 13 MP
DP
-13 -18 13 -18 -21 0 -10 -18 -10 18 -21 0 13 18 -13 18 
21 0 10 18 10 -18 21 0 13869 1834 13 MP
DP
-13 -18 13 -18 -21 0 -10 -18 -10 18 -21 0 13 18 -13 18 
21 0 10 18 10 -18 21 0 14701 1927 13 MP
DP
-13 -18 13 -18 -21 0 -10 -18 -10 18 -21 0 13 18 -13 18 
21 0 10 18 10 -18 21 0 15534 1927 13 MP
DP
DO
gs 8906 867 6660 1085 rc
SO
6 w
gr

6 w
SO
1 sg
0 1084 6660 0 0 -1084 1728 3902 4 MP
PP
-6660 0 0 1084 6660 0 0 -1084 1728 3902 5 MP stroke
4 w
DO
0 sg
1728 3902 mt 1728 2818 L
1728 2818 mt 1728 2818 L
2561 3902 mt 2561 2818 L
2561 2818 mt 2561 2818 L
3393 3902 mt 3393 2818 L
3393 2818 mt 3393 2818 L
4226 3902 mt 4226 2818 L
4226 2818 mt 4226 2818 L
5058 3902 mt 5058 2818 L
5058 2818 mt 5058 2818 L
5890 3902 mt 5890 2818 L
5890 2818 mt 5890 2818 L
6723 3902 mt 6723 2818 L
6723 2818 mt 6723 2818 L
7555 3902 mt 7555 2818 L
7555 2818 mt 7555 2818 L
8388 3902 mt 8388 2818 L
8388 2818 mt 8388 2818 L
1728 3902 mt 8388 3902 L
8388 3902 mt 8388 3902 L
1728 3540 mt 8388 3540 L
8388 3540 mt 8388 3540 L
1728 3179 mt 8388 3179 L
8388 3179 mt 8388 3179 L
1728 2818 mt 8388 2818 L
8388 2818 mt 8388 2818 L
SO
6 w
1728 2818 mt 8388 2818 L
1728 3902 mt 8388 3902 L
8388 3902 mt 8388 2818 L
1728 3902 mt 1728 2818 L
1728 3902 mt 8388 3902 L
1728 3902 mt 1728 2818 L
1728 3902 mt 1728 3835 L
1728 2818 mt 1728 2884 L
%%IncludeResource: font Helvetica
/Helvetica /WindowsLatin1Encoding 120 FMSR

1662 4047 mt 
(10) s
2561 3902 mt 2561 3835 L
2561 2818 mt 2561 2884 L
2495 4047 mt 
(20) s
3393 3902 mt 3393 3835 L
3393 2818 mt 3393 2884 L
3327 4047 mt 
(30) s
4226 3902 mt 4226 3835 L
4226 2818 mt 4226 2884 L
4160 4047 mt 
(40) s
5058 3902 mt 5058 3835 L
5058 2818 mt 5058 2884 L
4992 4047 mt 
(50) s
5890 3902 mt 5890 3835 L
5890 2818 mt 5890 2884 L
5824 4047 mt 
(60) s
6723 3902 mt 6723 3835 L
6723 2818 mt 6723 2884 L
6657 4047 mt 
(70) s
7555 3902 mt 7555 3835 L
7555 2818 mt 7555 2884 L
7489 4047 mt 
(80) s
8388 3902 mt 8388 3835 L
8388 2818 mt 8388 2884 L
8322 4047 mt 
(90) s
1728 3902 mt 1795 3902 L
8388 3902 mt 8321 3902 L
1628 3946 mt 
(0) s
1728 3540 mt 1795 3540 L
8388 3540 mt 8321 3540 L
1628 3584 mt 
(1) s
1728 3179 mt 1795 3179 L
8388 3179 mt 8321 3179 L
1628 3223 mt 
(2) s
1728 2818 mt 1795 2818 L
8388 2818 mt 8321 2818 L
1628 2862 mt 
(3) s
1728 2764 mt 
(x 10) s
%%IncludeResource: font Helvetica
/Helvetica /WindowsLatin1Encoding 80 FMSR

1954 2690 mt 
(4) s
1728 2818 mt 8388 2818 L
1728 3902 mt 8388 3902 L
8388 3902 mt 8388 2818 L
1728 3902 mt 1728 2818 L
gs 1729 2818 6660 1085 rc
18 w
c8
833 5 832 -8 833 11 832 -4 832 -3 833 -1 832 18 832 -12 
1729 3759 9 MP stroke
gr

18 w
c8
  36   36 2561 3747 FO
  36   36 3393 3765 FO
  36   36 4226 3764 FO
  36   36 5058 3761 FO
  36   36 5890 3757 FO
  36   36 6723 3768 FO
  36   36 7555 3760 FO
  36   36 8388 3765 FO
gs 1729 2818 6660 1085 rc
gr

0 sg
%%IncludeResource: font Helvetica-Bold
/Helvetica-Bold /WindowsLatin1Encoding 120 FMSR

3678 2669 mt 
(Evaluations to reach feasible region \(D) s
%%IncludeResource: font Helvetica-Bold
/Helvetica-Bold /WindowsLatin1Encoding 96 FMSR

5886 2729 mt 
(e) s
%%IncludeResource: font Helvetica-Bold
/Helvetica-Bold /WindowsLatin1Encoding 120 FMSR

5939 2669 mt 
( feasible\)) s
gs 1729 2818 6660 1085 rc
DO
c9
833 -12 832 -50 833 58 832 5 832 -20 833 7 832 11 832 57 
1729 3145 9 MP stroke
gr

c9
DO
SO
41 71 -82 0 41 -71 2561 3249 4 MP
DP
41 71 -82 0 41 -71 3393 3260 4 MP
DP
41 71 -82 0 41 -71 4226 3267 4 MP
DP
41 71 -82 0 41 -71 5058 3247 4 MP
DP
41 71 -82 0 41 -71 5890 3252 4 MP
DP
41 71 -82 0 41 -71 6723 3310 4 MP
DP
41 71 -82 0 41 -71 7555 3260 4 MP
DP
41 71 -82 0 41 -71 8388 3248 4 MP
DP
DO
gs 1729 2818 6660 1085 rc
DD
c10
833 1 832 0 833 0 832 0 832 0 833 0 832 0 832 0 
1729 3893 9 MP stroke
gr

c10
DD
SO
2536 3868 mt 2586 3918 L
2586 3868 mt 2536 3918 L
3368 3868 mt 3418 3918 L
3418 3868 mt 3368 3918 L
4201 3868 mt 4251 3918 L
4251 3868 mt 4201 3918 L
5033 3868 mt 5083 3918 L
5083 3868 mt 5033 3918 L
5865 3868 mt 5915 3918 L
5915 3868 mt 5865 3918 L
6698 3868 mt 6748 3918 L
6748 3868 mt 6698 3918 L
7530 3868 mt 7580 3918 L
7580 3868 mt 7530 3918 L
8363 3869 mt 8413 3919 L
8413 3869 mt 8363 3919 L
DD
gs 1729 2818 6660 1085 rc
DA
c11
833 -2 832 2 833 0 832 -2 832 1 833 5 832 -5 832 7 
1729 3865 9 MP stroke
gr

c11
DA
SO
2525 3872 mt 2597 3872 L
2561 3836 mt 2561 3908 L
3357 3867 mt 3429 3867 L
3393 3831 mt 3393 3903 L
4190 3872 mt 4262 3872 L
4226 3836 mt 4226 3908 L
5022 3873 mt 5094 3873 L
5058 3837 mt 5058 3909 L
5854 3871 mt 5926 3871 L
5890 3835 mt 5890 3907 L
6687 3871 mt 6759 3871 L
6723 3835 mt 6723 3907 L
7519 3873 mt 7591 3873 L
7555 3837 mt 7555 3909 L
8352 3871 mt 8424 3871 L
8388 3835 mt 8388 3907 L
2536 3847 mt 2586 3897 L
2586 3847 mt 2536 3897 L
3368 3842 mt 3418 3892 L
3418 3842 mt 3368 3892 L
4201 3847 mt 4251 3897 L
4251 3847 mt 4201 3897 L
5033 3848 mt 5083 3898 L
5083 3848 mt 5033 3898 L
5865 3846 mt 5915 3896 L
5915 3846 mt 5865 3896 L
6698 3846 mt 6748 3896 L
6748 3846 mt 6698 3896 L
7530 3848 mt 7580 3898 L
7580 3848 mt 7530 3898 L
8363 3846 mt 8413 3896 L
8413 3846 mt 8363 3896 L
DA
gs 1729 2818 6660 1085 rc
SO
c12
833 0 832 0 833 1 832 -1 832 0 833 0 832 0 832 0 
1729 3899 9 MP stroke
gr

c12
SO
0 -58 -58 0 0 58 58 0 2532 3870 5 MP
DP
0 -58 -58 0 0 58 58 0 3364 3870 5 MP
DP
0 -58 -58 0 0 58 58 0 4197 3870 5 MP
DP
0 -58 -58 0 0 58 58 0 5029 3870 5 MP
DP
0 -58 -58 0 0 58 58 0 5861 3869 5 MP
DP
0 -58 -58 0 0 58 58 0 6694 3870 5 MP
DP
0 -58 -58 0 0 58 58 0 7526 3870 5 MP
DP
0 -58 -58 0 0 58 58 0 8359 3870 5 MP
DP
gs 1729 2818 6660 1085 rc
DO
c13
833 5 832 10 833 2 832 3 832 0 833 -7 832 1 832 5 
1729 3804 9 MP stroke
gr

c13
DO
SO
36 47 -36 47 -36 -47 36 -47 2561 3856 5 MP
DP
36 47 -36 47 -36 -47 36 -47 3393 3857 5 MP
DP
36 47 -36 47 -36 -47 36 -47 4226 3850 5 MP
DP
36 47 -36 47 -36 -47 36 -47 5058 3850 5 MP
DP
36 47 -36 47 -36 -47 36 -47 5890 3853 5 MP
DP
36 47 -36 47 -36 -47 36 -47 6723 3855 5 MP
DP
36 47 -36 47 -36 -47 36 -47 7555 3865 5 MP
DP
36 47 -36 47 -36 -47 36 -47 8388 3870 5 MP
DP
DO
gs 1729 2818 6660 1085 rc
DD
833 46 832 -78 833 28 832 11 832 -10 833 49 832 38 832 9 
1729 3405 9 MP stroke
gr

DD
SO
24 W
2561 3414 PD
24 W
3393 3452 PD
24 W
4226 3501 PD
24 W
5058 3491 PD
24 W
5890 3502 PD
24 W
6723 3530 PD
24 W
7555 3452 PD
24 W
8388 3498 PD
DD
gs 1729 2818 6660 1085 rc
DA
c14
833 2 832 -1 833 13 832 -8 832 -4 833 15 832 -10 832 3 
1729 3812 9 MP stroke
gr

c14
DA
SO
-41 71 -41 -71 82 0 2520 3839 4 MP
DP
-41 71 -41 -71 82 0 3352 3829 4 MP
DP
-41 71 -41 -71 82 0 4185 3844 4 MP
DP
-41 71 -41 -71 82 0 5017 3840 4 MP
DP
-41 71 -41 -71 82 0 5849 3832 4 MP
DP
-41 71 -41 -71 82 0 6682 3845 4 MP
DP
-41 71 -41 -71 82 0 7514 3844 4 MP
DP
-41 71 -41 -71 82 0 8347 3846 4 MP
DP
DA
gs 1729 2818 6660 1085 rc
SO
c15
833 -124 832 6 833 0 832 -7 832 39 833 -29 832 -11 832 32 
1729 3512 9 MP stroke
gr

c15
SO
-71 41 0 -82 71 41 2514 3544 4 MP
DP
-71 41 0 -82 71 41 3346 3533 4 MP
DP
-71 41 0 -82 71 41 4179 3504 4 MP
DP
-71 41 0 -82 71 41 5011 3543 4 MP
DP
-71 41 0 -82 71 41 5843 3536 4 MP
DP
-71 41 0 -82 71 41 6676 3536 4 MP
DP
-71 41 0 -82 71 41 7508 3542 4 MP
DP
-71 41 0 -82 71 41 8341 3418 4 MP
DP
gs 1729 2818 6660 1085 rc
DO
c16
833 19 832 -20 833 0 832 9 832 -11 833 15 832 1 832 -4 
1729 3826 9 MP stroke
gr

c16
DO
SO
0 82 -71 -41 71 -41 2537 3863 4 MP
DP
0 82 -71 -41 71 -41 3369 3864 4 MP
DP
0 82 -71 -41 71 -41 4202 3879 4 MP
DP
0 82 -71 -41 71 -41 5034 3868 4 MP
DP
0 82 -71 -41 71 -41 5866 3877 4 MP
DP
0 82 -71 -41 71 -41 6699 3877 4 MP
DP
0 82 -71 -41 71 -41 7531 3857 4 MP
DP
0 82 -71 -41 71 -41 8364 3876 4 MP
DP
DO
gs 1729 2818 6660 1085 rc
SO
c17
833 16 832 4 833 6 832 26 832 -49 833 57 832 10 832 -48 
1729 3600 9 MP stroke
gr

c17
SO
-21 -16 8 -25 -22 15 -21 -15 8 25 -21 16 26 0 8 24 
9 -24 26 0 2526 3540 11 MP
DP
-21 -16 8 -25 -22 15 -21 -15 8 25 -21 16 26 0 8 24 
9 -24 26 0 3358 3550 11 MP
DP
-21 -16 8 -25 -22 15 -21 -15 8 25 -21 16 26 0 8 24 
9 -24 26 0 4191 3607 11 MP
DP
-21 -16 8 -25 -22 15 -21 -15 8 25 -21 16 26 0 8 24 
9 -24 26 0 5023 3558 11 MP
DP
-21 -16 8 -25 -22 15 -21 -15 8 25 -21 16 26 0 8 24 
9 -24 26 0 5855 3584 11 MP
DP
-21 -16 8 -25 -22 15 -21 -15 8 25 -21 16 26 0 8 24 
9 -24 26 0 6688 3590 11 MP
DP
-21 -16 8 -25 -22 15 -21 -15 8 25 -21 16 26 0 8 24 
9 -24 26 0 7520 3594 11 MP
DP
-21 -16 8 -25 -22 15 -21 -15 8 25 -21 16 26 0 8 24 
9 -24 26 0 8353 3610 11 MP
DP
gs 1729 2818 6660 1085 rc
DO
c18
833 16 832 -15 833 34 832 -45 832 -18 833 30 832 37 832 -64 
1729 3576 9 MP stroke
gr

c18
DO
SO
-13 -18 13 -18 -21 0 -10 -18 -10 18 -21 0 13 18 -13 18 
21 0 10 18 10 -18 21 0 2530 3494 13 MP
DP
-13 -18 13 -18 -21 0 -10 -18 -10 18 -21 0 13 18 -13 18 
21 0 10 18 10 -18 21 0 3362 3531 13 MP
DP
-13 -18 13 -18 -21 0 -10 -18 -10 18 -21 0 13 18 -13 18 
21 0 10 18 10 -18 21 0 4195 3561 13 MP
DP
-13 -18 13 -18 -21 0 -10 -18 -10 18 -21 0 13 18 -13 18 
21 0 10 18 10 -18 21 0 5027 3543 13 MP
DP
-13 -18 13 -18 -21 0 -10 -18 -10 18 -21 0 13 18 -13 18 
21 0 10 18 10 -18 21 0 5859 3498 13 MP
DP
-13 -18 13 -18 -21 0 -10 -18 -10 18 -21 0 13 18 -13 18 
21 0 10 18 10 -18 21 0 6692 3532 13 MP
DP
-13 -18 13 -18 -21 0 -10 -18 -10 18 -21 0 13 18 -13 18 
21 0 10 18 10 -18 21 0 7524 3517 13 MP
DP
-13 -18 13 -18 -21 0 -10 -18 -10 18 -21 0 13 18 -13 18 
21 0 10 18 10 -18 21 0 8357 3533 13 MP
DP
DO
gs 1729 2818 6660 1085 rc
SO
6 w
gr

6 w
SO
1 sg
0 1084 6659 0 0 -1084 8906 3902 4 MP
PP
-6659 0 0 1084 6659 0 0 -1084 8906 3902 5 MP stroke
4 w
DO
0 sg
8906 3902 mt 8906 2818 L
8906 2818 mt 8906 2818 L
9738 3902 mt 9738 2818 L
9738 2818 mt 9738 2818 L
10570 3902 mt 10570 2818 L
10570 2818 mt 10570 2818 L
11403 3902 mt 11403 2818 L
11403 2818 mt 11403 2818 L
12235 3902 mt 12235 2818 L
12235 2818 mt 12235 2818 L
13067 3902 mt 13067 2818 L
13067 2818 mt 13067 2818 L
13900 3902 mt 13900 2818 L
13900 2818 mt 13900 2818 L
14732 3902 mt 14732 2818 L
14732 2818 mt 14732 2818 L
15565 3902 mt 15565 2818 L
15565 2818 mt 15565 2818 L
8906 3902 mt 15565 3902 L
15565 3902 mt 15565 3902 L
8906 3631 mt 15565 3631 L
15565 3631 mt 15565 3631 L
8906 3360 mt 15565 3360 L
15565 3360 mt 15565 3360 L
8906 3089 mt 15565 3089 L
15565 3089 mt 15565 3089 L
8906 2818 mt 15565 2818 L
15565 2818 mt 15565 2818 L
SO
6 w
8906 2818 mt 15565 2818 L
8906 3902 mt 15565 3902 L
15565 3902 mt 15565 2818 L
8906 3902 mt 8906 2818 L
8906 3902 mt 15565 3902 L
8906 3902 mt 8906 2818 L
8906 3902 mt 8906 3835 L
8906 2818 mt 8906 2884 L
%%IncludeResource: font Helvetica
/Helvetica /WindowsLatin1Encoding 120 FMSR

8840 4047 mt 
(10) s
9738 3902 mt 9738 3835 L
9738 2818 mt 9738 2884 L
9672 4047 mt 
(20) s
10570 3902 mt 10570 3835 L
10570 2818 mt 10570 2884 L
10504 4047 mt 
(30) s
11403 3902 mt 11403 3835 L
11403 2818 mt 11403 2884 L
11337 4047 mt 
(40) s
12235 3902 mt 12235 3835 L
12235 2818 mt 12235 2884 L
12169 4047 mt 
(50) s
13067 3902 mt 13067 3835 L
13067 2818 mt 13067 2884 L
13001 4047 mt 
(60) s
13900 3902 mt 13900 3835 L
13900 2818 mt 13900 2884 L
13834 4047 mt 
(70) s
14732 3902 mt 14732 3835 L
14732 2818 mt 14732 2884 L
14666 4047 mt 
(80) s
15565 3902 mt 15565 3835 L
15565 2818 mt 15565 2884 L
15499 4047 mt 
(90) s
8906 3902 mt 8972 3902 L
15565 3902 mt 15498 3902 L
8805 3946 mt 
(0) s
8906 3631 mt 8972 3631 L
15565 3631 mt 15498 3631 L
8805 3675 mt 
(2) s
8906 3360 mt 8972 3360 L
15565 3360 mt 15498 3360 L
8805 3404 mt 
(4) s
8906 3089 mt 8972 3089 L
15565 3089 mt 15498 3089 L
8805 3133 mt 
(6) s
8906 2818 mt 8972 2818 L
15565 2818 mt 15498 2818 L
8805 2862 mt 
(8) s
8906 2764 mt 
(x 10) s
%%IncludeResource: font Helvetica
/Helvetica /WindowsLatin1Encoding 80 FMSR

9132 2690 mt 
(-10) s
8906 2818 mt 15565 2818 L
8906 3902 mt 15565 3902 L
15565 3902 mt 15565 2818 L
8906 3902 mt 8906 2818 L
gs 8906 2818 6660 1085 rc
18 w
c8
833 -21 832 5 833 -5 832 0 832 5 833 -5 832 0 832 0 
8906 3861 9 MP stroke
gr

18 w
c8
  36   36 8906 3861 FO
  36   36 9738 3861 FO
  36   36 10570 3861 FO
  36   36 11403 3856 FO
  36   36 12235 3861 FO
  36   36 13067 3861 FO
  36   36 13900 3856 FO
  36   36 14732 3861 FO
  36   36 15565 3840 FO
gs 8906 2818 6660 1085 rc
gr

0 sg
%%IncludeResource: font Helvetica-Bold
/Helvetica-Bold /WindowsLatin1Encoding 120 FMSR

11563 2723 mt 
(Wilcoxon rank sum test) s
gs 8906 2818 6660 1085 rc
DO
c9
833 -34 832 15 833 -15 832 0 832 0 833 0 832 0 832 0 
8906 3861 9 MP stroke
gr

c9
DO
SO
41 71 -82 0 41 -71 8906 3908 4 MP
DP
41 71 -82 0 41 -71 9738 3908 4 MP
DP
41 71 -82 0 41 -71 10570 3908 4 MP
DP
41 71 -82 0 41 -71 11403 3908 4 MP
DP
41 71 -82 0 41 -71 12235 3908 4 MP
DP
41 71 -82 0 41 -71 13067 3908 4 MP
DP
41 71 -82 0 41 -71 13900 3893 4 MP
DP
41 71 -82 0 41 -71 14732 3908 4 MP
DP
41 71 -82 0 41 -71 15565 3874 4 MP
DP
DO
gs 8906 2818 6660 1085 rc
DD
c10
833 0 832 5 833 -5 832 0 832 0 833 0 832 0 832 0 
8906 3861 9 MP stroke
gr

c10
DD
SO
8881 3836 mt 8931 3886 L
8931 3836 mt 8881 3886 L
9713 3836 mt 9763 3886 L
9763 3836 mt 9713 3886 L
10545 3836 mt 10595 3886 L
10595 3836 mt 10545 3886 L
11378 3836 mt 11428 3886 L
11428 3836 mt 11378 3886 L
12210 3836 mt 12260 3886 L
12260 3836 mt 12210 3886 L
13042 3836 mt 13092 3886 L
13092 3836 mt 13042 3886 L
13875 3831 mt 13925 3881 L
13925 3831 mt 13875 3881 L
14707 3836 mt 14757 3886 L
14757 3836 mt 14707 3886 L
15540 3836 mt 15590 3886 L
15590 3836 mt 15540 3886 L
DD
gs 8906 2818 6660 1085 rc
DA
c11
833 5 832 -5 833 0 832 5 832 -5 833 0 832 0 832 0 
8906 3861 9 MP stroke
gr

c11
DA
SO
8870 3861 mt 8942 3861 L
8906 3825 mt 8906 3897 L
9702 3861 mt 9774 3861 L
9738 3825 mt 9738 3897 L
10534 3861 mt 10606 3861 L
10570 3825 mt 10570 3897 L
11367 3861 mt 11439 3861 L
11403 3825 mt 11403 3897 L
12199 3856 mt 12271 3856 L
12235 3820 mt 12235 3892 L
13031 3861 mt 13103 3861 L
13067 3825 mt 13067 3897 L
13864 3861 mt 13936 3861 L
13900 3825 mt 13900 3897 L
14696 3856 mt 14768 3856 L
14732 3820 mt 14732 3892 L
15529 3861 mt 15601 3861 L
15565 3825 mt 15565 3897 L
8881 3836 mt 8931 3886 L
8931 3836 mt 8881 3886 L
9713 3836 mt 9763 3886 L
9763 3836 mt 9713 3886 L
10545 3836 mt 10595 3886 L
10595 3836 mt 10545 3886 L
11378 3836 mt 11428 3886 L
11428 3836 mt 11378 3886 L
12210 3831 mt 12260 3881 L
12260 3831 mt 12210 3881 L
13042 3836 mt 13092 3886 L
13092 3836 mt 13042 3886 L
13875 3836 mt 13925 3886 L
13925 3836 mt 13875 3886 L
14707 3831 mt 14757 3881 L
14757 3831 mt 14707 3881 L
15540 3836 mt 15590 3886 L
15590 3836 mt 15540 3886 L
DA
gs 8906 2818 6660 1085 rc
SO
c12
833 0 832 0 833 0 832 0 832 0 833 0 832 0 832 0 
8906 3900 9 MP stroke
gr

c12
SO
0 -58 -58 0 0 58 58 0 8877 3871 5 MP
DP
0 -58 -58 0 0 58 58 0 9709 3871 5 MP
DP
0 -58 -58 0 0 58 58 0 10541 3871 5 MP
DP
0 -58 -58 0 0 58 58 0 11374 3871 5 MP
DP
0 -58 -58 0 0 58 58 0 12206 3871 5 MP
DP
0 -58 -58 0 0 58 58 0 13038 3871 5 MP
DP
0 -58 -58 0 0 58 58 0 13871 3871 5 MP
DP
0 -58 -58 0 0 58 58 0 14703 3871 5 MP
DP
0 -58 -58 0 0 58 58 0 15536 3871 5 MP
DP
gs 8906 2818 6660 1085 rc
DO
c13
833 -360 832 -215 833 41 832 -41 832 -9 833 0 832 0 832 0 
8906 3861 9 MP stroke
gr

c13
DO
SO
36 47 -36 47 -36 -47 36 -47 8906 3908 5 MP
DP
36 47 -36 47 -36 -47 36 -47 9738 3908 5 MP
DP
36 47 -36 47 -36 -47 36 -47 10570 3908 5 MP
DP
36 47 -36 47 -36 -47 36 -47 11403 3908 5 MP
DP
36 47 -36 47 -36 -47 36 -47 12235 3899 5 MP
DP
36 47 -36 47 -36 -47 36 -47 13067 3858 5 MP
DP
36 47 -36 47 -36 -47 36 -47 13900 3899 5 MP
DP
36 47 -36 47 -36 -47 36 -47 14732 3684 5 MP
DP
36 47 -36 47 -36 -47 36 -47 15565 3324 5 MP
DP
DO
gs 8906 2818 6660 1085 rc
DD
833 -26 832 36 833 -70 832 0 832 5 833 -5 832 0 832 0 
8906 3861 9 MP stroke
gr

DD
SO
24 W
8906 3861 PD
24 W
9738 3861 PD
24 W
10570 3861 PD
24 W
11403 3856 PD
24 W
12235 3861 PD
24 W
13067 3861 PD
24 W
13900 3791 PD
24 W
14732 3827 PD
24 W
15565 3801 PD
DD
gs 8906 2818 6660 1085 rc
DA
c14
833 9 832 -4 833 -5 832 0 832 5 833 -5 832 0 832 0 
8906 3861 9 MP stroke
gr

c14
DA
SO
-41 71 -41 -71 82 0 8865 3885 4 MP
DP
-41 71 -41 -71 82 0 9697 3885 4 MP
DP
-41 71 -41 -71 82 0 10529 3885 4 MP
DP
-41 71 -41 -71 82 0 11362 3880 4 MP
DP
-41 71 -41 -71 82 0 12194 3885 4 MP
DP
-41 71 -41 -71 82 0 13026 3885 4 MP
DP
-41 71 -41 -71 82 0 13859 3880 4 MP
DP
-41 71 -41 -71 82 0 14691 3876 4 MP
DP
-41 71 -41 -71 82 0 15524 3885 4 MP
DP
DA
gs 8906 2818 6660 1085 rc
SO
c15
833 -5 832 0 833 0 832 5 832 0 833 -5 832 0 832 0 
8906 3861 9 MP stroke
gr

c15
SO
-71 41 0 -82 71 41 8859 3861 4 MP
DP
-71 41 0 -82 71 41 9691 3861 4 MP
DP
-71 41 0 -82 71 41 10523 3861 4 MP
DP
-71 41 0 -82 71 41 11356 3856 4 MP
DP
-71 41 0 -82 71 41 12188 3856 4 MP
DP
-71 41 0 -82 71 41 13020 3861 4 MP
DP
-71 41 0 -82 71 41 13853 3861 4 MP
DP
-71 41 0 -82 71 41 14685 3861 4 MP
DP
-71 41 0 -82 71 41 15518 3856 4 MP
DP
gs 8906 2818 6660 1085 rc
DO
c16
833 -217 832 8 833 -42 832 0 832 21 833 -21 832 0 832 0 
8906 3861 9 MP stroke
gr

c16
DO
SO
0 82 -71 -41 71 -41 8882 3902 4 MP
DP
0 82 -71 -41 71 -41 9714 3902 4 MP
DP
0 82 -71 -41 71 -41 10546 3902 4 MP
DP
0 82 -71 -41 71 -41 11379 3881 4 MP
DP
0 82 -71 -41 71 -41 12211 3902 4 MP
DP
0 82 -71 -41 71 -41 13043 3902 4 MP
DP
0 82 -71 -41 71 -41 13876 3860 4 MP
DP
0 82 -71 -41 71 -41 14708 3868 4 MP
DP
0 82 -71 -41 71 -41 15541 3651 4 MP
DP
DO
gs 8906 2818 6660 1085 rc
SO
c17
833 -828 832 28 833 -70 832 9 832 -9 833 0 832 0 832 0 
8906 3861 9 MP stroke
gr

c17
SO
-21 -16 8 -25 -22 15 -21 -15 8 25 -21 16 26 0 8 24 
9 -24 26 0 8871 3849 11 MP
DP
-21 -16 8 -25 -22 15 -21 -15 8 25 -21 16 26 0 8 24 
9 -24 26 0 9703 3849 11 MP
DP
-21 -16 8 -25 -22 15 -21 -15 8 25 -21 16 26 0 8 24 
9 -24 26 0 10535 3849 11 MP
DP
-21 -16 8 -25 -22 15 -21 -15 8 25 -21 16 26 0 8 24 
9 -24 26 0 11368 3849 11 MP
DP
-21 -16 8 -25 -22 15 -21 -15 8 25 -21 16 26 0 8 24 
9 -24 26 0 12200 3840 11 MP
DP
-21 -16 8 -25 -22 15 -21 -15 8 25 -21 16 26 0 8 24 
9 -24 26 0 13032 3849 11 MP
DP
-21 -16 8 -25 -22 15 -21 -15 8 25 -21 16 26 0 8 24 
9 -24 26 0 13865 3779 11 MP
DP
-21 -16 8 -25 -22 15 -21 -15 8 25 -21 16 26 0 8 24 
9 -24 26 0 14697 3807 11 MP
DP
-21 -16 8 -25 -22 15 -21 -15 8 25 -21 16 26 0 8 24 
9 -24 26 0 15530 2979 11 MP
DP
gs 8906 2818 6660 1085 rc
DO
c18
833 0 832 21 833 -54 832 -27 832 0 833 0 832 0 832 0 
8906 3861 9 MP stroke
gr

c18
DO
SO
-13 -18 13 -18 -21 0 -10 -18 -10 18 -21 0 13 18 -13 18 
21 0 10 18 10 -18 21 0 8875 3843 13 MP
DP
-13 -18 13 -18 -21 0 -10 -18 -10 18 -21 0 13 18 -13 18 
21 0 10 18 10 -18 21 0 9707 3843 13 MP
DP
-13 -18 13 -18 -21 0 -10 -18 -10 18 -21 0 13 18 -13 18 
21 0 10 18 10 -18 21 0 10539 3843 13 MP
DP
-13 -18 13 -18 -21 0 -10 -18 -10 18 -21 0 13 18 -13 18 
21 0 10 18 10 -18 21 0 11372 3843 13 MP
DP
-13 -18 13 -18 -21 0 -10 -18 -10 18 -21 0 13 18 -13 18 
21 0 10 18 10 -18 21 0 12204 3843 13 MP
DP
-13 -18 13 -18 -21 0 -10 -18 -10 18 -21 0 13 18 -13 18 
21 0 10 18 10 -18 21 0 13036 3816 13 MP
DP
-13 -18 13 -18 -21 0 -10 -18 -10 18 -21 0 13 18 -13 18 
21 0 10 18 10 -18 21 0 13869 3762 13 MP
DP
-13 -18 13 -18 -21 0 -10 -18 -10 18 -21 0 13 18 -13 18 
21 0 10 18 10 -18 21 0 14701 3783 13 MP
DP
-13 -18 13 -18 -21 0 -10 -18 -10 18 -21 0 13 18 -13 18 
21 0 10 18 10 -18 21 0 15534 3783 13 MP
DP
DO
gs 8906 2818 6660 1085 rc
SO
6 w
gr

6 w
SO
1 sg
0 1084 6659 0 0 -1084 1729 5853 4 MP
PP
-6659 0 0 1084 6659 0 0 -1084 1729 5853 5 MP stroke
4 w
DO
0 sg
1729 5853 mt 1729 4769 L
1729 4769 mt 1729 4769 L
2561 5853 mt 2561 4769 L
2561 4769 mt 2561 4769 L
3393 5853 mt 3393 4769 L
3393 4769 mt 3393 4769 L
4226 5853 mt 4226 4769 L
4226 4769 mt 4226 4769 L
5058 5853 mt 5058 4769 L
5058 4769 mt 5058 4769 L
5890 5853 mt 5890 4769 L
5890 4769 mt 5890 4769 L
6723 5853 mt 6723 4769 L
6723 4769 mt 6723 4769 L
7555 5853 mt 7555 4769 L
7555 4769 mt 7555 4769 L
8388 5853 mt 8388 4769 L
8388 4769 mt 8388 4769 L
1729 5853 mt 8388 5853 L
8388 5853 mt 8388 5853 L
1729 5582 mt 8388 5582 L
8388 5582 mt 8388 5582 L
1729 5311 mt 8388 5311 L
8388 5311 mt 8388 5311 L
1729 5040 mt 8388 5040 L
8388 5040 mt 8388 5040 L
1729 4769 mt 8388 4769 L
8388 4769 mt 8388 4769 L
SO
6 w
1729 4769 mt 8388 4769 L
1729 5853 mt 8388 5853 L
8388 5853 mt 8388 4769 L
1729 5853 mt 1729 4769 L
1729 5853 mt 8388 5853 L
1729 5853 mt 1729 4769 L
1729 5853 mt 1729 5786 L
1729 4769 mt 1729 4835 L
%%IncludeResource: font Helvetica
/Helvetica /WindowsLatin1Encoding 120 FMSR

1663 5998 mt 
(10) s
2561 5853 mt 2561 5786 L
2561 4769 mt 2561 4835 L
2495 5998 mt 
(20) s
3393 5853 mt 3393 5786 L
3393 4769 mt 3393 4835 L
3327 5998 mt 
(30) s
4226 5853 mt 4226 5786 L
4226 4769 mt 4226 4835 L
4160 5998 mt 
(40) s
5058 5853 mt 5058 5786 L
5058 4769 mt 5058 4835 L
4992 5998 mt 
(50) s
5890 5853 mt 5890 5786 L
5890 4769 mt 5890 4835 L
5824 5998 mt 
(60) s
6723 5853 mt 6723 5786 L
6723 4769 mt 6723 4835 L
6657 5998 mt 
(70) s
7555 5853 mt 7555 5786 L
7555 4769 mt 7555 4835 L
7489 5998 mt 
(80) s
8388 5853 mt 8388 5786 L
8388 4769 mt 8388 4835 L
8322 5998 mt 
(90) s
1729 5853 mt 1795 5853 L
8388 5853 mt 8321 5853 L
1558 5897 mt 
(-6) s
1729 5582 mt 1795 5582 L
8388 5582 mt 8321 5582 L
1558 5626 mt 
(-4) s
1729 5311 mt 1795 5311 L
8388 5311 mt 8321 5311 L
1558 5355 mt 
(-2) s
1729 5040 mt 1795 5040 L
8388 5040 mt 8321 5040 L
1628 5084 mt 
(0) s
1729 4769 mt 1795 4769 L
8388 4769 mt 8321 4769 L
1628 4813 mt 
(2) s
1729 4769 mt 8388 4769 L
1729 5853 mt 8388 5853 L
8388 5853 mt 8388 4769 L
1729 5853 mt 1729 4769 L
gs 1729 4769 6660 1085 rc
18 w
c8
833 18 832 9 833 13 832 59 832 27 833 95 832 63 832 104 
1729 5026 9 MP stroke
gr

18 w
c8
  36   36 1729 5026 FO
  36   36 2561 5130 FO
  36   36 3393 5193 FO
  36   36 4226 5288 FO
  36   36 5058 5315 FO
  36   36 5890 5374 FO
  36   36 6723 5387 FO
  36   36 7555 5396 FO
  36   36 8388 5414 FO
gs 1729 4769 6660 1085 rc
gr

0 sg
%%IncludeResource: font Helvetica-Bold
/Helvetica-Bold /WindowsLatin1Encoding 120 FMSR

4476 4620 mt 
(Solution Quality \(D) s
%%IncludeResource: font Helvetica-Bold
/Helvetica-Bold /WindowsLatin1Encoding 96 FMSR

5556 4680 mt 
(s) s
%%IncludeResource: font Helvetica-Bold
/Helvetica-Bold /WindowsLatin1Encoding 120 FMSR

5609 4620 mt 
(\)) s
gs 1729 4769 6660 1085 rc
DO
c9
833 50 832 36 833 81 832 -18 832 68 833 217 832 36 832 244 
1729 5089 9 MP stroke
gr

c9
DO
SO
41 71 -82 0 41 -71 1729 5136 4 MP
DP
41 71 -82 0 41 -71 2561 5380 4 MP
DP
41 71 -82 0 41 -71 3393 5416 4 MP
DP
41 71 -82 0 41 -71 4226 5633 4 MP
DP
41 71 -82 0 41 -71 5058 5701 4 MP
DP
41 71 -82 0 41 -71 5890 5683 4 MP
DP
41 71 -82 0 41 -71 6723 5764 4 MP
DP
41 71 -82 0 41 -71 7555 5800 4 MP
DP
41 71 -82 0 41 -71 8388 5850 4 MP
DP
DO
gs 1729 4769 6660 1085 rc
DD
c10
833 18 832 9 833 -59 832 27 832 18 833 50 832 -50 832 0 
1729 5112 9 MP stroke
gr

c10
DD
SO
1704 5087 mt 1754 5137 L
1754 5087 mt 1704 5137 L
2536 5087 mt 2586 5137 L
2586 5087 mt 2536 5137 L
3368 5037 mt 3418 5087 L
3418 5037 mt 3368 5087 L
4201 5087 mt 4251 5137 L
4251 5087 mt 4201 5137 L
5033 5105 mt 5083 5155 L
5083 5105 mt 5033 5155 L
5865 5132 mt 5915 5182 L
5915 5132 mt 5865 5182 L
6698 5073 mt 6748 5123 L
6748 5073 mt 6698 5123 L
7530 5082 mt 7580 5132 L
7580 5082 mt 7530 5132 L
8363 5100 mt 8413 5150 L
8413 5100 mt 8363 5150 L
DD
gs 1729 4769 6660 1085 rc
DA
c11
833 18 832 0 833 18 832 14 832 -9 833 18 832 40 832 -4 
1729 5062 9 MP stroke
gr

c11
DA
SO
1693 5062 mt 1765 5062 L
1729 5026 mt 1729 5098 L
2525 5058 mt 2597 5058 L
2561 5022 mt 2561 5094 L
3357 5098 mt 3429 5098 L
3393 5062 mt 3393 5134 L
4190 5116 mt 4262 5116 L
4226 5080 mt 4226 5152 L
5022 5107 mt 5094 5107 L
5058 5071 mt 5058 5143 L
5854 5121 mt 5926 5121 L
5890 5085 mt 5890 5157 L
6687 5139 mt 6759 5139 L
6723 5103 mt 6723 5175 L
7519 5139 mt 7591 5139 L
7555 5103 mt 7555 5175 L
8352 5157 mt 8424 5157 L
8388 5121 mt 8388 5193 L
1704 5037 mt 1754 5087 L
1754 5037 mt 1704 5087 L
2536 5033 mt 2586 5083 L
2586 5033 mt 2536 5083 L
3368 5073 mt 3418 5123 L
3418 5073 mt 3368 5123 L
4201 5091 mt 4251 5141 L
4251 5091 mt 4201 5141 L
5033 5082 mt 5083 5132 L
5083 5082 mt 5033 5132 L
5865 5096 mt 5915 5146 L
5915 5096 mt 5865 5146 L
6698 5114 mt 6748 5164 L
6748 5114 mt 6698 5164 L
7530 5114 mt 7580 5164 L
7580 5114 mt 7530 5164 L
8363 5132 mt 8413 5182 L
8413 5132 mt 8363 5182 L
DA
gs 1729 4769 6660 1085 rc
SO
c12
833 0 832 0 833 0 832 0 832 0 833 0 832 0 832 0 
1729 5040 9 MP stroke
gr

c12
SO
0 -58 -58 0 0 58 58 0 1700 5011 5 MP
DP
0 -58 -58 0 0 58 58 0 2532 5011 5 MP
DP
0 -58 -58 0 0 58 58 0 3364 5011 5 MP
DP
0 -58 -58 0 0 58 58 0 4197 5011 5 MP
DP
0 -58 -58 0 0 58 58 0 5029 5011 5 MP
DP
0 -58 -58 0 0 58 58 0 5861 5011 5 MP
DP
0 -58 -58 0 0 58 58 0 6694 5011 5 MP
DP
0 -58 -58 0 0 58 58 0 7526 5011 5 MP
DP
0 -58 -58 0 0 58 58 0 8359 5011 5 MP
DP
gs 1729 4769 6660 1085 rc
DO
c13
833 59 832 36 833 -22 832 72 832 -18 833 -27 832 22 832 131 
1729 5067 9 MP stroke
gr

c13
DO
SO
36 47 -36 47 -36 -47 36 -47 1729 5114 5 MP
DP
36 47 -36 47 -36 -47 36 -47 2561 5245 5 MP
DP
36 47 -36 47 -36 -47 36 -47 3393 5267 5 MP
DP
36 47 -36 47 -36 -47 36 -47 4226 5240 5 MP
DP
36 47 -36 47 -36 -47 36 -47 5058 5222 5 MP
DP
36 47 -36 47 -36 -47 36 -47 5890 5294 5 MP
DP
36 47 -36 47 -36 -47 36 -47 6723 5272 5 MP
DP
36 47 -36 47 -36 -47 36 -47 7555 5308 5 MP
DP
36 47 -36 47 -36 -47 36 -47 8388 5367 5 MP
DP
DO
gs 1729 4769 6660 1085 rc
DD
833 108 832 -45 833 23 832 40 832 37 833 153 832 27 832 127 
1729 4994 9 MP stroke
gr

DD
SO
24 W
1729 4994 PD
24 W
2561 5121 PD
24 W
3393 5148 PD
24 W
4226 5301 PD
24 W
5058 5338 PD
24 W
5890 5378 PD
24 W
6723 5401 PD
24 W
7555 5356 PD
24 W
8388 5464 PD
DD
gs 1729 4769 6660 1085 rc
DA
c14
833 4 832 -9 833 68 832 -14 832 0 833 59 832 -4 832 9 
1729 5021 9 MP stroke
gr

c14
DA
SO
-41 71 -41 -71 82 0 1688 5045 4 MP
DP
-41 71 -41 -71 82 0 2520 5054 4 MP
DP
-41 71 -41 -71 82 0 3352 5050 4 MP
DP
-41 71 -41 -71 82 0 4185 5109 4 MP
DP
-41 71 -41 -71 82 0 5017 5109 4 MP
DP
-41 71 -41 -71 82 0 5849 5095 4 MP
DP
-41 71 -41 -71 82 0 6682 5163 4 MP
DP
-41 71 -41 -71 82 0 7514 5154 4 MP
DP
-41 71 -41 -71 82 0 8347 5158 4 MP
DP
DA
gs 1729 4769 6660 1085 rc
SO
c15
833 23 832 -18 833 -5 832 113 832 -36 833 45 832 41 832 86 
1729 4872 9 MP stroke
gr

c15
SO
-71 41 0 -82 71 41 1682 4872 4 MP
DP
-71 41 0 -82 71 41 2514 4958 4 MP
DP
-71 41 0 -82 71 41 3346 4999 4 MP
DP
-71 41 0 -82 71 41 4179 5044 4 MP
DP
-71 41 0 -82 71 41 5011 5008 4 MP
DP
-71 41 0 -82 71 41 5843 5121 4 MP
DP
-71 41 0 -82 71 41 6676 5116 4 MP
DP
-71 41 0 -82 71 41 7508 5098 4 MP
DP
-71 41 0 -82 71 41 8341 5121 4 MP
DP
gs 1729 4769 6660 1085 rc
DO
c16
833 -23 832 32 833 -32 832 68 832 -32 833 5 832 27 832 -9 
1729 5035 9 MP stroke
gr

c16
DO
SO
0 82 -71 -41 71 -41 1705 5076 4 MP
DP
0 82 -71 -41 71 -41 2537 5067 4 MP
DP
0 82 -71 -41 71 -41 3369 5094 4 MP
DP
0 82 -71 -41 71 -41 4202 5099 4 MP
DP
0 82 -71 -41 71 -41 5034 5067 4 MP
DP
0 82 -71 -41 71 -41 5866 5135 4 MP
DP
0 82 -71 -41 71 -41 6699 5103 4 MP
DP
0 82 -71 -41 71 -41 7531 5135 4 MP
DP
0 82 -71 -41 71 -41 8364 5112 4 MP
DP
DO
gs 1729 4769 6660 1085 rc
SO
c17
833 -9 832 18 833 50 832 -59 832 81 833 14 832 131 832 -14 
1729 4963 9 MP stroke
gr

c17
SO
-21 -16 8 -25 -22 15 -21 -15 8 25 -21 16 26 0 8 24 
9 -24 26 0 1694 4951 11 MP
DP
-21 -16 8 -25 -22 15 -21 -15 8 25 -21 16 26 0 8 24 
9 -24 26 0 2526 4937 11 MP
DP
-21 -16 8 -25 -22 15 -21 -15 8 25 -21 16 26 0 8 24 
9 -24 26 0 3358 5068 11 MP
DP
-21 -16 8 -25 -22 15 -21 -15 8 25 -21 16 26 0 8 24 
9 -24 26 0 4191 5082 11 MP
DP
-21 -16 8 -25 -22 15 -21 -15 8 25 -21 16 26 0 8 24 
9 -24 26 0 5023 5163 11 MP
DP
-21 -16 8 -25 -22 15 -21 -15 8 25 -21 16 26 0 8 24 
9 -24 26 0 5855 5104 11 MP
DP
-21 -16 8 -25 -22 15 -21 -15 8 25 -21 16 26 0 8 24 
9 -24 26 0 6688 5154 11 MP
DP
-21 -16 8 -25 -22 15 -21 -15 8 25 -21 16 26 0 8 24 
9 -24 26 0 7520 5172 11 MP
DP
-21 -16 8 -25 -22 15 -21 -15 8 25 -21 16 26 0 8 24 
9 -24 26 0 8353 5163 11 MP
DP
gs 1729 4769 6660 1085 rc
DO
c18
833 36 832 -18 833 5 832 4 832 -18 833 36 832 5 832 32 
1729 5003 9 MP stroke
gr

c18
DO
SO
-13 -18 13 -18 -21 0 -10 -18 -10 18 -21 0 13 18 -13 18 
21 0 10 18 10 -18 21 0 1698 4985 13 MP
DP
-13 -18 13 -18 -21 0 -10 -18 -10 18 -21 0 13 18 -13 18 
21 0 10 18 10 -18 21 0 2530 5017 13 MP
DP
-13 -18 13 -18 -21 0 -10 -18 -10 18 -21 0 13 18 -13 18 
21 0 10 18 10 -18 21 0 3362 5022 13 MP
DP
-13 -18 13 -18 -21 0 -10 -18 -10 18 -21 0 13 18 -13 18 
21 0 10 18 10 -18 21 0 4195 5058 13 MP
DP
-13 -18 13 -18 -21 0 -10 -18 -10 18 -21 0 13 18 -13 18 
21 0 10 18 10 -18 21 0 5027 5040 13 MP
DP
-13 -18 13 -18 -21 0 -10 -18 -10 18 -21 0 13 18 -13 18 
21 0 10 18 10 -18 21 0 5859 5044 13 MP
DP
-13 -18 13 -18 -21 0 -10 -18 -10 18 -21 0 13 18 -13 18 
21 0 10 18 10 -18 21 0 6692 5049 13 MP
DP
-13 -18 13 -18 -21 0 -10 -18 -10 18 -21 0 13 18 -13 18 
21 0 10 18 10 -18 21 0 7524 5031 13 MP
DP
-13 -18 13 -18 -21 0 -10 -18 -10 18 -21 0 13 18 -13 18 
21 0 10 18 10 -18 21 0 8357 5067 13 MP
DP
DO
gs 1729 4769 6660 1085 rc
SO
6 w
gr

6 w
SO
1 sg
0 1084 6659 0 0 -1084 8906 5853 4 MP
PP
-6659 0 0 1084 6659 0 0 -1084 8906 5853 5 MP stroke
4 w
DO
0 sg
8906 5853 mt 8906 4769 L
8906 4769 mt 8906 4769 L
9738 5853 mt 9738 4769 L
9738 4769 mt 9738 4769 L
10570 5853 mt 10570 4769 L
10570 4769 mt 10570 4769 L
11403 5853 mt 11403 4769 L
11403 4769 mt 11403 4769 L
12235 5853 mt 12235 4769 L
12235 4769 mt 12235 4769 L
13067 5853 mt 13067 4769 L
13067 4769 mt 13067 4769 L
13900 5853 mt 13900 4769 L
13900 4769 mt 13900 4769 L
14732 5853 mt 14732 4769 L
14732 4769 mt 14732 4769 L
15565 5853 mt 15565 4769 L
15565 4769 mt 15565 4769 L
8906 5853 mt 15565 5853 L
15565 5853 mt 15565 5853 L
8906 5311 mt 15565 5311 L
15565 5311 mt 15565 5311 L
8906 4769 mt 15565 4769 L
15565 4769 mt 15565 4769 L
SO
6 w
8906 4769 mt 15565 4769 L
8906 5853 mt 15565 5853 L
15565 5853 mt 15565 4769 L
8906 5853 mt 8906 4769 L
8906 5853 mt 15565 5853 L
8906 5853 mt 8906 4769 L
8906 5853 mt 8906 5786 L
8906 4769 mt 8906 4835 L
%%IncludeResource: font Helvetica
/Helvetica /WindowsLatin1Encoding 120 FMSR

8840 5998 mt 
(10) s
9738 5853 mt 9738 5786 L
9738 4769 mt 9738 4835 L
9672 5998 mt 
(20) s
10570 5853 mt 10570 5786 L
10570 4769 mt 10570 4835 L
10504 5998 mt 
(30) s
11403 5853 mt 11403 5786 L
11403 4769 mt 11403 4835 L
11337 5998 mt 
(40) s
12235 5853 mt 12235 5786 L
12235 4769 mt 12235 4835 L
12169 5998 mt 
(50) s
13067 5853 mt 13067 5786 L
13067 4769 mt 13067 4835 L
13001 5998 mt 
(60) s
13900 5853 mt 13900 5786 L
13900 4769 mt 13900 4835 L
13834 5998 mt 
(70) s
14732 5853 mt 14732 5786 L
14732 4769 mt 14732 4835 L
14666 5998 mt 
(80) s
15565 5853 mt 15565 5786 L
15565 4769 mt 15565 4835 L
15499 5998 mt 
(90) s
8906 5853 mt 8972 5853 L
15565 5853 mt 15498 5853 L
8805 5897 mt 
(0) s
8906 5311 mt 8972 5311 L
15565 5311 mt 15498 5311 L
8705 5355 mt 
(0.5) s
8906 4769 mt 8972 4769 L
15565 4769 mt 15498 4769 L
8805 4813 mt 
(1) s
8906 4769 mt 15565 4769 L
8906 5853 mt 15565 5853 L
15565 5853 mt 15565 4769 L
8906 5853 mt 8906 4769 L
gs 8906 4769 6660 1085 rc
18 w
c8
833 0 832 0 833 0 832 0 832 0 833 0 832 1 832 659 
8906 5192 9 MP stroke
gr

18 w
c8
  36   36 8906 5192 FO
  36   36 9738 5851 FO
  36   36 10570 5852 FO
  36   36 11403 5852 FO
  36   36 12235 5852 FO
  36   36 13067 5852 FO
  36   36 13900 5852 FO
  36   36 14732 5852 FO
  36   36 15565 5852 FO
gs 8906 4769 6660 1085 rc
gr

0 sg
%%IncludeResource: font Helvetica-Bold
/Helvetica-Bold /WindowsLatin1Encoding 120 FMSR

11563 4674 mt 
(Wilcoxon rank sum test) s
gs 8906 4769 6660 1085 rc
DO
c9
833 0 832 0 833 0 832 0 832 0 833 0 832 0 832 155 
8906 5697 9 MP stroke
gr

c9
DO
SO
41 71 -82 0 41 -71 8906 5744 4 MP
DP
41 71 -82 0 41 -71 9738 5899 4 MP
DP
41 71 -82 0 41 -71 10570 5899 4 MP
DP
41 71 -82 0 41 -71 11403 5899 4 MP
DP
41 71 -82 0 41 -71 12235 5899 4 MP
DP
41 71 -82 0 41 -71 13067 5899 4 MP
DP
41 71 -82 0 41 -71 13900 5899 4 MP
DP
41 71 -82 0 41 -71 14732 5899 4 MP
DP
41 71 -82 0 41 -71 15565 5899 4 MP
DP
DO
gs 8906 4769 6660 1085 rc
DD
c10
833 0 832 0 833 0 832 0 832 0 833 27 832 -27 832 0 
8906 5852 9 MP stroke
gr

c10
DD
SO
8881 5827 mt 8931 5877 L
8931 5827 mt 8881 5877 L
9713 5827 mt 9763 5877 L
9763 5827 mt 9713 5877 L
10545 5800 mt 10595 5850 L
10595 5800 mt 10545 5850 L
11378 5827 mt 11428 5877 L
11428 5827 mt 11378 5877 L
12210 5827 mt 12260 5877 L
12260 5827 mt 12210 5877 L
13042 5827 mt 13092 5877 L
13092 5827 mt 13042 5877 L
13875 5827 mt 13925 5877 L
13925 5827 mt 13875 5877 L
14707 5827 mt 14757 5877 L
14757 5827 mt 14707 5877 L
15540 5827 mt 15590 5877 L
15590 5827 mt 15540 5877 L
DD
gs 8906 4769 6660 1085 rc
DA
c11
833 0 832 0 833 0 832 0 832 0 833 2 832 284 832 -127 
8906 5693 9 MP stroke
gr

c11
DA
SO
8870 5693 mt 8942 5693 L
8906 5657 mt 8906 5729 L
9702 5566 mt 9774 5566 L
9738 5530 mt 9738 5602 L
10534 5850 mt 10606 5850 L
10570 5814 mt 10570 5886 L
11367 5852 mt 11439 5852 L
11403 5816 mt 11403 5888 L
12199 5852 mt 12271 5852 L
12235 5816 mt 12235 5888 L
13031 5852 mt 13103 5852 L
13067 5816 mt 13067 5888 L
13864 5852 mt 13936 5852 L
13900 5816 mt 13900 5888 L
14696 5852 mt 14768 5852 L
14732 5816 mt 14732 5888 L
15529 5852 mt 15601 5852 L
15565 5816 mt 15565 5888 L
8881 5668 mt 8931 5718 L
8931 5668 mt 8881 5718 L
9713 5541 mt 9763 5591 L
9763 5541 mt 9713 5591 L
10545 5825 mt 10595 5875 L
10595 5825 mt 10545 5875 L
11378 5827 mt 11428 5877 L
11428 5827 mt 11378 5877 L
12210 5827 mt 12260 5877 L
12260 5827 mt 12210 5877 L
13042 5827 mt 13092 5877 L
13092 5827 mt 13042 5877 L
13875 5827 mt 13925 5877 L
13925 5827 mt 13875 5877 L
14707 5827 mt 14757 5877 L
14757 5827 mt 14707 5877 L
15540 5827 mt 15590 5877 L
15590 5827 mt 15540 5877 L
DA
gs 8906 4769 6660 1085 rc
DO
c13
833 0 832 0 833 0 832 0 832 0 833 0 832 0 832 201 
8906 5651 9 MP stroke
gr

c13
DO
SO
36 47 -36 47 -36 -47 36 -47 8906 5698 5 MP
DP
36 47 -36 47 -36 -47 36 -47 9738 5899 5 MP
DP
36 47 -36 47 -36 -47 36 -47 10570 5899 5 MP
DP
36 47 -36 47 -36 -47 36 -47 11403 5899 5 MP
DP
36 47 -36 47 -36 -47 36 -47 12235 5899 5 MP
DP
36 47 -36 47 -36 -47 36 -47 13067 5899 5 MP
DP
36 47 -36 47 -36 -47 36 -47 13900 5899 5 MP
DP
36 47 -36 47 -36 -47 36 -47 14732 5899 5 MP
DP
36 47 -36 47 -36 -47 36 -47 15565 5899 5 MP
DP
DO
gs 8906 4769 6660 1085 rc
DD
833 0 832 0 833 0 832 0 832 0 833 21 832 -5 832 109 
8906 5727 9 MP stroke
gr

DD
SO
24 W
8906 5727 PD
24 W
9738 5836 PD
24 W
10570 5831 PD
24 W
11403 5852 PD
24 W
12235 5852 PD
24 W
13067 5852 PD
24 W
13900 5852 PD
24 W
14732 5852 PD
24 W
15565 5852 PD
DD
gs 8906 4769 6660 1085 rc
DA
c14
833 0 832 0 833 127 832 -93 832 30 833 609 832 6 832 -385 
8906 5558 9 MP stroke
gr

c14
DA
SO
-41 71 -41 -71 82 0 8865 5582 4 MP
DP
-41 71 -41 -71 82 0 9697 5197 4 MP
DP
-41 71 -41 -71 82 0 10529 5203 4 MP
DP
-41 71 -41 -71 82 0 11362 5812 4 MP
DP
-41 71 -41 -71 82 0 12194 5842 4 MP
DP
-41 71 -41 -71 82 0 13026 5749 4 MP
DP
-41 71 -41 -71 82 0 13859 5876 4 MP
DP
-41 71 -41 -71 82 0 14691 5876 4 MP
DP
-41 71 -41 -71 82 0 15524 5876 4 MP
DP
DA
gs 8906 4769 6660 1085 rc
SO
c15
833 51 832 -56 833 -22 832 600 832 277 833 -777 832 -101 832 -5 
8906 5852 9 MP stroke
gr

c15
SO
-71 41 0 -82 71 41 8859 5852 4 MP
DP
-71 41 0 -82 71 41 9691 5847 4 MP
DP
-71 41 0 -82 71 41 10523 5746 4 MP
DP
-71 41 0 -82 71 41 11356 4969 4 MP
DP
-71 41 0 -82 71 41 12188 5246 4 MP
DP
-71 41 0 -82 71 41 13020 5846 4 MP
DP
-71 41 0 -82 71 41 13853 5824 4 MP
DP
-71 41 0 -82 71 41 14685 5768 4 MP
DP
-71 41 0 -82 71 41 15518 5819 4 MP
DP
gs 8906 4769 6660 1085 rc
DO
c16
833 -198 832 543 833 -564 832 430 832 9 833 202 832 -219 832 438 
8906 4990 9 MP stroke
gr

c16
DO
SO
0 82 -71 -41 71 -41 8882 5031 4 MP
DP
0 82 -71 -41 71 -41 9714 5469 4 MP
DP
0 82 -71 -41 71 -41 10546 5250 4 MP
DP
0 82 -71 -41 71 -41 11379 5452 4 MP
DP
0 82 -71 -41 71 -41 12211 5461 4 MP
DP
0 82 -71 -41 71 -41 13043 5891 4 MP
DP
0 82 -71 -41 71 -41 13876 5327 4 MP
DP
0 82 -71 -41 71 -41 14708 5870 4 MP
DP
0 82 -71 -41 71 -41 15541 5672 4 MP
DP
DO
gs 8906 4769 6660 1085 rc
SO
c17
833 0 832 0 833 12 832 -12 832 125 833 294 832 -404 832 -12 
8906 5849 9 MP stroke
gr

c17
SO
-21 -16 8 -25 -22 15 -21 -15 8 25 -21 16 26 0 8 24 
9 -24 26 0 8871 5837 11 MP
DP
-21 -16 8 -25 -22 15 -21 -15 8 25 -21 16 26 0 8 24 
9 -24 26 0 9703 5825 11 MP
DP
-21 -16 8 -25 -22 15 -21 -15 8 25 -21 16 26 0 8 24 
9 -24 26 0 10535 5421 11 MP
DP
-21 -16 8 -25 -22 15 -21 -15 8 25 -21 16 26 0 8 24 
9 -24 26 0 11368 5715 11 MP
DP
-21 -16 8 -25 -22 15 -21 -15 8 25 -21 16 26 0 8 24 
9 -24 26 0 12200 5840 11 MP
DP
-21 -16 8 -25 -22 15 -21 -15 8 25 -21 16 26 0 8 24 
9 -24 26 0 13032 5828 11 MP
DP
-21 -16 8 -25 -22 15 -21 -15 8 25 -21 16 26 0 8 24 
9 -24 26 0 13865 5840 11 MP
DP
-21 -16 8 -25 -22 15 -21 -15 8 25 -21 16 26 0 8 24 
9 -24 26 0 14697 5840 11 MP
DP
-21 -16 8 -25 -22 15 -21 -15 8 25 -21 16 26 0 8 24 
9 -24 26 0 15530 5840 11 MP
DP
gs 8906 4769 6660 1085 rc
DO
c18
833 829 832 -531 833 203 832 -55 832 -433 833 803 832 -58 832 -720 
8906 5620 9 MP stroke
gr

c18
DO
SO
-13 -18 13 -18 -21 0 -10 -18 -10 18 -21 0 13 18 -13 18 
21 0 10 18 10 -18 21 0 8875 5602 13 MP
DP
-13 -18 13 -18 -21 0 -10 -18 -10 18 -21 0 13 18 -13 18 
21 0 10 18 10 -18 21 0 9707 4882 13 MP
DP
-13 -18 13 -18 -21 0 -10 -18 -10 18 -21 0 13 18 -13 18 
21 0 10 18 10 -18 21 0 10539 4824 13 MP
DP
-13 -18 13 -18 -21 0 -10 -18 -10 18 -21 0 13 18 -13 18 
21 0 10 18 10 -18 21 0 11372 5627 13 MP
DP
-13 -18 13 -18 -21 0 -10 -18 -10 18 -21 0 13 18 -13 18 
21 0 10 18 10 -18 21 0 12204 5194 13 MP
DP
-13 -18 13 -18 -21 0 -10 -18 -10 18 -21 0 13 18 -13 18 
21 0 10 18 10 -18 21 0 13036 5139 13 MP
DP
-13 -18 13 -18 -21 0 -10 -18 -10 18 -21 0 13 18 -13 18 
21 0 10 18 10 -18 21 0 13869 5342 13 MP
DP
-13 -18 13 -18 -21 0 -10 -18 -10 18 -21 0 13 18 -13 18 
21 0 10 18 10 -18 21 0 14701 4811 13 MP
DP
-13 -18 13 -18 -21 0 -10 -18 -10 18 -21 0 13 18 -13 18 
21 0 10 18 10 -18 21 0 15534 5640 13 MP
DP
DO
gs 8906 4769 6660 1085 rc
SO
6 w
gr

6 w
SO
1 sg
0 1084 6659 0 0 -1084 1729 7804 4 MP
PP
-6659 0 0 1084 6659 0 0 -1084 1729 7804 5 MP stroke
4 w
DO
0 sg
1729 7804 mt 1729 6720 L
1729 6720 mt 1729 6720 L
2561 7804 mt 2561 6720 L
2561 6720 mt 2561 6720 L
3393 7804 mt 3393 6720 L
3393 6720 mt 3393 6720 L
4226 7804 mt 4226 6720 L
4226 6720 mt 4226 6720 L
5058 7804 mt 5058 6720 L
5058 6720 mt 5058 6720 L
5890 7804 mt 5890 6720 L
5890 6720 mt 5890 6720 L
6723 7804 mt 6723 6720 L
6723 6720 mt 6723 6720 L
7555 7804 mt 7555 6720 L
7555 6720 mt 7555 6720 L
8388 7804 mt 8388 6720 L
8388 6720 mt 8388 6720 L
1729 7804 mt 8388 7804 L
8388 7804 mt 8388 7804 L
1729 7442 mt 8388 7442 L
8388 7442 mt 8388 7442 L
1729 7081 mt 8388 7081 L
8388 7081 mt 8388 7081 L
1729 6720 mt 8388 6720 L
8388 6720 mt 8388 6720 L
SO
6 w
1729 6720 mt 8388 6720 L
1729 7804 mt 8388 7804 L
8388 7804 mt 8388 6720 L
1729 7804 mt 1729 6720 L
1729 7804 mt 8388 7804 L
1729 7804 mt 1729 6720 L
1729 7804 mt 1729 7737 L
1729 6720 mt 1729 6786 L
%%IncludeResource: font Helvetica
/Helvetica /WindowsLatin1Encoding 120 FMSR

1663 7949 mt 
(10) s
2561 7804 mt 2561 7737 L
2561 6720 mt 2561 6786 L
2495 7949 mt 
(20) s
3393 7804 mt 3393 7737 L
3393 6720 mt 3393 6786 L
3327 7949 mt 
(30) s
4226 7804 mt 4226 7737 L
4226 6720 mt 4226 6786 L
4160 7949 mt 
(40) s
5058 7804 mt 5058 7737 L
5058 6720 mt 5058 6786 L
4992 7949 mt 
(50) s
5890 7804 mt 5890 7737 L
5890 6720 mt 5890 6786 L
5824 7949 mt 
(60) s
6723 7804 mt 6723 7737 L
6723 6720 mt 6723 6786 L
6657 7949 mt 
(70) s
7555 7804 mt 7555 7737 L
7555 6720 mt 7555 6786 L
7489 7949 mt 
(80) s
8388 7804 mt 8388 7737 L
8388 6720 mt 8388 6786 L
8322 7949 mt 
(90) s
1729 7804 mt 1795 7804 L
8388 7804 mt 8321 7804 L
1628 7848 mt 
(0) s
1729 7442 mt 1795 7442 L
8388 7442 mt 8321 7442 L
1628 7486 mt 
(2) s
1729 7081 mt 1795 7081 L
8388 7081 mt 8321 7081 L
1628 7125 mt 
(4) s
1729 6720 mt 1795 6720 L
8388 6720 mt 8321 6720 L
1628 6764 mt 
(6) s
1729 6666 mt 
(x 10) s
%%IncludeResource: font Helvetica
/Helvetica /WindowsLatin1Encoding 80 FMSR

1955 6592 mt 
(5) s
1729 6720 mt 8388 6720 L
1729 7804 mt 8388 7804 L
8388 7804 mt 8388 6720 L
1729 7804 mt 1729 6720 L
gs 1729 6720 6660 1085 rc
18 w
c8
833 -3 832 10 833 6 832 0 832 8 833 14 832 18 832 21 
1729 7318 9 MP stroke
gr

18 w
c8
  36   36 1729 7318 FO
  36   36 2561 7339 FO
  36   36 3393 7357 FO
  36   36 4226 7371 FO
  36   36 5058 7379 FO
  36   36 5890 7379 FO
  36   36 6723 7385 FO
  36   36 7555 7395 FO
  36   36 8388 7392 FO
gs 1729 6720 6660 1085 rc
gr

0 sg
%%IncludeResource: font Helvetica-Bold
/Helvetica-Bold /WindowsLatin1Encoding 120 FMSR

4067 6571 mt 
(Evaluations at end fo runs \(D) s
%%IncludeResource: font Helvetica-Bold
/Helvetica-Bold /WindowsLatin1Encoding 96 FMSR

5722 6631 mt 
(e) s
%%IncludeResource: font Helvetica-Bold
/Helvetica-Bold /WindowsLatin1Encoding 120 FMSR

5775 6571 mt 
( end\)) s
gs 1729 6720 6660 1085 rc
DO
c9
833 -1 832 13 833 20 832 4 832 25 833 10 832 31 832 48 
1729 6904 9 MP stroke
gr

c9
DO
SO
41 71 -82 0 41 -71 1729 6951 4 MP
DP
41 71 -82 0 41 -71 2561 6999 4 MP
DP
41 71 -82 0 41 -71 3393 7030 4 MP
DP
41 71 -82 0 41 -71 4226 7040 4 MP
DP
41 71 -82 0 41 -71 5058 7065 4 MP
DP
41 71 -82 0 41 -71 5890 7069 4 MP
DP
41 71 -82 0 41 -71 6723 7089 4 MP
DP
41 71 -82 0 41 -71 7555 7102 4 MP
DP
41 71 -82 0 41 -71 8388 7101 4 MP
DP
DO
gs 1729 6720 6660 1085 rc
DD
c10
833 5 832 -9 833 4 832 1 832 -1 833 8 832 5 832 -1 
1729 7689 9 MP stroke
gr

c10
DD
SO
1704 7664 mt 1754 7714 L
1754 7664 mt 1704 7714 L
2536 7663 mt 2586 7713 L
2586 7663 mt 2536 7713 L
3368 7668 mt 3418 7718 L
3418 7668 mt 3368 7718 L
4201 7676 mt 4251 7726 L
4251 7676 mt 4201 7726 L
5033 7675 mt 5083 7725 L
5083 7675 mt 5033 7725 L
5865 7676 mt 5915 7726 L
5915 7676 mt 5865 7726 L
6698 7680 mt 6748 7730 L
6748 7680 mt 6698 7730 L
7530 7671 mt 7580 7721 L
7580 7671 mt 7530 7721 L
8363 7676 mt 8413 7726 L
8413 7676 mt 8363 7726 L
DD
gs 1729 6720 6660 1085 rc
DA
c11
833 1 832 5 833 -6 832 2 832 0 833 8 832 11 832 -1 
1729 7607 9 MP stroke
gr

c11
DA
SO
1693 7607 mt 1765 7607 L
1729 7571 mt 1729 7643 L
2525 7606 mt 2597 7606 L
2561 7570 mt 2561 7642 L
3357 7617 mt 3429 7617 L
3393 7581 mt 3393 7653 L
4190 7625 mt 4262 7625 L
4226 7589 mt 4226 7661 L
5022 7625 mt 5094 7625 L
5058 7589 mt 5058 7661 L
5854 7627 mt 5926 7627 L
5890 7591 mt 5890 7663 L
6687 7621 mt 6759 7621 L
6723 7585 mt 6723 7657 L
7519 7626 mt 7591 7626 L
7555 7590 mt 7555 7662 L
8352 7627 mt 8424 7627 L
8388 7591 mt 8388 7663 L
1704 7582 mt 1754 7632 L
1754 7582 mt 1704 7632 L
2536 7581 mt 2586 7631 L
2586 7581 mt 2536 7631 L
3368 7592 mt 3418 7642 L
3418 7592 mt 3368 7642 L
4201 7600 mt 4251 7650 L
4251 7600 mt 4201 7650 L
5033 7600 mt 5083 7650 L
5083 7600 mt 5033 7650 L
5865 7602 mt 5915 7652 L
5915 7602 mt 5865 7652 L
6698 7596 mt 6748 7646 L
6748 7596 mt 6698 7646 L
7530 7601 mt 7580 7651 L
7580 7601 mt 7530 7651 L
8363 7602 mt 8413 7652 L
8413 7602 mt 8363 7652 L
DA
gs 1729 6720 6660 1085 rc
SO
c12
833 0 832 -1 833 0 832 0 832 -1 833 2 832 0 832 -1 
1729 7793 9 MP stroke
gr

c12
SO
0 -58 -58 0 0 58 58 0 1700 7764 5 MP
DP
0 -58 -58 0 0 58 58 0 2532 7763 5 MP
DP
0 -58 -58 0 0 58 58 0 3364 7763 5 MP
DP
0 -58 -58 0 0 58 58 0 4197 7765 5 MP
DP
0 -58 -58 0 0 58 58 0 5029 7764 5 MP
DP
0 -58 -58 0 0 58 58 0 5861 7764 5 MP
DP
0 -58 -58 0 0 58 58 0 6694 7764 5 MP
DP
0 -58 -58 0 0 58 58 0 7526 7763 5 MP
DP
0 -58 -58 0 0 58 58 0 8359 7763 5 MP
DP
gs 1729 6720 6660 1085 rc
DO
c13
833 -2 832 1 833 14 832 -1 832 -3 833 15 832 13 832 12 
1729 7547 9 MP stroke
gr

c13
DO
SO
36 47 -36 47 -36 -47 36 -47 1729 7594 5 MP
DP
36 47 -36 47 -36 -47 36 -47 2561 7606 5 MP
DP
36 47 -36 47 -36 -47 36 -47 3393 7619 5 MP
DP
36 47 -36 47 -36 -47 36 -47 4226 7634 5 MP
DP
36 47 -36 47 -36 -47 36 -47 5058 7631 5 MP
DP
36 47 -36 47 -36 -47 36 -47 5890 7630 5 MP
DP
36 47 -36 47 -36 -47 36 -47 6723 7644 5 MP
DP
36 47 -36 47 -36 -47 36 -47 7555 7645 5 MP
DP
36 47 -36 47 -36 -47 36 -47 8388 7643 5 MP
DP
DO
gs 1729 6720 6660 1085 rc
DD
833 13 832 7 833 6 832 10 832 1 833 19 832 21 832 34 
1729 7331 9 MP stroke
gr

DD
SO
24 W
1729 7331 PD
24 W
2561 7365 PD
24 W
3393 7386 PD
24 W
4226 7405 PD
24 W
5058 7406 PD
24 W
5890 7416 PD
24 W
6723 7422 PD
24 W
7555 7429 PD
24 W
8388 7442 PD
DD
gs 1729 6720 6660 1085 rc
DA
c14
833 2 832 7 833 11 832 -5 832 4 833 -2 832 4 832 19 
1729 7582 9 MP stroke
gr

c14
DA
SO
-41 71 -41 -71 82 0 1688 7606 4 MP
DP
-41 71 -41 -71 82 0 2520 7625 4 MP
DP
-41 71 -41 -71 82 0 3352 7629 4 MP
DP
-41 71 -41 -71 82 0 4185 7627 4 MP
DP
-41 71 -41 -71 82 0 5017 7631 4 MP
DP
-41 71 -41 -71 82 0 5849 7626 4 MP
DP
-41 71 -41 -71 82 0 6682 7637 4 MP
DP
-41 71 -41 -71 82 0 7514 7644 4 MP
DP
-41 71 -41 -71 82 0 8347 7646 4 MP
DP
DA
gs 1729 6720 6660 1085 rc
SO
c15
833 -5 832 -8 833 23 832 -4 832 3 833 14 832 8 832 23 
1729 7425 9 MP stroke
gr

c15
SO
-71 41 0 -82 71 41 1682 7425 4 MP
DP
-71 41 0 -82 71 41 2514 7448 4 MP
DP
-71 41 0 -82 71 41 3346 7456 4 MP
DP
-71 41 0 -82 71 41 4179 7470 4 MP
DP
-71 41 0 -82 71 41 5011 7473 4 MP
DP
-71 41 0 -82 71 41 5843 7469 4 MP
DP
-71 41 0 -82 71 41 6676 7492 4 MP
DP
-71 41 0 -82 71 41 7508 7484 4 MP
DP
-71 41 0 -82 71 41 8341 7479 4 MP
DP
gs 1729 6720 6660 1085 rc
DO
c16
833 -2 832 7 833 2 832 4 832 0 833 2 832 11 832 1 
1729 7714 9 MP stroke
gr

c16
DO
SO
0 82 -71 -41 71 -41 1705 7755 4 MP
DP
0 82 -71 -41 71 -41 2537 7756 4 MP
DP
0 82 -71 -41 71 -41 3369 7767 4 MP
DP
0 82 -71 -41 71 -41 4202 7769 4 MP
DP
0 82 -71 -41 71 -41 5034 7769 4 MP
DP
0 82 -71 -41 71 -41 5866 7773 4 MP
DP
0 82 -71 -41 71 -41 6699 7775 4 MP
DP
0 82 -71 -41 71 -41 7531 7782 4 MP
DP
0 82 -71 -41 71 -41 8364 7780 4 MP
DP
DO
gs 1729 6720 6660 1085 rc
SO
c17
833 15 832 -13 833 10 832 0 832 19 833 6 832 23 832 9 
1729 7543 9 MP stroke
gr

c17
SO
-21 -16 8 -25 -22 15 -21 -15 8 25 -21 16 26 0 8 24 
9 -24 26 0 1694 7531 11 MP
DP
-21 -16 8 -25 -22 15 -21 -15 8 25 -21 16 26 0 8 24 
9 -24 26 0 2526 7540 11 MP
DP
-21 -16 8 -25 -22 15 -21 -15 8 25 -21 16 26 0 8 24 
9 -24 26 0 3358 7563 11 MP
DP
-21 -16 8 -25 -22 15 -21 -15 8 25 -21 16 26 0 8 24 
9 -24 26 0 4191 7569 11 MP
DP
-21 -16 8 -25 -22 15 -21 -15 8 25 -21 16 26 0 8 24 
9 -24 26 0 5023 7588 11 MP
DP
-21 -16 8 -25 -22 15 -21 -15 8 25 -21 16 26 0 8 24 
9 -24 26 0 5855 7588 11 MP
DP
-21 -16 8 -25 -22 15 -21 -15 8 25 -21 16 26 0 8 24 
9 -24 26 0 6688 7598 11 MP
DP
-21 -16 8 -25 -22 15 -21 -15 8 25 -21 16 26 0 8 24 
9 -24 26 0 7520 7585 11 MP
DP
-21 -16 8 -25 -22 15 -21 -15 8 25 -21 16 26 0 8 24 
9 -24 26 0 8353 7600 11 MP
DP
gs 1729 6720 6660 1085 rc
DO
c18
833 6 832 -3 833 4 832 8 832 -2 833 7 832 4 832 9 
1729 7647 9 MP stroke
gr

c18
DO
SO
-13 -18 13 -18 -21 0 -10 -18 -10 18 -21 0 13 18 -13 18 
21 0 10 18 10 -18 21 0 1698 7629 13 MP
DP
-13 -18 13 -18 -21 0 -10 -18 -10 18 -21 0 13 18 -13 18 
21 0 10 18 10 -18 21 0 2530 7638 13 MP
DP
-13 -18 13 -18 -21 0 -10 -18 -10 18 -21 0 13 18 -13 18 
21 0 10 18 10 -18 21 0 3362 7642 13 MP
DP
-13 -18 13 -18 -21 0 -10 -18 -10 18 -21 0 13 18 -13 18 
21 0 10 18 10 -18 21 0 4195 7649 13 MP
DP
-13 -18 13 -18 -21 0 -10 -18 -10 18 -21 0 13 18 -13 18 
21 0 10 18 10 -18 21 0 5027 7647 13 MP
DP
-13 -18 13 -18 -21 0 -10 -18 -10 18 -21 0 13 18 -13 18 
21 0 10 18 10 -18 21 0 5859 7655 13 MP
DP
-13 -18 13 -18 -21 0 -10 -18 -10 18 -21 0 13 18 -13 18 
21 0 10 18 10 -18 21 0 6692 7659 13 MP
DP
-13 -18 13 -18 -21 0 -10 -18 -10 18 -21 0 13 18 -13 18 
21 0 10 18 10 -18 21 0 7524 7656 13 MP
DP
-13 -18 13 -18 -21 0 -10 -18 -10 18 -21 0 13 18 -13 18 
21 0 10 18 10 -18 21 0 8357 7662 13 MP
DP
DO
gs 1729 6720 6660 1085 rc
SO
6 w
gr

6 w
SO
1 sg
0 1084 6659 0 0 -1084 8906 7804 4 MP
PP
-6659 0 0 1084 6659 0 0 -1084 8906 7804 5 MP stroke
4 w
DO
0 sg
8906 7804 mt 8906 6720 L
8906 6720 mt 8906 6720 L
9738 7804 mt 9738 6720 L
9738 6720 mt 9738 6720 L
10570 7804 mt 10570 6720 L
10570 6720 mt 10570 6720 L
11403 7804 mt 11403 6720 L
11403 6720 mt 11403 6720 L
12235 7804 mt 12235 6720 L
12235 6720 mt 12235 6720 L
13067 7804 mt 13067 6720 L
13067 6720 mt 13067 6720 L
13900 7804 mt 13900 6720 L
13900 6720 mt 13900 6720 L
14732 7804 mt 14732 6720 L
14732 6720 mt 14732 6720 L
15565 7804 mt 15565 6720 L
15565 6720 mt 15565 6720 L
8906 7533 mt 15565 7533 L
15565 7533 mt 15565 7533 L
8906 7262 mt 15565 7262 L
15565 7262 mt 15565 7262 L
8906 6991 mt 15565 6991 L
15565 6991 mt 15565 6991 L
8906 6720 mt 15565 6720 L
15565 6720 mt 15565 6720 L
SO
6 w
8906 6720 mt 15565 6720 L
8906 7804 mt 15565 7804 L
15565 7804 mt 15565 6720 L
8906 7804 mt 8906 6720 L
8906 7804 mt 15565 7804 L
8906 7804 mt 8906 6720 L
8906 7804 mt 8906 7737 L
8906 6720 mt 8906 6786 L
%%IncludeResource: font Helvetica
/Helvetica /WindowsLatin1Encoding 120 FMSR

8840 7949 mt 
(10) s
9738 7804 mt 9738 7737 L
9738 6720 mt 9738 6786 L
9672 7949 mt 
(20) s
10570 7804 mt 10570 7737 L
10570 6720 mt 10570 6786 L
10504 7949 mt 
(30) s
11403 7804 mt 11403 7737 L
11403 6720 mt 11403 6786 L
11337 7949 mt 
(40) s
12235 7804 mt 12235 7737 L
12235 6720 mt 12235 6786 L
12169 7949 mt 
(50) s
13067 7804 mt 13067 7737 L
13067 6720 mt 13067 6786 L
13001 7949 mt 
(60) s
13900 7804 mt 13900 7737 L
13900 6720 mt 13900 6786 L
13834 7949 mt 
(70) s
14732 7804 mt 14732 7737 L
14732 6720 mt 14732 6786 L
14666 7949 mt 
(80) s
15565 7804 mt 15565 7737 L
15565 6720 mt 15565 6786 L
15499 7949 mt 
(90) s
8906 7533 mt 8972 7533 L
15565 7533 mt 15498 7533 L
8571 7577 mt 
(3.017) s
8906 7262 mt 8972 7262 L
15565 7262 mt 15498 7262 L
8571 7306 mt 
(3.018) s
8906 6991 mt 8972 6991 L
15565 6991 mt 15498 6991 L
8571 7035 mt 
(3.019) s
8906 6720 mt 8972 6720 L
15565 6720 mt 15498 6720 L
8638 6764 mt 
(3.02) s
8906 6666 mt 
(x 10) s
%%IncludeResource: font Helvetica
/Helvetica /WindowsLatin1Encoding 80 FMSR

9132 6592 mt 
(-11) s
8906 6720 mt 15565 6720 L
8906 7804 mt 15565 7804 L
15565 7804 mt 15565 6720 L
8906 7804 mt 8906 6720 L
gs 8906 6720 6660 1085 rc
18 w
c8
833 0 832 0 833 0 832 0 832 0 833 0 832 0 832 0 
8906 6758 9 MP stroke
gr

18 w
c8
  36   36 8906 6758 FO
  36   36 9738 6758 FO
  36   36 10570 6758 FO
  36   36 11403 6758 FO
  36   36 12235 6758 FO
  36   36 13067 6758 FO
  36   36 13900 6758 FO
  36   36 14732 6758 FO
  36   36 15565 6758 FO
gs 8906 6720 6660 1085 rc
gr

0 sg
%%IncludeResource: font Helvetica-Bold
/Helvetica-Bold /WindowsLatin1Encoding 120 FMSR

11563 6625 mt 
(Wilcoxon rank sum test) s
gs 8906 6720 6660 1085 rc
DO
c9
833 0 832 0 833 0 832 0 832 0 833 0 832 0 832 0 
8906 6758 9 MP stroke
gr

c9
DO
SO
41 71 -82 0 41 -71 8906 6805 4 MP
DP
41 71 -82 0 41 -71 9738 6805 4 MP
DP
41 71 -82 0 41 -71 10570 6805 4 MP
DP
41 71 -82 0 41 -71 11403 6805 4 MP
DP
41 71 -82 0 41 -71 12235 6805 4 MP
DP
41 71 -82 0 41 -71 13067 6805 4 MP
DP
41 71 -82 0 41 -71 13900 6805 4 MP
DP
41 71 -82 0 41 -71 14732 6805 4 MP
DP
41 71 -82 0 41 -71 15565 6805 4 MP
DP
DO
gs 8906 6720 6660 1085 rc
DD
c10
833 0 832 0 833 -512 832 512 832 0 833 0 832 0 832 0 
8906 6758 9 MP stroke
gr

c10
DD
SO
8881 6733 mt 8931 6783 L
8931 6733 mt 8881 6783 L
9713 6733 mt 9763 6783 L
9763 6733 mt 9713 6783 L
10545 6733 mt 10595 6783 L
10595 6733 mt 10545 6783 L
11378 6733 mt 11428 6783 L
11428 6733 mt 11378 6783 L
12210 6733 mt 12260 6783 L
12260 6733 mt 12210 6783 L
13042 7245 mt 13092 7295 L
13092 7245 mt 13042 7295 L
13875 6733 mt 13925 6783 L
13925 6733 mt 13875 6783 L
14707 6733 mt 14757 6783 L
14757 6733 mt 14707 6783 L
15540 6733 mt 15590 6783 L
15590 6733 mt 15540 6783 L
DD
gs 8906 6720 6660 1085 rc
DA
c11
833 0 832 0 833 0 832 0 832 0 833 0 832 0 832 0 
8906 6758 9 MP stroke
gr

c11
DA
SO
8870 6758 mt 8942 6758 L
8906 6722 mt 8906 6794 L
9702 6758 mt 9774 6758 L
9738 6722 mt 9738 6794 L
10534 6758 mt 10606 6758 L
10570 6722 mt 10570 6794 L
11367 6758 mt 11439 6758 L
11403 6722 mt 11403 6794 L
12199 6758 mt 12271 6758 L
12235 6722 mt 12235 6794 L
13031 6758 mt 13103 6758 L
13067 6722 mt 13067 6794 L
13864 6758 mt 13936 6758 L
13900 6722 mt 13900 6794 L
14696 6758 mt 14768 6758 L
14732 6722 mt 14732 6794 L
15529 6758 mt 15601 6758 L
15565 6722 mt 15565 6794 L
8881 6733 mt 8931 6783 L
8931 6733 mt 8881 6783 L
9713 6733 mt 9763 6783 L
9763 6733 mt 9713 6783 L
10545 6733 mt 10595 6783 L
10595 6733 mt 10545 6783 L
11378 6733 mt 11428 6783 L
11428 6733 mt 11378 6783 L
12210 6733 mt 12260 6783 L
12260 6733 mt 12210 6783 L
13042 6733 mt 13092 6783 L
13092 6733 mt 13042 6783 L
13875 6733 mt 13925 6783 L
13925 6733 mt 13875 6783 L
14707 6733 mt 14757 6783 L
14757 6733 mt 14707 6783 L
15540 6733 mt 15590 6783 L
15590 6733 mt 15540 6783 L
DA
gs 8906 6720 6660 1085 rc
SO
c12
833 -512 832 0 833 0 832 512 832 -512 833 512 832 0 832 0 
8906 6758 9 MP stroke
gr

c12
SO
0 -58 -58 0 0 58 58 0 8877 6729 5 MP
DP
0 -58 -58 0 0 58 58 0 9709 6729 5 MP
DP
0 -58 -58 0 0 58 58 0 10541 6729 5 MP
DP
0 -58 -58 0 0 58 58 0 11374 7241 5 MP
DP
0 -58 -58 0 0 58 58 0 12206 6729 5 MP
DP
0 -58 -58 0 0 58 58 0 13038 7241 5 MP
DP
0 -58 -58 0 0 58 58 0 13871 7241 5 MP
DP
0 -58 -58 0 0 58 58 0 14703 7241 5 MP
DP
0 -58 -58 0 0 58 58 0 15536 6729 5 MP
DP
gs 8906 6720 6660 1085 rc
DO
c13
833 0 832 0 833 0 832 0 832 0 833 0 832 0 832 0 
8906 6758 9 MP stroke
gr

c13
DO
SO
36 47 -36 47 -36 -47 36 -47 8906 6805 5 MP
DP
36 47 -36 47 -36 -47 36 -47 9738 6805 5 MP
DP
36 47 -36 47 -36 -47 36 -47 10570 6805 5 MP
DP
36 47 -36 47 -36 -47 36 -47 11403 6805 5 MP
DP
36 47 -36 47 -36 -47 36 -47 12235 6805 5 MP
DP
36 47 -36 47 -36 -47 36 -47 13067 6805 5 MP
DP
36 47 -36 47 -36 -47 36 -47 13900 6805 5 MP
DP
36 47 -36 47 -36 -47 36 -47 14732 6805 5 MP
DP
36 47 -36 47 -36 -47 36 -47 15565 6805 5 MP
DP
DO
gs 8906 6720 6660 1085 rc
DD
833 0 832 0 833 0 832 0 832 0 833 0 832 0 832 0 
8906 6758 9 MP stroke
gr

DD
SO
24 W
8906 6758 PD
24 W
9738 6758 PD
24 W
10570 6758 PD
24 W
11403 6758 PD
24 W
12235 6758 PD
24 W
13067 6758 PD
24 W
13900 6758 PD
24 W
14732 6758 PD
24 W
15565 6758 PD
DD
gs 8906 6720 6660 1085 rc
DA
c14
833 0 832 0 833 0 832 0 832 0 833 0 832 0 832 0 
8906 6758 9 MP stroke
gr

c14
DA
SO
-41 71 -41 -71 82 0 8865 6782 4 MP
DP
-41 71 -41 -71 82 0 9697 6782 4 MP
DP
-41 71 -41 -71 82 0 10529 6782 4 MP
DP
-41 71 -41 -71 82 0 11362 6782 4 MP
DP
-41 71 -41 -71 82 0 12194 6782 4 MP
DP
-41 71 -41 -71 82 0 13026 6782 4 MP
DP
-41 71 -41 -71 82 0 13859 6782 4 MP
DP
-41 71 -41 -71 82 0 14691 6782 4 MP
DP
-41 71 -41 -71 82 0 15524 6782 4 MP
DP
DA
gs 8906 6720 6660 1085 rc
SO
c15
833 0 832 0 833 0 832 0 832 0 833 0 832 0 832 0 
8906 6758 9 MP stroke
gr

c15
SO
-71 41 0 -82 71 41 8859 6758 4 MP
DP
-71 41 0 -82 71 41 9691 6758 4 MP
DP
-71 41 0 -82 71 41 10523 6758 4 MP
DP
-71 41 0 -82 71 41 11356 6758 4 MP
DP
-71 41 0 -82 71 41 12188 6758 4 MP
DP
-71 41 0 -82 71 41 13020 6758 4 MP
DP
-71 41 0 -82 71 41 13853 6758 4 MP
DP
-71 41 0 -82 71 41 14685 6758 4 MP
DP
-71 41 0 -82 71 41 15518 6758 4 MP
DP
gs 8906 6720 6660 1085 rc
DO
c16
833 512 832 0 833 0 832 0 832 0 833 0 832 0 832 0 
8906 6758 9 MP stroke
gr

c16
DO
SO
0 82 -71 -41 71 -41 8882 6799 4 MP
DP
0 82 -71 -41 71 -41 9714 6799 4 MP
DP
0 82 -71 -41 71 -41 10546 6799 4 MP
DP
0 82 -71 -41 71 -41 11379 6799 4 MP
DP
0 82 -71 -41 71 -41 12211 6799 4 MP
DP
0 82 -71 -41 71 -41 13043 6799 4 MP
DP
0 82 -71 -41 71 -41 13876 6799 4 MP
DP
0 82 -71 -41 71 -41 14708 6799 4 MP
DP
0 82 -71 -41 71 -41 15541 7311 4 MP
DP
DO
gs 8906 6720 6660 1085 rc
SO
c17
833 0 832 0 833 0 832 0 832 0 833 0 832 0 832 0 
8906 6758 9 MP stroke
gr

c17
SO
-21 -16 8 -25 -22 15 -21 -15 8 25 -21 16 26 0 8 24 
9 -24 26 0 8871 6746 11 MP
DP
-21 -16 8 -25 -22 15 -21 -15 8 25 -21 16 26 0 8 24 
9 -24 26 0 9703 6746 11 MP
DP
-21 -16 8 -25 -22 15 -21 -15 8 25 -21 16 26 0 8 24 
9 -24 26 0 10535 6746 11 MP
DP
-21 -16 8 -25 -22 15 -21 -15 8 25 -21 16 26 0 8 24 
9 -24 26 0 11368 6746 11 MP
DP
-21 -16 8 -25 -22 15 -21 -15 8 25 -21 16 26 0 8 24 
9 -24 26 0 12200 6746 11 MP
DP
-21 -16 8 -25 -22 15 -21 -15 8 25 -21 16 26 0 8 24 
9 -24 26 0 13032 6746 11 MP
DP
-21 -16 8 -25 -22 15 -21 -15 8 25 -21 16 26 0 8 24 
9 -24 26 0 13865 6746 11 MP
DP
-21 -16 8 -25 -22 15 -21 -15 8 25 -21 16 26 0 8 24 
9 -24 26 0 14697 6746 11 MP
DP
-21 -16 8 -25 -22 15 -21 -15 8 25 -21 16 26 0 8 24 
9 -24 26 0 15530 6746 11 MP
DP
gs 8906 6720 6660 1085 rc
DO
c18
833 0 832 0 833 0 832 0 832 0 833 0 832 0 832 0 
8906 6758 9 MP stroke
gr

c18
DO
SO
-13 -18 13 -18 -21 0 -10 -18 -10 18 -21 0 13 18 -13 18 
21 0 10 18 10 -18 21 0 8875 6740 13 MP
DP
-13 -18 13 -18 -21 0 -10 -18 -10 18 -21 0 13 18 -13 18 
21 0 10 18 10 -18 21 0 9707 6740 13 MP
DP
-13 -18 13 -18 -21 0 -10 -18 -10 18 -21 0 13 18 -13 18 
21 0 10 18 10 -18 21 0 10539 6740 13 MP
DP
-13 -18 13 -18 -21 0 -10 -18 -10 18 -21 0 13 18 -13 18 
21 0 10 18 10 -18 21 0 11372 6740 13 MP
DP
-13 -18 13 -18 -21 0 -10 -18 -10 18 -21 0 13 18 -13 18 
21 0 10 18 10 -18 21 0 12204 6740 13 MP
DP
-13 -18 13 -18 -21 0 -10 -18 -10 18 -21 0 13 18 -13 18 
21 0 10 18 10 -18 21 0 13036 6740 13 MP
DP
-13 -18 13 -18 -21 0 -10 -18 -10 18 -21 0 13 18 -13 18 
21 0 10 18 10 -18 21 0 13869 6740 13 MP
DP
-13 -18 13 -18 -21 0 -10 -18 -10 18 -21 0 13 18 -13 18 
21 0 10 18 10 -18 21 0 14701 6740 13 MP
DP
-13 -18 13 -18 -21 0 -10 -18 -10 18 -21 0 13 18 -13 18 
21 0 10 18 10 -18 21 0 15534 6740 13 MP
DP
DO
gs 8906 6720 6660 1085 rc
gr

0 sg
%%IncludeResource: font Helvetica
/Helvetica /WindowsLatin1Encoding 120 FMSR

8889 7847 mt 
( ) s
15549 6762 mt 
( ) s
SO
6 w
1 sg
0 2058 936 0 0 -2058 15811 5162 4 MP
PP
-936 0 0 2058 936 0 0 -2058 15811 5162 5 MP stroke
4 w
DO
SO
6 w
0 sg
15811 3104 mt 16747 3104 L
15811 5162 mt 16747 5162 L
16747 5162 mt 16747 3104 L
15811 5162 mt 15811 3104 L
15811 5162 mt 16747 5162 L
15811 5162 mt 15811 3104 L
15811 3104 mt 16747 3104 L
15811 5162 mt 16747 5162 L
16747 5162 mt 16747 3104 L
15811 5162 mt 15811 3104 L
16280 3251 mt 
(scpnrh4) s
gs 15811 3104 937 2059 rc
18 w
c8
360 0 15883 3209 2 MP stroke
gs 15971 3117 185 185 rc
  36   36 16063 3209 FO
gr

gr

18 w
c8
0 sg
16280 3419 mt 
(scpnrg3) s
gs 15811 3104 937 2059 rc
DO
c9
360 0 15883 3377 2 MP stroke
SO
gs 15971 3285 185 185 rc
41 71 -82 0 41 -71 16063 3424 4 MP
DP
gr

gr

c9
0 sg
16280 3587 mt 
(scpnrf2) s
gs 15811 3104 937 2059 rc
DD
c10
360 0 15883 3545 2 MP stroke
SO
gs 15971 3453 185 185 rc
16038 3520 mt 16088 3570 L
16088 3520 mt 16038 3570 L
gr

gr

c10
0 sg
16280 3755 mt 
(scpnre1) s
gs 15811 3104 937 2059 rc
DA
c11
360 0 15883 3713 2 MP stroke
SO
gs 15971 3621 185 185 rc
16027 3713 mt 16099 3713 L
16063 3677 mt 16063 3749 L
16038 3688 mt 16088 3738 L
16088 3688 mt 16038 3738 L
gr

gr

c11
0 sg
16280 3923 mt 
(scpe1) s
gs 15811 3104 937 2059 rc
c12
360 0 15883 3881 2 MP stroke
gs 15971 3789 185 185 rc
0 -58 -58 0 0 58 58 0 16034 3852 5 MP
DP
gr

gr

c12
0 sg
16280 4091 mt 
(scpd2) s
gs 15811 3104 937 2059 rc
DO
c13
360 0 15883 4049 2 MP stroke
SO
gs 15971 3957 185 185 rc
36 47 -36 47 -36 -47 36 -47 16063 4096 5 MP
DP
gr

gr

c13
0 sg
16280 4260 mt 
(scpc3) s
gs 15811 3104 937 2059 rc
DD
c13
360 0 15883 4217 2 MP stroke
SO
gs 15971 4125 185 185 rc
24 W
16063 4217 PD
gr

gr

c13
0 sg
16280 4428 mt 
(scpb4) s
gs 15811 3104 937 2059 rc
DA
c14
360 0 15883 4385 2 MP stroke
SO
gs 15971 4293 185 185 rc
-41 71 -41 -71 82 0 16022 4409 4 MP
DP
gr

gr

c14
0 sg
16280 4596 mt 
(scpa5) s
gs 15811 3104 937 2059 rc
c15
360 0 15883 4553 2 MP stroke
gs 15971 4461 185 185 rc
-71 41 0 -82 71 41 16016 4553 4 MP
DP
gr

gr

c15
0 sg
16280 4764 mt 
(scp63) s
gs 15811 3104 937 2059 rc
DO
c16
360 0 15883 4720 2 MP stroke
SO
gs 15971 4628 185 185 rc
0 82 -71 -41 71 -41 16039 4761 4 MP
DP
gr

gr

c16
0 sg
16280 4932 mt 
(scp52) s
gs 15811 3104 937 2059 rc
c17
360 0 15883 4888 2 MP stroke
gs 15971 4796 185 185 rc
-21 -16 8 -25 -22 15 -21 -15 8 25 -21 16 26 0 8 24 
9 -24 26 0 16028 4876 11 MP
DP
gr

gr

c17
0 sg
16280 5100 mt 
(scp41) s
gs 15811 3104 937 2059 rc
DO
c18
360 0 15883 5056 2 MP stroke
SO
gs 15971 4964 185 185 rc
-13 -18 13 -18 -21 0 -10 -18 -10 18 -21 0 13 18 -13 18 
21 0 10 18 10 -18 21 0 16032 5038 13 MP
DP
gr

6 w
gr

6 w
c18

end %%Color Dict

eplot
%%EndObject

epage
end

showpage

%%Trailer
%%EOF
