%!PS-Adobe-3.0 EPSF-3.0
%%Creator: (MATLAB, The Mathworks, Inc. Version 8.6.0.267246 \(R2015b\). Operating System: Mac OS X)
%%Title: /Users/khulood/Dropbox/Shared/RanksumTables/legend.eps
%%CreationDate: 2017-01-15T15:50:19
%%Pages: (atend)
%%BoundingBox: 0 0 1420 669
%%LanguageLevel: 2
%%EndComments
%%BeginProlog
%%BeginResource: procset (Apache XML Graphics Std ProcSet) 1.2 0
%%Version: 1.2 0
%%Copyright: (Copyright 2001-2003,2010 The Apache Software Foundation. License terms: http://www.apache.org/licenses/LICENSE-2.0)
/bd{bind def}bind def
/ld{load def}bd
/GR/grestore ld
/M/moveto ld
/LJ/setlinejoin ld
/C/curveto ld
/f/fill ld
/LW/setlinewidth ld
/GC/setgray ld
/t/show ld
/N/newpath ld
/CT/concat ld
/cp/closepath ld
/S/stroke ld
/L/lineto ld
/CC/setcmykcolor ld
/A/ashow ld
/GS/gsave ld
/RC/setrgbcolor ld
/RM/rmoveto ld
/ML/setmiterlimit ld
/re {4 2 roll M
1 index 0 rlineto
0 exch rlineto
neg 0 rlineto
cp } bd
/_ctm matrix def
/_tm matrix def
/BT { _ctm currentmatrix pop matrix _tm copy pop 0 0 moveto } bd
/ET { _ctm setmatrix } bd
/iTm { _ctm setmatrix _tm concat } bd
/Tm { _tm astore pop iTm 0 0 moveto } bd
/ux 0.0 def
/uy 0.0 def
/F {
  /Tp exch def
  /Tf exch def
  Tf findfont Tp scalefont setfont
  /cf Tf def  /cs Tp def
} bd
/ULS {currentpoint /uy exch def /ux exch def} bd
/ULE {
  /Tcx currentpoint pop def
  gsave
  newpath
  cf findfont cs scalefont dup
  /FontMatrix get 0 get /Ts exch def /FontInfo get dup
  /UnderlinePosition get Ts mul /To exch def
  /UnderlineThickness get Ts mul /Tt exch def
  ux uy To add moveto  Tcx uy To add lineto
  Tt setlinewidth stroke
  grestore
} bd
/OLE {
  /Tcx currentpoint pop def
  gsave
  newpath
  cf findfont cs scalefont dup
  /FontMatrix get 0 get /Ts exch def /FontInfo get dup
  /UnderlinePosition get Ts mul /To exch def
  /UnderlineThickness get Ts mul /Tt exch def
  ux uy To add cs add moveto Tcx uy To add cs add lineto
  Tt setlinewidth stroke
  grestore
} bd
/SOE {
  /Tcx currentpoint pop def
  gsave
  newpath
  cf findfont cs scalefont dup
  /FontMatrix get 0 get /Ts exch def /FontInfo get dup
  /UnderlinePosition get Ts mul /To exch def
  /UnderlineThickness get Ts mul /Tt exch def
  ux uy To add cs 10 mul 26 idiv add moveto Tcx uy To add cs 10 mul 26 idiv add lineto
  Tt setlinewidth stroke
  grestore
} bd
/QT {
/Y22 exch store
/X22 exch store
/Y21 exch store
/X21 exch store
currentpoint
/Y21 load 2 mul add 3 div exch
/X21 load 2 mul add 3 div exch
/X21 load 2 mul /X22 load add 3 div
/Y21 load 2 mul /Y22 load add 3 div
/X22 load /Y22 load curveto
} bd
/SSPD {
dup length /d exch dict def
{
/v exch def
/k exch def
currentpagedevice k known {
/cpdv currentpagedevice k get def
v cpdv ne {
/upd false def
/nullv v type /nulltype eq def
/nullcpdv cpdv type /nulltype eq def
nullv nullcpdv or
{
/upd true def
} {
/sametype v type cpdv type eq def
sametype {
v type /arraytype eq {
/vlen v length def
/cpdvlen cpdv length def
vlen cpdvlen eq {
0 1 vlen 1 sub {
/i exch def
/obj v i get def
/cpdobj cpdv i get def
obj cpdobj ne {
/upd true def
exit
} if
} for
} {
/upd true def
} ifelse
} {
v type /dicttype eq {
v {
/dv exch def
/dk exch def
/cpddv cpdv dk get def
dv cpddv ne {
/upd true def
exit
} if
} forall
} {
/upd true def
} ifelse
} ifelse
} if
} ifelse
upd true eq {
d k v put
} if
} if
} if
} forall
d length 0 gt {
d setpagedevice
} if
} bd
%%EndResource
%%BeginResource: procset (Apache XML Graphics EPS ProcSet) 1.0 0
%%Version: 1.0 0
%%Copyright: (Copyright 2002-2003 The Apache Software Foundation. License terms: http://www.apache.org/licenses/LICENSE-2.0)
/BeginEPSF { %def
/b4_Inc_state save def         % Save state for cleanup
/dict_count countdictstack def % Count objects on dict stack
/op_count count 1 sub def      % Count objects on operand stack
userdict begin                 % Push userdict on dict stack
/showpage { } def              % Redefine showpage, { } = null proc
0 setgray 0 setlinecap         % Prepare graphics state
1 setlinewidth 0 setlinejoin
10 setmiterlimit [ ] 0 setdash newpath
/languagelevel where           % If level not equal to 1 then
{pop languagelevel             % set strokeadjust and
1 ne                           % overprint to their defaults.
{false setstrokeadjust false setoverprint
} if
} if
} bd
/EndEPSF { %def
count op_count sub {pop} repeat            % Clean up stacks
countdictstack dict_count sub {end} repeat
b4_Inc_state restore
} bd
%%EndResource
%FOPBeginFontDict
%%IncludeResource: font Courier-Bold
%%IncludeResource: font Helvetica
%%IncludeResource: font Courier-BoldOblique
%%IncludeResource: font Courier-Oblique
%%IncludeResource: font Times-Roman
%%IncludeResource: font Helvetica-BoldOblique
%%IncludeResource: font Helvetica-Bold
%%IncludeResource: font Helvetica-Oblique
%%IncludeResource: font Times-BoldItalic
%%IncludeResource: font Courier
%%IncludeResource: font Times-Italic
%%IncludeResource: font Times-Bold
%%IncludeResource: font Symbol
%%IncludeResource: font ZapfDingbats
%FOPEndFontDict
%%BeginResource: encoding WinAnsiEncoding
/WinAnsiEncoding [
/.notdef /.notdef /.notdef /.notdef /.notdef
/.notdef /.notdef /.notdef /.notdef /.notdef
/.notdef /.notdef /.notdef /.notdef /.notdef
/.notdef /.notdef /.notdef /.notdef /.notdef
/.notdef /.notdef /.notdef /.notdef /.notdef
/.notdef /.notdef /.notdef /.notdef /.notdef
/.notdef /.notdef /space /exclam /quotedbl
/numbersign /dollar /percent /ampersand /quotesingle
/parenleft /parenright /asterisk /plus /comma
/hyphen /period /slash /zero /one
/two /three /four /five /six
/seven /eight /nine /colon /semicolon
/less /equal /greater /question /at
/A /B /C /D /E
/F /G /H /I /J
/K /L /M /N /O
/P /Q /R /S /T
/U /V /W /X /Y
/Z /bracketleft /backslash /bracketright /asciicircum
/underscore /quoteleft /a /b /c
/d /e /f /g /h
/i /j /k /l /m
/n /o /p /q /r
/s /t /u /v /w
/x /y /z /braceleft /bar
/braceright /asciitilde /bullet /Euro /bullet
/quotesinglbase /florin /quotedblbase /ellipsis /dagger
/daggerdbl /circumflex /perthousand /Scaron /guilsinglleft
/OE /bullet /Zcaron /bullet /bullet
/quoteleft /quoteright /quotedblleft /quotedblright /bullet
/endash /emdash /asciitilde /trademark /scaron
/guilsinglright /oe /bullet /zcaron /Ydieresis
/space /exclamdown /cent /sterling /currency
/yen /brokenbar /section /dieresis /copyright
/ordfeminine /guillemotleft /logicalnot /sfthyphen /registered
/macron /degree /plusminus /twosuperior /threesuperior
/acute /mu /paragraph /middot /cedilla
/onesuperior /ordmasculine /guillemotright /onequarter /onehalf
/threequarters /questiondown /Agrave /Aacute /Acircumflex
/Atilde /Adieresis /Aring /AE /Ccedilla
/Egrave /Eacute /Ecircumflex /Edieresis /Igrave
/Iacute /Icircumflex /Idieresis /Eth /Ntilde
/Ograve /Oacute /Ocircumflex /Otilde /Odieresis
/multiply /Oslash /Ugrave /Uacute /Ucircumflex
/Udieresis /Yacute /Thorn /germandbls /agrave
/aacute /acircumflex /atilde /adieresis /aring
/ae /ccedilla /egrave /eacute /ecircumflex
/edieresis /igrave /iacute /icircumflex /idieresis
/eth /ntilde /ograve /oacute /ocircumflex
/otilde /odieresis /divide /oslash /ugrave
/uacute /ucircumflex /udieresis /yacute /thorn
/ydieresis
] def
%%EndResource
%FOPBeginFontReencode
/Courier-Bold findfont
dup length dict begin
  {1 index /FID ne {def} {pop pop} ifelse} forall
  /Encoding WinAnsiEncoding def
  currentdict
end
/Courier-Bold exch definefont pop
/Helvetica findfont
dup length dict begin
  {1 index /FID ne {def} {pop pop} ifelse} forall
  /Encoding WinAnsiEncoding def
  currentdict
end
/Helvetica exch definefont pop
/Courier-BoldOblique findfont
dup length dict begin
  {1 index /FID ne {def} {pop pop} ifelse} forall
  /Encoding WinAnsiEncoding def
  currentdict
end
/Courier-BoldOblique exch definefont pop
/Courier-Oblique findfont
dup length dict begin
  {1 index /FID ne {def} {pop pop} ifelse} forall
  /Encoding WinAnsiEncoding def
  currentdict
end
/Courier-Oblique exch definefont pop
/Times-Roman findfont
dup length dict begin
  {1 index /FID ne {def} {pop pop} ifelse} forall
  /Encoding WinAnsiEncoding def
  currentdict
end
/Times-Roman exch definefont pop
/Helvetica-BoldOblique findfont
dup length dict begin
  {1 index /FID ne {def} {pop pop} ifelse} forall
  /Encoding WinAnsiEncoding def
  currentdict
end
/Helvetica-BoldOblique exch definefont pop
/Helvetica-Bold findfont
dup length dict begin
  {1 index /FID ne {def} {pop pop} ifelse} forall
  /Encoding WinAnsiEncoding def
  currentdict
end
/Helvetica-Bold exch definefont pop
/Helvetica-Oblique findfont
dup length dict begin
  {1 index /FID ne {def} {pop pop} ifelse} forall
  /Encoding WinAnsiEncoding def
  currentdict
end
/Helvetica-Oblique exch definefont pop
/Times-BoldItalic findfont
dup length dict begin
  {1 index /FID ne {def} {pop pop} ifelse} forall
  /Encoding WinAnsiEncoding def
  currentdict
end
/Times-BoldItalic exch definefont pop
/Courier findfont
dup length dict begin
  {1 index /FID ne {def} {pop pop} ifelse} forall
  /Encoding WinAnsiEncoding def
  currentdict
end
/Courier exch definefont pop
/Times-Italic findfont
dup length dict begin
  {1 index /FID ne {def} {pop pop} ifelse} forall
  /Encoding WinAnsiEncoding def
  currentdict
end
/Times-Italic exch definefont pop
/Times-Bold findfont
dup length dict begin
  {1 index /FID ne {def} {pop pop} ifelse} forall
  /Encoding WinAnsiEncoding def
  currentdict
end
/Times-Bold exch definefont pop
%FOPEndFontReencode
%%EndProlog
%%Page: 1 1
%%PageBoundingBox: 0 0 1420 669
%%BeginPageSetup
[1 0 0 -1 0 669] CT
%%EndPageSetup
GS
1 GC
N
0 0 1420 669 re
f
GR
GS
1 GC
N
0 0 1420 669 re
f
GR
GS
1 GC
N
547.5 504.5 M
547.5 57 L
718 57 L
718 504.5 L
cp
f
GR
GS
[1 0 0 1 586.5 77.24998] CT
/Helvetica 36 F
GS
[1 0 0 1 0 0] CT
0 9.5 moveto 
1 -1 scale
(scpnrh4) t 
GR
GR
GS
0 0 1 RC
1 LJ
3 LW
N
553.5 77.25 M
583.5 77.25 L
S
GR
GS
0 0 1 RC
1 LJ
3 LW
N
576 77.5 M
575.257 74.246 L
573.176 71.636 L
570.169 70.188 L
566.831 70.188 L
563.824 71.636 L
561.743 74.246 L
561 77.5 L
561.743 80.754 L
563.824 83.364 L
566.831 84.812 L
570.169 84.812 L
573.176 83.364 L
575.257 80.754 L
cp
S
GR
GS
[1 0 0 1 586.5 114.25] CT
/Helvetica 36 F
GS
[1 0 0 1 0 0] CT
0 9.5 moveto 
1 -1 scale
(scpnrg3) t 
GR
GR
GS
1 0 0 RC
[3 3] 0 setdash
2 LJ
3 LW
N
553.5 114.25 M
583.5 114.25 L
S
GR
GS
1 0 0 RC
10.0 ML
3 LW
N
568.5 124.497 M
577.158 109.501 L
559.842 109.501 L
cp
S
GR
GS
[1 0 0 1 586.5 151.24998] CT
/Helvetica 36 F
GS
[1 0 0 1 0 0] CT
0 9.5 moveto 
1 -1 scale
(scpnrf2) t 
GR
GR
GS
0 1 0 RC
[12 3 6 3] 0 setdash
2 LJ
3 LW
N
553.5 151.25 M
583.5 151.25 L
S
GR
GS
0 1 0 RC
1 LJ
3 LW
N
563 157 M
574 146 L
S
GR
GS
0 1 0 RC
1 LJ
3 LW
N
563 146 M
574 157 L
S
GR
GS
[1 0 0 1 586.5 188.25] CT
/Helvetica 36 F
GS
[1 0 0 1 0 0] CT
0 9.5 moveto 
1 -1 scale
(scpnre1) t 
GR
GR
GS
0 0 0.173 RC
[12 12] 0 setdash
2 LJ
3 LW
N
553.5 188.25 M
583.5 188.25 L
S
GR
GS
0 0 0.173 RC
1 LJ
3 LW
N
560 188.5 M
577 188.5 L
S
GR
GS
0 0 0.173 RC
1 LJ
3 LW
N
568.5 197 M
568.5 180 L
S
GR
GS
0 0 0.173 RC
1 LJ
3 LW
N
563 194 M
574 183 L
S
GR
GS
0 0 0.173 RC
1 LJ
3 LW
N
563 183 M
574 194 L
S
GR
GS
[1 0 0 1 586.5 225.24998] CT
/Helvetica 36 F
GS
[1 0 0 1 0 0] CT
0 9.5 moveto 
1 -1 scale
(scpe1) t 
GR
GR
GS
1 0.102 0.725 RC
1 LJ
3 LW
N
553.5 225.25 M
583.5 225.25 L
S
GR
GS
1 0.102 0.725 RC
10.0 ML
3 LW
N
562.65 231.35 M
562.65 219.65 L
574.35 219.65 L
574.35 231.35 L
cp
S
GR
GS
[1 0 0 1 586.5 262.25] CT
/Helvetica 36 F
GS
[1 0 0 1 0 0] CT
0 9.5 moveto 
1 -1 scale
(scpd2) t 
GR
GR
GS
0 0.345 0 RC
[3 3] 0 setdash
2 LJ
3 LW
N
553.5 262.25 M
583.5 262.25 L
S
GR
GS
0 0.345 0 RC
10.0 ML
3 LW
N
568.5 272.497 M
576 262.5 L
568.5 252.503 L
561 262.5 L
cp
S
GR
GS
[1 0 0 1 586.5 299.25] CT
/Helvetica 36 F
GS
[1 0 0 1 0 0] CT
0 9.5 moveto 
1 -1 scale
(scpc3) t 
GR
GR
GS
0 0.345 0 RC
[12 3 6 3] 0 setdash
2 LJ
3 LW
N
553.5 299.25 M
583.5 299.25 L
S
GR
GS
[1 0 0 1 568.5 299.25] CT
0 0.345 0 RC
N
2.5 0 M
2.5 1.381 1.381 2.5 0 2.5 C
-1.381 2.5 -2.5 1.381 -2.5 0 C
-2.5 -1.381 -1.381 -2.5 0 -2.5 C
1.381 -2.5 2.5 -1.381 2.5 0 C
cp
f
GR
GS
[1 0 0 1 586.5 336.25] CT
/Helvetica 36 F
GS
[1 0 0 1 0 0] CT
0 9.5 moveto 
1 -1 scale
(scpb4) t 
GR
GR
GS
0.518 0.518 1 RC
[12 12] 0 setdash
2 LJ
3 LW
N
553.5 336.25 M
583.5 336.25 L
S
GR
GS
0.518 0.518 1 RC
10.0 ML
3 LW
N
559.842 341.499 M
577.158 341.499 L
568.5 326.503 L
cp
S
GR
GS
[1 0 0 1 586.5 373.25] CT
/Helvetica 36 F
GS
[1 0 0 1 0 0] CT
0 9.5 moveto 
1 -1 scale
(scpa5) t 
GR
GR
GS
0.62 0.31 0.275 RC
1 LJ
3 LW
N
553.5 373.25 M
583.5 373.25 L
S
GR
GS
0.62 0.31 0.275 RC
10.0 ML
3 LW
N
558.503 373.5 M
573.499 364.842 L
573.499 382.158 L
cp
S
GR
GS
[1 0 0 1 586.5 410.25] CT
/Helvetica 36 F
GS
[1 0 0 1 0 0] CT
0 9.5 moveto 
1 -1 scale
(scp63) t 
GR
GR
GS
0 1 0.757 RC
[3 3] 0 setdash
2 LJ
3 LW
N
553.5 410.25 M
583.5 410.25 L
S
GR
GS
0 1 0.757 RC
10.0 ML
3 LW
N
563.501 401.842 M
578.497 410.5 L
563.501 419.158 L
cp
S
GR
GS
[1 0 0 1 586.5 447.25] CT
/Helvetica 36 F
GS
[1 0 0 1 0 0] CT
0 9.5 moveto 
1 -1 scale
(scp52) t 
GR
GR
GS
0 0.518 0.584 RC
1 LJ
3 LW
N
553.5 447.25 M
583.5 447.25 L
S
GR
GS
0 0.518 0.584 RC
10.0 ML
3 LW
N
561.367 445.182 M
566.737 445.182 L
568.5 440 L
570.263 445.182 L
575.633 445.182 L
571.353 448.427 L
572.908 453.568 L
568.5 450.5 L
564.092 453.568 L
565.647 448.427 L
cp
S
GR
GS
[1 0 0 1 586.5 484.25] CT
/Helvetica 36 F
GS
[1 0 0 1 0 0] CT
0 9.5 moveto 
1 -1 scale
(scp41) t 
GR
GR
GS
0 0 0.482 RC
[3 3] 0 setdash
2 LJ
3 LW
N
553.5 484.25 M
583.5 484.25 L
S
GR
GS
0 0 0.482 RC
10.0 ML
3 LW
N
562.005 480.75 M
566.335 480.75 L
568.5 477 L
570.665 480.75 L
574.995 480.75 L
572.25 484.5 L
574.995 488.25 L
570.665 488.25 L
568.5 492 L
566.335 488.25 L
562.005 488.25 L
564.75 484.5 L
cp
S
GR
GS
0.149 GC
10.0 ML
0.5 LW
N
547.5 504.5 M
547.5 57 L
718 57 L
718 504.5 L
cp
S
GR
%%Trailer
%%Pages: 1
%%EOF
