%!PS-Adobe-3.0 EPSF-3.0
%%Creator: MATLAB, The MathWorks, Inc. Version 8.2.0.701 (R2013b). Operating System: Microsoft Windows 8.
%%Title: .\rem1.eps
%%CreationDate: 05/17/2016  19:11:02
%%DocumentNeededFonts: Helvetica
%%DocumentProcessColors: Cyan Magenta Yellow Black
%%LanguageLevel: 2
%%Pages: 1
%%BoundingBox:  -305    59   908   786
%%EndComments

%%BeginProlog
% MathWorks dictionary
/MathWorks 160 dict begin
% definition operators
/bdef {bind def} bind def
/ldef {load def} bind def
/xdef {exch def} bdef
/xstore {exch store} bdef
% operator abbreviations
/c  /clip ldef
/cc /concat ldef
/cp /closepath ldef
/gr /grestore ldef
/gs /gsave ldef
/mt /moveto ldef
/np /newpath ldef
/cm /currentmatrix ldef
/sm /setmatrix ldef
/rm /rmoveto ldef
/rl /rlineto ldef
/s {show newpath} bdef
/sc {setcmykcolor} bdef
/sr /setrgbcolor ldef
/sg /setgray ldef
/w /setlinewidth ldef
/j /setlinejoin ldef
/cap /setlinecap ldef
/rc {rectclip} bdef
/rf {rectfill} bdef
% page state control
/pgsv () def
/bpage {/pgsv save def} bdef
/epage {pgsv restore} bdef
/bplot /gsave ldef
/eplot {stroke grestore} bdef
% orientation switch
/portraitMode 0 def /landscapeMode 1 def /rotateMode 2 def
% coordinate system mappings
/dpi2point 0 def
% font control
/FontSize 0 def
/FMS {/FontSize xstore findfont [FontSize 0 0 FontSize neg 0 0]
  makefont setfont} bdef
/ISOLatin1Encoding where {pop /WindowsLatin1Encoding 256 array bdef
ISOLatin1Encoding WindowsLatin1Encoding copy pop
/.notdef/.notdef/quotesinglbase/florin/quotedblbase/ellipsis/dagger
/daggerdbl/circumflex/perthousand/Scaron/guilsinglleft/OE/.notdef/.notdef
/.notdef/.notdef/quoteleft/quoteright/quotedblleft/quotedblright/bullet
/endash/emdash/tilde/trademark/scaron/guilsinglright/oe/.notdef/.notdef
/Ydieresis WindowsLatin1Encoding 128 32 getinterval astore pop}
{/WindowsLatin1Encoding StandardEncoding bdef} ifelse
/reencode {exch dup where {pop load} {pop StandardEncoding} ifelse
  exch dup 3 1 roll findfont dup length dict begin
  { 1 index /FID ne {def}{pop pop} ifelse } forall
  /Encoding exch def currentdict end definefont pop} bdef
/isroman {findfont /CharStrings get /Agrave known} bdef
/FMSR {3 1 roll 1 index dup isroman {reencode} {pop pop} ifelse
  exch FMS} bdef
/csm {1 dpi2point div -1 dpi2point div scale neg translate
 dup landscapeMode eq {pop -90 rotate}
  {rotateMode eq {90 rotate} if} ifelse} bdef
% line types: solid, dotted, dashed, dotdash
/SO { [] 0 setdash } bdef
/DO { [.5 dpi2point mul 4 dpi2point mul] 0 setdash } bdef
/DA { [6 dpi2point mul] 0 setdash } bdef
/DD { [.5 dpi2point mul 4 dpi2point mul 6 dpi2point mul 4
  dpi2point mul] 0 setdash } bdef
% macros for lines and objects
/L {lineto stroke} bdef
/MP {3 1 roll moveto 1 sub {rlineto} repeat} bdef
/AP {{rlineto} repeat} bdef
/PDlw -1 def
/W {/PDlw currentlinewidth def setlinewidth} def
/PP {closepath eofill} bdef
/DP {closepath stroke} bdef
/MR {4 -2 roll moveto dup  0 exch rlineto exch 0 rlineto
  neg 0 exch rlineto closepath} bdef
/FR {MR stroke} bdef
/PR {MR fill} bdef
/L1i {{currentfile picstr readhexstring pop} image} bdef
/tMatrix matrix def
/MakeOval {newpath tMatrix currentmatrix pop translate scale
0 0 1 0 360 arc tMatrix setmatrix} bdef
/FO {MakeOval stroke} bdef
/PO {MakeOval fill} bdef
/PD {currentlinewidth 2 div 0 360 arc fill
   PDlw -1 eq not {PDlw w /PDlw -1 def} if} def
/FA {newpath tMatrix currentmatrix pop translate scale
  0 0 1 5 -2 roll arc tMatrix setmatrix stroke} bdef
/PA {newpath tMatrix currentmatrix pop	translate 0 0 moveto scale
  0 0 1 5 -2 roll arc closepath tMatrix setmatrix fill} bdef
/FAn {newpath tMatrix currentmatrix pop translate scale
  0 0 1 5 -2 roll arcn tMatrix setmatrix stroke} bdef
/PAn {newpath tMatrix currentmatrix pop translate 0 0 moveto scale
  0 0 1 5 -2 roll arcn closepath tMatrix setmatrix fill} bdef
/vradius 0 def /hradius 0 def /lry 0 def
/lrx 0 def /uly 0 def /ulx 0 def /rad 0 def
/MRR {/vradius xdef /hradius xdef /lry xdef /lrx xdef /uly xdef
  /ulx xdef newpath tMatrix currentmatrix pop ulx hradius add uly
  vradius add translate hradius vradius scale 0 0 1 180 270 arc 
  tMatrix setmatrix lrx hradius sub uly vradius add translate
  hradius vradius scale 0 0 1 270 360 arc tMatrix setmatrix
  lrx hradius sub lry vradius sub translate hradius vradius scale
  0 0 1 0 90 arc tMatrix setmatrix ulx hradius add lry vradius sub
  translate hradius vradius scale 0 0 1 90 180 arc tMatrix setmatrix
  closepath} bdef
/FRR {MRR stroke } bdef
/PRR {MRR fill } bdef
/MlrRR {/lry xdef /lrx xdef /uly xdef /ulx xdef /rad lry uly sub 2 div def
  newpath tMatrix currentmatrix pop ulx rad add uly rad add translate
  rad rad scale 0 0 1 90 270 arc tMatrix setmatrix lrx rad sub lry rad
  sub translate rad rad scale 0 0 1 270 90 arc tMatrix setmatrix
  closepath} bdef
/FlrRR {MlrRR stroke } bdef
/PlrRR {MlrRR fill } bdef
/MtbRR {/lry xdef /lrx xdef /uly xdef /ulx xdef /rad lrx ulx sub 2 div def
  newpath tMatrix currentmatrix pop ulx rad add uly rad add translate
  rad rad scale 0 0 1 180 360 arc tMatrix setmatrix lrx rad sub lry rad
  sub translate rad rad scale 0 0 1 0 180 arc tMatrix setmatrix
  closepath} bdef
/FtbRR {MtbRR stroke } bdef
/PtbRR {MtbRR fill } bdef
/stri 6 array def /dtri 6 array def
/smat 6 array def /dmat 6 array def
/tmat1 6 array def /tmat2 6 array def /dif 3 array def
/asub {/ind2 exch def /ind1 exch def dup dup
  ind1 get exch ind2 get sub exch } bdef
/tri_to_matrix {
  2 0 asub 3 1 asub 4 0 asub 5 1 asub
  dup 0 get exch 1 get 7 -1 roll astore } bdef
/compute_transform {
  dmat dtri tri_to_matrix tmat1 invertmatrix 
  smat stri tri_to_matrix tmat2 concatmatrix } bdef
/ds {stri astore pop} bdef
/dt {dtri astore pop} bdef
/db {2 copy /cols xdef /rows xdef mul dup 3 mul string
  currentfile 
  3 index 0 eq {/ASCIIHexDecode filter}
  {/ASCII85Decode filter 3 index 2 eq {/RunLengthDecode filter} if }
  ifelse exch readstring pop
  dup 0 3 index getinterval /rbmap xdef
  dup 2 index dup getinterval /gbmap xdef
  1 index dup 2 mul exch getinterval /bbmap xdef pop pop}bdef
/it {gs np dtri aload pop moveto lineto lineto cp c
  cols rows 8 compute_transform 
  rbmap gbmap bbmap true 3 colorimage gr}bdef
/il {newpath moveto lineto stroke}bdef
currentdict end def
%%EndProlog

%%BeginSetup
MathWorks begin

0 cap

end
%%EndSetup

%%Page: 1 1
%%BeginPageSetup
%%PageBoundingBox:  -305    59   908   786
MathWorks begin
bpage
%%EndPageSetup

%%BeginObject: obj1
bplot

/dpi2point 12 def
portraitMode -5064 9384 csm

 1399   -48 14568  8719 rc
94 dict begin %Colortable dictionary
/c0 { 0.000000 0.000000 0.000000 sr} bdef
/c1 { 1.000000 1.000000 1.000000 sr} bdef
/c2 { 0.900000 0.000000 0.000000 sr} bdef
/c3 { 0.000000 0.820000 0.000000 sr} bdef
/c4 { 0.000000 0.000000 0.800000 sr} bdef
/c5 { 0.910000 0.820000 0.320000 sr} bdef
/c6 { 1.000000 0.260000 0.820000 sr} bdef
/c7 { 0.000000 0.820000 0.820000 sr} bdef
c0
1 j
1 sg
   0    0 17295 8672 rf
6 w
0 6625 13403 0 0 -6625 2248 7673 4 MP
PP
-13403 0 0 6625 13403 0 0 -6625 2248 7673 5 MP stroke
4 w
DO
0 sg
2248 7673 mt 2248 1048 L
2248 1048 mt 2248 1048 L
3923 7673 mt 3923 1048 L
3923 1048 mt 3923 1048 L
5598 7673 mt 5598 1048 L
5598 1048 mt 5598 1048 L
7274 7673 mt 7274 1048 L
7274 1048 mt 7274 1048 L
8949 7673 mt 8949 1048 L
8949 1048 mt 8949 1048 L
10624 7673 mt 10624 1048 L
10624 1048 mt 10624 1048 L
12300 7673 mt 12300 1048 L
12300 1048 mt 12300 1048 L
13975 7673 mt 13975 1048 L
13975 1048 mt 13975 1048 L
15651 7673 mt 15651 1048 L
15651 1048 mt 15651 1048 L
2248 7673 mt 15651 7673 L
15651 7673 mt 15651 7673 L
2248 6568 mt 15651 6568 L
15651 6568 mt 15651 6568 L
2248 5464 mt 15651 5464 L
15651 5464 mt 15651 5464 L
2248 4360 mt 15651 4360 L
15651 4360 mt 15651 4360 L
2248 3256 mt 15651 3256 L
15651 3256 mt 15651 3256 L
2248 2152 mt 15651 2152 L
15651 2152 mt 15651 2152 L
2248 1048 mt 15651 1048 L
15651 1048 mt 15651 1048 L
SO
6 w
2248 1048 mt 15651 1048 L
2248 7673 mt 15651 7673 L
15651 7673 mt 15651 1048 L
2248 7673 mt 2248 1048 L
2248 7673 mt 15651 7673 L
2248 7673 mt 2248 1048 L
2248 7673 mt 2248 7538 L
2248 1048 mt 2248 1182 L
%%IncludeResource: font Helvetica
/Helvetica /WindowsLatin1Encoding 480 FMSR

1982 8153 mt 
(10) s
3923 7673 mt 3923 7538 L
3923 1048 mt 3923 1182 L
3657 8153 mt 
(20) s
5598 7673 mt 5598 7538 L
5598 1048 mt 5598 1182 L
5332 8153 mt 
(30) s
7274 7673 mt 7274 7538 L
7274 1048 mt 7274 1182 L
7008 8153 mt 
(40) s
8949 7673 mt 8949 7538 L
8949 1048 mt 8949 1182 L
8683 8153 mt 
(50) s
10624 7673 mt 10624 7538 L
10624 1048 mt 10624 1182 L
10358 8153 mt 
(60) s
12300 7673 mt 12300 7538 L
12300 1048 mt 12300 1182 L
12034 8153 mt 
(70) s
13975 7673 mt 13975 7538 L
13975 1048 mt 13975 1182 L
13709 8153 mt 
(80) s
15651 7673 mt 15651 7538 L
15651 1048 mt 15651 1182 L
15385 8153 mt 
(90) s
2248 7673 mt 2382 7673 L
15651 7673 mt 15516 7673 L
1399 7851 mt 
(-40) s
2248 6568 mt 2382 6568 L
15651 6568 mt 15516 6568 L
1399 6746 mt 
(-20) s
2248 5464 mt 2382 5464 L
15651 5464 mt 15516 5464 L
1947 5642 mt 
(0) s
2248 4360 mt 2382 4360 L
15651 4360 mt 15516 4360 L
1680 4538 mt 
(20) s
2248 3256 mt 2382 3256 L
15651 3256 mt 15516 3256 L
1680 3434 mt 
(40) s
2248 2152 mt 2382 2152 L
15651 2152 mt 15516 2152 L
1680 2330 mt 
(60) s
2248 1048 mt 2382 1048 L
15651 1048 mt 15516 1048 L
1680 1226 mt 
(80) s
2248 1048 mt 15651 1048 L
2248 7673 mt 15651 7673 L
15651 7673 mt 15651 1048 L
2248 7673 mt 2248 1048 L
gs 2248 1048 13404 6626 rc
36 w
/c8 { 0.000000 0.000000 1.000000 sr} bdef
c8
1676 425 1675 -777 1676 716 1675 -184 1675 681 1676 143 1675 468 1675 24 
2248 3344 9 MP stroke
gr

36 w
c8
gs 2030 3126 13840 2285 rc
  90   90 2248 3344 FO
  90   90 3923 3368 FO
  90   90 5598 3836 FO
  90   90 7274 3979 FO
  90   90 8949 4660 FO
  90   90 10624 4476 FO
  90   90 12300 5192 FO
  90   90 13975 4415 FO
  90   90 15651 4840 FO
gr

gs 2248 1048 13404 6626 rc
DO
/c9 { 1.000000 0.000000 0.000000 sr} bdef
c9
1676 2605 1675 -2773 1676 -506 1675 2199 1675 -322 1676 2126 1675 -1854 1675 -73 
2248 3252 9 MP stroke
gr

c9
DO
gs 2030 1107 13840 4440 rc
SO
0 j
104 179 -208 0 104 -179 2248 3371 4 MP
DP
104 179 -208 0 104 -179 3923 3298 4 MP
DP
104 179 -208 0 104 -179 5598 1444 4 MP
DP
104 179 -208 0 104 -179 7274 3570 4 MP
DP
104 179 -208 0 104 -179 8949 3248 4 MP
DP
104 179 -208 0 104 -179 10624 5447 4 MP
DP
104 179 -208 0 104 -179 12300 4941 4 MP
DP
104 179 -208 0 104 -179 13975 2168 4 MP
DP
104 179 -208 0 104 -179 15651 4773 4 MP
DP
DO
gr

gs 2248 1048 13404 6626 rc
DD
/c10 { 0.000000 1.000000 0.000000 sr} bdef
c10
1676 146 1675 -26 1676 -100 1675 48 1675 335 1676 39 1675 -39 1675 -151 
2248 5159 9 MP stroke
gr

c10
DD
gs 2030 4751 13840 879 rc
SO
2185 5096 mt 2311 5222 L
2311 5096 mt 2185 5222 L
3860 4945 mt 3986 5071 L
3986 4945 mt 3860 5071 L
5535 4906 mt 5661 5032 L
5661 4906 mt 5535 5032 L
7211 4945 mt 7337 5071 L
7337 4945 mt 7211 5071 L
8886 5280 mt 9012 5406 L
9012 5280 mt 8886 5406 L
10561 5328 mt 10687 5454 L
10687 5328 mt 10561 5454 L
12237 5228 mt 12363 5354 L
12363 5228 mt 12237 5354 L
13912 5202 mt 14038 5328 L
14038 5202 mt 13912 5328 L
15588 5348 mt 15714 5474 L
15714 5348 mt 15588 5474 L
DD
gr

gs 2248 1048 13404 6626 rc
DA
/c11 { 0.000000 0.000000 0.172414 sr} bdef
c11
1676 361 1675 162 1676 -153 1675 107 1675 280 1676 -4 1675 131 1675 -212 
2248 4811 9 MP stroke
gr

c11
DA
gs 2030 4381 13840 1321 rc
SO
2158 4811 mt 2338 4811 L
2248 4721 mt 2248 4901 L
3833 4599 mt 4013 4599 L
3923 4509 mt 3923 4689 L
5508 4730 mt 5688 4730 L
5598 4640 mt 5598 4820 L
7184 4726 mt 7364 4726 L
7274 4636 mt 7274 4816 L
8859 5006 mt 9039 5006 L
8949 4916 mt 8949 5096 L
10534 5113 mt 10714 5113 L
10624 5023 mt 10624 5203 L
12210 4960 mt 12390 4960 L
12300 4870 mt 12300 5050 L
13885 5122 mt 14065 5122 L
13975 5032 mt 13975 5212 L
15561 5483 mt 15741 5483 L
15651 5393 mt 15651 5573 L
2185 4748 mt 2311 4874 L
2311 4748 mt 2185 4874 L
3860 4536 mt 3986 4662 L
3986 4536 mt 3860 4662 L
5535 4667 mt 5661 4793 L
5661 4667 mt 5535 4793 L
7211 4663 mt 7337 4789 L
7337 4663 mt 7211 4789 L
8886 4943 mt 9012 5069 L
9012 4943 mt 8886 5069 L
10561 5050 mt 10687 5176 L
10687 5050 mt 10561 5176 L
12237 4897 mt 12363 5023 L
12363 4897 mt 12237 5023 L
13912 5059 mt 14038 5185 L
14038 5059 mt 13912 5185 L
15588 5420 mt 15714 5546 L
15714 5420 mt 15588 5546 L
DA
gr

gs 2248 1048 13404 6626 rc
SO
/c12 { 1.000000 0.103448 0.724138 sr} bdef
c12
1676 -51 1675 118 1676 -105 1675 283 1675 13 1676 -149 1675 -11 1675 123 
2248 5227 9 MP stroke
gr

c12
SO
gs 2030 4972 13840 746 rc
0 j
0 -142 -142 0 0 142 142 0 2177 5156 5 MP
DP
0 -142 -142 0 0 142 142 0 3852 5279 5 MP
DP
0 -142 -142 0 0 142 142 0 5527 5268 5 MP
DP
0 -142 -142 0 0 142 142 0 7203 5119 5 MP
DP
0 -142 -142 0 0 142 142 0 8878 5132 5 MP
DP
0 -142 -142 0 0 142 142 0 10553 5415 5 MP
DP
0 -142 -142 0 0 142 142 0 12229 5310 5 MP
DP
0 -142 -142 0 0 142 142 0 13904 5428 5 MP
DP
0 -142 -142 0 0 142 142 0 15580 5377 5 MP
DP
gr

gs 2248 1048 13404 6626 rc
DO
/c13 { 0.000000 0.344828 0.000000 sr} bdef
c13
1676 -483 1675 361 1676 381 1675 -316 1675 66 1676 338 1675 518 1675 -341 
2248 4430 9 MP stroke
gr

c13
DO
gs 2030 3871 13840 1785 rc
SO
0 j
90 119 -90 119 -90 -119 90 -119 2248 4549 5 MP
DP
90 119 -90 119 -90 -119 90 -119 3923 4208 5 MP
DP
90 119 -90 119 -90 -119 90 -119 5598 4726 5 MP
DP
90 119 -90 119 -90 -119 90 -119 7274 5064 5 MP
DP
90 119 -90 119 -90 -119 90 -119 8949 5130 5 MP
DP
90 119 -90 119 -90 -119 90 -119 10624 4814 5 MP
DP
90 119 -90 119 -90 -119 90 -119 12300 5195 5 MP
DP
90 119 -90 119 -90 -119 90 -119 13975 5556 5 MP
DP
90 119 -90 119 -90 -119 90 -119 15651 5073 5 MP
DP
DO
gr

gs 2248 1048 13404 6626 rc
DD
1676 -129 1675 606 1676 348 1675 -52 1675 -718 1676 376 1675 226 1675 639 
2248 3528 9 MP stroke
gr

DD
gs 2030 3310 13840 1862 rc
SO
60 W
2248 3528 PD
60 W
3923 4167 PD
60 W
5598 4393 PD
60 W
7274 4769 PD
60 W
8949 4051 PD
60 W
10624 3999 PD
60 W
12300 4347 PD
60 W
13975 4953 PD
60 W
15651 4824 PD
DD
gr

gs 2248 1048 13404 6626 rc
DA
/c14 { 0.517241 0.517241 1.000000 sr} bdef
c14
1676 -517 1675 832 1676 -166 1675 -156 1675 780 1676 65 1675 636 1675 -815 
2248 4638 9 MP stroke
gr

c14
DA
gs 2030 3605 13840 2428 rc
SO
0 j
-104 179 -104 -179 208 0 2144 4698 4 MP
DP
-104 179 -104 -179 208 0 3819 3883 4 MP
DP
-104 179 -104 -179 208 0 5494 4519 4 MP
DP
-104 179 -104 -179 208 0 7170 4584 4 MP
DP
-104 179 -104 -179 208 0 8845 5364 4 MP
DP
-104 179 -104 -179 208 0 10520 5208 4 MP
DP
-104 179 -104 -179 208 0 12196 5042 4 MP
DP
-104 179 -104 -179 208 0 13871 5874 4 MP
DP
-104 179 -104 -179 208 0 15547 5357 4 MP
DP
DA
gr

gs 2248 1048 13404 6626 rc
SO
/c15 { 0.620690 0.310345 0.275862 sr} bdef
c15
1676 -1269 1675 1803 1676 -1794 1675 -398 1675 330 1676 557 1675 521 1675 1226 
2248 3688 9 MP stroke
gr

c15
SO
gs 2030 3470 13840 3071 rc
0 j
-179 104 0 -208 179 104 2129 3688 4 MP
DP
-179 104 0 -208 179 104 3804 4914 4 MP
DP
-179 104 0 -208 179 104 5479 5435 4 MP
DP
-179 104 0 -208 179 104 7155 5992 4 MP
DP
-179 104 0 -208 179 104 8830 6322 4 MP
DP
-179 104 0 -208 179 104 10505 5924 4 MP
DP
-179 104 0 -208 179 104 12181 4130 4 MP
DP
-179 104 0 -208 179 104 13856 5933 4 MP
DP
-179 104 0 -208 179 104 15532 4664 4 MP
DP
gr

gs 2248 1048 13404 6626 rc
DO
/c16 { 0.000000 1.000000 0.758621 sr} bdef
c16
1676 825 1675 -1193 1676 569 1675 683 1675 -541 1676 313 1675 127 1675 730 
2248 4200 9 MP stroke
gr

c16
DO
gs 2030 3982 13840 2318 rc
SO
0 j
0 208 -179 -104 179 -104 2188 4304 4 MP
DP
0 208 -179 -104 179 -104 3863 5034 4 MP
DP
0 208 -179 -104 179 -104 5538 5161 4 MP
DP
0 208 -179 -104 179 -104 7214 5474 4 MP
DP
0 208 -179 -104 179 -104 8889 4933 4 MP
DP
0 208 -179 -104 179 -104 10564 5616 4 MP
DP
0 208 -179 -104 179 -104 12240 6185 4 MP
DP
0 208 -179 -104 179 -104 13915 4992 4 MP
DP
0 208 -179 -104 179 -104 15591 5817 4 MP
DP
DO
gr

gs 2248 1048 13404 6626 rc
SO
/c17 { 0.000000 0.517241 0.586207 sr} bdef
c17
1676 -668 1675 2069 1676 134 1675 -1194 1675 513 1676 1021 1675 236 1675 -90 
2248 3734 9 MP stroke
gr

c17
SO
gs 2030 3426 13840 3216 rc
0 j
-51 -39 18 -61 -53 36 -52 -36 18 61 -51 39 64 0 21 62 
22 -62 64 0 2162 3706 11 MP
DP
-51 -39 18 -61 -53 36 -52 -36 18 61 -51 39 64 0 21 62 
22 -62 64 0 3837 3616 11 MP
DP
-51 -39 18 -61 -53 36 -52 -36 18 61 -51 39 64 0 21 62 
22 -62 64 0 5512 3852 11 MP
DP
-51 -39 18 -61 -53 36 -52 -36 18 61 -51 39 64 0 21 62 
22 -62 64 0 7188 4873 11 MP
DP
-51 -39 18 -61 -53 36 -52 -36 18 61 -51 39 64 0 21 62 
22 -62 64 0 8863 5386 11 MP
DP
-51 -39 18 -61 -53 36 -52 -36 18 61 -51 39 64 0 21 62 
22 -62 64 0 10538 4192 11 MP
DP
-51 -39 18 -61 -53 36 -52 -36 18 61 -51 39 64 0 21 62 
22 -62 64 0 12214 4326 11 MP
DP
-51 -39 18 -61 -53 36 -52 -36 18 61 -51 39 64 0 21 62 
22 -62 64 0 13889 6395 11 MP
DP
-51 -39 18 -61 -53 36 -52 -36 18 61 -51 39 64 0 21 62 
22 -62 64 0 15565 5727 11 MP
DP
gr

gs 2248 1048 13404 6626 rc
DO
/c18 { 0.000000 0.000000 0.482759 sr} bdef
c18
1676 -1194 1675 2751 1676 -1533 1675 37 1675 442 1676 1866 1675 -2295 1675 1766 
2248 3663 9 MP stroke
gr

c18
DO
gs 2030 2916 13840 4000 rc
SO
0 j
-32 -45 32 -45 -52 0 -25 -45 -25 45 -52 0 32 45 -32 45 
52 0 25 45 25 -45 52 0 2171 3618 13 MP
DP
-32 -45 32 -45 -52 0 -25 -45 -25 45 -52 0 32 45 -32 45 
52 0 25 45 25 -45 52 0 3846 5384 13 MP
DP
-32 -45 32 -45 -52 0 -25 -45 -25 45 -52 0 32 45 -32 45 
52 0 25 45 25 -45 52 0 5521 3089 13 MP
DP
-32 -45 32 -45 -52 0 -25 -45 -25 45 -52 0 32 45 -32 45 
52 0 25 45 25 -45 52 0 7197 4955 13 MP
DP
-32 -45 32 -45 -52 0 -25 -45 -25 45 -52 0 32 45 -32 45 
52 0 25 45 25 -45 52 0 8872 5397 13 MP
DP
-32 -45 32 -45 -52 0 -25 -45 -25 45 -52 0 32 45 -32 45 
52 0 25 45 25 -45 52 0 10547 5434 13 MP
DP
-32 -45 32 -45 -52 0 -25 -45 -25 45 -52 0 32 45 -32 45 
52 0 25 45 25 -45 52 0 12223 3901 13 MP
DP
-32 -45 32 -45 -52 0 -25 -45 -25 45 -52 0 32 45 -32 45 
52 0 25 45 25 -45 52 0 13898 6652 13 MP
DP
-32 -45 32 -45 -52 0 -25 -45 -25 45 -52 0 32 45 -32 45 
52 0 25 45 25 -45 52 0 15574 5458 13 MP
DP
DO
gr

gs 2248 1048 13404 6626 rc
gr

0 sg
4587  446 mt 
(Generations to reach feasible region \(D) s
%%IncludeResource: font Helvetica
/Helvetica /WindowsLatin1Encoding 384 FMSR

12935  686 mt 
(g) s
%%IncludeResource: font Helvetica
/Helvetica /WindowsLatin1Encoding 480 FMSR

13148  446 mt 
(\)) s
7010 8561 mt 
(Columns removed) s
SO
6 w

end %%Color Dict

eplot
%%EndObject

epage
end

showpage

%%Trailer
%%EOF
