%!PS-Adobe-3.0 EPSF-3.0
%%Creator: MATLAB, The MathWorks, Inc. Version 8.2.0.701 (R2013b). Operating System: Microsoft Windows 8.
%%Title: .\rem3.eps
%%CreationDate: 05/17/2016  19:11:03
%%DocumentNeededFonts: Helvetica
%%DocumentProcessColors: Cyan Magenta Yellow Black
%%LanguageLevel: 2
%%Pages: 1
%%BoundingBox:  -293    59   908   786
%%EndComments

%%BeginProlog
% MathWorks dictionary
/MathWorks 160 dict begin
% definition operators
/bdef {bind def} bind def
/ldef {load def} bind def
/xdef {exch def} bdef
/xstore {exch store} bdef
% operator abbreviations
/c  /clip ldef
/cc /concat ldef
/cp /closepath ldef
/gr /grestore ldef
/gs /gsave ldef
/mt /moveto ldef
/np /newpath ldef
/cm /currentmatrix ldef
/sm /setmatrix ldef
/rm /rmoveto ldef
/rl /rlineto ldef
/s {show newpath} bdef
/sc {setcmykcolor} bdef
/sr /setrgbcolor ldef
/sg /setgray ldef
/w /setlinewidth ldef
/j /setlinejoin ldef
/cap /setlinecap ldef
/rc {rectclip} bdef
/rf {rectfill} bdef
% page state control
/pgsv () def
/bpage {/pgsv save def} bdef
/epage {pgsv restore} bdef
/bplot /gsave ldef
/eplot {stroke grestore} bdef
% orientation switch
/portraitMode 0 def /landscapeMode 1 def /rotateMode 2 def
% coordinate system mappings
/dpi2point 0 def
% font control
/FontSize 0 def
/FMS {/FontSize xstore findfont [FontSize 0 0 FontSize neg 0 0]
  makefont setfont} bdef
/ISOLatin1Encoding where {pop /WindowsLatin1Encoding 256 array bdef
ISOLatin1Encoding WindowsLatin1Encoding copy pop
/.notdef/.notdef/quotesinglbase/florin/quotedblbase/ellipsis/dagger
/daggerdbl/circumflex/perthousand/Scaron/guilsinglleft/OE/.notdef/.notdef
/.notdef/.notdef/quoteleft/quoteright/quotedblleft/quotedblright/bullet
/endash/emdash/tilde/trademark/scaron/guilsinglright/oe/.notdef/.notdef
/Ydieresis WindowsLatin1Encoding 128 32 getinterval astore pop}
{/WindowsLatin1Encoding StandardEncoding bdef} ifelse
/reencode {exch dup where {pop load} {pop StandardEncoding} ifelse
  exch dup 3 1 roll findfont dup length dict begin
  { 1 index /FID ne {def}{pop pop} ifelse } forall
  /Encoding exch def currentdict end definefont pop} bdef
/isroman {findfont /CharStrings get /Agrave known} bdef
/FMSR {3 1 roll 1 index dup isroman {reencode} {pop pop} ifelse
  exch FMS} bdef
/csm {1 dpi2point div -1 dpi2point div scale neg translate
 dup landscapeMode eq {pop -90 rotate}
  {rotateMode eq {90 rotate} if} ifelse} bdef
% line types: solid, dotted, dashed, dotdash
/SO { [] 0 setdash } bdef
/DO { [.5 dpi2point mul 4 dpi2point mul] 0 setdash } bdef
/DA { [6 dpi2point mul] 0 setdash } bdef
/DD { [.5 dpi2point mul 4 dpi2point mul 6 dpi2point mul 4
  dpi2point mul] 0 setdash } bdef
% macros for lines and objects
/L {lineto stroke} bdef
/MP {3 1 roll moveto 1 sub {rlineto} repeat} bdef
/AP {{rlineto} repeat} bdef
/PDlw -1 def
/W {/PDlw currentlinewidth def setlinewidth} def
/PP {closepath eofill} bdef
/DP {closepath stroke} bdef
/MR {4 -2 roll moveto dup  0 exch rlineto exch 0 rlineto
  neg 0 exch rlineto closepath} bdef
/FR {MR stroke} bdef
/PR {MR fill} bdef
/L1i {{currentfile picstr readhexstring pop} image} bdef
/tMatrix matrix def
/MakeOval {newpath tMatrix currentmatrix pop translate scale
0 0 1 0 360 arc tMatrix setmatrix} bdef
/FO {MakeOval stroke} bdef
/PO {MakeOval fill} bdef
/PD {currentlinewidth 2 div 0 360 arc fill
   PDlw -1 eq not {PDlw w /PDlw -1 def} if} def
/FA {newpath tMatrix currentmatrix pop translate scale
  0 0 1 5 -2 roll arc tMatrix setmatrix stroke} bdef
/PA {newpath tMatrix currentmatrix pop	translate 0 0 moveto scale
  0 0 1 5 -2 roll arc closepath tMatrix setmatrix fill} bdef
/FAn {newpath tMatrix currentmatrix pop translate scale
  0 0 1 5 -2 roll arcn tMatrix setmatrix stroke} bdef
/PAn {newpath tMatrix currentmatrix pop translate 0 0 moveto scale
  0 0 1 5 -2 roll arcn closepath tMatrix setmatrix fill} bdef
/vradius 0 def /hradius 0 def /lry 0 def
/lrx 0 def /uly 0 def /ulx 0 def /rad 0 def
/MRR {/vradius xdef /hradius xdef /lry xdef /lrx xdef /uly xdef
  /ulx xdef newpath tMatrix currentmatrix pop ulx hradius add uly
  vradius add translate hradius vradius scale 0 0 1 180 270 arc 
  tMatrix setmatrix lrx hradius sub uly vradius add translate
  hradius vradius scale 0 0 1 270 360 arc tMatrix setmatrix
  lrx hradius sub lry vradius sub translate hradius vradius scale
  0 0 1 0 90 arc tMatrix setmatrix ulx hradius add lry vradius sub
  translate hradius vradius scale 0 0 1 90 180 arc tMatrix setmatrix
  closepath} bdef
/FRR {MRR stroke } bdef
/PRR {MRR fill } bdef
/MlrRR {/lry xdef /lrx xdef /uly xdef /ulx xdef /rad lry uly sub 2 div def
  newpath tMatrix currentmatrix pop ulx rad add uly rad add translate
  rad rad scale 0 0 1 90 270 arc tMatrix setmatrix lrx rad sub lry rad
  sub translate rad rad scale 0 0 1 270 90 arc tMatrix setmatrix
  closepath} bdef
/FlrRR {MlrRR stroke } bdef
/PlrRR {MlrRR fill } bdef
/MtbRR {/lry xdef /lrx xdef /uly xdef /ulx xdef /rad lrx ulx sub 2 div def
  newpath tMatrix currentmatrix pop ulx rad add uly rad add translate
  rad rad scale 0 0 1 180 360 arc tMatrix setmatrix lrx rad sub lry rad
  sub translate rad rad scale 0 0 1 0 180 arc tMatrix setmatrix
  closepath} bdef
/FtbRR {MtbRR stroke } bdef
/PtbRR {MtbRR fill } bdef
/stri 6 array def /dtri 6 array def
/smat 6 array def /dmat 6 array def
/tmat1 6 array def /tmat2 6 array def /dif 3 array def
/asub {/ind2 exch def /ind1 exch def dup dup
  ind1 get exch ind2 get sub exch } bdef
/tri_to_matrix {
  2 0 asub 3 1 asub 4 0 asub 5 1 asub
  dup 0 get exch 1 get 7 -1 roll astore } bdef
/compute_transform {
  dmat dtri tri_to_matrix tmat1 invertmatrix 
  smat stri tri_to_matrix tmat2 concatmatrix } bdef
/ds {stri astore pop} bdef
/dt {dtri astore pop} bdef
/db {2 copy /cols xdef /rows xdef mul dup 3 mul string
  currentfile 
  3 index 0 eq {/ASCIIHexDecode filter}
  {/ASCII85Decode filter 3 index 2 eq {/RunLengthDecode filter} if }
  ifelse exch readstring pop
  dup 0 3 index getinterval /rbmap xdef
  dup 2 index dup getinterval /gbmap xdef
  1 index dup 2 mul exch getinterval /bbmap xdef pop pop}bdef
/it {gs np dtri aload pop moveto lineto lineto cp c
  cols rows 8 compute_transform 
  rbmap gbmap bbmap true 3 colorimage gr}bdef
/il {newpath moveto lineto stroke}bdef
currentdict end def
%%EndProlog

%%BeginSetup
MathWorks begin

0 cap

end
%%EndSetup

%%Page: 1 1
%%BeginPageSetup
%%PageBoundingBox:  -293    59   908   786
MathWorks begin
bpage
%%EndPageSetup

%%BeginObject: obj1
bplot

/dpi2point 12 def
portraitMode -5064 9384 csm

 1546   -48 14421  8719 rc
94 dict begin %Colortable dictionary
/c0 { 0.000000 0.000000 0.000000 sr} bdef
/c1 { 1.000000 1.000000 1.000000 sr} bdef
/c2 { 0.900000 0.000000 0.000000 sr} bdef
/c3 { 0.000000 0.820000 0.000000 sr} bdef
/c4 { 0.000000 0.000000 0.800000 sr} bdef
/c5 { 0.910000 0.820000 0.320000 sr} bdef
/c6 { 1.000000 0.260000 0.820000 sr} bdef
/c7 { 0.000000 0.820000 0.820000 sr} bdef
c0
1 j
1 sg
   0    0 17295 8672 rf
6 w
0 6626 13403 0 0 -6626 2248 7673 4 MP
PP
-13403 0 0 6626 13403 0 0 -6626 2248 7673 5 MP stroke
4 w
DO
0 sg
2248 7673 mt 2248 1047 L
2248 1047 mt 2248 1047 L
3923 7673 mt 3923 1047 L
3923 1047 mt 3923 1047 L
5598 7673 mt 5598 1047 L
5598 1047 mt 5598 1047 L
7274 7673 mt 7274 1047 L
7274 1047 mt 7274 1047 L
8949 7673 mt 8949 1047 L
8949 1047 mt 8949 1047 L
10624 7673 mt 10624 1047 L
10624 1047 mt 10624 1047 L
12300 7673 mt 12300 1047 L
12300 1047 mt 12300 1047 L
13975 7673 mt 13975 1047 L
13975 1047 mt 13975 1047 L
15651 7673 mt 15651 1047 L
15651 1047 mt 15651 1047 L
2248 7673 mt 15651 7673 L
15651 7673 mt 15651 7673 L
2248 6016 mt 15651 6016 L
15651 6016 mt 15651 6016 L
2248 4360 mt 15651 4360 L
15651 4360 mt 15651 4360 L
2248 2704 mt 15651 2704 L
15651 2704 mt 15651 2704 L
2248 1047 mt 15651 1047 L
15651 1047 mt 15651 1047 L
SO
6 w
2248 1047 mt 15651 1047 L
2248 7673 mt 15651 7673 L
15651 7673 mt 15651 1047 L
2248 7673 mt 2248 1047 L
2248 7673 mt 15651 7673 L
2248 7673 mt 2248 1047 L
2248 7673 mt 2248 7538 L
2248 1047 mt 2248 1182 L
%%IncludeResource: font Helvetica
/Helvetica /WindowsLatin1Encoding 480 FMSR

1982 8153 mt 
(10) s
3923 7673 mt 3923 7538 L
3923 1047 mt 3923 1182 L
3657 8153 mt 
(20) s
5598 7673 mt 5598 7538 L
5598 1047 mt 5598 1182 L
5332 8153 mt 
(30) s
7274 7673 mt 7274 7538 L
7274 1047 mt 7274 1182 L
7008 8153 mt 
(40) s
8949 7673 mt 8949 7538 L
8949 1047 mt 8949 1182 L
8683 8153 mt 
(50) s
10624 7673 mt 10624 7538 L
10624 1047 mt 10624 1182 L
10358 8153 mt 
(60) s
12300 7673 mt 12300 7538 L
12300 1047 mt 12300 1182 L
12034 8153 mt 
(70) s
13975 7673 mt 13975 7538 L
13975 1047 mt 13975 1182 L
13709 8153 mt 
(80) s
15651 7673 mt 15651 7538 L
15651 1047 mt 15651 1182 L
15385 8153 mt 
(90) s
2248 7673 mt 2382 7673 L
15651 7673 mt 15516 7673 L
1947 7851 mt 
(0) s
2248 6016 mt 2382 6016 L
15651 6016 mt 15516 6016 L
1546 6194 mt 
(0.5) s
2248 4360 mt 2382 4360 L
15651 4360 mt 15516 4360 L
1947 4538 mt 
(1) s
2248 2704 mt 2382 2704 L
15651 2704 mt 15516 2704 L
1546 2882 mt 
(1.5) s
2248 1047 mt 2382 1047 L
15651 1047 mt 15516 1047 L
1947 1225 mt 
(2) s
2248  993 mt 
(x 10) s
%%IncludeResource: font Helvetica
/Helvetica /WindowsLatin1Encoding 320 FMSR

3155  696 mt 
(4) s
2248 1047 mt 15651 1047 L
2248 7673 mt 15651 7673 L
15651 7673 mt 15651 1047 L
2248 7673 mt 2248 1047 L
gs 2248 1048 13404 6626 rc
36 w
/c8 { 0.000000 0.000000 1.000000 sr} bdef
c8
1676 216 1675 -207 1676 352 1675 -7 1675 245 1676 103 1675 145 1675 66 
2248 6452 9 MP stroke
gr

36 w
c8
gs 2030 6234 13840 1350 rc
  90   90 2248 6452 FO
  90   90 3923 6518 FO
  90   90 5598 6663 FO
  90   90 7274 6766 FO
  90   90 8949 7011 FO
  90   90 10624 7004 FO
  90   90 12300 7356 FO
  90   90 13975 7149 FO
  90   90 15651 7365 FO
gr

gs 2248 1048 13404 6626 rc
DO
/c9 { 1.000000 0.000000 0.000000 sr} bdef
c9
1676 2053 1675 -1359 1676 346 1675 1568 1675 393 1676 1483 1675 -1027 1675 414 
2248 2824 9 MP stroke
gr

c9
DO
gs 2030 1993 13840 4921 rc
SO
0 j
104 179 -208 0 104 -179 2248 2943 4 MP
DP
104 179 -208 0 104 -179 3923 3357 4 MP
DP
104 179 -208 0 104 -179 5598 2330 4 MP
DP
104 179 -208 0 104 -179 7274 3813 4 MP
DP
104 179 -208 0 104 -179 8949 4206 4 MP
DP
104 179 -208 0 104 -179 10624 5774 4 MP
DP
104 179 -208 0 104 -179 12300 6120 4 MP
DP
104 179 -208 0 104 -179 13975 4761 4 MP
DP
104 179 -208 0 104 -179 15651 6814 4 MP
DP
DO
gr

gs 2248 1048 13404 6626 rc
DD
/c10 { 0.000000 1.000000 0.000000 sr} bdef
c10
1676 15 1675 1 1676 -5 1675 7 1675 27 1676 8 1675 -6 1675 -5 
2248 7617 9 MP stroke
gr

c10
DD
gs 2030 7388 13840 490 rc
SO
2185 7554 mt 2311 7680 L
2311 7554 mt 2185 7680 L
3860 7549 mt 3986 7675 L
3986 7549 mt 3860 7675 L
5535 7543 mt 5661 7669 L
5661 7543 mt 5535 7669 L
7211 7551 mt 7337 7677 L
7337 7551 mt 7211 7677 L
8886 7578 mt 9012 7704 L
9012 7578 mt 8886 7704 L
10561 7585 mt 10687 7711 L
10687 7585 mt 10561 7711 L
12237 7580 mt 12363 7706 L
12363 7580 mt 12237 7706 L
13912 7581 mt 14038 7707 L
14038 7581 mt 13912 7707 L
15588 7596 mt 15714 7722 L
15714 7596 mt 15588 7722 L
DD
gr

gs 2248 1048 13404 6626 rc
DA
/c11 { 0.000000 0.000000 0.172414 sr} bdef
c11
1676 88 1675 32 1676 -26 1675 35 1675 61 1676 15 1675 35 1675 -52 
2248 7476 9 MP stroke
gr

c11
DA
gs 2030 7206 13840 677 rc
SO
2158 7476 mt 2338 7476 L
2248 7386 mt 2248 7566 L
3833 7424 mt 4013 7424 L
3923 7334 mt 3923 7514 L
5508 7459 mt 5688 7459 L
5598 7369 mt 5598 7549 L
7184 7474 mt 7364 7474 L
7274 7384 mt 7274 7564 L
8859 7535 mt 9039 7535 L
8949 7445 mt 8949 7625 L
10534 7570 mt 10714 7570 L
10624 7480 mt 10624 7660 L
12210 7544 mt 12390 7544 L
12300 7454 mt 12300 7634 L
13885 7576 mt 14065 7576 L
13975 7486 mt 13975 7666 L
15561 7664 mt 15741 7664 L
15651 7574 mt 15651 7754 L
2185 7413 mt 2311 7539 L
2311 7413 mt 2185 7539 L
3860 7361 mt 3986 7487 L
3986 7361 mt 3860 7487 L
5535 7396 mt 5661 7522 L
5661 7396 mt 5535 7522 L
7211 7411 mt 7337 7537 L
7337 7411 mt 7211 7537 L
8886 7472 mt 9012 7598 L
9012 7472 mt 8886 7598 L
10561 7507 mt 10687 7633 L
10687 7507 mt 10561 7633 L
12237 7481 mt 12363 7607 L
12363 7481 mt 12237 7607 L
13912 7513 mt 14038 7639 L
14038 7513 mt 13912 7639 L
15588 7601 mt 15714 7727 L
15714 7601 mt 15588 7727 L
DA
gr

gs 2248 1048 13404 6626 rc
SO
/c12 { 1.000000 0.103448 0.724138 sr} bdef
c12
1676 -6 1675 9 1676 -2 1675 13 1675 3 1676 -7 1675 1 1675 3 
2248 7652 9 MP stroke
gr

c12
SO
gs 2030 7431 13840 460 rc
0 j
0 -142 -142 0 0 142 142 0 2177 7581 5 MP
DP
0 -142 -142 0 0 142 142 0 3852 7584 5 MP
DP
0 -142 -142 0 0 142 142 0 5527 7585 5 MP
DP
0 -142 -142 0 0 142 142 0 7203 7578 5 MP
DP
0 -142 -142 0 0 142 142 0 8878 7581 5 MP
DP
0 -142 -142 0 0 142 142 0 10553 7594 5 MP
DP
0 -142 -142 0 0 142 142 0 12229 7592 5 MP
DP
0 -142 -142 0 0 142 142 0 13904 7601 5 MP
DP
0 -142 -142 0 0 142 142 0 15580 7595 5 MP
DP
gr

gs 2248 1048 13404 6626 rc
DO
/c13 { 0.000000 0.344828 0.000000 sr} bdef
c13
1676 -113 1675 174 1676 91 1675 5 1675 67 1676 65 1675 166 1675 -9 
2248 7028 9 MP stroke
gr

c13
DO
gs 2030 6801 13840 1005 rc
SO
0 j
90 119 -90 119 -90 -119 90 -119 2248 7147 5 MP
DP
90 119 -90 119 -90 -119 90 -119 3923 7138 5 MP
DP
90 119 -90 119 -90 -119 90 -119 5598 7304 5 MP
DP
90 119 -90 119 -90 -119 90 -119 7274 7369 5 MP
DP
90 119 -90 119 -90 -119 90 -119 8949 7436 5 MP
DP
90 119 -90 119 -90 -119 90 -119 10624 7441 5 MP
DP
90 119 -90 119 -90 -119 90 -119 12300 7532 5 MP
DP
90 119 -90 119 -90 -119 90 -119 13975 7706 5 MP
DP
90 119 -90 119 -90 -119 90 -119 15651 7593 5 MP
DP
DO
gr

gs 2248 1048 13404 6626 rc
DD
1676 128 1675 442 1676 435 1675 137 1675 -175 1676 409 1675 233 1675 537 
2248 4934 9 MP stroke
gr

DD
gs 2030 4716 13840 2583 rc
SO
60 W
2248 4934 PD
60 W
3923 5471 PD
60 W
5598 5704 PD
60 W
7274 6113 PD
60 W
8949 5938 PD
60 W
10624 6075 PD
60 W
12300 6510 PD
60 W
13975 6952 PD
60 W
15651 7080 PD
DD
gr

gs 2248 1048 13404 6626 rc
DA
/c14 { 0.517241 0.517241 1.000000 sr} bdef
c14
1676 -95 1675 199 1676 32 1675 -10 1675 205 1676 39 1675 155 1675 -133 
2248 7150 9 MP stroke
gr

c14
DA
gs 2030 6799 13840 1057 rc
SO
0 j
-104 179 -104 -179 208 0 2144 7210 4 MP
DP
-104 179 -104 -179 208 0 3819 7077 4 MP
DP
-104 179 -104 -179 208 0 5494 7232 4 MP
DP
-104 179 -104 -179 208 0 7170 7271 4 MP
DP
-104 179 -104 -179 208 0 8845 7476 4 MP
DP
-104 179 -104 -179 208 0 10520 7466 4 MP
DP
-104 179 -104 -179 208 0 12196 7498 4 MP
DP
-104 179 -104 -179 208 0 13871 7697 4 MP
DP
-104 179 -104 -179 208 0 15547 7602 4 MP
DP
DA
gr

gs 2248 1048 13404 6626 rc
SO
/c15 { 0.620690 0.310345 0.275862 sr} bdef
c15
1676 -336 1675 858 1676 -466 1675 203 1675 77 1676 584 1675 219 1675 418 
2248 5565 9 MP stroke
gr

c15
SO
gs 2030 5347 13840 2330 rc
0 j
-179 104 0 -208 179 104 2129 5565 4 MP
DP
-179 104 0 -208 179 104 3804 5983 4 MP
DP
-179 104 0 -208 179 104 5479 6202 4 MP
DP
-179 104 0 -208 179 104 7155 6786 4 MP
DP
-179 104 0 -208 179 104 8830 6863 4 MP
DP
-179 104 0 -208 179 104 10505 7066 4 MP
DP
-179 104 0 -208 179 104 12181 6600 4 MP
DP
-179 104 0 -208 179 104 13856 7458 4 MP
DP
-179 104 0 -208 179 104 15532 7122 4 MP
DP
gr

gs 2248 1048 13404 6626 rc
DO
/c16 { 0.000000 1.000000 0.758621 sr} bdef
c16
1676 199 1675 -216 1676 150 1675 132 1675 -71 1676 85 1675 63 1675 202 
2248 7105 9 MP stroke
gr

c16
DO
gs 2030 6887 13840 998 rc
SO
0 j
0 208 -179 -104 179 -104 2188 7209 4 MP
DP
0 208 -179 -104 179 -104 3863 7411 4 MP
DP
0 208 -179 -104 179 -104 5538 7474 4 MP
DP
0 208 -179 -104 179 -104 7214 7559 4 MP
DP
0 208 -179 -104 179 -104 8889 7488 4 MP
DP
0 208 -179 -104 179 -104 10564 7620 4 MP
DP
0 208 -179 -104 179 -104 12240 7770 4 MP
DP
0 208 -179 -104 179 -104 13915 7554 4 MP
DP
0 208 -179 -104 179 -104 15591 7753 4 MP
DP
DO
gr

gs 2248 1048 13404 6626 rc
SO
/c17 { 0.000000 0.517241 0.586207 sr} bdef
c17
1676 -39 1675 853 1676 289 1675 -268 1675 283 1676 409 1675 148 1675 219 
2248 5681 9 MP stroke
gr

c17
SO
gs 2030 5463 13840 2370 rc
0 j
-51 -39 18 -61 -53 36 -52 -36 18 61 -51 39 64 0 21 62 
22 -62 64 0 2162 5653 11 MP
DP
-51 -39 18 -61 -53 36 -52 -36 18 61 -51 39 64 0 21 62 
22 -62 64 0 3837 5872 11 MP
DP
-51 -39 18 -61 -53 36 -52 -36 18 61 -51 39 64 0 21 62 
22 -62 64 0 5512 6020 11 MP
DP
-51 -39 18 -61 -53 36 -52 -36 18 61 -51 39 64 0 21 62 
22 -62 64 0 7188 6429 11 MP
DP
-51 -39 18 -61 -53 36 -52 -36 18 61 -51 39 64 0 21 62 
22 -62 64 0 8863 6712 11 MP
DP
-51 -39 18 -61 -53 36 -52 -36 18 61 -51 39 64 0 21 62 
22 -62 64 0 10538 6444 11 MP
DP
-51 -39 18 -61 -53 36 -52 -36 18 61 -51 39 64 0 21 62 
22 -62 64 0 12214 6733 11 MP
DP
-51 -39 18 -61 -53 36 -52 -36 18 61 -51 39 64 0 21 62 
22 -62 64 0 13889 7586 11 MP
DP
-51 -39 18 -61 -53 36 -52 -36 18 61 -51 39 64 0 21 62 
22 -62 64 0 15565 7547 11 MP
DP
gr

gs 2248 1048 13404 6626 rc
DO
/c18 { 0.000000 0.000000 0.482759 sr} bdef
c18
1676 -206 1675 1133 1676 -375 1675 191 1675 466 1676 621 1675 -469 1675 450 
2248 5591 9 MP stroke
gr

c18
DO
gs 2030 5354 13840 2473 rc
SO
0 j
-32 -45 32 -45 -52 0 -25 -45 -25 45 -52 0 32 45 -32 45 
52 0 25 45 25 -45 52 0 2171 5546 13 MP
DP
-32 -45 32 -45 -52 0 -25 -45 -25 45 -52 0 32 45 -32 45 
52 0 25 45 25 -45 52 0 3846 5996 13 MP
DP
-32 -45 32 -45 -52 0 -25 -45 -25 45 -52 0 32 45 -32 45 
52 0 25 45 25 -45 52 0 5521 5527 13 MP
DP
-32 -45 32 -45 -52 0 -25 -45 -25 45 -52 0 32 45 -32 45 
52 0 25 45 25 -45 52 0 7197 6148 13 MP
DP
-32 -45 32 -45 -52 0 -25 -45 -25 45 -52 0 32 45 -32 45 
52 0 25 45 25 -45 52 0 8872 6614 13 MP
DP
-32 -45 32 -45 -52 0 -25 -45 -25 45 -52 0 32 45 -32 45 
52 0 25 45 25 -45 52 0 10547 6805 13 MP
DP
-32 -45 32 -45 -52 0 -25 -45 -25 45 -52 0 32 45 -32 45 
52 0 25 45 25 -45 52 0 12223 6430 13 MP
DP
-32 -45 32 -45 -52 0 -25 -45 -25 45 -52 0 32 45 -32 45 
52 0 25 45 25 -45 52 0 13898 7563 13 MP
DP
-32 -45 32 -45 -52 0 -25 -45 -25 45 -52 0 32 45 -32 45 
52 0 25 45 25 -45 52 0 15574 7357 13 MP
DP
DO
gr

gs 2248 1048 13404 6626 rc
gr

0 sg
%%IncludeResource: font Helvetica
/Helvetica /WindowsLatin1Encoding 480 FMSR

3762  446 mt 
(Evaluations to reach feasible region \(D) s
%%IncludeResource: font Helvetica
/Helvetica /WindowsLatin1Encoding 384 FMSR

11969  686 mt 
(e) s
%%IncludeResource: font Helvetica
/Helvetica /WindowsLatin1Encoding 480 FMSR

12182  446 mt 
( feasible\)) s
7010 8561 mt 
(Columns removed) s
SO
6 w

end %%Color Dict

eplot
%%EndObject

epage
end

showpage

%%Trailer
%%EOF
