%!PS-Adobe-3.0 EPSF-3.0
%%Creator: MATLAB, The MathWorks, Inc. Version 8.2.0.701 (R2013b). Operating System: Microsoft Windows 8.
%%Title: .\rem5.eps
%%CreationDate: 05/17/2016  19:11:04
%%DocumentNeededFonts: Helvetica
%%DocumentProcessColors: Cyan Magenta Yellow Black
%%LanguageLevel: 2
%%Pages: 1
%%BoundingBox:  -305    59   908   786
%%EndComments

%%BeginProlog
% MathWorks dictionary
/MathWorks 160 dict begin
% definition operators
/bdef {bind def} bind def
/ldef {load def} bind def
/xdef {exch def} bdef
/xstore {exch store} bdef
% operator abbreviations
/c  /clip ldef
/cc /concat ldef
/cp /closepath ldef
/gr /grestore ldef
/gs /gsave ldef
/mt /moveto ldef
/np /newpath ldef
/cm /currentmatrix ldef
/sm /setmatrix ldef
/rm /rmoveto ldef
/rl /rlineto ldef
/s {show newpath} bdef
/sc {setcmykcolor} bdef
/sr /setrgbcolor ldef
/sg /setgray ldef
/w /setlinewidth ldef
/j /setlinejoin ldef
/cap /setlinecap ldef
/rc {rectclip} bdef
/rf {rectfill} bdef
% page state control
/pgsv () def
/bpage {/pgsv save def} bdef
/epage {pgsv restore} bdef
/bplot /gsave ldef
/eplot {stroke grestore} bdef
% orientation switch
/portraitMode 0 def /landscapeMode 1 def /rotateMode 2 def
% coordinate system mappings
/dpi2point 0 def
% font control
/FontSize 0 def
/FMS {/FontSize xstore findfont [FontSize 0 0 FontSize neg 0 0]
  makefont setfont} bdef
/ISOLatin1Encoding where {pop /WindowsLatin1Encoding 256 array bdef
ISOLatin1Encoding WindowsLatin1Encoding copy pop
/.notdef/.notdef/quotesinglbase/florin/quotedblbase/ellipsis/dagger
/daggerdbl/circumflex/perthousand/Scaron/guilsinglleft/OE/.notdef/.notdef
/.notdef/.notdef/quoteleft/quoteright/quotedblleft/quotedblright/bullet
/endash/emdash/tilde/trademark/scaron/guilsinglright/oe/.notdef/.notdef
/Ydieresis WindowsLatin1Encoding 128 32 getinterval astore pop}
{/WindowsLatin1Encoding StandardEncoding bdef} ifelse
/reencode {exch dup where {pop load} {pop StandardEncoding} ifelse
  exch dup 3 1 roll findfont dup length dict begin
  { 1 index /FID ne {def}{pop pop} ifelse } forall
  /Encoding exch def currentdict end definefont pop} bdef
/isroman {findfont /CharStrings get /Agrave known} bdef
/FMSR {3 1 roll 1 index dup isroman {reencode} {pop pop} ifelse
  exch FMS} bdef
/csm {1 dpi2point div -1 dpi2point div scale neg translate
 dup landscapeMode eq {pop -90 rotate}
  {rotateMode eq {90 rotate} if} ifelse} bdef
% line types: solid, dotted, dashed, dotdash
/SO { [] 0 setdash } bdef
/DO { [.5 dpi2point mul 4 dpi2point mul] 0 setdash } bdef
/DA { [6 dpi2point mul] 0 setdash } bdef
/DD { [.5 dpi2point mul 4 dpi2point mul 6 dpi2point mul 4
  dpi2point mul] 0 setdash } bdef
% macros for lines and objects
/L {lineto stroke} bdef
/MP {3 1 roll moveto 1 sub {rlineto} repeat} bdef
/AP {{rlineto} repeat} bdef
/PDlw -1 def
/W {/PDlw currentlinewidth def setlinewidth} def
/PP {closepath eofill} bdef
/DP {closepath stroke} bdef
/MR {4 -2 roll moveto dup  0 exch rlineto exch 0 rlineto
  neg 0 exch rlineto closepath} bdef
/FR {MR stroke} bdef
/PR {MR fill} bdef
/L1i {{currentfile picstr readhexstring pop} image} bdef
/tMatrix matrix def
/MakeOval {newpath tMatrix currentmatrix pop translate scale
0 0 1 0 360 arc tMatrix setmatrix} bdef
/FO {MakeOval stroke} bdef
/PO {MakeOval fill} bdef
/PD {currentlinewidth 2 div 0 360 arc fill
   PDlw -1 eq not {PDlw w /PDlw -1 def} if} def
/FA {newpath tMatrix currentmatrix pop translate scale
  0 0 1 5 -2 roll arc tMatrix setmatrix stroke} bdef
/PA {newpath tMatrix currentmatrix pop	translate 0 0 moveto scale
  0 0 1 5 -2 roll arc closepath tMatrix setmatrix fill} bdef
/FAn {newpath tMatrix currentmatrix pop translate scale
  0 0 1 5 -2 roll arcn tMatrix setmatrix stroke} bdef
/PAn {newpath tMatrix currentmatrix pop translate 0 0 moveto scale
  0 0 1 5 -2 roll arcn closepath tMatrix setmatrix fill} bdef
/vradius 0 def /hradius 0 def /lry 0 def
/lrx 0 def /uly 0 def /ulx 0 def /rad 0 def
/MRR {/vradius xdef /hradius xdef /lry xdef /lrx xdef /uly xdef
  /ulx xdef newpath tMatrix currentmatrix pop ulx hradius add uly
  vradius add translate hradius vradius scale 0 0 1 180 270 arc 
  tMatrix setmatrix lrx hradius sub uly vradius add translate
  hradius vradius scale 0 0 1 270 360 arc tMatrix setmatrix
  lrx hradius sub lry vradius sub translate hradius vradius scale
  0 0 1 0 90 arc tMatrix setmatrix ulx hradius add lry vradius sub
  translate hradius vradius scale 0 0 1 90 180 arc tMatrix setmatrix
  closepath} bdef
/FRR {MRR stroke } bdef
/PRR {MRR fill } bdef
/MlrRR {/lry xdef /lrx xdef /uly xdef /ulx xdef /rad lry uly sub 2 div def
  newpath tMatrix currentmatrix pop ulx rad add uly rad add translate
  rad rad scale 0 0 1 90 270 arc tMatrix setmatrix lrx rad sub lry rad
  sub translate rad rad scale 0 0 1 270 90 arc tMatrix setmatrix
  closepath} bdef
/FlrRR {MlrRR stroke } bdef
/PlrRR {MlrRR fill } bdef
/MtbRR {/lry xdef /lrx xdef /uly xdef /ulx xdef /rad lrx ulx sub 2 div def
  newpath tMatrix currentmatrix pop ulx rad add uly rad add translate
  rad rad scale 0 0 1 180 360 arc tMatrix setmatrix lrx rad sub lry rad
  sub translate rad rad scale 0 0 1 0 180 arc tMatrix setmatrix
  closepath} bdef
/FtbRR {MtbRR stroke } bdef
/PtbRR {MtbRR fill } bdef
/stri 6 array def /dtri 6 array def
/smat 6 array def /dmat 6 array def
/tmat1 6 array def /tmat2 6 array def /dif 3 array def
/asub {/ind2 exch def /ind1 exch def dup dup
  ind1 get exch ind2 get sub exch } bdef
/tri_to_matrix {
  2 0 asub 3 1 asub 4 0 asub 5 1 asub
  dup 0 get exch 1 get 7 -1 roll astore } bdef
/compute_transform {
  dmat dtri tri_to_matrix tmat1 invertmatrix 
  smat stri tri_to_matrix tmat2 concatmatrix } bdef
/ds {stri astore pop} bdef
/dt {dtri astore pop} bdef
/db {2 copy /cols xdef /rows xdef mul dup 3 mul string
  currentfile 
  3 index 0 eq {/ASCIIHexDecode filter}
  {/ASCII85Decode filter 3 index 2 eq {/RunLengthDecode filter} if }
  ifelse exch readstring pop
  dup 0 3 index getinterval /rbmap xdef
  dup 2 index dup getinterval /gbmap xdef
  1 index dup 2 mul exch getinterval /bbmap xdef pop pop}bdef
/it {gs np dtri aload pop moveto lineto lineto cp c
  cols rows 8 compute_transform 
  rbmap gbmap bbmap true 3 colorimage gr}bdef
/il {newpath moveto lineto stroke}bdef
currentdict end def
%%EndProlog

%%BeginSetup
MathWorks begin

0 cap

end
%%EndSetup

%%Page: 1 1
%%BeginPageSetup
%%PageBoundingBox:  -305    59   908   786
MathWorks begin
bpage
%%EndPageSetup

%%BeginObject: obj1
bplot

/dpi2point 12 def
portraitMode -5064 9384 csm

 1399   -48 14568  8719 rc
94 dict begin %Colortable dictionary
/c0 { 0.000000 0.000000 0.000000 sr} bdef
/c1 { 1.000000 1.000000 1.000000 sr} bdef
/c2 { 0.900000 0.000000 0.000000 sr} bdef
/c3 { 0.000000 0.820000 0.000000 sr} bdef
/c4 { 0.000000 0.000000 0.800000 sr} bdef
/c5 { 0.910000 0.820000 0.320000 sr} bdef
/c6 { 1.000000 0.260000 0.820000 sr} bdef
/c7 { 0.000000 0.820000 0.820000 sr} bdef
c0
1 j
1 sg
   0    0 17295 8672 rf
6 w
0 6625 13403 0 0 -6625 2248 7673 4 MP
PP
-13403 0 0 6625 13403 0 0 -6625 2248 7673 5 MP stroke
4 w
DO
0 sg
2248 7673 mt 2248 1048 L
2248 1048 mt 2248 1048 L
3923 7673 mt 3923 1048 L
3923 1048 mt 3923 1048 L
5598 7673 mt 5598 1048 L
5598 1048 mt 5598 1048 L
7274 7673 mt 7274 1048 L
7274 1048 mt 7274 1048 L
8949 7673 mt 8949 1048 L
8949 1048 mt 8949 1048 L
10624 7673 mt 10624 1048 L
10624 1048 mt 10624 1048 L
12300 7673 mt 12300 1048 L
12300 1048 mt 12300 1048 L
13975 7673 mt 13975 1048 L
13975 1048 mt 13975 1048 L
15651 7673 mt 15651 1048 L
15651 1048 mt 15651 1048 L
2248 7673 mt 15651 7673 L
15651 7673 mt 15651 7673 L
2248 6016 mt 15651 6016 L
15651 6016 mt 15651 6016 L
2248 4360 mt 15651 4360 L
15651 4360 mt 15651 4360 L
2248 2704 mt 15651 2704 L
15651 2704 mt 15651 2704 L
2248 1048 mt 15651 1048 L
15651 1048 mt 15651 1048 L
SO
6 w
2248 1048 mt 15651 1048 L
2248 7673 mt 15651 7673 L
15651 7673 mt 15651 1048 L
2248 7673 mt 2248 1048 L
2248 7673 mt 15651 7673 L
2248 7673 mt 2248 1048 L
2248 7673 mt 2248 7538 L
2248 1048 mt 2248 1182 L
%%IncludeResource: font Helvetica
/Helvetica /WindowsLatin1Encoding 480 FMSR

1982 8153 mt 
(10) s
3923 7673 mt 3923 7538 L
3923 1048 mt 3923 1182 L
3657 8153 mt 
(20) s
5598 7673 mt 5598 7538 L
5598 1048 mt 5598 1182 L
5332 8153 mt 
(30) s
7274 7673 mt 7274 7538 L
7274 1048 mt 7274 1182 L
7008 8153 mt 
(40) s
8949 7673 mt 8949 7538 L
8949 1048 mt 8949 1182 L
8683 8153 mt 
(50) s
10624 7673 mt 10624 7538 L
10624 1048 mt 10624 1182 L
10358 8153 mt 
(60) s
12300 7673 mt 12300 7538 L
12300 1048 mt 12300 1182 L
12034 8153 mt 
(70) s
13975 7673 mt 13975 7538 L
13975 1048 mt 13975 1182 L
13709 8153 mt 
(80) s
15651 7673 mt 15651 7538 L
15651 1048 mt 15651 1182 L
15385 8153 mt 
(90) s
2248 7673 mt 2382 7673 L
15651 7673 mt 15516 7673 L
1399 7851 mt 
(-15) s
2248 6016 mt 2382 6016 L
15651 6016 mt 15516 6016 L
1399 6194 mt 
(-10) s
2248 4360 mt 2382 4360 L
15651 4360 mt 15516 4360 L
1666 4538 mt 
(-5) s
2248 2704 mt 2382 2704 L
15651 2704 mt 15516 2704 L
1947 2882 mt 
(0) s
2248 1048 mt 2382 1048 L
15651 1048 mt 15516 1048 L
1947 1226 mt 
(5) s
2248 1048 mt 15651 1048 L
2248 7673 mt 15651 7673 L
15651 7673 mt 15651 1048 L
2248 7673 mt 2248 1048 L
gs 2248 1048 13404 6626 rc
36 w
/c8 { 0.000000 0.000000 1.000000 sr} bdef
c8
1676 -276 1675 -77 1676 -199 1675 -155 1675 -375 1676 -155 1675 -176 1675 -210 
2248 4404 9 MP stroke
gr

36 w
c8
gs 2030 2563 13840 2060 rc
  90   90 2248 4404 FO
  90   90 3923 4194 FO
  90   90 5598 4018 FO
  90   90 7274 3863 FO
  90   90 8949 3488 FO
  90   90 10624 3333 FO
  90   90 12300 3134 FO
  90   90 13975 3057 FO
  90   90 15651 2781 FO
gr

gs 2248 1048 13404 6626 rc
DO
/c9 { 1.000000 0.000000 0.000000 sr} bdef
c9
1676 -331 1675 -287 1676 -596 1675 -254 1675 -575 1676 -342 1675 -431 1675 -519 
2248 6348 9 MP stroke
gr

c9
DO
gs 2030 2795 13840 3772 rc
SO
0 j
104 179 -208 0 104 -179 2248 6467 4 MP
DP
104 179 -208 0 104 -179 3923 5948 4 MP
DP
104 179 -208 0 104 -179 5598 5517 4 MP
DP
104 179 -208 0 104 -179 7274 5175 4 MP
DP
104 179 -208 0 104 -179 8949 4600 4 MP
DP
104 179 -208 0 104 -179 10624 4346 4 MP
DP
104 179 -208 0 104 -179 12300 3750 4 MP
DP
104 179 -208 0 104 -179 13975 3463 4 MP
DP
104 179 -208 0 104 -179 15651 3132 4 MP
DP
DO
gr

gs 2248 1048 13404 6626 rc
DD
/c10 { 0.000000 1.000000 0.000000 sr} bdef
c10
1676 22 1675 -11 1676 -11 1675 -34 1675 -33 1676 -88 1675 -66 1675 22 
2248 3079 9 MP stroke
gr

c10
DD
gs 2030 2640 13840 680 rc
SO
2185 3016 mt 2311 3142 L
2311 3016 mt 2185 3142 L
3860 3038 mt 3986 3164 L
3986 3038 mt 3860 3164 L
5535 2972 mt 5661 3098 L
5661 2972 mt 5535 3098 L
7211 2884 mt 7337 3010 L
7337 2884 mt 7211 3010 L
8886 2851 mt 9012 2977 L
9012 2851 mt 8886 2977 L
10561 2817 mt 10687 2943 L
10687 2817 mt 10561 2943 L
12237 2806 mt 12363 2932 L
12363 2806 mt 12237 2932 L
13912 2795 mt 14038 2921 L
14038 2795 mt 13912 2921 L
15588 2817 mt 15714 2943 L
15714 2817 mt 15588 2943 L
DD
gr

gs 2248 1048 13404 6626 rc
DA
/c11 { 0.000000 0.000000 0.172414 sr} bdef
c11
1676 -155 1675 -22 1676 -11 1675 -88 1675 -110 1676 -89 1675 33 1675 -176 
2248 3366 9 MP stroke
gr

c11
DA
gs 2030 2530 13840 1055 rc
SO
2158 3366 mt 2338 3366 L
2248 3276 mt 2248 3456 L
3833 3190 mt 4013 3190 L
3923 3100 mt 3923 3280 L
5508 3223 mt 5688 3223 L
5598 3133 mt 5598 3313 L
7184 3134 mt 7364 3134 L
7274 3044 mt 7274 3224 L
8859 3024 mt 9039 3024 L
8949 2934 mt 8949 3114 L
10534 2936 mt 10714 2936 L
10624 2846 mt 10624 3026 L
12210 2925 mt 12390 2925 L
12300 2835 mt 12300 3015 L
13885 2903 mt 14065 2903 L
13975 2813 mt 13975 2993 L
15561 2748 mt 15741 2748 L
15651 2658 mt 15651 2838 L
2185 3303 mt 2311 3429 L
2311 3303 mt 2185 3429 L
3860 3127 mt 3986 3253 L
3986 3127 mt 3860 3253 L
5535 3160 mt 5661 3286 L
5661 3160 mt 5535 3286 L
7211 3071 mt 7337 3197 L
7337 3071 mt 7211 3197 L
8886 2961 mt 9012 3087 L
9012 2961 mt 8886 3087 L
10561 2873 mt 10687 2999 L
10687 2873 mt 10561 2999 L
12237 2862 mt 12363 2988 L
12363 2862 mt 12237 2988 L
13912 2840 mt 14038 2966 L
14038 2840 mt 13912 2966 L
15588 2685 mt 15714 2811 L
15714 2685 mt 15588 2811 L
DA
gr

gs 2248 1048 13404 6626 rc
SO
/c12 { 1.000000 0.103448 0.724138 sr} bdef
c12
1676 11 1675 -88 1676 44 1675 55 1675 0 1676 -77 1675 -22 1675 66 
2248 2704 9 MP stroke
gr

c12
SO
gs 2030 2453 13840 536 rc
0 j
0 -142 -142 0 0 142 142 0 2177 2633 5 MP
DP
0 -142 -142 0 0 142 142 0 3852 2699 5 MP
DP
0 -142 -142 0 0 142 142 0 5527 2677 5 MP
DP
0 -142 -142 0 0 142 142 0 7203 2600 5 MP
DP
0 -142 -142 0 0 142 142 0 8878 2600 5 MP
DP
0 -142 -142 0 0 142 142 0 10553 2655 5 MP
DP
0 -142 -142 0 0 142 142 0 12229 2699 5 MP
DP
0 -142 -142 0 0 142 142 0 13904 2611 5 MP
DP
0 -142 -142 0 0 142 142 0 15580 2622 5 MP
DP
gr

gs 2248 1048 13404 6626 rc
DO
/c13 { 0.000000 0.344828 0.000000 sr} bdef
c13
1676 -144 1675 -132 1676 -22 1675 -44 1675 -232 1676 11 1675 -67 1675 -265 
2248 3698 9 MP stroke
gr

c13
DO
gs 2030 2585 13840 1332 rc
SO
0 j
90 119 -90 119 -90 -119 90 -119 2248 3817 5 MP
DP
90 119 -90 119 -90 -119 90 -119 3923 3552 5 MP
DP
90 119 -90 119 -90 -119 90 -119 5598 3485 5 MP
DP
90 119 -90 119 -90 -119 90 -119 7274 3496 5 MP
DP
90 119 -90 119 -90 -119 90 -119 8949 3264 5 MP
DP
90 119 -90 119 -90 -119 90 -119 10624 3220 5 MP
DP
90 119 -90 119 -90 -119 90 -119 12300 3198 5 MP
DP
90 119 -90 119 -90 -119 90 -119 13975 3066 5 MP
DP
90 119 -90 119 -90 -119 90 -119 15651 2922 5 MP
DP
DO
gr

gs 2248 1048 13404 6626 rc
DD
1676 -298 1675 -254 1676 0 1675 -298 1675 -78 1676 -110 1675 -243 1675 -155 
2248 4250 9 MP stroke
gr

DD
gs 2030 2596 13840 1873 rc
SO
60 W
2248 4250 PD
60 W
3923 4095 PD
60 W
5598 3852 PD
60 W
7274 3742 PD
60 W
8949 3664 PD
60 W
10624 3366 PD
60 W
12300 3366 PD
60 W
13975 3112 PD
60 W
15651 2814 PD
DD
gr

gs 2248 1048 13404 6626 rc
DA
/c14 { 0.517241 0.517241 1.000000 sr} bdef
c14
1676 -166 1675 78 1676 -188 1675 -66 1675 0 1676 -177 1675 -33 1675 -11 
2248 3322 9 MP stroke
gr

c14
DA
gs 2030 2541 13840 1000 rc
SO
0 j
-104 179 -104 -179 208 0 2144 3382 4 MP
DP
-104 179 -104 -179 208 0 3819 3371 4 MP
DP
-104 179 -104 -179 208 0 5494 3338 4 MP
DP
-104 179 -104 -179 208 0 7170 3161 4 MP
DP
-104 179 -104 -179 208 0 8845 3161 4 MP
DP
-104 179 -104 -179 208 0 10520 3095 4 MP
DP
-104 179 -104 -179 208 0 12196 2907 4 MP
DP
-104 179 -104 -179 208 0 13871 2985 4 MP
DP
-104 179 -104 -179 208 0 15547 2819 4 MP
DP
DA
gr

gs 2248 1048 13404 6626 rc
SO
/c15 { 0.620690 0.310345 0.275862 sr} bdef
c15
1676 -188 1675 -99 1676 -55 1675 -122 1675 -287 1676 -99 1675 55 1675 -243 
2248 3863 9 MP stroke
gr

c15
SO
gs 2030 2607 13840 1475 rc
0 j
-179 104 0 -208 179 104 2129 3863 4 MP
DP
-179 104 0 -208 179 104 3804 3620 4 MP
DP
-179 104 0 -208 179 104 5479 3675 4 MP
DP
-179 104 0 -208 179 104 7155 3576 4 MP
DP
-179 104 0 -208 179 104 8830 3289 4 MP
DP
-179 104 0 -208 179 104 10505 3167 4 MP
DP
-179 104 0 -208 179 104 12181 3112 4 MP
DP
-179 104 0 -208 179 104 13856 3013 4 MP
DP
-179 104 0 -208 179 104 15532 2825 4 MP
DP
gr

gs 2248 1048 13404 6626 rc
DO
/c16 { 0.000000 1.000000 0.758621 sr} bdef
c16
1676 -33 1675 -44 1676 11 1675 -77 1675 -45 1676 11 1675 34 1675 55 
2248 2825 9 MP stroke
gr

c16
DO
gs 2030 2519 13840 625 rc
SO
0 j
0 208 -179 -104 179 -104 2188 2929 4 MP
DP
0 208 -179 -104 179 -104 3863 2984 4 MP
DP
0 208 -179 -104 179 -104 5538 3018 4 MP
DP
0 208 -179 -104 179 -104 7214 3029 4 MP
DP
0 208 -179 -104 179 -104 8889 2984 4 MP
DP
0 208 -179 -104 179 -104 10564 2907 4 MP
DP
0 208 -179 -104 179 -104 12240 2918 4 MP
DP
0 208 -179 -104 179 -104 13915 2874 4 MP
DP
0 208 -179 -104 179 -104 15591 2841 4 MP
DP
DO
gr

gs 2248 1048 13404 6626 rc
SO
/c17 { 0.000000 0.517241 0.586207 sr} bdef
c17
1676 -155 1675 -11 1676 -11 1675 -177 1675 34 1676 -177 1675 77 1675 -11 
2248 3256 9 MP stroke
gr

c17
SO
gs 2030 2607 13840 934 rc
0 j
-51 -39 18 -61 -53 36 -52 -36 18 61 -51 39 64 0 21 62 
22 -62 64 0 2162 3228 11 MP
DP
-51 -39 18 -61 -53 36 -52 -36 18 61 -51 39 64 0 21 62 
22 -62 64 0 3837 3217 11 MP
DP
-51 -39 18 -61 -53 36 -52 -36 18 61 -51 39 64 0 21 62 
22 -62 64 0 5512 3294 11 MP
DP
-51 -39 18 -61 -53 36 -52 -36 18 61 -51 39 64 0 21 62 
22 -62 64 0 7188 3117 11 MP
DP
-51 -39 18 -61 -53 36 -52 -36 18 61 -51 39 64 0 21 62 
22 -62 64 0 8863 3151 11 MP
DP
-51 -39 18 -61 -53 36 -52 -36 18 61 -51 39 64 0 21 62 
22 -62 64 0 10538 2974 11 MP
DP
-51 -39 18 -61 -53 36 -52 -36 18 61 -51 39 64 0 21 62 
22 -62 64 0 12214 2963 11 MP
DP
-51 -39 18 -61 -53 36 -52 -36 18 61 -51 39 64 0 21 62 
22 -62 64 0 13889 2952 11 MP
DP
-51 -39 18 -61 -53 36 -52 -36 18 61 -51 39 64 0 21 62 
22 -62 64 0 15565 2797 11 MP
DP
gr

gs 2248 1048 13404 6626 rc
DO
/c18 { 0.000000 0.000000 0.482759 sr} bdef
c18
1676 66 1675 -187 1676 88 1675 0 1675 -11 1676 -88 1675 22 1675 143 
2248 2693 9 MP stroke
gr

c18
DO
gs 2030 2442 13840 635 rc
SO
0 j
-32 -45 32 -45 -52 0 -25 -45 -25 45 -52 0 32 45 -32 45 
52 0 25 45 25 -45 52 0 2171 2648 13 MP
DP
-32 -45 32 -45 -52 0 -25 -45 -25 45 -52 0 32 45 -32 45 
52 0 25 45 25 -45 52 0 3846 2791 13 MP
DP
-32 -45 32 -45 -52 0 -25 -45 -25 45 -52 0 32 45 -32 45 
52 0 25 45 25 -45 52 0 5521 2813 13 MP
DP
-32 -45 32 -45 -52 0 -25 -45 -25 45 -52 0 32 45 -32 45 
52 0 25 45 25 -45 52 0 7197 2725 13 MP
DP
-32 -45 32 -45 -52 0 -25 -45 -25 45 -52 0 32 45 -32 45 
52 0 25 45 25 -45 52 0 8872 2714 13 MP
DP
-32 -45 32 -45 -52 0 -25 -45 -25 45 -52 0 32 45 -32 45 
52 0 25 45 25 -45 52 0 10547 2714 13 MP
DP
-32 -45 32 -45 -52 0 -25 -45 -25 45 -52 0 32 45 -32 45 
52 0 25 45 25 -45 52 0 12223 2802 13 MP
DP
-32 -45 32 -45 -52 0 -25 -45 -25 45 -52 0 32 45 -32 45 
52 0 25 45 25 -45 52 0 13898 2615 13 MP
DP
-32 -45 32 -45 -52 0 -25 -45 -25 45 -52 0 32 45 -32 45 
52 0 25 45 25 -45 52 0 15574 2681 13 MP
DP
DO
gr

gs 2248 1048 13404 6626 rc
gr

0 sg
6778  446 mt 
(Solution Quality \(D) s
%%IncludeResource: font Helvetica
/Helvetica /WindowsLatin1Encoding 384 FMSR

10779  686 mt 
(s) s
%%IncludeResource: font Helvetica
/Helvetica /WindowsLatin1Encoding 480 FMSR

10971  446 mt 
(\)) s
7010 8561 mt 
(Columns removed) s
SO
6 w

end %%Color Dict

eplot
%%EndObject

epage
end

showpage

%%Trailer
%%EOF
