%!PS-Adobe-3.0 EPSF-3.0
%%Creator: MATLAB, The MathWorks, Inc. Version 8.2.0.701 (R2013b). Operating System: Microsoft Windows 8.
%%Title: .\rem7.eps
%%CreationDate: 05/17/2016  19:11:05
%%DocumentNeededFonts: Helvetica
%%DocumentProcessColors: Cyan Magenta Yellow Black
%%LanguageLevel: 2
%%Pages: 1
%%BoundingBox:  -259    59   908   786
%%EndComments

%%BeginProlog
% MathWorks dictionary
/MathWorks 160 dict begin
% definition operators
/bdef {bind def} bind def
/ldef {load def} bind def
/xdef {exch def} bdef
/xstore {exch store} bdef
% operator abbreviations
/c  /clip ldef
/cc /concat ldef
/cp /closepath ldef
/gr /grestore ldef
/gs /gsave ldef
/mt /moveto ldef
/np /newpath ldef
/cm /currentmatrix ldef
/sm /setmatrix ldef
/rm /rmoveto ldef
/rl /rlineto ldef
/s {show newpath} bdef
/sc {setcmykcolor} bdef
/sr /setrgbcolor ldef
/sg /setgray ldef
/w /setlinewidth ldef
/j /setlinejoin ldef
/cap /setlinecap ldef
/rc {rectclip} bdef
/rf {rectfill} bdef
% page state control
/pgsv () def
/bpage {/pgsv save def} bdef
/epage {pgsv restore} bdef
/bplot /gsave ldef
/eplot {stroke grestore} bdef
% orientation switch
/portraitMode 0 def /landscapeMode 1 def /rotateMode 2 def
% coordinate system mappings
/dpi2point 0 def
% font control
/FontSize 0 def
/FMS {/FontSize xstore findfont [FontSize 0 0 FontSize neg 0 0]
  makefont setfont} bdef
/ISOLatin1Encoding where {pop /WindowsLatin1Encoding 256 array bdef
ISOLatin1Encoding WindowsLatin1Encoding copy pop
/.notdef/.notdef/quotesinglbase/florin/quotedblbase/ellipsis/dagger
/daggerdbl/circumflex/perthousand/Scaron/guilsinglleft/OE/.notdef/.notdef
/.notdef/.notdef/quoteleft/quoteright/quotedblleft/quotedblright/bullet
/endash/emdash/tilde/trademark/scaron/guilsinglright/oe/.notdef/.notdef
/Ydieresis WindowsLatin1Encoding 128 32 getinterval astore pop}
{/WindowsLatin1Encoding StandardEncoding bdef} ifelse
/reencode {exch dup where {pop load} {pop StandardEncoding} ifelse
  exch dup 3 1 roll findfont dup length dict begin
  { 1 index /FID ne {def}{pop pop} ifelse } forall
  /Encoding exch def currentdict end definefont pop} bdef
/isroman {findfont /CharStrings get /Agrave known} bdef
/FMSR {3 1 roll 1 index dup isroman {reencode} {pop pop} ifelse
  exch FMS} bdef
/csm {1 dpi2point div -1 dpi2point div scale neg translate
 dup landscapeMode eq {pop -90 rotate}
  {rotateMode eq {90 rotate} if} ifelse} bdef
% line types: solid, dotted, dashed, dotdash
/SO { [] 0 setdash } bdef
/DO { [.5 dpi2point mul 4 dpi2point mul] 0 setdash } bdef
/DA { [6 dpi2point mul] 0 setdash } bdef
/DD { [.5 dpi2point mul 4 dpi2point mul 6 dpi2point mul 4
  dpi2point mul] 0 setdash } bdef
% macros for lines and objects
/L {lineto stroke} bdef
/MP {3 1 roll moveto 1 sub {rlineto} repeat} bdef
/AP {{rlineto} repeat} bdef
/PDlw -1 def
/W {/PDlw currentlinewidth def setlinewidth} def
/PP {closepath eofill} bdef
/DP {closepath stroke} bdef
/MR {4 -2 roll moveto dup  0 exch rlineto exch 0 rlineto
  neg 0 exch rlineto closepath} bdef
/FR {MR stroke} bdef
/PR {MR fill} bdef
/L1i {{currentfile picstr readhexstring pop} image} bdef
/tMatrix matrix def
/MakeOval {newpath tMatrix currentmatrix pop translate scale
0 0 1 0 360 arc tMatrix setmatrix} bdef
/FO {MakeOval stroke} bdef
/PO {MakeOval fill} bdef
/PD {currentlinewidth 2 div 0 360 arc fill
   PDlw -1 eq not {PDlw w /PDlw -1 def} if} def
/FA {newpath tMatrix currentmatrix pop translate scale
  0 0 1 5 -2 roll arc tMatrix setmatrix stroke} bdef
/PA {newpath tMatrix currentmatrix pop	translate 0 0 moveto scale
  0 0 1 5 -2 roll arc closepath tMatrix setmatrix fill} bdef
/FAn {newpath tMatrix currentmatrix pop translate scale
  0 0 1 5 -2 roll arcn tMatrix setmatrix stroke} bdef
/PAn {newpath tMatrix currentmatrix pop translate 0 0 moveto scale
  0 0 1 5 -2 roll arcn closepath tMatrix setmatrix fill} bdef
/vradius 0 def /hradius 0 def /lry 0 def
/lrx 0 def /uly 0 def /ulx 0 def /rad 0 def
/MRR {/vradius xdef /hradius xdef /lry xdef /lrx xdef /uly xdef
  /ulx xdef newpath tMatrix currentmatrix pop ulx hradius add uly
  vradius add translate hradius vradius scale 0 0 1 180 270 arc 
  tMatrix setmatrix lrx hradius sub uly vradius add translate
  hradius vradius scale 0 0 1 270 360 arc tMatrix setmatrix
  lrx hradius sub lry vradius sub translate hradius vradius scale
  0 0 1 0 90 arc tMatrix setmatrix ulx hradius add lry vradius sub
  translate hradius vradius scale 0 0 1 90 180 arc tMatrix setmatrix
  closepath} bdef
/FRR {MRR stroke } bdef
/PRR {MRR fill } bdef
/MlrRR {/lry xdef /lrx xdef /uly xdef /ulx xdef /rad lry uly sub 2 div def
  newpath tMatrix currentmatrix pop ulx rad add uly rad add translate
  rad rad scale 0 0 1 90 270 arc tMatrix setmatrix lrx rad sub lry rad
  sub translate rad rad scale 0 0 1 270 90 arc tMatrix setmatrix
  closepath} bdef
/FlrRR {MlrRR stroke } bdef
/PlrRR {MlrRR fill } bdef
/MtbRR {/lry xdef /lrx xdef /uly xdef /ulx xdef /rad lrx ulx sub 2 div def
  newpath tMatrix currentmatrix pop ulx rad add uly rad add translate
  rad rad scale 0 0 1 180 360 arc tMatrix setmatrix lrx rad sub lry rad
  sub translate rad rad scale 0 0 1 0 180 arc tMatrix setmatrix
  closepath} bdef
/FtbRR {MtbRR stroke } bdef
/PtbRR {MtbRR fill } bdef
/stri 6 array def /dtri 6 array def
/smat 6 array def /dmat 6 array def
/tmat1 6 array def /tmat2 6 array def /dif 3 array def
/asub {/ind2 exch def /ind1 exch def dup dup
  ind1 get exch ind2 get sub exch } bdef
/tri_to_matrix {
  2 0 asub 3 1 asub 4 0 asub 5 1 asub
  dup 0 get exch 1 get 7 -1 roll astore } bdef
/compute_transform {
  dmat dtri tri_to_matrix tmat1 invertmatrix 
  smat stri tri_to_matrix tmat2 concatmatrix } bdef
/ds {stri astore pop} bdef
/dt {dtri astore pop} bdef
/db {2 copy /cols xdef /rows xdef mul dup 3 mul string
  currentfile 
  3 index 0 eq {/ASCIIHexDecode filter}
  {/ASCII85Decode filter 3 index 2 eq {/RunLengthDecode filter} if }
  ifelse exch readstring pop
  dup 0 3 index getinterval /rbmap xdef
  dup 2 index dup getinterval /gbmap xdef
  1 index dup 2 mul exch getinterval /bbmap xdef pop pop}bdef
/it {gs np dtri aload pop moveto lineto lineto cp c
  cols rows 8 compute_transform 
  rbmap gbmap bbmap true 3 colorimage gr}bdef
/il {newpath moveto lineto stroke}bdef
currentdict end def
%%EndProlog

%%BeginSetup
MathWorks begin

0 cap

end
%%EndSetup

%%Page: 1 1
%%BeginPageSetup
%%PageBoundingBox:  -259    59   908   786
MathWorks begin
bpage
%%EndPageSetup

%%BeginObject: obj1
bplot

/dpi2point 12 def
portraitMode -5064 9384 csm

 1947   -48 14020  8719 rc
94 dict begin %Colortable dictionary
/c0 { 0.000000 0.000000 0.000000 sr} bdef
/c1 { 1.000000 1.000000 1.000000 sr} bdef
/c2 { 0.900000 0.000000 0.000000 sr} bdef
/c3 { 0.000000 0.820000 0.000000 sr} bdef
/c4 { 0.000000 0.000000 0.800000 sr} bdef
/c5 { 0.910000 0.820000 0.320000 sr} bdef
/c6 { 1.000000 0.260000 0.820000 sr} bdef
/c7 { 0.000000 0.820000 0.820000 sr} bdef
c0
1 j
1 sg
   0    0 17295 8672 rf
6 w
0 6625 13403 0 0 -6625 2248 7673 4 MP
PP
-13403 0 0 6625 13403 0 0 -6625 2248 7673 5 MP stroke
4 w
DO
0 sg
2248 7673 mt 2248 1048 L
2248 1048 mt 2248 1048 L
3923 7673 mt 3923 1048 L
3923 1048 mt 3923 1048 L
5598 7673 mt 5598 1048 L
5598 1048 mt 5598 1048 L
7274 7673 mt 7274 1048 L
7274 1048 mt 7274 1048 L
8949 7673 mt 8949 1048 L
8949 1048 mt 8949 1048 L
10624 7673 mt 10624 1048 L
10624 1048 mt 10624 1048 L
12300 7673 mt 12300 1048 L
12300 1048 mt 12300 1048 L
13975 7673 mt 13975 1048 L
13975 1048 mt 13975 1048 L
15651 7673 mt 15651 1048 L
15651 1048 mt 15651 1048 L
2248 7673 mt 15651 7673 L
15651 7673 mt 15651 7673 L
2248 6016 mt 15651 6016 L
15651 6016 mt 15651 6016 L
2248 4360 mt 15651 4360 L
15651 4360 mt 15651 4360 L
2248 2704 mt 15651 2704 L
15651 2704 mt 15651 2704 L
2248 1048 mt 15651 1048 L
15651 1048 mt 15651 1048 L
SO
6 w
2248 1048 mt 15651 1048 L
2248 7673 mt 15651 7673 L
15651 7673 mt 15651 1048 L
2248 7673 mt 2248 1048 L
2248 7673 mt 15651 7673 L
2248 7673 mt 2248 1048 L
2248 7673 mt 2248 7538 L
2248 1048 mt 2248 1182 L
%%IncludeResource: font Helvetica
/Helvetica /WindowsLatin1Encoding 480 FMSR

1982 8153 mt 
(10) s
3923 7673 mt 3923 7538 L
3923 1048 mt 3923 1182 L
3657 8153 mt 
(20) s
5598 7673 mt 5598 7538 L
5598 1048 mt 5598 1182 L
5332 8153 mt 
(30) s
7274 7673 mt 7274 7538 L
7274 1048 mt 7274 1182 L
7008 8153 mt 
(40) s
8949 7673 mt 8949 7538 L
8949 1048 mt 8949 1182 L
8683 8153 mt 
(50) s
10624 7673 mt 10624 7538 L
10624 1048 mt 10624 1182 L
10358 8153 mt 
(60) s
12300 7673 mt 12300 7538 L
12300 1048 mt 12300 1182 L
12034 8153 mt 
(70) s
13975 7673 mt 13975 7538 L
13975 1048 mt 13975 1182 L
13709 8153 mt 
(80) s
15651 7673 mt 15651 7538 L
15651 1048 mt 15651 1182 L
15385 8153 mt 
(90) s
2248 7673 mt 2382 7673 L
15651 7673 mt 15516 7673 L
1947 7851 mt 
(0) s
2248 6016 mt 2382 6016 L
15651 6016 mt 15516 6016 L
1947 6194 mt 
(1) s
2248 4360 mt 2382 4360 L
15651 4360 mt 15516 4360 L
1947 4538 mt 
(2) s
2248 2704 mt 2382 2704 L
15651 2704 mt 15516 2704 L
1947 2882 mt 
(3) s
2248 1048 mt 2382 1048 L
15651 1048 mt 15516 1048 L
1947 1226 mt 
(4) s
2248  994 mt 
(x 10) s
%%IncludeResource: font Helvetica
/Helvetica /WindowsLatin1Encoding 320 FMSR

3155  697 mt 
(5) s
2248 1048 mt 15651 1048 L
2248 7673 mt 15651 7673 L
15651 7673 mt 15651 1048 L
2248 7673 mt 2248 1048 L
gs 2248 1048 13404 6626 rc
36 w
/c8 { 0.000000 0.000000 1.000000 sr} bdef
c8
1676 454 1675 349 1676 441 1675 379 1675 291 1676 534 1675 314 1675 436 
2248 4000 9 MP stroke
gr

36 w
c8
gs 2030 3782 13840 3635 rc
  90   90 2248 4000 FO
  90   90 3923 4436 FO
  90   90 5598 4750 FO
  90   90 7274 5284 FO
  90   90 8949 5575 FO
  90   90 10624 5954 FO
  90   90 12300 6395 FO
  90   90 13975 6744 FO
  90   90 15651 7198 FO
gr

gs 2248 1048 13404 6626 rc
DO
/c9 { 1.000000 0.000000 0.000000 sr} bdef
c9
1676 699 1675 735 1676 758 1675 680 1675 668 1676 591 1675 838 1675 682 
2248 1207 9 MP stroke
gr

c9
DO
gs 2030 989 13840 6088 rc
SO
0 j
104 179 -208 0 104 -179 2248 1326 4 MP
DP
104 179 -208 0 104 -179 3923 2008 4 MP
DP
104 179 -208 0 104 -179 5598 2846 4 MP
DP
104 179 -208 0 104 -179 7274 3437 4 MP
DP
104 179 -208 0 104 -179 8949 4105 4 MP
DP
104 179 -208 0 104 -179 10624 4785 4 MP
DP
104 179 -208 0 104 -179 12300 5543 4 MP
DP
104 179 -208 0 104 -179 13975 6278 4 MP
DP
104 179 -208 0 104 -179 15651 6977 4 MP
DP
DO
gr

gs 2248 1048 13404 6626 rc
DD
/c10 { 0.000000 1.000000 0.000000 sr} bdef
c10
1676 157 1675 56 1676 98 1675 76 1675 154 1676 49 1675 13 1675 119 
2248 6784 9 MP stroke
gr

c10
DD
gs 2030 6566 13840 1159 rc
SO
2185 6721 mt 2311 6847 L
2311 6721 mt 2185 6847 L
3860 6840 mt 3986 6966 L
3986 6840 mt 3860 6966 L
5535 6853 mt 5661 6979 L
5661 6853 mt 5535 6979 L
7211 6902 mt 7337 7028 L
7337 6902 mt 7211 7028 L
8886 7056 mt 9012 7182 L
9012 7056 mt 8886 7182 L
10561 7132 mt 10687 7258 L
10687 7132 mt 10561 7258 L
12237 7230 mt 12363 7356 L
12363 7230 mt 12237 7356 L
13912 7286 mt 14038 7412 L
14038 7286 mt 13912 7412 L
15588 7443 mt 15714 7569 L
15714 7443 mt 15588 7569 L
DD
gr

gs 2248 1048 13404 6626 rc
DA
/c11 { 0.000000 0.000000 0.172414 sr} bdef
c11
1676 219 1675 135 1676 149 1675 170 1675 208 1676 23 1675 160 1675 171 
2248 6270 9 MP stroke
gr

c11
DA
gs 2030 6052 13840 1672 rc
SO
2158 6270 mt 2338 6270 L
2248 6180 mt 2248 6360 L
3833 6441 mt 4013 6441 L
3923 6351 mt 3923 6531 L
5508 6601 mt 5688 6601 L
5598 6511 mt 5598 6691 L
7184 6624 mt 7364 6624 L
7274 6534 mt 7274 6714 L
8859 6832 mt 9039 6832 L
8949 6742 mt 8949 6922 L
10534 7002 mt 10714 7002 L
10624 6912 mt 10624 7092 L
12210 7151 mt 12390 7151 L
12300 7061 mt 12300 7241 L
13885 7286 mt 14065 7286 L
13975 7196 mt 13975 7376 L
15561 7505 mt 15741 7505 L
15651 7415 mt 15651 7595 L
2185 6207 mt 2311 6333 L
2311 6207 mt 2185 6333 L
3860 6378 mt 3986 6504 L
3986 6378 mt 3860 6504 L
5535 6538 mt 5661 6664 L
5661 6538 mt 5535 6664 L
7211 6561 mt 7337 6687 L
7337 6561 mt 7211 6687 L
8886 6769 mt 9012 6895 L
9012 6769 mt 8886 6895 L
10561 6939 mt 10687 7065 L
10687 6939 mt 10561 7065 L
12237 7088 mt 12363 7214 L
12363 7088 mt 12237 7214 L
13912 7223 mt 14038 7349 L
14038 7223 mt 13912 7349 L
15588 7442 mt 15714 7568 L
15714 7442 mt 15588 7568 L
DA
gr

gs 2248 1048 13404 6626 rc
SO
/c12 { 1.000000 0.103448 0.724138 sr} bdef
c12
1676 -4 1675 -12 1676 6 1675 25 1675 29 1676 -26 1675 -2 1675 29 
2248 7602 9 MP stroke
gr

c12
SO
gs 2030 7384 13840 498 rc
0 j
0 -142 -142 0 0 142 142 0 2177 7531 5 MP
DP
0 -142 -142 0 0 142 142 0 3852 7560 5 MP
DP
0 -142 -142 0 0 142 142 0 5527 7558 5 MP
DP
0 -142 -142 0 0 142 142 0 7203 7532 5 MP
DP
0 -142 -142 0 0 142 142 0 8878 7561 5 MP
DP
0 -142 -142 0 0 142 142 0 10553 7586 5 MP
DP
0 -142 -142 0 0 142 142 0 12229 7592 5 MP
DP
0 -142 -142 0 0 142 142 0 13904 7580 5 MP
DP
0 -142 -142 0 0 142 142 0 15580 7576 5 MP
DP
gr

gs 2248 1048 13404 6626 rc
DO
/c13 { 0.000000 0.344828 0.000000 sr} bdef
c13
1676 127 1675 218 1676 202 1675 204 1675 136 1676 192 1675 216 1675 203 
2248 5938 9 MP stroke
gr

c13
DO
gs 2030 5720 13840 1935 rc
SO
0 j
90 119 -90 119 -90 -119 90 -119 2248 6057 5 MP
DP
90 119 -90 119 -90 -119 90 -119 3923 6260 5 MP
DP
90 119 -90 119 -90 -119 90 -119 5598 6476 5 MP
DP
90 119 -90 119 -90 -119 90 -119 7274 6668 5 MP
DP
90 119 -90 119 -90 -119 90 -119 8949 6804 5 MP
DP
90 119 -90 119 -90 -119 90 -119 10624 7008 5 MP
DP
90 119 -90 119 -90 -119 90 -119 12300 7210 5 MP
DP
90 119 -90 119 -90 -119 90 -119 13975 7428 5 MP
DP
90 119 -90 119 -90 -119 90 -119 15651 7555 5 MP
DP
DO
gr

gs 2248 1048 13404 6626 rc
DD
1676 242 1675 425 1676 334 1675 293 1675 342 1676 361 1675 395 1675 412 
2248 4465 9 MP stroke
gr

DD
gs 2030 4247 13840 3241 rc
SO
60 W
2248 4465 PD
60 W
3923 4877 PD
60 W
5598 5272 PD
60 W
7274 5633 PD
60 W
8949 5975 PD
60 W
10624 6268 PD
60 W
12300 6602 PD
60 W
13975 7027 PD
60 W
15651 7269 PD
DD
gr

gs 2248 1048 13404 6626 rc
DA
/c14 { 0.517241 0.517241 1.000000 sr} bdef
c14
1676 168 1675 65 1676 204 1675 121 1675 236 1676 141 1675 169 1675 -22 
2248 6363 9 MP stroke
gr

c14
DA
gs 2030 6123 13840 1541 rc
SO
0 j
-104 179 -104 -179 208 0 2144 6423 4 MP
DP
-104 179 -104 -179 208 0 3819 6401 4 MP
DP
-104 179 -104 -179 208 0 5494 6570 4 MP
DP
-104 179 -104 -179 208 0 7170 6711 4 MP
DP
-104 179 -104 -179 208 0 8845 6947 4 MP
DP
-104 179 -104 -179 208 0 10520 7068 4 MP
DP
-104 179 -104 -179 208 0 12196 7272 4 MP
DP
-104 179 -104 -179 208 0 13871 7337 4 MP
DP
-104 179 -104 -179 208 0 15547 7505 4 MP
DP
DA
gr

gs 2248 1048 13404 6626 rc
SO
/c15 { 0.620690 0.310345 0.275862 sr} bdef
c15
1676 288 1675 218 1676 306 1675 290 1675 228 1676 160 1675 330 1675 193 
2248 5388 9 MP stroke
gr

c15
SO
gs 2030 5170 13840 2450 rc
0 j
-179 104 0 -208 179 104 2129 5388 4 MP
DP
-179 104 0 -208 179 104 3804 5581 4 MP
DP
-179 104 0 -208 179 104 5479 5911 4 MP
DP
-179 104 0 -208 179 104 7155 6071 4 MP
DP
-179 104 0 -208 179 104 8830 6299 4 MP
DP
-179 104 0 -208 179 104 10505 6589 4 MP
DP
-179 104 0 -208 179 104 12181 6895 4 MP
DP
-179 104 0 -208 179 104 13856 7113 4 MP
DP
-179 104 0 -208 179 104 15532 7401 4 MP
DP
gr

gs 2248 1048 13404 6626 rc
DO
/c16 { 0.000000 1.000000 0.758621 sr} bdef
c16
1676 57 1675 44 1676 95 1675 19 1675 29 1676 41 1675 56 1675 63 
2248 7187 9 MP stroke
gr

c16
DO
gs 2030 6969 13840 841 rc
SO
0 j
0 208 -179 -104 179 -104 2188 7291 4 MP
DP
0 208 -179 -104 179 -104 3863 7354 4 MP
DP
0 208 -179 -104 179 -104 5538 7410 4 MP
DP
0 208 -179 -104 179 -104 7214 7451 4 MP
DP
0 208 -179 -104 179 -104 8889 7480 4 MP
DP
0 208 -179 -104 179 -104 10564 7499 4 MP
DP
0 208 -179 -104 179 -104 12240 7594 4 MP
DP
0 208 -179 -104 179 -104 13915 7638 4 MP
DP
0 208 -179 -104 179 -104 15591 7695 4 MP
DP
DO
gr

gs 2248 1048 13404 6626 rc
SO
/c17 { 0.000000 0.517241 0.586207 sr} bdef
c17
1676 98 1675 290 1676 116 1675 275 1675 59 1676 233 1675 193 1675 198 
2248 6027 9 MP stroke
gr

c17
SO
gs 2030 5809 13840 1899 rc
0 j
-51 -39 18 -61 -53 36 -52 -36 18 61 -51 39 64 0 21 62 
22 -62 64 0 2162 5999 11 MP
DP
-51 -39 18 -61 -53 36 -52 -36 18 61 -51 39 64 0 21 62 
22 -62 64 0 3837 6197 11 MP
DP
-51 -39 18 -61 -53 36 -52 -36 18 61 -51 39 64 0 21 62 
22 -62 64 0 5512 6390 11 MP
DP
-51 -39 18 -61 -53 36 -52 -36 18 61 -51 39 64 0 21 62 
22 -62 64 0 7188 6623 11 MP
DP
-51 -39 18 -61 -53 36 -52 -36 18 61 -51 39 64 0 21 62 
22 -62 64 0 8863 6682 11 MP
DP
-51 -39 18 -61 -53 36 -52 -36 18 61 -51 39 64 0 21 62 
22 -62 64 0 10538 6957 11 MP
DP
-51 -39 18 -61 -53 36 -52 -36 18 61 -51 39 64 0 21 62 
22 -62 64 0 12214 7073 11 MP
DP
-51 -39 18 -61 -53 36 -52 -36 18 61 -51 39 64 0 21 62 
22 -62 64 0 13889 7363 11 MP
DP
-51 -39 18 -61 -53 36 -52 -36 18 61 -51 39 64 0 21 62 
22 -62 64 0 15565 7461 11 MP
DP
gr

gs 2248 1048 13404 6626 rc
DO
/c18 { 0.000000 0.000000 0.482759 sr} bdef
c18
1676 130 1675 55 1676 150 1675 141 1675 95 1676 81 1675 266 1675 -22 
2248 6650 9 MP stroke
gr

c18
DO
gs 2030 6410 13840 1355 rc
SO
0 j
-32 -45 32 -45 -52 0 -25 -45 -25 45 -52 0 32 45 -32 45 
52 0 25 45 25 -45 52 0 2171 6605 13 MP
DP
-32 -45 32 -45 -52 0 -25 -45 -25 45 -52 0 32 45 -32 45 
52 0 25 45 25 -45 52 0 3846 6583 13 MP
DP
-32 -45 32 -45 -52 0 -25 -45 -25 45 -52 0 32 45 -32 45 
52 0 25 45 25 -45 52 0 5521 6849 13 MP
DP
-32 -45 32 -45 -52 0 -25 -45 -25 45 -52 0 32 45 -32 45 
52 0 25 45 25 -45 52 0 7197 6930 13 MP
DP
-32 -45 32 -45 -52 0 -25 -45 -25 45 -52 0 32 45 -32 45 
52 0 25 45 25 -45 52 0 8872 7025 13 MP
DP
-32 -45 32 -45 -52 0 -25 -45 -25 45 -52 0 32 45 -32 45 
52 0 25 45 25 -45 52 0 10547 7166 13 MP
DP
-32 -45 32 -45 -52 0 -25 -45 -25 45 -52 0 32 45 -32 45 
52 0 25 45 25 -45 52 0 12223 7316 13 MP
DP
-32 -45 32 -45 -52 0 -25 -45 -25 45 -52 0 32 45 -32 45 
52 0 25 45 25 -45 52 0 13898 7371 13 MP
DP
-32 -45 32 -45 -52 0 -25 -45 -25 45 -52 0 32 45 -32 45 
52 0 25 45 25 -45 52 0 15574 7501 13 MP
DP
DO
gr

gs 2248 1048 13404 6626 rc
gr

0 sg
%%IncludeResource: font Helvetica
/Helvetica /WindowsLatin1Encoding 480 FMSR

5211  446 mt 
(Evaluations at end fo runs \(D) s
%%IncludeResource: font Helvetica
/Helvetica /WindowsLatin1Encoding 384 FMSR

11381  686 mt 
(e) s
%%IncludeResource: font Helvetica
/Helvetica /WindowsLatin1Encoding 480 FMSR

11594  446 mt 
( end\)) s
7010 8561 mt 
(Columns removed) s
SO
6 w

end %%Color Dict

eplot
%%EndObject

epage
end

showpage

%%Trailer
%%EOF
