%!PS-Adobe-3.0 EPSF-3.0
%%Creator: MATLAB, The MathWorks, Inc. Version 8.2.0.701 (R2013b). Operating System: Microsoft Windows 8.
%%Title: D:\PPSNthesis\exportingfig\efit.eps
%%CreationDate: 01/07/2016  09:10:22
%%DocumentNeededFonts: Helvetica
%%+ Helvetica-Bold
%%DocumentProcessColors: Cyan Magenta Yellow Black
%%LanguageLevel: 2
%%Pages: 1
%%BoundingBox:  -138   193   733   647
%%EndComments

%%BeginProlog
% MathWorks dictionary
/MathWorks 160 dict begin
% definition operators
/bdef {bind def} bind def
/ldef {load def} bind def
/xdef {exch def} bdef
/xstore {exch store} bdef
% operator abbreviations
/c  /clip ldef
/cc /concat ldef
/cp /closepath ldef
/gr /grestore ldef
/gs /gsave ldef
/mt /moveto ldef
/np /newpath ldef
/cm /currentmatrix ldef
/sm /setmatrix ldef
/rm /rmoveto ldef
/rl /rlineto ldef
/s {show newpath} bdef
/sc {setcmykcolor} bdef
/sr /setrgbcolor ldef
/sg /setgray ldef
/w /setlinewidth ldef
/j /setlinejoin ldef
/cap /setlinecap ldef
/rc {rectclip} bdef
/rf {rectfill} bdef
% page state control
/pgsv () def
/bpage {/pgsv save def} bdef
/epage {pgsv restore} bdef
/bplot /gsave ldef
/eplot {stroke grestore} bdef
% orientation switch
/portraitMode 0 def /landscapeMode 1 def /rotateMode 2 def
% coordinate system mappings
/dpi2point 0 def
% font control
/FontSize 0 def
/FMS {/FontSize xstore findfont [FontSize 0 0 FontSize neg 0 0]
  makefont setfont} bdef
/ISOLatin1Encoding where {pop /WindowsLatin1Encoding 256 array bdef
ISOLatin1Encoding WindowsLatin1Encoding copy pop
/.notdef/.notdef/quotesinglbase/florin/quotedblbase/ellipsis/dagger
/daggerdbl/circumflex/perthousand/Scaron/guilsinglleft/OE/.notdef/.notdef
/.notdef/.notdef/quoteleft/quoteright/quotedblleft/quotedblright/bullet
/endash/emdash/tilde/trademark/scaron/guilsinglright/oe/.notdef/.notdef
/Ydieresis WindowsLatin1Encoding 128 32 getinterval astore pop}
{/WindowsLatin1Encoding StandardEncoding bdef} ifelse
/reencode {exch dup where {pop load} {pop StandardEncoding} ifelse
  exch dup 3 1 roll findfont dup length dict begin
  { 1 index /FID ne {def}{pop pop} ifelse } forall
  /Encoding exch def currentdict end definefont pop} bdef
/isroman {findfont /CharStrings get /Agrave known} bdef
/FMSR {3 1 roll 1 index dup isroman {reencode} {pop pop} ifelse
  exch FMS} bdef
/csm {1 dpi2point div -1 dpi2point div scale neg translate
 dup landscapeMode eq {pop -90 rotate}
  {rotateMode eq {90 rotate} if} ifelse} bdef
% line types: solid, dotted, dashed, dotdash
/SO { [] 0 setdash } bdef
/DO { [.5 dpi2point mul 4 dpi2point mul] 0 setdash } bdef
/DA { [6 dpi2point mul] 0 setdash } bdef
/DD { [.5 dpi2point mul 4 dpi2point mul 6 dpi2point mul 4
  dpi2point mul] 0 setdash } bdef
% macros for lines and objects
/L {lineto stroke} bdef
/MP {3 1 roll moveto 1 sub {rlineto} repeat} bdef
/AP {{rlineto} repeat} bdef
/PDlw -1 def
/W {/PDlw currentlinewidth def setlinewidth} def
/PP {closepath eofill} bdef
/DP {closepath stroke} bdef
/MR {4 -2 roll moveto dup  0 exch rlineto exch 0 rlineto
  neg 0 exch rlineto closepath} bdef
/FR {MR stroke} bdef
/PR {MR fill} bdef
/L1i {{currentfile picstr readhexstring pop} image} bdef
/tMatrix matrix def
/MakeOval {newpath tMatrix currentmatrix pop translate scale
0 0 1 0 360 arc tMatrix setmatrix} bdef
/FO {MakeOval stroke} bdef
/PO {MakeOval fill} bdef
/PD {currentlinewidth 2 div 0 360 arc fill
   PDlw -1 eq not {PDlw w /PDlw -1 def} if} def
/FA {newpath tMatrix currentmatrix pop translate scale
  0 0 1 5 -2 roll arc tMatrix setmatrix stroke} bdef
/PA {newpath tMatrix currentmatrix pop	translate 0 0 moveto scale
  0 0 1 5 -2 roll arc closepath tMatrix setmatrix fill} bdef
/FAn {newpath tMatrix currentmatrix pop translate scale
  0 0 1 5 -2 roll arcn tMatrix setmatrix stroke} bdef
/PAn {newpath tMatrix currentmatrix pop translate 0 0 moveto scale
  0 0 1 5 -2 roll arcn closepath tMatrix setmatrix fill} bdef
/vradius 0 def /hradius 0 def /lry 0 def
/lrx 0 def /uly 0 def /ulx 0 def /rad 0 def
/MRR {/vradius xdef /hradius xdef /lry xdef /lrx xdef /uly xdef
  /ulx xdef newpath tMatrix currentmatrix pop ulx hradius add uly
  vradius add translate hradius vradius scale 0 0 1 180 270 arc 
  tMatrix setmatrix lrx hradius sub uly vradius add translate
  hradius vradius scale 0 0 1 270 360 arc tMatrix setmatrix
  lrx hradius sub lry vradius sub translate hradius vradius scale
  0 0 1 0 90 arc tMatrix setmatrix ulx hradius add lry vradius sub
  translate hradius vradius scale 0 0 1 90 180 arc tMatrix setmatrix
  closepath} bdef
/FRR {MRR stroke } bdef
/PRR {MRR fill } bdef
/MlrRR {/lry xdef /lrx xdef /uly xdef /ulx xdef /rad lry uly sub 2 div def
  newpath tMatrix currentmatrix pop ulx rad add uly rad add translate
  rad rad scale 0 0 1 90 270 arc tMatrix setmatrix lrx rad sub lry rad
  sub translate rad rad scale 0 0 1 270 90 arc tMatrix setmatrix
  closepath} bdef
/FlrRR {MlrRR stroke } bdef
/PlrRR {MlrRR fill } bdef
/MtbRR {/lry xdef /lrx xdef /uly xdef /ulx xdef /rad lrx ulx sub 2 div def
  newpath tMatrix currentmatrix pop ulx rad add uly rad add translate
  rad rad scale 0 0 1 180 360 arc tMatrix setmatrix lrx rad sub lry rad
  sub translate rad rad scale 0 0 1 0 180 arc tMatrix setmatrix
  closepath} bdef
/FtbRR {MtbRR stroke } bdef
/PtbRR {MtbRR fill } bdef
/stri 6 array def /dtri 6 array def
/smat 6 array def /dmat 6 array def
/tmat1 6 array def /tmat2 6 array def /dif 3 array def
/asub {/ind2 exch def /ind1 exch def dup dup
  ind1 get exch ind2 get sub exch } bdef
/tri_to_matrix {
  2 0 asub 3 1 asub 4 0 asub 5 1 asub
  dup 0 get exch 1 get 7 -1 roll astore } bdef
/compute_transform {
  dmat dtri tri_to_matrix tmat1 invertmatrix 
  smat stri tri_to_matrix tmat2 concatmatrix } bdef
/ds {stri astore pop} bdef
/dt {dtri astore pop} bdef
/db {2 copy /cols xdef /rows xdef mul dup 3 mul string
  currentfile 
  3 index 0 eq {/ASCIIHexDecode filter}
  {/ASCII85Decode filter 3 index 2 eq {/RunLengthDecode filter} if }
  ifelse exch readstring pop
  dup 0 3 index getinterval /rbmap xdef
  dup 2 index dup getinterval /gbmap xdef
  1 index dup 2 mul exch getinterval /bbmap xdef pop pop}bdef
/it {gs np dtri aload pop moveto lineto lineto cp c
  cols rows 8 compute_transform 
  rbmap gbmap bbmap true 3 colorimage gr}bdef
/il {newpath moveto lineto stroke}bdef
currentdict end def
%%EndProlog

%%BeginSetup
MathWorks begin

0 cap

end
%%EndSetup

%%Page: 1 1
%%BeginPageSetup
%%PageBoundingBox:  -138   193   733   647
MathWorks begin
bpage
%%EndPageSetup

%%BeginObject: obj1
bplot

/dpi2point 12 def
portraitMode -1656 7764 csm

    0     0 10457  5438 rc
85 dict begin %Colortable dictionary
/c0 { 0.000000 0.000000 0.000000 sr} bdef
/c1 { 1.000000 1.000000 1.000000 sr} bdef
/c2 { 0.900000 0.000000 0.000000 sr} bdef
/c3 { 0.000000 0.820000 0.000000 sr} bdef
/c4 { 0.000000 0.000000 0.800000 sr} bdef
/c5 { 0.910000 0.820000 0.320000 sr} bdef
/c6 { 1.000000 0.260000 0.820000 sr} bdef
/c7 { 0.000000 0.820000 0.820000 sr} bdef
c0
1 j
1 sg
   0    0 10458 5439 rf
6 w
0 3004 5766 0 0 -3004 224 3232 4 MP
PP
-5766 0 0 3004 5766 0 0 -3004 224 3232 5 MP stroke
4 w
DO
SO
6 w
0 sg
 224  228 mt 5990  228 L
 224 3232 mt 5990 3232 L
5990 3232 mt 5990  228 L
 224 3232 mt  224  228 L
 224 3232 mt 5990 3232 L
 224 3232 mt  224  228 L
 224 3002 mt  253 3002 L
5990 3002 mt 5961 3002 L
 224 3046 mt  253 3046 L
5990 3046 mt 5961 3046 L
 224 3095 mt  253 3095 L
5990 3095 mt 5961 3095 L
 224 3151 mt  253 3151 L
5990 3151 mt 5961 3151 L
 224 3215 mt  253 3215 L
5990 3215 mt 5961 3215 L
 224 3002 mt  282 3002 L
5990 3002 mt 5932 3002 L
%%IncludeResource: font Helvetica
/Helvetica /WindowsLatin1Encoding 120 FMSR

  13 3046 mt 
(10) s
%%IncludeResource: font Helvetica
/Helvetica /WindowsLatin1Encoding 80 FMSR

 146 2972 mt 
(5) s
 224 2714 mt  253 2714 L
5990 2714 mt 5961 2714 L
 224 2545 mt  253 2545 L
5990 2545 mt 5961 2545 L
 224 2425 mt  253 2425 L
5990 2425 mt 5961 2425 L
 224 2333 mt  253 2333 L
5990 2333 mt 5961 2333 L
 224 2257 mt  253 2257 L
5990 2257 mt 5961 2257 L
 224 2193 mt  253 2193 L
5990 2193 mt 5961 2193 L
 224 2137 mt  253 2137 L
5990 2137 mt 5961 2137 L
 224 2088 mt  253 2088 L
5990 2088 mt 5961 2088 L
 224 2044 mt  253 2044 L
5990 2044 mt 5961 2044 L
 224 2044 mt  282 2044 L
5990 2044 mt 5932 2044 L
%%IncludeResource: font Helvetica
/Helvetica /WindowsLatin1Encoding 120 FMSR

  13 2088 mt 
(10) s
%%IncludeResource: font Helvetica
/Helvetica /WindowsLatin1Encoding 80 FMSR

 146 2014 mt 
(6) s
 224 1756 mt  253 1756 L
5990 1756 mt 5961 1756 L
 224 1587 mt  253 1587 L
5990 1587 mt 5961 1587 L
 224 1467 mt  253 1467 L
5990 1467 mt 5961 1467 L
 224 1374 mt  253 1374 L
5990 1374 mt 5961 1374 L
 224 1298 mt  253 1298 L
5990 1298 mt 5961 1298 L
 224 1234 mt  253 1234 L
5990 1234 mt 5961 1234 L
 224 1179 mt  253 1179 L
5990 1179 mt 5961 1179 L
 224 1130 mt  253 1130 L
5990 1130 mt 5961 1130 L
 224 1086 mt  253 1086 L
5990 1086 mt 5961 1086 L
 224 1086 mt  282 1086 L
5990 1086 mt 5932 1086 L
%%IncludeResource: font Helvetica
/Helvetica /WindowsLatin1Encoding 120 FMSR

  13 1130 mt 
(10) s
%%IncludeResource: font Helvetica
/Helvetica /WindowsLatin1Encoding 80 FMSR

 146 1056 mt 
(7) s
 224  797 mt  253  797 L
5990  797 mt 5961  797 L
 224  629 mt  253  629 L
5990  629 mt 5961  629 L
 224  509 mt  253  509 L
5990  509 mt 5961  509 L
 224  416 mt  253  416 L
5990  416 mt 5961  416 L
 224  340 mt  253  340 L
5990  340 mt 5961  340 L
 224  276 mt  253  276 L
5990  276 mt 5961  276 L
 224  228 mt 5990  228 L
 224 3232 mt 5990 3232 L
5990 3232 mt 5990  228 L
 224 3232 mt  224  228 L
gs 224 228 5767 3005 rc
DA
/c8 { 1.000000 0.000000 0.000000 sr} bdef
c8
0 -86 323 1799 2 MP stroke
/c9 { 0.000000 0.000000 1.000000 sr} bdef
c9
0 -29 521 1727 2 MP stroke
c8
0 -67 811 1520 2 MP stroke
c9
0 -42 1009 1445 2 MP stroke
c8
0 -77 1300 2154 2 MP stroke
c9
0 -58 1497 2028 2 MP stroke
c8
0 -119 1788 1291 2 MP stroke
c9
0 -21 1985 1176 2 MP stroke
c8
0 -54 2276 1574 2 MP stroke
c9
0 -55 2473 1456 2 MP stroke
c8
0 -85 2764 1082 2 MP stroke
c9
0 -54 2962 993 2 MP stroke
c8
0 -103 3252 1419 2 MP stroke
c9
0 -63 3450 1274 2 MP stroke
c8
0 -109 3741 3072 2 MP stroke
c9
0 -80 3938 2941 2 MP stroke
c8
0 -89 4229 1557 2 MP stroke
c9
0 -50 4426 1386 2 MP stroke
c8
0 -59 4717 1838 2 MP stroke
c9
0 -60 4914 1609 2 MP stroke
c8
0 -68 5205 543 2 MP stroke
c9
0 -101 5403 387 2 MP stroke
c8
0 -107 5693 840 2 MP stroke
c9
0 -61 5891 673 2 MP stroke
c8
0 -91 323 1982 2 MP stroke
c9
0 -58 521 1868 2 MP stroke
c8
0 -58 811 1743 2 MP stroke
c9
0 -42 1009 1550 2 MP stroke
c8
0 -64 1300 2292 2 MP stroke
c9
0 -32 1497 2107 2 MP stroke
c8
0 -71 1788 1479 2 MP stroke
c9
0 -48 1985 1301 2 MP stroke
c8
0 -50 2276 1752 2 MP stroke
c9
0 -34 2473 1535 2 MP stroke
c8
0 -78 2764 1294 2 MP stroke
c9
0 -45 2962 1105 2 MP stroke
c8
0 -75 3252 1586 2 MP stroke
c9
0 -29 3450 1354 2 MP stroke
c8
0 -40 3741 3232 2 MP stroke
c9
0 -12 3938 3021 2 MP stroke
c8
0 -25 4229 1670 2 MP stroke
c9
0 -12 4426 1440 2 MP stroke
c8
0 -9 4717 1891 2 MP stroke
c9
0 -9 4914 1686 2 MP stroke
c8
0 -70 5205 716 2 MP stroke
c9
0 -45 5403 535 2 MP stroke
c8
0 -55 5693 994 2 MP stroke
c9
0 -61 5891 801 2 MP stroke
SO
c8
49 0 299 1713 2 MP stroke
c9
49 0 496 1698 2 MP stroke
c8
49 0 787 1453 2 MP stroke
c9
50 0 984 1403 2 MP stroke
c8
49 0 1275 2077 2 MP stroke
c9
50 0 1472 1970 2 MP stroke
c8
49 0 1763 1172 2 MP stroke
c9
49 0 1961 1155 2 MP stroke
c8
50 0 2251 1520 2 MP stroke
c9
49 0 2449 1401 2 MP stroke
c8
49 0 2740 997 2 MP stroke
c9
49 0 2937 939 2 MP stroke
c8
49 0 3228 1316 2 MP stroke
c9
49 0 3425 1211 2 MP stroke
c8
49 0 3716 2963 2 MP stroke
c9
50 0 3913 2861 2 MP stroke
c8
49 0 4204 1468 2 MP stroke
c9
49 0 4402 1336 2 MP stroke
c8
50 0 4692 1779 2 MP stroke
c9
49 0 4890 1549 2 MP stroke
c8
50 0 5180 475 2 MP stroke
c9
49 0 5378 286 2 MP stroke
c8
49 0 5669 733 2 MP stroke
c9
49 0 5866 612 2 MP stroke
c8
49 0 299 1982 2 MP stroke
c9
49 0 496 1868 2 MP stroke
c8
49 0 787 1743 2 MP stroke
c9
50 0 984 1550 2 MP stroke
c8
49 0 1275 2292 2 MP stroke
c9
50 0 1472 2107 2 MP stroke
c8
49 0 1763 1479 2 MP stroke
c9
49 0 1961 1301 2 MP stroke
c8
50 0 2251 1752 2 MP stroke
c9
49 0 2449 1535 2 MP stroke
c8
49 0 2740 1294 2 MP stroke
c9
49 0 2937 1105 2 MP stroke
c8
49 0 3228 1586 2 MP stroke
c9
49 0 3425 1354 2 MP stroke
c8
49 0 3716 3232 2 MP stroke
c9
50 0 3913 3021 2 MP stroke
c8
49 0 4204 1670 2 MP stroke
c9
49 0 4402 1440 2 MP stroke
c8
50 0 4692 1891 2 MP stroke
c9
49 0 4890 1686 2 MP stroke
c8
50 0 5180 716 2 MP stroke
c9
49 0 5378 535 2 MP stroke
c8
49 0 5669 994 2 MP stroke
c9
49 0 5866 801 2 MP stroke
c8
25 -27 0 -20 -99 0 0 20 25 27 -25 26 0 19 99 0 
0 -19 -25 -26 299 1844 11 MP stroke
c9
25 -24 0 -22 -99 0 0 22 25 24 -25 23 0 14 99 0 
0 -14 -25 -23 496 1764 11 MP stroke
c8
25 -50 0 -32 -99 0 0 32 25 50 -25 45 0 38 99 0 
0 -38 -25 -45 787 1603 11 MP stroke
c9
25 -19 0 -6 -99 0 0 6 24 19 -24 18 0 20 99 0 
0 -20 -25 -18 984 1483 11 MP stroke
c8
25 -22 0 -6 -99 0 0 6 25 22 -25 21 0 25 99 0 
0 -25 -25 -21 1275 2200 11 MP stroke
c9
24 -14 0 -15 -98 0 0 15 24 14 -24 13 0 5 98 0 
0 -5 -24 -13 1472 2046 11 MP stroke
c8
25 -35 0 -28 -99 0 0 28 25 35 -25 32 0 22 99 0 
0 -22 -25 -32 1763 1345 11 MP stroke
c9
25 -23 0 -25 -99 0 0 25 25 23 -25 21 0 8 99 0 
0 -8 -25 -21 1961 1205 11 MP stroke
c8
24 -41 0 -8 -98 0 0 8 24 41 -24 36 0 43 98 0 
0 -43 -24 -36 2251 1653 11 MP stroke
c9
25 -13 0 -9 -99 0 0 9 25 13 -25 13 0 10 99 0 
0 -10 -25 -13 2449 1479 11 MP stroke
c8
25 -42 0 -11 -99 0 0 11 25 42 -25 38 0 43 99 0 
0 -43 -25 -38 2740 1163 11 MP stroke
c9
25 -20 0 -4 -99 0 0 4 25 20 -25 19 0 24 99 0 
0 -24 -25 -19 2937 1036 11 MP stroke
c8
25 -28 0 -17 -99 0 0 17 25 28 -25 26 0 21 99 0 
0 -21 -25 -26 3228 1466 11 MP stroke
c9
25 -15 0 -9 -99 0 0 9 25 15 -25 14 0 13 99 0 
0 -13 -25 -14 3425 1301 11 MP stroke
c8
25 -40 0 25 -99 0 0 -25 25 40 -25 37 0 68 99 0 
0 -68 -25 -37 3716 3177 11 MP stroke
c9
24 -22 0 9 -98 0 0 -9 24 22 -24 20 0 35 98 0 
0 -35 -24 -20 3913 2996 11 MP stroke
c8
25 -27 0 -7 -99 0 0 7 25 27 -25 25 0 29 99 0 
0 -29 -25 -25 4204 1611 11 MP stroke
c9
25 -12 0 -4 -99 0 0 4 25 12 -25 12 0 14 99 0 
0 -14 -25 -12 4402 1412 11 MP stroke
c8
24 -13 0 -4 -98 0 0 4 24 13 -24 13 0 14 98 0 
0 -14 -24 -13 4692 1865 11 MP stroke
c9
25 -22 0 14 -99 0 0 -14 25 22 -25 20 0 40 99 0 
0 -40 -25 -20 4890 1669 11 MP stroke
c8
24 -31 0 -14 -99 0 0 14 25 31 -25 29 0 29 99 0 
0 -29 -24 -29 5180 601 11 MP stroke
c9
25 -32 0 1 -99 0 0 -1 25 32 -25 30 0 42 99 0 
0 -42 -25 -30 5378 459 11 MP stroke
c8
25 -29 0 -20 -99 0 0 20 25 29 -25 28 0 22 99 0 
0 -22 -25 -28 5669 890 11 MP stroke
c9
25 -20 0 5 -99 0 0 -5 25 20 -25 20 0 32 99 0 
0 -32 -25 -20 5866 725 11 MP stroke
c8
49 0 299 1844 2 MP stroke
c9
49 0 496 1764 2 MP stroke
c8
49 0 787 1603 2 MP stroke
c9
50 0 984 1483 2 MP stroke
c8
49 0 1275 2200 2 MP stroke
c9
50 0 1472 2046 2 MP stroke
c8
49 0 1763 1345 2 MP stroke
c9
49 0 1961 1205 2 MP stroke
c8
50 0 2251 1653 2 MP stroke
c9
49 0 2449 1479 2 MP stroke
c8
49 0 2740 1163 2 MP stroke
c9
49 0 2937 1036 2 MP stroke
c8
49 0 3228 1466 2 MP stroke
c9
49 0 3425 1301 2 MP stroke
c8
49 0 3716 3177 2 MP stroke
c9
50 0 3913 2996 2 MP stroke
c8
49 0 4204 1611 2 MP stroke
c9
49 0 4402 1412 2 MP stroke
c8
50 0 4692 1865 2 MP stroke
c9
49 0 4890 1669 2 MP stroke
c8
50 0 5180 601 2 MP stroke
c9
49 0 5378 459 2 MP stroke
c8
49 0 5669 890 2 MP stroke
c9
49 0 5866 725 2 MP stroke
gs 738 1247 147 147 rc
c8
 775 1320 mt  847 1320 L
 811 1284 mt  811 1356 L
gr

c8
gs 1227 1969 147 147 rc
1264 2042 mt 1336 2042 L
1300 2006 mt 1300 2078 L
gr

gs 1424 1849 147 189 rc
1461 1964 mt 1533 1964 L
1497 1928 mt 1497 2000 L
1461 1945 mt 1533 1945 L
1497 1909 mt 1497 1981 L
1461 1922 mt 1533 1922 L
1497 1886 mt 1497 1958 L
gr

gs 1912 929 147 223 rc
1949 1078 mt 2021 1078 L
1985 1042 mt 1985 1114 L
1949 1002 mt 2021 1002 L
1985  966 mt 1985 1038 L
gr

gs 2400 1276 147 191 rc
2437 1393 mt 2509 1393 L
2473 1357 mt 2473 1429 L
2437 1349 mt 2509 1349 L
2473 1313 mt 2473 1385 L
gr

gs 2889 820 147 147 rc
2926  893 mt 2998  893 L
2962  857 mt 2962  929 L
gr

gs 3377 1132 147 147 rc
3414 1205 mt 3486 1205 L
3450 1169 mt 3450 1241 L
gr

gs 4156 1325 147 193 rc
4193 1444 mt 4265 1444 L
4229 1408 mt 4229 1480 L
4193 1412 mt 4265 1412 L
4229 1376 mt 4229 1448 L
4193 1398 mt 4265 1398 L
4229 1362 mt 4229 1434 L
gr

gs 4353 1223 147 147 rc
4390 1296 mt 4462 1296 L
4426 1260 mt 4426 1332 L
gr

gs 4644 1546 147 295 rc
4681 1767 mt 4753 1767 L
4717 1731 mt 4717 1803 L
4681 1757 mt 4753 1757 L
4717 1721 mt 4717 1793 L
4681 1682 mt 4753 1682 L
4717 1646 mt 4717 1718 L
4681 1672 mt 4753 1672 L
4717 1636 mt 4717 1708 L
4681 1619 mt 4753 1619 L
4717 1583 mt 4717 1655 L
gr

gs 4841 1417 147 147 rc
4878 1490 mt 4950 1490 L
4914 1454 mt 4914 1526 L
gr

gr

c8
gs 5330 175 147 147 rc
5367  248 mt 5439  248 L
5403  212 mt 5403  284 L
gr

gs 224 228 5767 3005 rc
gr

0 sg
%%IncludeResource: font Helvetica
/Helvetica /WindowsLatin1Encoding 120 FMSR

 256 3368 mt 
(41) s
 744 3368 mt 
(52) s
1232 3368 mt 
(63) s
1720 3368 mt 
(a5) s
2209 3368 mt 
(b4) s
2701 3368 mt 
(c3) s
3185 3368 mt 
(d2) s
3673 3368 mt 
(e1) s
4108 3368 mt 
(nre1) s
4613 3368 mt 
(nrf2) s
5085 3368 mt 
(nrg3) s
5573 3368 mt 
(nrg4) s
 290 3530 mt 
(g) s
 487 3530 mt 
(p) s
 778 3530 mt 
(g) s
 975 3530 mt 
(p) s
1266 3530 mt 
(g) s
1464 3530 mt 
(p) s
1754 3530 mt 
(g) s
1952 3530 mt 
(p) s
2243 3530 mt 
(g) s
2440 3530 mt 
(p) s
2731 3530 mt 
(g) s
2928 3530 mt 
(p) s
3219 3530 mt 
(g) s
3416 3530 mt 
(p) s
3707 3530 mt 
(g) s
3905 3530 mt 
(p) s
4195 3530 mt 
(g) s
4393 3530 mt 
(p) s
4683 3530 mt 
(g) s
4881 3530 mt 
(p) s
5172 3530 mt 
(g) s
5369 3530 mt 
(p) s
5660 3530 mt 
(g) s
5857 3530 mt 
(p) s
gs 224 228 5767 3005 rc
gr

%%IncludeResource: font Helvetica-Bold
/Helvetica-Bold /WindowsLatin1Encoding 120 FMSR

2358  133 mt 
(Fitness evaluations at end) s
%%IncludeResource: font Helvetica
/Helvetica /WindowsLatin1Encoding 120 FMSR

 207 3275 mt 
( ) s
5974  270 mt 
( ) s
1 sg
0 378 1044 0 0 -378 340 705 4 MP
PP
-1044 0 0 378 1044 0 0 -378 340 705 5 MP stroke
4 w
DO
SO
6 w
0 sg
 340  327 mt 1384  327 L
 340  705 mt 1384  705 L
1384  705 mt 1384  327 L
 340  705 mt  340  327 L
 340  705 mt 1384  705 L
 340  705 mt  340  327 L
 340  327 mt 1384  327 L
 340  705 mt 1384  705 L
1384  705 mt 1384  327 L
 340  705 mt  340  327 L
 808  474 mt 
(PGSEMO) s
gs 340 327 1045 379 rc
c9
360 0 412 432 2 MP stroke
gr

c9
0 sg
 808  643 mt 
(GCAIS) s
gs 340 327 1045 379 rc
c8
360 0 412 600 2 MP stroke
gr

c8

end %%Color Dict

eplot
%%EndObject

epage
end

showpage

%%Trailer
%%EOF
