%!PS-Adobe-3.0 EPSF-3.0
%%Creator: MATLAB, The MathWorks, Inc. Version 8.2.0.701 (R2013b). Operating System: Microsoft Windows 8.
%%Title: D:\PPSNthesis\exportingfig\egen.eps
%%CreationDate: 01/07/2016  09:07:41
%%DocumentNeededFonts: Helvetica
%%+ Helvetica-Bold
%%DocumentProcessColors: Cyan Magenta Yellow Black
%%LanguageLevel: 2
%%Pages: 1
%%BoundingBox:  -138   193   733   647
%%EndComments

%%BeginProlog
% MathWorks dictionary
/MathWorks 160 dict begin
% definition operators
/bdef {bind def} bind def
/ldef {load def} bind def
/xdef {exch def} bdef
/xstore {exch store} bdef
% operator abbreviations
/c  /clip ldef
/cc /concat ldef
/cp /closepath ldef
/gr /grestore ldef
/gs /gsave ldef
/mt /moveto ldef
/np /newpath ldef
/cm /currentmatrix ldef
/sm /setmatrix ldef
/rm /rmoveto ldef
/rl /rlineto ldef
/s {show newpath} bdef
/sc {setcmykcolor} bdef
/sr /setrgbcolor ldef
/sg /setgray ldef
/w /setlinewidth ldef
/j /setlinejoin ldef
/cap /setlinecap ldef
/rc {rectclip} bdef
/rf {rectfill} bdef
% page state control
/pgsv () def
/bpage {/pgsv save def} bdef
/epage {pgsv restore} bdef
/bplot /gsave ldef
/eplot {stroke grestore} bdef
% orientation switch
/portraitMode 0 def /landscapeMode 1 def /rotateMode 2 def
% coordinate system mappings
/dpi2point 0 def
% font control
/FontSize 0 def
/FMS {/FontSize xstore findfont [FontSize 0 0 FontSize neg 0 0]
  makefont setfont} bdef
/ISOLatin1Encoding where {pop /WindowsLatin1Encoding 256 array bdef
ISOLatin1Encoding WindowsLatin1Encoding copy pop
/.notdef/.notdef/quotesinglbase/florin/quotedblbase/ellipsis/dagger
/daggerdbl/circumflex/perthousand/Scaron/guilsinglleft/OE/.notdef/.notdef
/.notdef/.notdef/quoteleft/quoteright/quotedblleft/quotedblright/bullet
/endash/emdash/tilde/trademark/scaron/guilsinglright/oe/.notdef/.notdef
/Ydieresis WindowsLatin1Encoding 128 32 getinterval astore pop}
{/WindowsLatin1Encoding StandardEncoding bdef} ifelse
/reencode {exch dup where {pop load} {pop StandardEncoding} ifelse
  exch dup 3 1 roll findfont dup length dict begin
  { 1 index /FID ne {def}{pop pop} ifelse } forall
  /Encoding exch def currentdict end definefont pop} bdef
/isroman {findfont /CharStrings get /Agrave known} bdef
/FMSR {3 1 roll 1 index dup isroman {reencode} {pop pop} ifelse
  exch FMS} bdef
/csm {1 dpi2point div -1 dpi2point div scale neg translate
 dup landscapeMode eq {pop -90 rotate}
  {rotateMode eq {90 rotate} if} ifelse} bdef
% line types: solid, dotted, dashed, dotdash
/SO { [] 0 setdash } bdef
/DO { [.5 dpi2point mul 4 dpi2point mul] 0 setdash } bdef
/DA { [6 dpi2point mul] 0 setdash } bdef
/DD { [.5 dpi2point mul 4 dpi2point mul 6 dpi2point mul 4
  dpi2point mul] 0 setdash } bdef
% macros for lines and objects
/L {lineto stroke} bdef
/MP {3 1 roll moveto 1 sub {rlineto} repeat} bdef
/AP {{rlineto} repeat} bdef
/PDlw -1 def
/W {/PDlw currentlinewidth def setlinewidth} def
/PP {closepath eofill} bdef
/DP {closepath stroke} bdef
/MR {4 -2 roll moveto dup  0 exch rlineto exch 0 rlineto
  neg 0 exch rlineto closepath} bdef
/FR {MR stroke} bdef
/PR {MR fill} bdef
/L1i {{currentfile picstr readhexstring pop} image} bdef
/tMatrix matrix def
/MakeOval {newpath tMatrix currentmatrix pop translate scale
0 0 1 0 360 arc tMatrix setmatrix} bdef
/FO {MakeOval stroke} bdef
/PO {MakeOval fill} bdef
/PD {currentlinewidth 2 div 0 360 arc fill
   PDlw -1 eq not {PDlw w /PDlw -1 def} if} def
/FA {newpath tMatrix currentmatrix pop translate scale
  0 0 1 5 -2 roll arc tMatrix setmatrix stroke} bdef
/PA {newpath tMatrix currentmatrix pop	translate 0 0 moveto scale
  0 0 1 5 -2 roll arc closepath tMatrix setmatrix fill} bdef
/FAn {newpath tMatrix currentmatrix pop translate scale
  0 0 1 5 -2 roll arcn tMatrix setmatrix stroke} bdef
/PAn {newpath tMatrix currentmatrix pop translate 0 0 moveto scale
  0 0 1 5 -2 roll arcn closepath tMatrix setmatrix fill} bdef
/vradius 0 def /hradius 0 def /lry 0 def
/lrx 0 def /uly 0 def /ulx 0 def /rad 0 def
/MRR {/vradius xdef /hradius xdef /lry xdef /lrx xdef /uly xdef
  /ulx xdef newpath tMatrix currentmatrix pop ulx hradius add uly
  vradius add translate hradius vradius scale 0 0 1 180 270 arc 
  tMatrix setmatrix lrx hradius sub uly vradius add translate
  hradius vradius scale 0 0 1 270 360 arc tMatrix setmatrix
  lrx hradius sub lry vradius sub translate hradius vradius scale
  0 0 1 0 90 arc tMatrix setmatrix ulx hradius add lry vradius sub
  translate hradius vradius scale 0 0 1 90 180 arc tMatrix setmatrix
  closepath} bdef
/FRR {MRR stroke } bdef
/PRR {MRR fill } bdef
/MlrRR {/lry xdef /lrx xdef /uly xdef /ulx xdef /rad lry uly sub 2 div def
  newpath tMatrix currentmatrix pop ulx rad add uly rad add translate
  rad rad scale 0 0 1 90 270 arc tMatrix setmatrix lrx rad sub lry rad
  sub translate rad rad scale 0 0 1 270 90 arc tMatrix setmatrix
  closepath} bdef
/FlrRR {MlrRR stroke } bdef
/PlrRR {MlrRR fill } bdef
/MtbRR {/lry xdef /lrx xdef /uly xdef /ulx xdef /rad lrx ulx sub 2 div def
  newpath tMatrix currentmatrix pop ulx rad add uly rad add translate
  rad rad scale 0 0 1 180 360 arc tMatrix setmatrix lrx rad sub lry rad
  sub translate rad rad scale 0 0 1 0 180 arc tMatrix setmatrix
  closepath} bdef
/FtbRR {MtbRR stroke } bdef
/PtbRR {MtbRR fill } bdef
/stri 6 array def /dtri 6 array def
/smat 6 array def /dmat 6 array def
/tmat1 6 array def /tmat2 6 array def /dif 3 array def
/asub {/ind2 exch def /ind1 exch def dup dup
  ind1 get exch ind2 get sub exch } bdef
/tri_to_matrix {
  2 0 asub 3 1 asub 4 0 asub 5 1 asub
  dup 0 get exch 1 get 7 -1 roll astore } bdef
/compute_transform {
  dmat dtri tri_to_matrix tmat1 invertmatrix 
  smat stri tri_to_matrix tmat2 concatmatrix } bdef
/ds {stri astore pop} bdef
/dt {dtri astore pop} bdef
/db {2 copy /cols xdef /rows xdef mul dup 3 mul string
  currentfile 
  3 index 0 eq {/ASCIIHexDecode filter}
  {/ASCII85Decode filter 3 index 2 eq {/RunLengthDecode filter} if }
  ifelse exch readstring pop
  dup 0 3 index getinterval /rbmap xdef
  dup 2 index dup getinterval /gbmap xdef
  1 index dup 2 mul exch getinterval /bbmap xdef pop pop}bdef
/it {gs np dtri aload pop moveto lineto lineto cp c
  cols rows 8 compute_transform 
  rbmap gbmap bbmap true 3 colorimage gr}bdef
/il {newpath moveto lineto stroke}bdef
currentdict end def
%%EndProlog

%%BeginSetup
MathWorks begin

0 cap

end
%%EndSetup

%%Page: 1 1
%%BeginPageSetup
%%PageBoundingBox:  -138   193   733   647
MathWorks begin
bpage
%%EndPageSetup

%%BeginObject: obj1
bplot

/dpi2point 12 def
portraitMode -1656 7764 csm

    0     0 10457  5438 rc
85 dict begin %Colortable dictionary
/c0 { 0.000000 0.000000 0.000000 sr} bdef
/c1 { 1.000000 1.000000 1.000000 sr} bdef
/c2 { 0.900000 0.000000 0.000000 sr} bdef
/c3 { 0.000000 0.820000 0.000000 sr} bdef
/c4 { 0.000000 0.000000 0.800000 sr} bdef
/c5 { 0.910000 0.820000 0.320000 sr} bdef
/c6 { 1.000000 0.260000 0.820000 sr} bdef
/c7 { 0.000000 0.820000 0.820000 sr} bdef
c0
1 j
1 sg
   0    0 10458 5439 rf
6 w
0 2977 5793 0 0 -2977 179 3241 4 MP
PP
-5793 0 0 2977 5793 0 0 -2977 179 3241 5 MP stroke
4 w
DO
SO
6 w
0 sg
 179  264 mt 5972  264 L
 179 3241 mt 5972 3241 L
5972 3241 mt 5972  264 L
 179 3241 mt  179  264 L
 179 3241 mt 5972 3241 L
 179 3241 mt  179  264 L
 179 3145 mt  208 3145 L
5972 3145 mt 5943 3145 L
 179 3216 mt  208 3216 L
5972 3216 mt 5943 3216 L
 179 3145 mt  237 3145 L
5972 3145 mt 5914 3145 L
%%IncludeResource: font Helvetica
/Helvetica /WindowsLatin1Encoding 120 FMSR

 -32 3189 mt 
(10) s
%%IncludeResource: font Helvetica
/Helvetica /WindowsLatin1Encoding 80 FMSR

 101 3115 mt 
(4) s
 179 2673 mt  208 2673 L
5972 2673 mt 5943 2673 L
 179 2398 mt  208 2398 L
5972 2398 mt 5943 2398 L
 179 2202 mt  208 2202 L
5972 2202 mt 5943 2202 L
 179 2050 mt  208 2050 L
5972 2050 mt 5943 2050 L
 179 1926 mt  208 1926 L
5972 1926 mt 5943 1926 L
 179 1822 mt  208 1822 L
5972 1822 mt 5943 1822 L
 179 1731 mt  208 1731 L
5972 1731 mt 5943 1731 L
 179 1651 mt  208 1651 L
5972 1651 mt 5943 1651 L
 179 1579 mt  208 1579 L
5972 1579 mt 5943 1579 L
 179 1579 mt  237 1579 L
5972 1579 mt 5914 1579 L
%%IncludeResource: font Helvetica
/Helvetica /WindowsLatin1Encoding 120 FMSR

 -32 1623 mt 
(10) s
%%IncludeResource: font Helvetica
/Helvetica /WindowsLatin1Encoding 80 FMSR

 101 1549 mt 
(5) s
 179 1108 mt  208 1108 L
5972 1108 mt 5943 1108 L
 179  832 mt  208  832 L
5972  832 mt 5943  832 L
 179  636 mt  208  636 L
5972  636 mt 5943  636 L
 179  485 mt  208  485 L
5972  485 mt 5943  485 L
 179  361 mt  208  361 L
5972  361 mt 5943  361 L
 179  264 mt 5972  264 L
 179 3241 mt 5972 3241 L
5972 3241 mt 5972  264 L
 179 3241 mt  179  264 L
gs 179 264 5794 2978 rc
DA
/c8 { 1.000000 0.000000 0.000000 sr} bdef
c8
0 -149 279 2177 2 MP stroke
/c9 { 0.000000 0.000000 1.000000 sr} bdef
c9
0 -47 477 2344 2 MP stroke
c8
0 -122 769 1634 2 MP stroke
c9
0 -69 968 1884 2 MP stroke
c8
0 -133 1260 2340 2 MP stroke
c9
0 -94 1458 2495 2 MP stroke
c8
0 -188 1750 1338 2 MP stroke
c9
0 -34 1948 1548 2 MP stroke
c8
0 -89 2241 1431 2 MP stroke
c9
0 -91 2439 1656 2 MP stroke
c8
0 -139 2731 1063 2 MP stroke
c9
0 -89 2929 1341 2 MP stroke
c8
0 -169 3222 1234 2 MP stroke
c9
0 -102 3420 1428 2 MP stroke
c8
0 -162 3712 2954 2 MP stroke
c9
0 -130 3910 3109 2 MP stroke
c8
0 -184 4203 1207 2 MP stroke
c9
0 -82 4401 1356 2 MP stroke
c8
0 -79 4693 1375 2 MP stroke
c9
0 -98 4891 1339 2 MP stroke
c8
0 -111 5183 407 2 MP stroke
c9
0 -166 5382 589 2 MP stroke
c8
0 -180 5674 491 2 MP stroke
c9
0 -99 5872 642 2 MP stroke
c8
0 -166 279 2490 2 MP stroke
c9
0 -94 477 2574 2 MP stroke
c8
0 -106 769 2013 2 MP stroke
c9
0 -68 968 2055 2 MP stroke
c8
0 -95 1260 2571 2 MP stroke
c9
0 -53 1458 2625 2 MP stroke
c8
0 -133 1750 1654 2 MP stroke
c9
0 -78 1948 1752 2 MP stroke
c8
0 -85 2241 1740 2 MP stroke
c9
0 -55 2439 1784 2 MP stroke
c8
0 -137 2731 1423 2 MP stroke
c9
0 -75 2929 1524 2 MP stroke
c8
0 -118 3222 1520 2 MP stroke
c9
0 -46 3420 1558 2 MP stroke
c8
0 -36 3712 3236 2 MP stroke
c9
0 -21 3910 3241 2 MP stroke
c8
0 -38 4203 1411 2 MP stroke
c9
0 -20 4401 1444 2 MP stroke
c8
0 -14 4693 1456 2 MP stroke
c9
0 -14 4891 1465 2 MP stroke
c8
0 -126 5183 709 2 MP stroke
c9
0 -72 5382 830 2 MP stroke
c8
0 -91 5674 750 2 MP stroke
c9
0 -99 5872 851 2 MP stroke
SO
c8
49 0 254 2028 2 MP stroke
c9
50 0 452 2297 2 MP stroke
c8
50 0 744 1512 2 MP stroke
c9
49 0 943 1815 2 MP stroke
c8
49 0 1235 2207 2 MP stroke
c9
50 0 1433 2401 2 MP stroke
c8
50 0 1725 1150 2 MP stroke
c9
49 0 1924 1514 2 MP stroke
c8
49 0 2216 1342 2 MP stroke
c9
50 0 2414 1565 2 MP stroke
c8
50 0 2706 924 2 MP stroke
c9
49 0 2905 1252 2 MP stroke
c8
49 0 3197 1065 2 MP stroke
c9
50 0 3395 1326 2 MP stroke
c8
50 0 3687 2792 2 MP stroke
c9
49 0 3886 2979 2 MP stroke
c8
49 0 4178 1023 2 MP stroke
c9
50 0 4376 1274 2 MP stroke
c8
50 0 4668 1296 2 MP stroke
c9
49 0 4867 1241 2 MP stroke
c8
49 0 5159 296 2 MP stroke
c9
50 0 5357 423 2 MP stroke
c8
50 0 5649 311 2 MP stroke
c9
49 0 5848 543 2 MP stroke
c8
49 0 254 2490 2 MP stroke
c9
50 0 452 2574 2 MP stroke
c8
50 0 744 2013 2 MP stroke
c9
49 0 943 2055 2 MP stroke
c8
49 0 1235 2571 2 MP stroke
c9
50 0 1433 2625 2 MP stroke
c8
50 0 1725 1654 2 MP stroke
c9
49 0 1924 1752 2 MP stroke
c8
49 0 2216 1740 2 MP stroke
c9
50 0 2414 1784 2 MP stroke
c8
50 0 2706 1423 2 MP stroke
c9
49 0 2905 1524 2 MP stroke
c8
49 0 3197 1520 2 MP stroke
c9
50 0 3395 1558 2 MP stroke
c8
50 0 3687 3236 2 MP stroke
c9
49 0 3886 3241 2 MP stroke
c8
49 0 4178 1411 2 MP stroke
c9
50 0 4376 1444 2 MP stroke
c8
50 0 4668 1456 2 MP stroke
c9
49 0 4867 1465 2 MP stroke
c8
49 0 5159 709 2 MP stroke
c9
50 0 5357 830 2 MP stroke
c8
50 0 5649 750 2 MP stroke
c9
49 0 5848 851 2 MP stroke
c8
25 -43 0 -36 -99 0 0 36 25 43 -25 41 0 27 99 0 
0 -27 -25 -41 254 2245 11 MP stroke
c9
25 -39 0 -36 -100 0 0 36 25 39 -25 38 0 23 100 0 
0 -23 -25 -38 452 2405 11 MP stroke
c8
24 -85 0 -42 -99 0 0 42 25 85 -25 75 0 71 99 0 
0 -71 -24 -75 744 1780 11 MP stroke
c9
25 -31 0 -11 -99 0 0 11 25 31 -25 29 0 32 99 0 
0 -32 -25 -29 943 1945 11 MP stroke
c8
25 -42 0 -8 -99 0 0 8 25 42 -25 38 0 48 99 0 
0 -48 -25 -38 1235 2426 11 MP stroke
c9
25 -22 0 -25 -100 0 0 25 25 22 -25 21 0 9 100 0 
0 -9 -25 -21 1433 2525 11 MP stroke
c8
24 -54 0 -40 -99 0 0 40 25 54 -25 50 0 39 99 0 
0 -39 -24 -50 1725 1427 11 MP stroke
c9
25 -36 0 -41 -99 0 0 41 25 36 -25 35 0 14 99 0 
0 -14 -25 -35 1924 1597 11 MP stroke
c8
25 -69 0 -24 -99 0 0 24 25 69 -25 64 0 67 99 0 
0 -67 -25 -64 2216 1562 11 MP stroke
c9
25 -21 0 -15 -100 0 0 15 25 21 -25 21 0 16 100 0 
0 -16 -25 -21 2414 1693 11 MP stroke
c8
25 -70 0 -11 -100 0 0 11 25 70 -25 64 0 78 100 0 
0 -78 -25 -64 2706 1205 11 MP stroke
c9
25 -33 0 -6 -99 0 0 6 25 33 -25 31 0 38 99 0 
0 -38 -25 -31 2905 1410 11 MP stroke
c8
25 -49 0 -44 -99 0 0 44 25 49 -25 46 0 29 99 0 
0 -29 -25 -46 3197 1309 11 MP stroke
c9
25 -24 0 -15 -100 0 0 15 25 24 -25 24 0 21 100 0 
0 -21 -25 -24 3395 1473 11 MP stroke
c8
25 -79 0 -2 -100 0 0 2 25 79 -25 72 0 93 100 0 
0 -93 -25 -72 3687 3119 11 MP stroke
c9
25 -34 0 14 -99 0 0 -14 25 34 -25 33 0 58 99 0 
0 -58 -25 -33 3886 3200 11 MP stroke
c8
25 -51 0 -2 -99 0 0 2 25 51 -25 48 0 65 99 0 
0 -65 -25 -48 4178 1320 11 MP stroke
c9
25 -20 0 -6 -99 0 0 6 24 20 -24 20 0 22 99 0 
0 -22 -25 -20 4376 1398 11 MP stroke
c8
25 -19 0 -6 -100 0 0 6 25 19 -25 19 0 23 100 0 
0 -23 -25 -19 4668 1417 11 MP stroke
c9
25 -35 0 22 -99 0 0 -22 25 35 -25 34 0 65 99 0 
0 -65 -25 -34 4867 1438 11 MP stroke
c8
25 -53 0 -23 -99 0 0 23 25 53 -25 50 0 50 99 0 
0 -50 -25 -50 5159 507 11 MP stroke
c9
25 -53 0 1 -99 0 0 -1 24 53 -24 48 0 69 99 0 
0 -69 -25 -48 5357 706 11 MP stroke
c8
25 -50 0 -30 -100 0 0 30 25 50 -25 47 0 41 100 0 
0 -41 -25 -47 5649 579 11 MP stroke
c9
25 -33 0 8 -99 0 0 -8 25 33 -25 32 0 53 99 0 
0 -53 -25 -32 5848 727 11 MP stroke
c8
49 0 254 2245 2 MP stroke
c9
50 0 452 2405 2 MP stroke
c8
50 0 744 1780 2 MP stroke
c9
49 0 943 1945 2 MP stroke
c8
49 0 1235 2426 2 MP stroke
c9
50 0 1433 2525 2 MP stroke
c8
50 0 1725 1427 2 MP stroke
c9
49 0 1924 1597 2 MP stroke
c8
49 0 2216 1562 2 MP stroke
c9
50 0 2414 1693 2 MP stroke
c8
50 0 2706 1205 2 MP stroke
c9
49 0 2905 1410 2 MP stroke
c8
49 0 3197 1309 2 MP stroke
c9
50 0 3395 1473 2 MP stroke
c8
50 0 3687 3119 2 MP stroke
c9
49 0 3886 3200 2 MP stroke
c8
49 0 4178 1320 2 MP stroke
c9
50 0 4376 1398 2 MP stroke
c8
50 0 4668 1417 2 MP stroke
c9
49 0 4867 1438 2 MP stroke
c8
49 0 5159 507 2 MP stroke
c9
50 0 5357 706 2 MP stroke
c8
50 0 5649 579 2 MP stroke
c9
49 0 5848 727 2 MP stroke
gs 696 1229 147 147 rc
c8
 733 1302 mt  805 1302 L
 769 1266 mt  769 1338 L
gr

c8
gs 1187 2097 147 147 rc
1224 2170 mt 1296 2170 L
1260 2134 mt 1260 2206 L
gr

gs 1385 2249 147 215 rc
1422 2390 mt 1494 2390 L
1458 2354 mt 1458 2426 L
1422 2360 mt 1494 2360 L
1458 2324 mt 1458 2396 L
1422 2322 mt 1494 2322 L
1458 2286 mt 1458 2358 L
gr

gs 1677 1058 147 147 rc
1714 1131 mt 1786 1131 L
1750 1095 mt 1750 1167 L
gr

gs 1875 1191 147 271 rc
1912 1388 mt 1984 1388 L
1948 1352 mt 1948 1424 L
1912 1264 mt 1984 1264 L
1948 1228 mt 1948 1300 L
gr

gs 2366 1408 147 219 rc
2403 1553 mt 2475 1553 L
2439 1517 mt 2439 1589 L
2403 1481 mt 2475 1481 L
2439 1445 mt 2439 1517 L
gr

gs 2856 1104 147 147 rc
2893 1177 mt 2965 1177 L
2929 1141 mt 2929 1213 L
gr

gs 3347 1242 147 147 rc
3384 1315 mt 3456 1315 L
3420 1279 mt 3420 1351 L
gr

gs 4130 877 147 168 rc
4167  971 mt 4239  971 L
4203  935 mt 4203 1007 L
4167  950 mt 4239  950 L
4203  914 mt 4203  986 L
gr

gs 4328 1135 147 147 rc
4365 1208 mt 4437 1208 L
4401 1172 mt 4401 1244 L
gr

gs 4620 911 147 396 rc
4657 1233 mt 4729 1233 L
4693 1197 mt 4693 1269 L
4657 1215 mt 4729 1215 L
4693 1179 mt 4693 1251 L
4657 1203 mt 4729 1203 L
4693 1167 mt 4693 1239 L
4657 1081 mt 4729 1081 L
4693 1045 mt 4693 1117 L
4657 1066 mt 4729 1066 L
4693 1030 mt 4693 1102 L
4657  984 mt 4729  984 L
4693  948 mt 4693 1020 L
gr

gs 4818 1072 147 147 rc
4855 1145 mt 4927 1145 L
4891 1109 mt 4891 1181 L
gr

gs 5309 288 147 147 rc
5346  361 mt 5418  361 L
5382  325 mt 5382  397 L
gr

gr

c8
0 sg
%%IncludeResource: font Helvetica
/Helvetica /WindowsLatin1Encoding 120 FMSR

 211 3377 mt 
(41) s
 702 3377 mt 
(52) s
1192 3377 mt 
(63) s
1683 3377 mt 
(a5) s
2173 3377 mt 
(b4) s
2668 3377 mt 
(c3) s
3154 3377 mt 
(d2) s
3645 3377 mt 
(e1) s
4082 3377 mt 
(nre1) s
4590 3377 mt 
(nrf2) s
5063 3377 mt 
(nrg3) s
5554 3377 mt 
(nrg4) s
 245 3539 mt 
(g) s
 444 3539 mt 
(p) s
 736 3539 mt 
(g) s
 934 3539 mt 
(p) s
1226 3539 mt 
(g) s
1425 3539 mt 
(p) s
1717 3539 mt 
(g) s
1915 3539 mt 
(p) s
2207 3539 mt 
(g) s
2405 3539 mt 
(p) s
2698 3539 mt 
(g) s
2896 3539 mt 
(p) s
3188 3539 mt 
(g) s
3386 3539 mt 
(p) s
3679 3539 mt 
(g) s
3877 3539 mt 
(p) s
4169 3539 mt 
(g) s
4367 3539 mt 
(p) s
4660 3539 mt 
(g) s
4858 3539 mt 
(p) s
5150 3539 mt 
(g) s
5348 3539 mt 
(p) s
5641 3539 mt 
(g) s
5839 3539 mt 
(p) s
gs 179 264 5794 2978 rc
gr

%%IncludeResource: font Helvetica-Bold
/Helvetica-Bold /WindowsLatin1Encoding 120 FMSR

2438  169 mt 
(Iterations used till end) s
%%IncludeResource: font Helvetica
/Helvetica /WindowsLatin1Encoding 120 FMSR

 162 3284 mt 
( ) s
5956  306 mt 
( ) s
1 sg
0 378 1044 0 0 -378 250 723 4 MP
PP
-1044 0 0 378 1044 0 0 -378 250 723 5 MP stroke
4 w
DO
SO
6 w
0 sg
 250  345 mt 1294  345 L
 250  723 mt 1294  723 L
1294  723 mt 1294  345 L
 250  723 mt  250  345 L
 250  723 mt 1294  723 L
 250  723 mt  250  345 L
 250  345 mt 1294  345 L
 250  723 mt 1294  723 L
1294  723 mt 1294  345 L
 250  723 mt  250  345 L
 718  492 mt 
(PGSEMO) s
gs 250 345 1045 379 rc
c9
360 0 322 450 2 MP stroke
gr

c9
0 sg
 718  661 mt 
(GCAIS) s
gs 250 345 1045 379 rc
c8
360 0 322 618 2 MP stroke
gr

c8

end %%Color Dict

eplot
%%EndObject

epage
end

showpage

%%Trailer
%%EOF
