%!PS-Adobe-3.0 EPSF-3.0
%%Creator: MATLAB, The MathWorks, Inc. Version 8.2.0.701 (R2013b). Operating System: Microsoft Windows 8.
%%Title: D:\PPSNthesis\exportingfig\epop.eps
%%CreationDate: 01/07/2016  09:05:33
%%DocumentNeededFonts: Helvetica
%%+ Helvetica-Bold
%%DocumentProcessColors: Cyan Magenta Yellow Black
%%LanguageLevel: 2
%%Pages: 1
%%BoundingBox:  -138   194   733   648
%%EndComments

%%BeginProlog
% MathWorks dictionary
/MathWorks 160 dict begin
% definition operators
/bdef {bind def} bind def
/ldef {load def} bind def
/xdef {exch def} bdef
/xstore {exch store} bdef
% operator abbreviations
/c  /clip ldef
/cc /concat ldef
/cp /closepath ldef
/gr /grestore ldef
/gs /gsave ldef
/mt /moveto ldef
/np /newpath ldef
/cm /currentmatrix ldef
/sm /setmatrix ldef
/rm /rmoveto ldef
/rl /rlineto ldef
/s {show newpath} bdef
/sc {setcmykcolor} bdef
/sr /setrgbcolor ldef
/sg /setgray ldef
/w /setlinewidth ldef
/j /setlinejoin ldef
/cap /setlinecap ldef
/rc {rectclip} bdef
/rf {rectfill} bdef
% page state control
/pgsv () def
/bpage {/pgsv save def} bdef
/epage {pgsv restore} bdef
/bplot /gsave ldef
/eplot {stroke grestore} bdef
% orientation switch
/portraitMode 0 def /landscapeMode 1 def /rotateMode 2 def
% coordinate system mappings
/dpi2point 0 def
% font control
/FontSize 0 def
/FMS {/FontSize xstore findfont [FontSize 0 0 FontSize neg 0 0]
  makefont setfont} bdef
/ISOLatin1Encoding where {pop /WindowsLatin1Encoding 256 array bdef
ISOLatin1Encoding WindowsLatin1Encoding copy pop
/.notdef/.notdef/quotesinglbase/florin/quotedblbase/ellipsis/dagger
/daggerdbl/circumflex/perthousand/Scaron/guilsinglleft/OE/.notdef/.notdef
/.notdef/.notdef/quoteleft/quoteright/quotedblleft/quotedblright/bullet
/endash/emdash/tilde/trademark/scaron/guilsinglright/oe/.notdef/.notdef
/Ydieresis WindowsLatin1Encoding 128 32 getinterval astore pop}
{/WindowsLatin1Encoding StandardEncoding bdef} ifelse
/reencode {exch dup where {pop load} {pop StandardEncoding} ifelse
  exch dup 3 1 roll findfont dup length dict begin
  { 1 index /FID ne {def}{pop pop} ifelse } forall
  /Encoding exch def currentdict end definefont pop} bdef
/isroman {findfont /CharStrings get /Agrave known} bdef
/FMSR {3 1 roll 1 index dup isroman {reencode} {pop pop} ifelse
  exch FMS} bdef
/csm {1 dpi2point div -1 dpi2point div scale neg translate
 dup landscapeMode eq {pop -90 rotate}
  {rotateMode eq {90 rotate} if} ifelse} bdef
% line types: solid, dotted, dashed, dotdash
/SO { [] 0 setdash } bdef
/DO { [.5 dpi2point mul 4 dpi2point mul] 0 setdash } bdef
/DA { [6 dpi2point mul] 0 setdash } bdef
/DD { [.5 dpi2point mul 4 dpi2point mul 6 dpi2point mul 4
  dpi2point mul] 0 setdash } bdef
% macros for lines and objects
/L {lineto stroke} bdef
/MP {3 1 roll moveto 1 sub {rlineto} repeat} bdef
/AP {{rlineto} repeat} bdef
/PDlw -1 def
/W {/PDlw currentlinewidth def setlinewidth} def
/PP {closepath eofill} bdef
/DP {closepath stroke} bdef
/MR {4 -2 roll moveto dup  0 exch rlineto exch 0 rlineto
  neg 0 exch rlineto closepath} bdef
/FR {MR stroke} bdef
/PR {MR fill} bdef
/L1i {{currentfile picstr readhexstring pop} image} bdef
/tMatrix matrix def
/MakeOval {newpath tMatrix currentmatrix pop translate scale
0 0 1 0 360 arc tMatrix setmatrix} bdef
/FO {MakeOval stroke} bdef
/PO {MakeOval fill} bdef
/PD {currentlinewidth 2 div 0 360 arc fill
   PDlw -1 eq not {PDlw w /PDlw -1 def} if} def
/FA {newpath tMatrix currentmatrix pop translate scale
  0 0 1 5 -2 roll arc tMatrix setmatrix stroke} bdef
/PA {newpath tMatrix currentmatrix pop	translate 0 0 moveto scale
  0 0 1 5 -2 roll arc closepath tMatrix setmatrix fill} bdef
/FAn {newpath tMatrix currentmatrix pop translate scale
  0 0 1 5 -2 roll arcn tMatrix setmatrix stroke} bdef
/PAn {newpath tMatrix currentmatrix pop translate 0 0 moveto scale
  0 0 1 5 -2 roll arcn closepath tMatrix setmatrix fill} bdef
/vradius 0 def /hradius 0 def /lry 0 def
/lrx 0 def /uly 0 def /ulx 0 def /rad 0 def
/MRR {/vradius xdef /hradius xdef /lry xdef /lrx xdef /uly xdef
  /ulx xdef newpath tMatrix currentmatrix pop ulx hradius add uly
  vradius add translate hradius vradius scale 0 0 1 180 270 arc 
  tMatrix setmatrix lrx hradius sub uly vradius add translate
  hradius vradius scale 0 0 1 270 360 arc tMatrix setmatrix
  lrx hradius sub lry vradius sub translate hradius vradius scale
  0 0 1 0 90 arc tMatrix setmatrix ulx hradius add lry vradius sub
  translate hradius vradius scale 0 0 1 90 180 arc tMatrix setmatrix
  closepath} bdef
/FRR {MRR stroke } bdef
/PRR {MRR fill } bdef
/MlrRR {/lry xdef /lrx xdef /uly xdef /ulx xdef /rad lry uly sub 2 div def
  newpath tMatrix currentmatrix pop ulx rad add uly rad add translate
  rad rad scale 0 0 1 90 270 arc tMatrix setmatrix lrx rad sub lry rad
  sub translate rad rad scale 0 0 1 270 90 arc tMatrix setmatrix
  closepath} bdef
/FlrRR {MlrRR stroke } bdef
/PlrRR {MlrRR fill } bdef
/MtbRR {/lry xdef /lrx xdef /uly xdef /ulx xdef /rad lrx ulx sub 2 div def
  newpath tMatrix currentmatrix pop ulx rad add uly rad add translate
  rad rad scale 0 0 1 180 360 arc tMatrix setmatrix lrx rad sub lry rad
  sub translate rad rad scale 0 0 1 0 180 arc tMatrix setmatrix
  closepath} bdef
/FtbRR {MtbRR stroke } bdef
/PtbRR {MtbRR fill } bdef
/stri 6 array def /dtri 6 array def
/smat 6 array def /dmat 6 array def
/tmat1 6 array def /tmat2 6 array def /dif 3 array def
/asub {/ind2 exch def /ind1 exch def dup dup
  ind1 get exch ind2 get sub exch } bdef
/tri_to_matrix {
  2 0 asub 3 1 asub 4 0 asub 5 1 asub
  dup 0 get exch 1 get 7 -1 roll astore } bdef
/compute_transform {
  dmat dtri tri_to_matrix tmat1 invertmatrix 
  smat stri tri_to_matrix tmat2 concatmatrix } bdef
/ds {stri astore pop} bdef
/dt {dtri astore pop} bdef
/db {2 copy /cols xdef /rows xdef mul dup 3 mul string
  currentfile 
  3 index 0 eq {/ASCIIHexDecode filter}
  {/ASCII85Decode filter 3 index 2 eq {/RunLengthDecode filter} if }
  ifelse exch readstring pop
  dup 0 3 index getinterval /rbmap xdef
  dup 2 index dup getinterval /gbmap xdef
  1 index dup 2 mul exch getinterval /bbmap xdef pop pop}bdef
/it {gs np dtri aload pop moveto lineto lineto cp c
  cols rows 8 compute_transform 
  rbmap gbmap bbmap true 3 colorimage gr}bdef
/il {newpath moveto lineto stroke}bdef
currentdict end def
%%EndProlog

%%BeginSetup
MathWorks begin

0 cap

end
%%EndSetup

%%Page: 1 1
%%BeginPageSetup
%%PageBoundingBox:  -138   194   733   648
MathWorks begin
bpage
%%EndPageSetup

%%BeginObject: obj1
bplot

/dpi2point 12 def
portraitMode -1656 7776 csm

    0     0 10457  5447 rc
85 dict begin %Colortable dictionary
/c0 { 0.000000 0.000000 0.000000 sr} bdef
/c1 { 1.000000 1.000000 1.000000 sr} bdef
/c2 { 0.900000 0.000000 0.000000 sr} bdef
/c3 { 0.000000 0.820000 0.000000 sr} bdef
/c4 { 0.000000 0.000000 0.800000 sr} bdef
/c5 { 0.910000 0.820000 0.320000 sr} bdef
/c6 { 1.000000 0.260000 0.820000 sr} bdef
/c7 { 0.000000 0.820000 0.820000 sr} bdef
c0
1 j
1 sg
   0    0 10458 5448 rf
6 w
0 3014 5360 0 0 -3014 233 3232 4 MP
PP
-5360 0 0 3014 5360 0 0 -3014 233 3232 5 MP stroke
4 w
DO
SO
6 w
0 sg
 233  218 mt 5593  218 L
 233 3232 mt 5593 3232 L
5593 3232 mt 5593  218 L
 233 3232 mt  233  218 L
 233 3232 mt 5593 3232 L
 233 3232 mt  233  218 L
 233 1994 mt  260 1994 L
5593 1994 mt 5566 1994 L
 233 2088 mt  260 2088 L
5593 2088 mt 5566 2088 L
 233 2194 mt  260 2194 L
5593 2194 mt 5566 2194 L
 233 2313 mt  260 2313 L
5593 2313 mt 5566 2313 L
 233 2450 mt  260 2450 L
5593 2450 mt 5566 2450 L
 233 2613 mt  260 2613 L
5593 2613 mt 5566 2613 L
 233 2812 mt  260 2812 L
5593 2812 mt 5566 2812 L
 233 3069 mt  260 3069 L
5593 3069 mt 5566 3069 L
 233 1994 mt  287 1994 L
5593 1994 mt 5539 1994 L
%%IncludeResource: font Helvetica
/Helvetica /WindowsLatin1Encoding 120 FMSR

  22 2038 mt 
(10) s
%%IncludeResource: font Helvetica
/Helvetica /WindowsLatin1Encoding 80 FMSR

 155 1964 mt 
(1) s
 233 1376 mt  260 1376 L
5593 1376 mt 5566 1376 L
 233 1014 mt  260 1014 L
5593 1014 mt 5566 1014 L
 233  758 mt  260  758 L
5593  758 mt 5566  758 L
 233  559 mt  260  559 L
5593  559 mt 5566  559 L
 233  396 mt  260  396 L
5593  396 mt 5566  396 L
 233  259 mt  260  259 L
5593  259 mt 5566  259 L
 233  218 mt 5593  218 L
 233 3232 mt 5593 3232 L
5593 3232 mt 5593  218 L
 233 3232 mt  233  218 L
gs 233 219 5360 3014 rc
DA
/c8 { 1.000000 0.000000 0.000000 sr} bdef
c8
0 -21 325 714 2 MP stroke
/c9 { 0.000000 0.000000 1.000000 sr} bdef
c9
0 -20 509 673 2 MP stroke
c8
0 -24 779 804 2 MP stroke
c9
0 -22 963 780 2 MP stroke
c8
1233 1251 PD
c9
0 -69 1416 1177 2 MP stroke
c8
1687 736 PD
c9
0 -60 1870 693 2 MP stroke
c8
2141 1177 PD
c9
0 -35 2324 1177 2 MP stroke
c8
2594 633 PD
c9
0 -18 2778 595 2 MP stroke
c8
3048 1108 PD
c9
0 -31 3232 1076 2 MP stroke
c8
3502 2313 PD
c9
0 -119 3685 2313 2 MP stroke
c8
3956 1422 PD
c9
0 -43 4139 1376 2 MP stroke
c8
4410 1832 PD
c9
0 -72 4593 1832 2 MP stroke
c8
0 -14 4863 325 2 MP stroke
c9
0 -13 5047 311 2 MP stroke
c8
5317 852 PD
c9
0 -23 5501 827 2 MP stroke
c8
0 -22 325 758 2 MP stroke
c9
0 -21 509 714 2 MP stroke
c8
0 -25 779 852 2 MP stroke
c9
0 -23 963 827 2 MP stroke
c8
1233 1251 PD
c9
1416 1251 PD
c8
1687 736 PD
c9
0 -22 1870 758 2 MP stroke
c8
0 -38 2141 1251 2 MP stroke
c9
2324 1213 PD
c8
2594 633 PD
c9
0 -19 2778 633 2 MP stroke
c8
3048 1142 PD
c9
0 -34 3232 1142 2 MP stroke
c8
3502 2450 PD
c9
3685 2450 PD
c8
3956 1470 PD
c9
0 -48 4139 1470 2 MP stroke
c8
4410 1832 PD
c9
4593 1909 PD
c8
4863 338 PD
c9
0 -13 5047 338 2 MP stroke
c8
5317 877 PD
c9
0 -25 5501 877 2 MP stroke
SO
c8
46 0 302 693 2 MP stroke
c9
46 0 486 653 2 MP stroke
c8
46 0 756 780 2 MP stroke
c9
46 0 940 758 2 MP stroke
c8
46 0 1210 1251 2 MP stroke
c9
46 0 1393 1108 2 MP stroke
c8
46 0 1664 736 2 MP stroke
c9
46 0 1847 633 2 MP stroke
c8
45 0 2118 1177 2 MP stroke
c9
46 0 2301 1142 2 MP stroke
c8
46 0 2571 633 2 MP stroke
c9
46 0 2755 577 2 MP stroke
c8
46 0 3025 1108 2 MP stroke
c9
46 0 3209 1045 2 MP stroke
c8
46 0 3479 2313 2 MP stroke
c9
45 0 3663 2194 2 MP stroke
c8
46 0 3933 1422 2 MP stroke
c9
46 0 4116 1333 2 MP stroke
c8
46 0 4387 1832 2 MP stroke
c9
46 0 4570 1760 2 MP stroke
c8
46 0 4840 311 2 MP stroke
c9
46 0 5024 298 2 MP stroke
c8
46 0 5294 852 2 MP stroke
c9
46 0 5478 804 2 MP stroke
c8
46 0 302 758 2 MP stroke
c9
46 0 486 714 2 MP stroke
c8
46 0 756 852 2 MP stroke
c9
46 0 940 827 2 MP stroke
c8
46 0 1210 1251 2 MP stroke
c9
46 0 1393 1251 2 MP stroke
c8
46 0 1664 736 2 MP stroke
c9
46 0 1847 758 2 MP stroke
c8
45 0 2118 1251 2 MP stroke
c9
46 0 2301 1213 2 MP stroke
c8
46 0 2571 633 2 MP stroke
c9
46 0 2755 633 2 MP stroke
c8
46 0 3025 1142 2 MP stroke
c9
46 0 3209 1142 2 MP stroke
c8
46 0 3479 2450 2 MP stroke
c9
45 0 3663 2450 2 MP stroke
c8
46 0 3933 1470 2 MP stroke
c9
46 0 4116 1470 2 MP stroke
c8
46 0 4387 1832 2 MP stroke
c9
46 0 4570 1909 2 MP stroke
c8
46 0 4840 338 2 MP stroke
c9
46 0 5024 338 2 MP stroke
c8
46 0 5294 877 2 MP stroke
c9
46 0 5478 877 2 MP stroke
c8
23 -6 0 6 -92 0 0 -6 23 6 -23 6 0 16 92 0 
0 -16 -23 -6 302 736 11 MP stroke
c9
23 -6 0 -14 -92 0 0 14 23 6 -23 6 0 -6 92 0 
0 6 -23 -6 486 673 11 MP stroke
c8
23 -7 0 7 -92 0 0 -7 23 7 -23 7 0 16 92 0 
0 -16 -23 -7 756 827 11 MP stroke
c9
23 -7 0 -17 -91 0 0 17 22 7 -22 6 0 -6 91 0 
0 6 -23 -6 940 780 11 MP stroke
c8
23 0 -92 0 23 0 -23 0 92 0 -23 0 1210 1251 7 MP stroke
c9
22 -22 0 -16 -91 0 0 16 23 22 -23 21 0 15 91 0 
0 -15 -22 -21 1393 1213 11 MP stroke
c8
23 0 -92 0 23 0 -23 0 92 0 -23 0 1664 736 7 MP stroke
c9
23 -13 0 -9 -92 0 0 9 23 13 -23 12 0 9 92 0 
0 -9 -23 -12 1847 714 11 MP stroke
c8
23 -11 0 11 -91 0 0 -11 23 11 -23 10 0 26 91 0 
0 -26 -23 -10 2118 1213 11 MP stroke
c9
23 -10 0 -26 -92 0 0 26 23 10 -23 10 0 -10 92 0 
0 10 -23 -10 2301 1177 11 MP stroke
c8
23 0 -92 0 23 0 -23 0 92 0 -23 0 2571 633 7 MP stroke
c9
23 -5 0 5 -92 0 0 -5 23 5 -23 6 0 13 92 0 
0 -13 -23 -6 2755 614 11 MP stroke
c8
23 -10 0 10 -92 0 0 -10 23 10 -23 10 0 24 92 0 
0 -24 -23 -10 3025 1142 11 MP stroke
c9
23 -9 0 -23 -92 0 0 23 23 9 -23 9 0 -9 92 0 
0 9 -23 -9 3209 1076 11 MP stroke
c8
23 -44 0 44 -92 0 0 -44 23 44 -23 41 0 96 92 0 
0 -96 -23 -41 3479 2450 11 MP stroke
c9
23 -37 0 -100 -91 0 0 100 23 37 -23 36 0 -36 91 0 
0 36 -23 -36 3663 2313 11 MP stroke
c8
23 -13 0 -35 -92 0 0 35 23 13 -23 13 0 -13 92 0 
0 13 -23 -13 3933 1422 11 MP stroke
c9
23 -13 0 13 -92 0 0 -13 23 13 -23 13 0 33 92 0 
0 -33 -23 -13 4116 1422 11 MP stroke
c8
23 0 -91 0 22 0 -22 0 91 0 -23 0 4387 1832 7 MP stroke
c9
23 -21 0 -56 -92 0 0 56 23 21 -23 21 0 -21 92 0 
0 21 -23 -21 4570 1832 11 MP stroke
c8
22 -4 0 4 -91 0 0 -4 23 4 -23 3 0 10 91 0 
0 -10 -22 -3 4840 338 11 MP stroke
c9
23 -4 0 -3 -92 0 0 3 23 4 -23 4 0 3 92 0 
0 -3 -23 -4 5024 318 11 MP stroke
c8
23 -7 0 -18 -92 0 0 18 23 7 -23 7 0 -7 92 0 
0 7 -23 -7 5294 852 11 MP stroke
c9
23 -7 0 7 -92 0 0 -7 23 7 -23 7 0 18 92 0 
0 -18 -23 -7 5478 852 11 MP stroke
c8
46 0 302 736 2 MP stroke
c9
46 0 486 673 2 MP stroke
c8
46 0 756 827 2 MP stroke
c9
46 0 940 780 2 MP stroke
c8
46 0 1210 1251 2 MP stroke
c9
46 0 1393 1213 2 MP stroke
c8
46 0 1664 736 2 MP stroke
c9
46 0 1847 714 2 MP stroke
c8
45 0 2118 1213 2 MP stroke
c9
46 0 2301 1177 2 MP stroke
c8
46 0 2571 633 2 MP stroke
c9
46 0 2755 614 2 MP stroke
c8
46 0 3025 1142 2 MP stroke
c9
46 0 3209 1076 2 MP stroke
c8
46 0 3479 2450 2 MP stroke
c9
45 0 3663 2313 2 MP stroke
c8
46 0 3933 1422 2 MP stroke
c9
46 0 4116 1422 2 MP stroke
c8
46 0 4387 1832 2 MP stroke
c9
46 0 4570 1832 2 MP stroke
c8
46 0 4840 338 2 MP stroke
c9
46 0 5024 318 2 MP stroke
c8
46 0 5294 852 2 MP stroke
c9
46 0 5478 852 2 MP stroke
gs 252 600 147 147 rc
c8
 289  673 mt  361  673 L
 325  637 mt  325  709 L
gr

c8
gs 436 541 147 269 rc
 473  736 mt  545  736 L
 509  700 mt  509  772 L
 473  633 mt  545  633 L
 509  597 mt  509  669 L
 473  614 mt  545  614 L
 509  578 mt  509  650 L
gr

gs 890 620 147 306 rc
 927  852 mt  999  852 L
 963  816 mt  963  888 L
 927  693 mt  999  693 L
 963  657 mt  963  729 L
gr

gs 1160 1218 147 147 rc
1197 1291 mt 1269 1291 L
1233 1255 mt 1233 1327 L
gr

gs 1614 641 147 191 rc
1651  758 mt 1723  758 L
1687  722 mt 1687  794 L
1651  714 mt 1723  714 L
1687  678 mt 1687  750 L
gr

gs 2251 1035 147 147 rc
2288 1108 mt 2360 1108 L
2324 1072 mt 2324 1144 L
gr

gs 2521 541 147 186 rc
2558  653 mt 2630  653 L
2594  617 mt 2594  689 L
2558  614 mt 2630  614 L
2594  578 mt 2594  650 L
gr

gs 3159 912 147 147 rc
3196  985 mt 3268  985 L
3232  949 mt 3232 1021 L
gr

gs 4337 1836 147 147 rc
4374 1909 mt 4446 1909 L
4410 1873 mt 4410 1945 L
gr

gs 4520 1621 147 147 rc
4557 1694 mt 4629 1694 L
4593 1658 mt 4593 1730 L
gr

gr

c8
gs 4974 186 147 172 rc
5011  284 mt 5083  284 L
5047  248 mt 5047  320 L
5011  271 mt 5083  271 L
5047  235 mt 5047  307 L
5011  259 mt 5083  259 L
5047  223 mt 5047  295 L
gr

gs 233 219 5360 3014 rc
gs 5428 707 147 147 rc
5465  780 mt 5537  780 L
5501  744 mt 5501  816 L
gr

gr

0 sg
%%IncludeResource: font Helvetica
/Helvetica /WindowsLatin1Encoding 120 FMSR

 258 3368 mt 
(41) s
 712 3368 mt 
(52) s
1166 3368 mt 
(63) s
1619 3368 mt 
(a5) s
2073 3368 mt 
(b4) s
2531 3368 mt 
(c3) s
2981 3368 mt 
(d2) s
3435 3368 mt 
(e1) s
3836 3368 mt 
(nre1) s
4307 3368 mt 
(nrf2) s
4744 3368 mt 
(nrg3) s
5197 3368 mt 
(nrg4) s
 292 3530 mt 
(g) s
 475 3530 mt 
(p) s
 746 3530 mt 
(g) s
 929 3530 mt 
(p) s
1200 3530 mt 
(g) s
1383 3530 mt 
(p) s
1653 3530 mt 
(g) s
1837 3530 mt 
(p) s
2107 3530 mt 
(g) s
2291 3530 mt 
(p) s
2561 3530 mt 
(g) s
2745 3530 mt 
(p) s
3015 3530 mt 
(g) s
3199 3530 mt 
(p) s
3469 3530 mt 
(g) s
3652 3530 mt 
(p) s
3923 3530 mt 
(g) s
4106 3530 mt 
(p) s
4377 3530 mt 
(g) s
4560 3530 mt 
(p) s
4831 3530 mt 
(g) s
5014 3530 mt 
(p) s
5284 3530 mt 
(g) s
5468 3530 mt 
(p) s
gs 233 219 5360 3014 rc
gr

%%IncludeResource: font Helvetica-Bold
/Helvetica-Bold /WindowsLatin1Encoding 120 FMSR

2411  124 mt 
(Population at end) s
%%IncludeResource: font Helvetica
/Helvetica /WindowsLatin1Encoding 120 FMSR

 216 3275 mt 
( ) s
5576  261 mt 
( ) s
1 sg
0 334 1031 0 0 -334 293 3173 4 MP
PP
-1031 0 0 334 1031 0 0 -334 293 3173 5 MP stroke
4 w
DO
SO
6 w
0 sg
 293 2839 mt 1324 2839 L
 293 3173 mt 1324 3173 L
1324 3173 mt 1324 2839 L
 293 3173 mt  293 2839 L
 293 3173 mt 1324 3173 L
 293 3173 mt  293 2839 L
 293 2839 mt 1324 2839 L
 293 3173 mt 1324 3173 L
1324 3173 mt 1324 2839 L
 293 3173 mt  293 2839 L
 756 2974 mt 
(PGSEMO) s
gs 293 2839 1032 335 rc
c9
355 0 364 2931 2 MP stroke
gr

c9
0 sg
 756 3123 mt 
(GCAIS) s
gs 293 2839 1032 335 rc
c8
355 0 364 3080 2 MP stroke
gr

c8

end %%Color Dict

eplot
%%EndObject

epage
end

showpage

%%Trailer
%%EOF
