%!PS-Adobe-3.0 EPSF-3.0
%%Creator: MATLAB, The MathWorks, Inc. Version 8.2.0.701 (R2013b). Operating System: Microsoft Windows 8.
%%Title: D:\PPSNthesis\exportingfig\esol.eps
%%CreationDate: 01/07/2016  09:08:56
%%DocumentNeededFonts: Helvetica
%%+ Helvetica-Bold
%%DocumentProcessColors: Cyan Magenta Yellow Black
%%LanguageLevel: 2
%%Pages: 1
%%BoundingBox:  -138   193   733   647
%%EndComments

%%BeginProlog
% MathWorks dictionary
/MathWorks 160 dict begin
% definition operators
/bdef {bind def} bind def
/ldef {load def} bind def
/xdef {exch def} bdef
/xstore {exch store} bdef
% operator abbreviations
/c  /clip ldef
/cc /concat ldef
/cp /closepath ldef
/gr /grestore ldef
/gs /gsave ldef
/mt /moveto ldef
/np /newpath ldef
/cm /currentmatrix ldef
/sm /setmatrix ldef
/rm /rmoveto ldef
/rl /rlineto ldef
/s {show newpath} bdef
/sc {setcmykcolor} bdef
/sr /setrgbcolor ldef
/sg /setgray ldef
/w /setlinewidth ldef
/j /setlinejoin ldef
/cap /setlinecap ldef
/rc {rectclip} bdef
/rf {rectfill} bdef
% page state control
/pgsv () def
/bpage {/pgsv save def} bdef
/epage {pgsv restore} bdef
/bplot /gsave ldef
/eplot {stroke grestore} bdef
% orientation switch
/portraitMode 0 def /landscapeMode 1 def /rotateMode 2 def
% coordinate system mappings
/dpi2point 0 def
% font control
/FontSize 0 def
/FMS {/FontSize xstore findfont [FontSize 0 0 FontSize neg 0 0]
  makefont setfont} bdef
/ISOLatin1Encoding where {pop /WindowsLatin1Encoding 256 array bdef
ISOLatin1Encoding WindowsLatin1Encoding copy pop
/.notdef/.notdef/quotesinglbase/florin/quotedblbase/ellipsis/dagger
/daggerdbl/circumflex/perthousand/Scaron/guilsinglleft/OE/.notdef/.notdef
/.notdef/.notdef/quoteleft/quoteright/quotedblleft/quotedblright/bullet
/endash/emdash/tilde/trademark/scaron/guilsinglright/oe/.notdef/.notdef
/Ydieresis WindowsLatin1Encoding 128 32 getinterval astore pop}
{/WindowsLatin1Encoding StandardEncoding bdef} ifelse
/reencode {exch dup where {pop load} {pop StandardEncoding} ifelse
  exch dup 3 1 roll findfont dup length dict begin
  { 1 index /FID ne {def}{pop pop} ifelse } forall
  /Encoding exch def currentdict end definefont pop} bdef
/isroman {findfont /CharStrings get /Agrave known} bdef
/FMSR {3 1 roll 1 index dup isroman {reencode} {pop pop} ifelse
  exch FMS} bdef
/csm {1 dpi2point div -1 dpi2point div scale neg translate
 dup landscapeMode eq {pop -90 rotate}
  {rotateMode eq {90 rotate} if} ifelse} bdef
% line types: solid, dotted, dashed, dotdash
/SO { [] 0 setdash } bdef
/DO { [.5 dpi2point mul 4 dpi2point mul] 0 setdash } bdef
/DA { [6 dpi2point mul] 0 setdash } bdef
/DD { [.5 dpi2point mul 4 dpi2point mul 6 dpi2point mul 4
  dpi2point mul] 0 setdash } bdef
% macros for lines and objects
/L {lineto stroke} bdef
/MP {3 1 roll moveto 1 sub {rlineto} repeat} bdef
/AP {{rlineto} repeat} bdef
/PDlw -1 def
/W {/PDlw currentlinewidth def setlinewidth} def
/PP {closepath eofill} bdef
/DP {closepath stroke} bdef
/MR {4 -2 roll moveto dup  0 exch rlineto exch 0 rlineto
  neg 0 exch rlineto closepath} bdef
/FR {MR stroke} bdef
/PR {MR fill} bdef
/L1i {{currentfile picstr readhexstring pop} image} bdef
/tMatrix matrix def
/MakeOval {newpath tMatrix currentmatrix pop translate scale
0 0 1 0 360 arc tMatrix setmatrix} bdef
/FO {MakeOval stroke} bdef
/PO {MakeOval fill} bdef
/PD {currentlinewidth 2 div 0 360 arc fill
   PDlw -1 eq not {PDlw w /PDlw -1 def} if} def
/FA {newpath tMatrix currentmatrix pop translate scale
  0 0 1 5 -2 roll arc tMatrix setmatrix stroke} bdef
/PA {newpath tMatrix currentmatrix pop	translate 0 0 moveto scale
  0 0 1 5 -2 roll arc closepath tMatrix setmatrix fill} bdef
/FAn {newpath tMatrix currentmatrix pop translate scale
  0 0 1 5 -2 roll arcn tMatrix setmatrix stroke} bdef
/PAn {newpath tMatrix currentmatrix pop translate 0 0 moveto scale
  0 0 1 5 -2 roll arcn closepath tMatrix setmatrix fill} bdef
/vradius 0 def /hradius 0 def /lry 0 def
/lrx 0 def /uly 0 def /ulx 0 def /rad 0 def
/MRR {/vradius xdef /hradius xdef /lry xdef /lrx xdef /uly xdef
  /ulx xdef newpath tMatrix currentmatrix pop ulx hradius add uly
  vradius add translate hradius vradius scale 0 0 1 180 270 arc 
  tMatrix setmatrix lrx hradius sub uly vradius add translate
  hradius vradius scale 0 0 1 270 360 arc tMatrix setmatrix
  lrx hradius sub lry vradius sub translate hradius vradius scale
  0 0 1 0 90 arc tMatrix setmatrix ulx hradius add lry vradius sub
  translate hradius vradius scale 0 0 1 90 180 arc tMatrix setmatrix
  closepath} bdef
/FRR {MRR stroke } bdef
/PRR {MRR fill } bdef
/MlrRR {/lry xdef /lrx xdef /uly xdef /ulx xdef /rad lry uly sub 2 div def
  newpath tMatrix currentmatrix pop ulx rad add uly rad add translate
  rad rad scale 0 0 1 90 270 arc tMatrix setmatrix lrx rad sub lry rad
  sub translate rad rad scale 0 0 1 270 90 arc tMatrix setmatrix
  closepath} bdef
/FlrRR {MlrRR stroke } bdef
/PlrRR {MlrRR fill } bdef
/MtbRR {/lry xdef /lrx xdef /uly xdef /ulx xdef /rad lrx ulx sub 2 div def
  newpath tMatrix currentmatrix pop ulx rad add uly rad add translate
  rad rad scale 0 0 1 180 360 arc tMatrix setmatrix lrx rad sub lry rad
  sub translate rad rad scale 0 0 1 0 180 arc tMatrix setmatrix
  closepath} bdef
/FtbRR {MtbRR stroke } bdef
/PtbRR {MtbRR fill } bdef
/stri 6 array def /dtri 6 array def
/smat 6 array def /dmat 6 array def
/tmat1 6 array def /tmat2 6 array def /dif 3 array def
/asub {/ind2 exch def /ind1 exch def dup dup
  ind1 get exch ind2 get sub exch } bdef
/tri_to_matrix {
  2 0 asub 3 1 asub 4 0 asub 5 1 asub
  dup 0 get exch 1 get 7 -1 roll astore } bdef
/compute_transform {
  dmat dtri tri_to_matrix tmat1 invertmatrix 
  smat stri tri_to_matrix tmat2 concatmatrix } bdef
/ds {stri astore pop} bdef
/dt {dtri astore pop} bdef
/db {2 copy /cols xdef /rows xdef mul dup 3 mul string
  currentfile 
  3 index 0 eq {/ASCIIHexDecode filter}
  {/ASCII85Decode filter 3 index 2 eq {/RunLengthDecode filter} if }
  ifelse exch readstring pop
  dup 0 3 index getinterval /rbmap xdef
  dup 2 index dup getinterval /gbmap xdef
  1 index dup 2 mul exch getinterval /bbmap xdef pop pop}bdef
/it {gs np dtri aload pop moveto lineto lineto cp c
  cols rows 8 compute_transform 
  rbmap gbmap bbmap true 3 colorimage gr}bdef
/il {newpath moveto lineto stroke}bdef
currentdict end def
%%EndProlog

%%BeginSetup
MathWorks begin

0 cap

end
%%EndSetup

%%Page: 1 1
%%BeginPageSetup
%%PageBoundingBox:  -138   193   733   647
MathWorks begin
bpage
%%EndPageSetup

%%BeginObject: obj1
bplot

/dpi2point 12 def
portraitMode -1656 7764 csm

    0     0 10457  5438 rc
85 dict begin %Colortable dictionary
/c0 { 0.000000 0.000000 0.000000 sr} bdef
/c1 { 1.000000 1.000000 1.000000 sr} bdef
/c2 { 0.900000 0.000000 0.000000 sr} bdef
/c3 { 0.000000 0.820000 0.000000 sr} bdef
/c4 { 0.000000 0.000000 0.800000 sr} bdef
/c5 { 0.910000 0.820000 0.320000 sr} bdef
/c6 { 1.000000 0.260000 0.820000 sr} bdef
/c7 { 0.000000 0.820000 0.820000 sr} bdef
c0
1 j
1 sg
   0    0 10458 5439 rf
6 w
0 2932 5676 0 0 -2932 242 3196 4 MP
PP
-5676 0 0 2932 5676 0 0 -2932 242 3196 5 MP stroke
4 w
DO
SO
6 w
0 sg
 242  264 mt 5918  264 L
 242 3196 mt 5918 3196 L
5918 3196 mt 5918  264 L
 242 3196 mt  242  264 L
 242 3196 mt 5918 3196 L
 242 3196 mt  242  264 L
 242 2849 mt  299 2849 L
5918 2849 mt 5861 2849 L
%%IncludeResource: font Helvetica
/Helvetica /WindowsLatin1Encoding 120 FMSR

  75 2893 mt 
(20) s
 242 2494 mt  299 2494 L
5918 2494 mt 5861 2494 L
  75 2538 mt 
(40) s
 242 2138 mt  299 2138 L
5918 2138 mt 5861 2138 L
  75 2182 mt 
(60) s
 242 1783 mt  299 1783 L
5918 1783 mt 5861 1783 L
  75 1827 mt 
(80) s
 242 1427 mt  299 1427 L
5918 1427 mt 5861 1427 L
   8 1471 mt 
(100) s
 242 1072 mt  299 1072 L
5918 1072 mt 5861 1072 L
   8 1116 mt 
(120) s
 242  717 mt  299  717 L
5918  717 mt 5861  717 L
   8  761 mt 
(140) s
 242  361 mt  299  361 L
5918  361 mt 5861  361 L
   8  405 mt 
(160) s
 242  264 mt 5918  264 L
 242 3196 mt 5918 3196 L
5918 3196 mt 5918  264 L
 242 3196 mt  242  264 L
gs 242 264 5677 2933 rc
DA
/c8 { 1.000000 0.000000 0.000000 sr} bdef
c8
0 -302 340 1765 2 MP stroke
/c9 { 0.000000 0.000000 1.000000 sr} bdef
c9
0 -89 534 1765 2 MP stroke
c8
0 -338 820 1801 2 MP stroke
c9
0 -107 1015 1730 2 MP stroke
c8
0 -71 1301 2369 2 MP stroke
c9
0 -89 1495 2298 2 MP stroke
c8
0 -319 1781 1498 2 MP stroke
c9
0 -178 1976 1481 2 MP stroke
c8
0 -160 2262 2174 2 MP stroke
c9
0 -71 2456 2245 2 MP stroke
c8
0 -142 2743 1303 2 MP stroke
c9
0 -178 2937 1321 2 MP stroke
c8
0 -89 3223 2138 2 MP stroke
c9
0 -142 3417 2103 2 MP stroke
c8
0 -53 3704 2973 2 MP stroke
c9
0 -35 3898 2991 2 MP stroke
c8
0 -125 4184 2494 2 MP stroke
c9
0 -125 4379 2494 2 MP stroke
c8
0 -71 4665 2796 2 MP stroke
c9
0 -36 4859 2796 2 MP stroke
c8
0 -177 5145 574 2 MP stroke
c9
0 -160 5340 646 2 MP stroke
c8
0 -124 5626 1818 2 MP stroke
c9
0 -107 5820 1872 2 MP stroke
c8
0 -142 340 2120 2 MP stroke
c9
0 -160 534 2067 2 MP stroke
c8
0 -53 820 2085 2 MP stroke
c9
0 -231 1015 2120 2 MP stroke
c8
0 -107 1301 2547 2 MP stroke
c9
0 -36 1495 2476 2 MP stroke
c8
0 -249 1781 1961 2 MP stroke
c9
0 -196 1976 1872 2 MP stroke
c8
0 -106 2262 2440 2 MP stroke
c9
0 -107 2456 2476 2 MP stroke
c8
0 -195 2743 1747 2 MP stroke
c9
0 -89 2937 1552 2 MP stroke
c8
0 -106 3223 2369 2 MP stroke
c9
0 -124 3417 2387 2 MP stroke
c8
0 -53 3704 3062 2 MP stroke
c9
0 -17 3898 3044 2 MP stroke
c8
0 -72 4184 2654 2 MP stroke
c9
0 -54 4379 2636 2 MP stroke
c8
0 -18 4665 2867 2 MP stroke
c9
0 -36 4859 2885 2 MP stroke
c8
0 -249 5145 1090 2 MP stroke
c9
0 -88 5340 965 2 MP stroke
c8
0 -142 5626 2138 2 MP stroke
c9
0 -54 5820 2032 2 MP stroke
SO
c8
49 0 315 1463 2 MP stroke
c9
48 0 510 1676 2 MP stroke
c8
49 0 796 1463 2 MP stroke
c9
49 0 990 1623 2 MP stroke
c8
48 0 1277 2298 2 MP stroke
c9
48 0 1471 2209 2 MP stroke
c8
49 0 1757 1179 2 MP stroke
c9
49 0 1951 1303 2 MP stroke
c8
48 0 2238 2014 2 MP stroke
c9
49 0 2432 2174 2 MP stroke
c8
49 0 2718 1161 2 MP stroke
c9
48 0 2913 1143 2 MP stroke
c8
48 0 3199 2049 2 MP stroke
c9
49 0 3393 1961 2 MP stroke
c8
49 0 3679 2920 2 MP stroke
c9
48 0 3874 2956 2 MP stroke
c8
49 0 4160 2369 2 MP stroke
c9
49 0 4354 2369 2 MP stroke
c8
48 0 4641 2725 2 MP stroke
c9
48 0 4835 2760 2 MP stroke
c8
49 0 5121 397 2 MP stroke
c9
49 0 5315 486 2 MP stroke
c8
48 0 5602 1694 2 MP stroke
c9
49 0 5796 1765 2 MP stroke
c8
49 0 315 2120 2 MP stroke
c9
48 0 510 2067 2 MP stroke
c8
49 0 796 2085 2 MP stroke
c9
49 0 990 2120 2 MP stroke
c8
48 0 1277 2547 2 MP stroke
c9
48 0 1471 2476 2 MP stroke
c8
49 0 1757 1961 2 MP stroke
c9
49 0 1951 1872 2 MP stroke
c8
48 0 2238 2440 2 MP stroke
c9
49 0 2432 2476 2 MP stroke
c8
49 0 2718 1747 2 MP stroke
c9
48 0 2913 1552 2 MP stroke
c8
48 0 3199 2369 2 MP stroke
c9
49 0 3393 2387 2 MP stroke
c8
49 0 3679 3062 2 MP stroke
c9
48 0 3874 3044 2 MP stroke
c8
49 0 4160 2654 2 MP stroke
c9
49 0 4354 2636 2 MP stroke
c8
48 0 4641 2867 2 MP stroke
c9
48 0 4835 2885 2 MP stroke
c8
49 0 5121 1090 2 MP stroke
c9
49 0 5315 965 2 MP stroke
c8
48 0 5602 2138 2 MP stroke
c9
49 0 5796 2032 2 MP stroke
c8
24 -61 0 -19 -97 0 0 19 24 61 -24 61 0 72 97 0 
0 -72 -24 -61 315 1898 11 MP stroke
c9
25 -41 0 -57 -98 0 0 57 25 41 -25 40 0 4 98 0 
0 -4 -25 -40 510 1809 11 MP stroke
c8
24 -66 0 -41 -97 0 0 41 24 66 -24 66 0 58 97 0 
0 -58 -24 -66 796 1925 11 MP stroke
c9
24 -46 0 20 -97 0 0 -20 24 46 -24 46 0 87 97 0 
0 -87 -24 -46 990 1863 11 MP stroke
c8
25 -20 0 -15 -97 0 0 15 24 20 -24 21 0 15 97 0 
0 -15 -25 -21 1277 2405 11 MP stroke
c9
24 -41 0 -12 -97 0 0 12 25 41 -25 41 0 48 97 0 
0 -48 -24 -41 1471 2387 11 MP stroke
c8
24 -61 0 -37 -97 0 0 37 24 61 -24 61 0 55 97 0 
0 -55 -24 -61 1757 1614 11 MP stroke
c9
24 -56 0 -59 -97 0 0 59 24 56 -24 56 0 24 97 0 
0 -24 -24 -56 1951 1561 11 MP stroke
c8
25 -46 0 -8 -98 0 0 8 25 46 -25 45 0 61 98 0 
0 -61 -25 -45 2238 2280 11 MP stroke
c9
24 -35 0 -71 -97 0 0 71 24 35 -24 36 0 -18 97 0 
0 18 -24 -36 2432 2263 11 MP stroke
c8
24 -71 0 -80 -97 0 0 80 24 71 -24 72 0 26 97 0 
0 -26 -24 -72 2718 1401 11 MP stroke
c9
25 -41 0 -30 -97 0 0 30 24 41 -24 41 0 30 97 0 
0 -30 -25 -41 2913 1392 11 MP stroke
c8
24 -36 -97 0 25 36 -25 36 0 53 97 0 0 -53 -24 -36 
3199 2227 9 MP stroke
c9
24 -45 0 -26 -97 0 0 26 24 45 -24 46 0 43 97 0 
0 -43 -24 -46 3393 2192 11 MP stroke
c8
24 -10 0 1 -97 0 0 -1 24 10 -24 10 0 17 97 0 
0 -17 -24 -10 3679 3000 11 MP stroke
c9
25 -10 0 -8 -98 0 0 8 25 10 -25 10 0 8 98 0 
0 -8 -25 -10 3874 3009 11 MP stroke
c8
24 -26 0 -27 -97 0 0 27 24 26 -24 25 0 10 97 0 
0 -10 -24 -25 4160 2529 11 MP stroke
c9
24 -25 0 -19 -97 0 0 19 24 25 -24 25 0 19 97 0 
0 -19 -24 -25 4354 2538 11 MP stroke
c8
25 -16 0 -2 -97 0 0 2 24 16 -24 15 0 20 97 0 
0 -20 -25 -15 4641 2831 11 MP stroke
c9
24 -16 0 -2 -97 0 0 2 25 16 -25 15 0 20 97 0 
0 -20 -24 -15 4835 2831 11 MP stroke
c8
24 -76 0 -84 -97 0 0 84 24 76 -24 76 0 31 97 0 
0 -31 -24 -76 5121 681 11 MP stroke
c9
24 -66 0 -50 -97 0 0 50 24 66 -24 66 0 49 97 0 
0 -49 -24 -66 5315 761 11 MP stroke
c8
25 -51 0 -20 -98 0 0 20 25 51 -25 51 0 56 98 0 
0 -56 -25 -51 5602 1925 11 MP stroke
c9
24 -31 0 -22 -97 0 0 22 24 31 -24 31 0 22 97 0 
0 -22 -24 -31 5796 1925 11 MP stroke
c8
49 0 315 1898 2 MP stroke
c9
48 0 510 1809 2 MP stroke
c8
49 0 796 1925 2 MP stroke
c9
49 0 990 1863 2 MP stroke
c8
48 0 1277 2405 2 MP stroke
c9
48 0 1471 2387 2 MP stroke
c8
49 0 1757 1614 2 MP stroke
c9
49 0 1951 1561 2 MP stroke
c8
48 0 2238 2280 2 MP stroke
c9
49 0 2432 2263 2 MP stroke
c8
49 0 2718 1401 2 MP stroke
c9
48 0 2913 1392 2 MP stroke
c8
48 0 3199 2227 2 MP stroke
c9
49 0 3393 2192 2 MP stroke
c8
49 0 3679 3000 2 MP stroke
c9
48 0 3874 3009 2 MP stroke
c8
49 0 4160 2529 2 MP stroke
c9
49 0 4354 2538 2 MP stroke
c8
48 0 4641 2831 2 MP stroke
c9
48 0 4835 2831 2 MP stroke
c8
49 0 5121 681 2 MP stroke
c9
49 0 5315 761 2 MP stroke
c8
48 0 5602 1925 2 MP stroke
c9
49 0 5796 1925 2 MP stroke
gs 1708 1070 147 147 rc
c8
1745 1143 mt 1817 1143 L
1781 1107 mt 1781 1179 L
gr

c8
gs 2383 1959 147 147 rc
2420 2032 mt 2492 2032 L
2456 1996 mt 2456 2068 L
gr

gs 3150 1870 147 147 rc
3187 1943 mt 3259 1943 L
3223 1907 mt 3223 1979 L
gr

gs 3825 2847 147 147 rc
3862 2920 mt 3934 2920 L
3898 2884 mt 3898 2956 L
gr

gs 4786 2634 147 147 rc
4823 2707 mt 4895 2707 L
4859 2671 mt 4859 2743 L
gr

gr

c8
0 sg
 272 3332 mt 
(41) s
 753 3332 mt 
(52) s
1233 3332 mt 
(63) s
1714 3332 mt 
(a5) s
2194 3332 mt 
(b4) s
2679 3332 mt 
(c3) s
3156 3332 mt 
(d2) s
3636 3332 mt 
(e1) s
4064 3332 mt 
(nre1) s
4561 3332 mt 
(nrf2) s
5025 3332 mt 
(nrg3) s
5505 3332 mt 
(nrg4) s
 306 3494 mt 
(g) s
 501 3494 mt 
(p) s
 787 3494 mt 
(g) s
 981 3494 mt 
(p) s
1267 3494 mt 
(g) s
1462 3494 mt 
(p) s
1748 3494 mt 
(g) s
1942 3494 mt 
(p) s
2228 3494 mt 
(g) s
2423 3494 mt 
(p) s
2709 3494 mt 
(g) s
2903 3494 mt 
(p) s
3190 3494 mt 
(g) s
3384 3494 mt 
(p) s
3670 3494 mt 
(g) s
3865 3494 mt 
(p) s
4151 3494 mt 
(g) s
4345 3494 mt 
(p) s
4631 3494 mt 
(g) s
4826 3494 mt 
(p) s
5112 3494 mt 
(g) s
5306 3494 mt 
(p) s
5592 3494 mt 
(g) s
5787 3494 mt 
(p) s
gs 242 264 5677 2933 rc
gr

%%IncludeResource: font Helvetica-Bold
/Helvetica-Bold /WindowsLatin1Encoding 120 FMSR

2426  169 mt 
(Solution Quality at end) s
%%IncludeResource: font Helvetica
/Helvetica /WindowsLatin1Encoding 120 FMSR

 225 3239 mt 
( ) s
5902  306 mt 
( ) s
1 sg
0 334 1031 0 0 -334 302 3137 4 MP
PP
-1031 0 0 334 1031 0 0 -334 302 3137 5 MP stroke
4 w
DO
SO
6 w
0 sg
 302 2803 mt 1333 2803 L
 302 3137 mt 1333 3137 L
1333 3137 mt 1333 2803 L
 302 3137 mt  302 2803 L
 302 3137 mt 1333 3137 L
 302 3137 mt  302 2803 L
 302 2803 mt 1333 2803 L
 302 3137 mt 1333 3137 L
1333 3137 mt 1333 2803 L
 302 3137 mt  302 2803 L
 765 2938 mt 
(PGSEMO) s
gs 302 2803 1032 335 rc
c9
355 0 373 2895 2 MP stroke
gr

c9
0 sg
 765 3087 mt 
(GCAIS) s
gs 302 2803 1032 335 rc
c8
355 0 373 3044 2 MP stroke
gr

c8

end %%Color Dict

eplot
%%EndObject

epage
end

showpage

%%Trailer
%%EOF
