%!PS-Adobe-3.0 EPSF-3.0
%%Creator: MATLAB, The MathWorks, Inc. Version 8.2.0.701 (R2013b). Operating System: Microsoft Windows 8.
%%Title: D:\PPSNthesis\exportingfig\fgen.eps
%%CreationDate: 01/07/2016  08:32:34
%%DocumentNeededFonts: Helvetica
%%+ Helvetica-Bold
%%DocumentProcessColors: Cyan Magenta Yellow Black
%%LanguageLevel: 2
%%Pages: 1
%%BoundingBox:  -138   194   733   648
%%EndComments

%%BeginProlog
% MathWorks dictionary
/MathWorks 160 dict begin
% definition operators
/bdef {bind def} bind def
/ldef {load def} bind def
/xdef {exch def} bdef
/xstore {exch store} bdef
% operator abbreviations
/c  /clip ldef
/cc /concat ldef
/cp /closepath ldef
/gr /grestore ldef
/gs /gsave ldef
/mt /moveto ldef
/np /newpath ldef
/cm /currentmatrix ldef
/sm /setmatrix ldef
/rm /rmoveto ldef
/rl /rlineto ldef
/s {show newpath} bdef
/sc {setcmykcolor} bdef
/sr /setrgbcolor ldef
/sg /setgray ldef
/w /setlinewidth ldef
/j /setlinejoin ldef
/cap /setlinecap ldef
/rc {rectclip} bdef
/rf {rectfill} bdef
% page state control
/pgsv () def
/bpage {/pgsv save def} bdef
/epage {pgsv restore} bdef
/bplot /gsave ldef
/eplot {stroke grestore} bdef
% orientation switch
/portraitMode 0 def /landscapeMode 1 def /rotateMode 2 def
% coordinate system mappings
/dpi2point 0 def
% font control
/FontSize 0 def
/FMS {/FontSize xstore findfont [FontSize 0 0 FontSize neg 0 0]
  makefont setfont} bdef
/ISOLatin1Encoding where {pop /WindowsLatin1Encoding 256 array bdef
ISOLatin1Encoding WindowsLatin1Encoding copy pop
/.notdef/.notdef/quotesinglbase/florin/quotedblbase/ellipsis/dagger
/daggerdbl/circumflex/perthousand/Scaron/guilsinglleft/OE/.notdef/.notdef
/.notdef/.notdef/quoteleft/quoteright/quotedblleft/quotedblright/bullet
/endash/emdash/tilde/trademark/scaron/guilsinglright/oe/.notdef/.notdef
/Ydieresis WindowsLatin1Encoding 128 32 getinterval astore pop}
{/WindowsLatin1Encoding StandardEncoding bdef} ifelse
/reencode {exch dup where {pop load} {pop StandardEncoding} ifelse
  exch dup 3 1 roll findfont dup length dict begin
  { 1 index /FID ne {def}{pop pop} ifelse } forall
  /Encoding exch def currentdict end definefont pop} bdef
/isroman {findfont /CharStrings get /Agrave known} bdef
/FMSR {3 1 roll 1 index dup isroman {reencode} {pop pop} ifelse
  exch FMS} bdef
/csm {1 dpi2point div -1 dpi2point div scale neg translate
 dup landscapeMode eq {pop -90 rotate}
  {rotateMode eq {90 rotate} if} ifelse} bdef
% line types: solid, dotted, dashed, dotdash
/SO { [] 0 setdash } bdef
/DO { [.5 dpi2point mul 4 dpi2point mul] 0 setdash } bdef
/DA { [6 dpi2point mul] 0 setdash } bdef
/DD { [.5 dpi2point mul 4 dpi2point mul 6 dpi2point mul 4
  dpi2point mul] 0 setdash } bdef
% macros for lines and objects
/L {lineto stroke} bdef
/MP {3 1 roll moveto 1 sub {rlineto} repeat} bdef
/AP {{rlineto} repeat} bdef
/PDlw -1 def
/W {/PDlw currentlinewidth def setlinewidth} def
/PP {closepath eofill} bdef
/DP {closepath stroke} bdef
/MR {4 -2 roll moveto dup  0 exch rlineto exch 0 rlineto
  neg 0 exch rlineto closepath} bdef
/FR {MR stroke} bdef
/PR {MR fill} bdef
/L1i {{currentfile picstr readhexstring pop} image} bdef
/tMatrix matrix def
/MakeOval {newpath tMatrix currentmatrix pop translate scale
0 0 1 0 360 arc tMatrix setmatrix} bdef
/FO {MakeOval stroke} bdef
/PO {MakeOval fill} bdef
/PD {currentlinewidth 2 div 0 360 arc fill
   PDlw -1 eq not {PDlw w /PDlw -1 def} if} def
/FA {newpath tMatrix currentmatrix pop translate scale
  0 0 1 5 -2 roll arc tMatrix setmatrix stroke} bdef
/PA {newpath tMatrix currentmatrix pop	translate 0 0 moveto scale
  0 0 1 5 -2 roll arc closepath tMatrix setmatrix fill} bdef
/FAn {newpath tMatrix currentmatrix pop translate scale
  0 0 1 5 -2 roll arcn tMatrix setmatrix stroke} bdef
/PAn {newpath tMatrix currentmatrix pop translate 0 0 moveto scale
  0 0 1 5 -2 roll arcn closepath tMatrix setmatrix fill} bdef
/vradius 0 def /hradius 0 def /lry 0 def
/lrx 0 def /uly 0 def /ulx 0 def /rad 0 def
/MRR {/vradius xdef /hradius xdef /lry xdef /lrx xdef /uly xdef
  /ulx xdef newpath tMatrix currentmatrix pop ulx hradius add uly
  vradius add translate hradius vradius scale 0 0 1 180 270 arc 
  tMatrix setmatrix lrx hradius sub uly vradius add translate
  hradius vradius scale 0 0 1 270 360 arc tMatrix setmatrix
  lrx hradius sub lry vradius sub translate hradius vradius scale
  0 0 1 0 90 arc tMatrix setmatrix ulx hradius add lry vradius sub
  translate hradius vradius scale 0 0 1 90 180 arc tMatrix setmatrix
  closepath} bdef
/FRR {MRR stroke } bdef
/PRR {MRR fill } bdef
/MlrRR {/lry xdef /lrx xdef /uly xdef /ulx xdef /rad lry uly sub 2 div def
  newpath tMatrix currentmatrix pop ulx rad add uly rad add translate
  rad rad scale 0 0 1 90 270 arc tMatrix setmatrix lrx rad sub lry rad
  sub translate rad rad scale 0 0 1 270 90 arc tMatrix setmatrix
  closepath} bdef
/FlrRR {MlrRR stroke } bdef
/PlrRR {MlrRR fill } bdef
/MtbRR {/lry xdef /lrx xdef /uly xdef /ulx xdef /rad lrx ulx sub 2 div def
  newpath tMatrix currentmatrix pop ulx rad add uly rad add translate
  rad rad scale 0 0 1 180 360 arc tMatrix setmatrix lrx rad sub lry rad
  sub translate rad rad scale 0 0 1 0 180 arc tMatrix setmatrix
  closepath} bdef
/FtbRR {MtbRR stroke } bdef
/PtbRR {MtbRR fill } bdef
/stri 6 array def /dtri 6 array def
/smat 6 array def /dmat 6 array def
/tmat1 6 array def /tmat2 6 array def /dif 3 array def
/asub {/ind2 exch def /ind1 exch def dup dup
  ind1 get exch ind2 get sub exch } bdef
/tri_to_matrix {
  2 0 asub 3 1 asub 4 0 asub 5 1 asub
  dup 0 get exch 1 get 7 -1 roll astore } bdef
/compute_transform {
  dmat dtri tri_to_matrix tmat1 invertmatrix 
  smat stri tri_to_matrix tmat2 concatmatrix } bdef
/ds {stri astore pop} bdef
/dt {dtri astore pop} bdef
/db {2 copy /cols xdef /rows xdef mul dup 3 mul string
  currentfile 
  3 index 0 eq {/ASCIIHexDecode filter}
  {/ASCII85Decode filter 3 index 2 eq {/RunLengthDecode filter} if }
  ifelse exch readstring pop
  dup 0 3 index getinterval /rbmap xdef
  dup 2 index dup getinterval /gbmap xdef
  1 index dup 2 mul exch getinterval /bbmap xdef pop pop}bdef
/it {gs np dtri aload pop moveto lineto lineto cp c
  cols rows 8 compute_transform 
  rbmap gbmap bbmap true 3 colorimage gr}bdef
/il {newpath moveto lineto stroke}bdef
currentdict end def
%%EndProlog

%%BeginSetup
MathWorks begin

0 cap

end
%%EndSetup

%%Page: 1 1
%%BeginPageSetup
%%PageBoundingBox:  -138   194   733   648
MathWorks begin
bpage
%%EndPageSetup

%%BeginObject: obj1
bplot

/dpi2point 12 def
portraitMode -1656 7776 csm

    0     0 10457  5447 rc
85 dict begin %Colortable dictionary
/c0 { 0.000000 0.000000 0.000000 sr} bdef
/c1 { 1.000000 1.000000 1.000000 sr} bdef
/c2 { 0.900000 0.000000 0.000000 sr} bdef
/c3 { 0.000000 0.820000 0.000000 sr} bdef
/c4 { 0.000000 0.000000 0.800000 sr} bdef
/c5 { 0.910000 0.820000 0.320000 sr} bdef
/c6 { 1.000000 0.260000 0.820000 sr} bdef
/c7 { 0.000000 0.820000 0.820000 sr} bdef
c0
1 j
1 sg
   0    0 10458 5448 rf
6 w
0 3031 5234 0 0 -3031 269 3241 4 MP
PP
-5234 0 0 3031 5234 0 0 -3031 269 3241 5 MP stroke
4 w
DO
SO
6 w
0 sg
 269  210 mt 5503  210 L
 269 3241 mt 5503 3241 L
5503 3241 mt 5503  210 L
 269 3241 mt  269  210 L
 269 3241 mt 5503 3241 L
 269 3241 mt  269  210 L
 269 3032 mt  296 3032 L
5503 3032 mt 5476 3032 L
 269 3075 mt  296 3075 L
5503 3075 mt 5476 3075 L
 269 3123 mt  296 3123 L
5503 3123 mt 5476 3123 L
 269 3178 mt  296 3178 L
5503 3178 mt 5476 3178 L
 269 3241 mt  296 3241 L
5503 3241 mt 5476 3241 L
 269 3032 mt  322 3032 L
5503 3032 mt 5450 3032 L
%%IncludeResource: font Helvetica
/Helvetica /WindowsLatin1Encoding 120 FMSR

  58 3076 mt 
(10) s
%%IncludeResource: font Helvetica
/Helvetica /WindowsLatin1Encoding 80 FMSR

 191 3002 mt 
(1) s
 269 2750 mt  296 2750 L
5503 2750 mt 5476 2750 L
 269 2585 mt  296 2585 L
5503 2585 mt 5476 2585 L
 269 2467 mt  296 2467 L
5503 2467 mt 5476 2467 L
 269 2376 mt  296 2376 L
5503 2376 mt 5476 2376 L
 269 2302 mt  296 2302 L
5503 2302 mt 5476 2302 L
 269 2239 mt  296 2239 L
5503 2239 mt 5476 2239 L
 269 2185 mt  296 2185 L
5503 2185 mt 5476 2185 L
 269 2137 mt  296 2137 L
5503 2137 mt 5476 2137 L
 269 2094 mt  296 2094 L
5503 2094 mt 5476 2094 L
 269 2094 mt  322 2094 L
5503 2094 mt 5450 2094 L
%%IncludeResource: font Helvetica
/Helvetica /WindowsLatin1Encoding 120 FMSR

  58 2138 mt 
(10) s
%%IncludeResource: font Helvetica
/Helvetica /WindowsLatin1Encoding 80 FMSR

 191 2064 mt 
(2) s
 269 1812 mt  296 1812 L
5503 1812 mt 5476 1812 L
 269 1646 mt  296 1646 L
5503 1646 mt 5476 1646 L
 269 1529 mt  296 1529 L
5503 1529 mt 5476 1529 L
 269 1438 mt  296 1438 L
5503 1438 mt 5476 1438 L
 269 1364 mt  296 1364 L
5503 1364 mt 5476 1364 L
 269 1301 mt  296 1301 L
5503 1301 mt 5476 1301 L
 269 1247 mt  296 1247 L
5503 1247 mt 5476 1247 L
 269 1199 mt  296 1199 L
5503 1199 mt 5476 1199 L
 269 1156 mt  296 1156 L
5503 1156 mt 5476 1156 L
 269 1156 mt  322 1156 L
5503 1156 mt 5450 1156 L
%%IncludeResource: font Helvetica
/Helvetica /WindowsLatin1Encoding 120 FMSR

  58 1200 mt 
(10) s
%%IncludeResource: font Helvetica
/Helvetica /WindowsLatin1Encoding 80 FMSR

 191 1126 mt 
(3) s
 269  873 mt  296  873 L
5503  873 mt 5476  873 L
 269  708 mt  296  708 L
5503  708 mt 5476  708 L
 269  591 mt  296  591 L
5503  591 mt 5476  591 L
 269  500 mt  296  500 L
5503  500 mt 5476  500 L
 269  426 mt  296  426 L
5503  426 mt 5476  426 L
 269  363 mt  296  363 L
5503  363 mt 5476  363 L
 269  308 mt  296  308 L
5503  308 mt 5476  308 L
 269  260 mt  296  260 L
5503  260 mt 5476  260 L
 269  217 mt  296  217 L
5503  217 mt 5476  217 L
 269  217 mt  322  217 L
5503  217 mt 5450  217 L
%%IncludeResource: font Helvetica
/Helvetica /WindowsLatin1Encoding 120 FMSR

  58  261 mt 
(10) s
%%IncludeResource: font Helvetica
/Helvetica /WindowsLatin1Encoding 80 FMSR

 191  187 mt 
(4) s
 269  210 mt 5503  210 L
 269 3241 mt 5503 3241 L
5503 3241 mt 5503  210 L
 269 3241 mt  269  210 L
gs 269 210 5235 3032 rc
DA
/c8 { 1.000000 0.000000 0.000000 sr} bdef
c8
0 -89 359 1584 2 MP stroke
/c9 { 0.000000 0.000000 1.000000 sr} bdef
c9
0 -73 538 1202 2 MP stroke
c8
0 -58 802 1566 2 MP stroke
c9
0 -63 981 1220 2 MP stroke
c8
0 -110 1245 2020 2 MP stroke
c9
0 -45 1425 1656 2 MP stroke
c8
0 -135 1689 1598 2 MP stroke
c9
0 -47 1868 1178 2 MP stroke
c8
0 -95 2132 2010 2 MP stroke
c9
0 -68 2311 1598 2 MP stroke
c8
0 -135 2575 1597 2 MP stroke
c9
0 -44 2754 1141 2 MP stroke
c8
0 -88 3018 2006 2 MP stroke
c9
0 -49 3197 1595 2 MP stroke
c8
0 -198 3461 2676 2 MP stroke
c9
0 -120 3640 2598 2 MP stroke
c8
0 -127 3904 2302 2 MP stroke
c9
0 -75 4083 1943 2 MP stroke
c8
0 -146 4347 2613 2 MP stroke
c9
0 -54 4527 2330 2 MP stroke
c8
0 -35 4791 1577 2 MP stroke
c9
0 -49 4970 973 2 MP stroke
c8
0 -137 5234 1921 2 MP stroke
c9
0 -37 5413 1446 2 MP stroke
c8
0 -170 359 1843 2 MP stroke
c9
0 -79 538 1359 2 MP stroke
c8
0 -136 802 1875 2 MP stroke
c9
0 -36 981 1318 2 MP stroke
c8
0 -86 1245 2276 2 MP stroke
c9
0 -74 1425 1810 2 MP stroke
c8
0 -83 1689 1832 2 MP stroke
c9
0 -43 1868 1282 2 MP stroke
c8
0 -155 2132 2330 2 MP stroke
c9
0 -121 2311 1798 2 MP stroke
c8
0 -83 2575 1810 2 MP stroke
c9
0 -59 2754 1241 2 MP stroke
c8
0 -64 3018 2175 2 MP stroke
c9
0 -29 3197 1685 2 MP stroke
c8
0 -346 3461 3241 2 MP stroke
c9
0 -132 3640 2925 2 MP stroke
c8
0 -74 3904 2522 2 MP stroke
c9
0 -132 4083 2155 2 MP stroke
c8
0 -175 4347 2925 2 MP stroke
c9
0 -131 4527 2598 2 MP stroke
c8
0 -87 4791 1749 2 MP stroke
c9
0 -63 4970 1092 2 MP stroke
c8
0 -60 5234 2111 2 MP stroke
c9
0 -51 5413 1558 2 MP stroke
SO
c8
45 0 337 1495 2 MP stroke
c9
45 0 516 1129 2 MP stroke
c8
45 0 780 1508 2 MP stroke
c9
45 0 959 1157 2 MP stroke
c8
45 0 1223 1910 2 MP stroke
c9
45 0 1402 1611 2 MP stroke
c8
45 0 1666 1463 2 MP stroke
c9
45 0 1845 1131 2 MP stroke
c8
45 0 2109 1915 2 MP stroke
c9
45 0 2288 1530 2 MP stroke
c8
45 0 2552 1462 2 MP stroke
c9
44 0 2732 1097 2 MP stroke
c8
44 0 2996 1918 2 MP stroke
c9
45 0 3175 1546 2 MP stroke
c8
45 0 3439 2478 2 MP stroke
c9
45 0 3618 2478 2 MP stroke
c8
45 0 3882 2175 2 MP stroke
c9
45 0 4061 1868 2 MP stroke
c8
45 0 4325 2467 2 MP stroke
c9
45 0 4504 2276 2 MP stroke
c8
45 0 4768 1542 2 MP stroke
c9
45 0 4947 924 2 MP stroke
c8
45 0 5211 1784 2 MP stroke
c9
45 0 5390 1409 2 MP stroke
c8
45 0 337 1843 2 MP stroke
c9
45 0 516 1359 2 MP stroke
c8
45 0 780 1875 2 MP stroke
c9
45 0 959 1318 2 MP stroke
c8
45 0 1223 2276 2 MP stroke
c9
45 0 1402 1810 2 MP stroke
c8
45 0 1666 1832 2 MP stroke
c9
45 0 1845 1282 2 MP stroke
c8
45 0 2109 2330 2 MP stroke
c9
45 0 2288 1798 2 MP stroke
c8
45 0 2552 1810 2 MP stroke
c9
44 0 2732 1241 2 MP stroke
c8
44 0 2996 2175 2 MP stroke
c9
45 0 3175 1685 2 MP stroke
c8
45 0 3439 3241 2 MP stroke
c9
45 0 3618 2925 2 MP stroke
c8
45 0 3882 2522 2 MP stroke
c9
45 0 4061 2155 2 MP stroke
c8
45 0 4325 2925 2 MP stroke
c9
45 0 4504 2598 2 MP stroke
c8
45 0 4768 1749 2 MP stroke
c9
45 0 4947 1092 2 MP stroke
c8
45 0 5211 2111 2 MP stroke
c9
45 0 5390 1558 2 MP stroke
c8
23 -27 0 -12 -90 0 0 12 22 27 -22 26 0 24 90 0 
0 -24 -23 -26 337 1634 11 MP stroke
c9
22 -23 0 -22 -89 0 0 22 22 23 -22 21 0 12 89 0 
0 -12 -22 -21 516 1235 11 MP stroke
c8
23 -51 0 -51 -90 0 0 51 22 51 -22 45 0 26 90 0 
0 -26 -23 -45 780 1637 11 MP stroke
c9
22 -18 0 -23 -89 0 0 23 22 18 -22 17 0 4 89 0 
0 -4 -22 -17 959 1241 11 MP stroke
c8
22 -54 0 -19 -89 0 0 19 22 54 -22 48 0 49 89 0 
0 -49 -22 -48 1223 2117 11 MP stroke
c9
22 -22 0 -38 -89 0 0 38 22 22 -22 21 0 -1 89 0 
0 1 -22 -21 1402 1676 11 MP stroke
c8
22 -49 -89 0 22 49 -22 44 0 58 89 0 0 -58 -22 -44 
1666 1700 9 MP stroke
c9
22 -18 0 -7 -90 0 0 7 23 18 -23 17 0 19 90 0 
0 -19 -22 -17 1845 1214 11 MP stroke
c8
22 -51 0 -32 -89 0 0 32 22 51 -22 45 0 37 89 0 
0 -37 -22 -45 2109 2092 11 MP stroke
c9
22 -23 0 -27 -90 0 0 27 23 23 -23 22 0 7 90 0 
0 -7 -22 -22 2288 1627 11 MP stroke
c8
22 -40 0 -25 -90 0 0 25 23 40 -23 36 0 29 90 0 
0 -29 -22 -36 2552 1662 11 MP stroke
c9
23 -12 0 -6 -90 0 0 6 23 12 -23 12 0 11 90 0 
0 -11 -23 -12 2732 1164 11 MP stroke
c8
23 -33 0 -2 -90 0 0 2 23 33 -23 30 0 40 90 0 
0 -40 -23 -30 2996 2076 11 MP stroke
c9
23 -18 0 -16 -90 0 0 16 22 18 -22 17 0 10 90 0 
0 -10 -23 -17 3175 1622 11 MP stroke
c8
23 -68 0 -45 -90 0 0 45 22 68 -22 59 0 47 90 0 
0 -47 -23 -59 3439 2782 11 MP stroke
c9
22 -57 0 -60 -89 0 0 60 22 57 -22 51 0 27 89 0 
0 -27 -22 -51 3618 2676 11 MP stroke
c8
23 -46 0 -9 -90 0 0 9 22 46 -22 41 0 50 90 0 
0 -50 -23 -41 3882 2393 11 MP stroke
c9
22 -24 0 -15 -89 0 0 15 22 24 -22 23 0 18 89 0 
0 -18 -22 -23 4061 1984 11 MP stroke
c8
22 -40 0 -34 -89 0 0 34 22 40 -22 38 0 25 89 0 
0 -25 -22 -38 4325 2676 11 MP stroke
c9
22 -42 0 -23 -89 0 0 23 22 42 -22 38 0 34 89 0 
0 -34 -22 -38 4504 2402 11 MP stroke
c8
22 -25 0 -17 -89 0 0 17 22 25 -22 24 0 19 89 0 
0 -19 -22 -24 4768 1620 11 MP stroke
c9
22 -16 0 -19 -90 0 0 19 23 16 -23 15 0 6 90 0 
0 -6 -22 -15 4947 994 11 MP stroke
c8
22 -41 0 -12 -89 0 0 12 22 41 -22 37 0 40 89 0 
0 -40 -22 -37 5211 1998 11 MP stroke
c9
22 -19 0 -10 -90 0 0 10 23 19 -23 17 0 15 90 0 
0 -15 -22 -17 5390 1478 11 MP stroke
c8
45 0 337 1634 2 MP stroke
c9
45 0 516 1235 2 MP stroke
c8
45 0 780 1637 2 MP stroke
c9
45 0 959 1241 2 MP stroke
c8
45 0 1223 2117 2 MP stroke
c9
45 0 1402 1676 2 MP stroke
c8
45 0 1666 1700 2 MP stroke
c9
45 0 1845 1214 2 MP stroke
c8
45 0 2109 2092 2 MP stroke
c9
45 0 2288 1627 2 MP stroke
c8
45 0 2552 1662 2 MP stroke
c9
44 0 2732 1164 2 MP stroke
c8
44 0 2996 2076 2 MP stroke
c9
45 0 3175 1622 2 MP stroke
c8
45 0 3439 2782 2 MP stroke
c9
45 0 3618 2676 2 MP stroke
c8
45 0 3882 2393 2 MP stroke
c9
45 0 4061 1984 2 MP stroke
c8
45 0 4325 2676 2 MP stroke
c9
45 0 4504 2402 2 MP stroke
c8
45 0 4768 1620 2 MP stroke
c9
45 0 4947 994 2 MP stroke
c8
45 0 5211 1998 2 MP stroke
c9
45 0 5390 1478 2 MP stroke
gs 286 1349 147 147 rc
c8
 323 1422 mt  395 1422 L
 359 1386 mt  359 1458 L
gr

c8
gs 1795 1002 147 147 rc
1832 1075 mt 1904 1075 L
1868 1039 mt 1868 1111 L
gr

gs 2059 1743 147 147 rc
2096 1816 mt 2168 1816 L
2132 1780 mt 2132 1852 L
gr

gs 2681 1000 147 147 rc
2718 1073 mt 2790 1073 L
2754 1037 mt 2754 1109 L
gr

gs 2945 1711 147 243 rc
2982 1880 mt 3054 1880 L
3018 1844 mt 3018 1916 L
2982 1784 mt 3054 1784 L
3018 1748 mt 3018 1820 L
gr

gs 3124 1426 147 147 rc
3161 1499 mt 3233 1499 L
3197 1463 mt 3197 1535 L
gr

gs 4718 1331 147 193 rc
4755 1450 mt 4827 1450 L
4791 1414 mt 4791 1486 L
4755 1441 mt 4827 1441 L
4791 1405 mt 4791 1477 L
4755 1404 mt 4827 1404 L
4791 1368 mt 4791 1440 L
gr

gr

c8
gs 5161 156 147 1049 rc
5198 1131 mt 5270 1131 L
5234 1095 mt 5234 1167 L
5198 1127 mt 5270 1127 L
5234 1091 mt 5234 1163 L
5198  247 mt 5270  247 L
5234  211 mt 5234  283 L
5198  229 mt 5270  229 L
5234  193 mt 5234  265 L
gr

gs 269 210 5235 3032 rc
gr

0 sg
%%IncludeResource: font Helvetica
/Helvetica /WindowsLatin1Encoding 120 FMSR

 292 3377 mt 
(41) s
 735 3377 mt 
(52) s
1178 3377 mt 
(63) s
1621 3377 mt 
(a5) s
2064 3377 mt 
(b4) s
2512 3377 mt 
(c3) s
2951 3377 mt 
(d2) s
3394 3377 mt 
(e1) s
3784 3377 mt 
(nre1) s
4244 3377 mt 
(nrf2) s
4671 3377 mt 
(nrg3) s
5114 3377 mt 
(nrg4) s
 326 3539 mt 
(g) s
 505 3539 mt 
(p) s
 769 3539 mt 
(g) s
 948 3539 mt 
(p) s
1212 3539 mt 
(g) s
1391 3539 mt 
(p) s
1655 3539 mt 
(g) s
1834 3539 mt 
(p) s
2098 3539 mt 
(g) s
2278 3539 mt 
(p) s
2542 3539 mt 
(g) s
2721 3539 mt 
(p) s
2985 3539 mt 
(g) s
3164 3539 mt 
(p) s
3428 3539 mt 
(g) s
3607 3539 mt 
(p) s
3871 3539 mt 
(g) s
4050 3539 mt 
(p) s
4314 3539 mt 
(g) s
4494 3539 mt 
(p) s
4758 3539 mt 
(g) s
4937 3539 mt 
(p) s
5201 3539 mt 
(g) s
5380 3539 mt 
(p) s
gs 269 210 5235 3032 rc
gr

%%IncludeResource: font Helvetica-Bold
/Helvetica-Bold /WindowsLatin1Encoding 120 FMSR

1866  115 mt 
(Iterations passed till feasible region) s
%%IncludeResource: font Helvetica
/Helvetica /WindowsLatin1Encoding 120 FMSR

 252 3284 mt 
( ) s
5487  252 mt 
( ) s
1 sg
0 334 1031 0 0 -334 329 3182 4 MP
PP
-1031 0 0 334 1031 0 0 -334 329 3182 5 MP stroke
4 w
DO
SO
6 w
0 sg
 329 2848 mt 1360 2848 L
 329 3182 mt 1360 3182 L
1360 3182 mt 1360 2848 L
 329 3182 mt  329 2848 L
 329 3182 mt 1360 3182 L
 329 3182 mt  329 2848 L
 329 2848 mt 1360 2848 L
 329 3182 mt 1360 3182 L
1360 3182 mt 1360 2848 L
 329 3182 mt  329 2848 L
 792 2983 mt 
(PGSEMO) s
gs 329 2848 1032 335 rc
c9
355 0 400 2940 2 MP stroke
gr

c9
0 sg
 792 3132 mt 
(GCAIS) s
gs 329 2848 1032 335 rc
c8
355 0 400 3089 2 MP stroke
gr

c8

end %%Color Dict

eplot
%%EndObject

epage
end

showpage

%%Trailer
%%EOF
