%!PS-Adobe-3.0 EPSF-3.0
%%Creator: MATLAB, The MathWorks, Inc. Version 8.2.0.701 (R2013b). Operating System: Microsoft Windows 8.
%%Title: D:\PPSNthesis\exportingfig\fpop.eps
%%CreationDate: 01/07/2016  08:24:26
%%DocumentNeededFonts: Helvetica
%%+ Helvetica-Bold
%%DocumentProcessColors: Cyan Magenta Yellow Black
%%LanguageLevel: 2
%%Pages: 1
%%BoundingBox:  -138   193   733   648
%%EndComments

%%BeginProlog
% MathWorks dictionary
/MathWorks 160 dict begin
% definition operators
/bdef {bind def} bind def
/ldef {load def} bind def
/xdef {exch def} bdef
/xstore {exch store} bdef
% operator abbreviations
/c  /clip ldef
/cc /concat ldef
/cp /closepath ldef
/gr /grestore ldef
/gs /gsave ldef
/mt /moveto ldef
/np /newpath ldef
/cm /currentmatrix ldef
/sm /setmatrix ldef
/rm /rmoveto ldef
/rl /rlineto ldef
/s {show newpath} bdef
/sc {setcmykcolor} bdef
/sr /setrgbcolor ldef
/sg /setgray ldef
/w /setlinewidth ldef
/j /setlinejoin ldef
/cap /setlinecap ldef
/rc {rectclip} bdef
/rf {rectfill} bdef
% page state control
/pgsv () def
/bpage {/pgsv save def} bdef
/epage {pgsv restore} bdef
/bplot /gsave ldef
/eplot {stroke grestore} bdef
% orientation switch
/portraitMode 0 def /landscapeMode 1 def /rotateMode 2 def
% coordinate system mappings
/dpi2point 0 def
% font control
/FontSize 0 def
/FMS {/FontSize xstore findfont [FontSize 0 0 FontSize neg 0 0]
  makefont setfont} bdef
/ISOLatin1Encoding where {pop /WindowsLatin1Encoding 256 array bdef
ISOLatin1Encoding WindowsLatin1Encoding copy pop
/.notdef/.notdef/quotesinglbase/florin/quotedblbase/ellipsis/dagger
/daggerdbl/circumflex/perthousand/Scaron/guilsinglleft/OE/.notdef/.notdef
/.notdef/.notdef/quoteleft/quoteright/quotedblleft/quotedblright/bullet
/endash/emdash/tilde/trademark/scaron/guilsinglright/oe/.notdef/.notdef
/Ydieresis WindowsLatin1Encoding 128 32 getinterval astore pop}
{/WindowsLatin1Encoding StandardEncoding bdef} ifelse
/reencode {exch dup where {pop load} {pop StandardEncoding} ifelse
  exch dup 3 1 roll findfont dup length dict begin
  { 1 index /FID ne {def}{pop pop} ifelse } forall
  /Encoding exch def currentdict end definefont pop} bdef
/isroman {findfont /CharStrings get /Agrave known} bdef
/FMSR {3 1 roll 1 index dup isroman {reencode} {pop pop} ifelse
  exch FMS} bdef
/csm {1 dpi2point div -1 dpi2point div scale neg translate
 dup landscapeMode eq {pop -90 rotate}
  {rotateMode eq {90 rotate} if} ifelse} bdef
% line types: solid, dotted, dashed, dotdash
/SO { [] 0 setdash } bdef
/DO { [.5 dpi2point mul 4 dpi2point mul] 0 setdash } bdef
/DA { [6 dpi2point mul] 0 setdash } bdef
/DD { [.5 dpi2point mul 4 dpi2point mul 6 dpi2point mul 4
  dpi2point mul] 0 setdash } bdef
% macros for lines and objects
/L {lineto stroke} bdef
/MP {3 1 roll moveto 1 sub {rlineto} repeat} bdef
/AP {{rlineto} repeat} bdef
/PDlw -1 def
/W {/PDlw currentlinewidth def setlinewidth} def
/PP {closepath eofill} bdef
/DP {closepath stroke} bdef
/MR {4 -2 roll moveto dup  0 exch rlineto exch 0 rlineto
  neg 0 exch rlineto closepath} bdef
/FR {MR stroke} bdef
/PR {MR fill} bdef
/L1i {{currentfile picstr readhexstring pop} image} bdef
/tMatrix matrix def
/MakeOval {newpath tMatrix currentmatrix pop translate scale
0 0 1 0 360 arc tMatrix setmatrix} bdef
/FO {MakeOval stroke} bdef
/PO {MakeOval fill} bdef
/PD {currentlinewidth 2 div 0 360 arc fill
   PDlw -1 eq not {PDlw w /PDlw -1 def} if} def
/FA {newpath tMatrix currentmatrix pop translate scale
  0 0 1 5 -2 roll arc tMatrix setmatrix stroke} bdef
/PA {newpath tMatrix currentmatrix pop	translate 0 0 moveto scale
  0 0 1 5 -2 roll arc closepath tMatrix setmatrix fill} bdef
/FAn {newpath tMatrix currentmatrix pop translate scale
  0 0 1 5 -2 roll arcn tMatrix setmatrix stroke} bdef
/PAn {newpath tMatrix currentmatrix pop translate 0 0 moveto scale
  0 0 1 5 -2 roll arcn closepath tMatrix setmatrix fill} bdef
/vradius 0 def /hradius 0 def /lry 0 def
/lrx 0 def /uly 0 def /ulx 0 def /rad 0 def
/MRR {/vradius xdef /hradius xdef /lry xdef /lrx xdef /uly xdef
  /ulx xdef newpath tMatrix currentmatrix pop ulx hradius add uly
  vradius add translate hradius vradius scale 0 0 1 180 270 arc 
  tMatrix setmatrix lrx hradius sub uly vradius add translate
  hradius vradius scale 0 0 1 270 360 arc tMatrix setmatrix
  lrx hradius sub lry vradius sub translate hradius vradius scale
  0 0 1 0 90 arc tMatrix setmatrix ulx hradius add lry vradius sub
  translate hradius vradius scale 0 0 1 90 180 arc tMatrix setmatrix
  closepath} bdef
/FRR {MRR stroke } bdef
/PRR {MRR fill } bdef
/MlrRR {/lry xdef /lrx xdef /uly xdef /ulx xdef /rad lry uly sub 2 div def
  newpath tMatrix currentmatrix pop ulx rad add uly rad add translate
  rad rad scale 0 0 1 90 270 arc tMatrix setmatrix lrx rad sub lry rad
  sub translate rad rad scale 0 0 1 270 90 arc tMatrix setmatrix
  closepath} bdef
/FlrRR {MlrRR stroke } bdef
/PlrRR {MlrRR fill } bdef
/MtbRR {/lry xdef /lrx xdef /uly xdef /ulx xdef /rad lrx ulx sub 2 div def
  newpath tMatrix currentmatrix pop ulx rad add uly rad add translate
  rad rad scale 0 0 1 180 360 arc tMatrix setmatrix lrx rad sub lry rad
  sub translate rad rad scale 0 0 1 0 180 arc tMatrix setmatrix
  closepath} bdef
/FtbRR {MtbRR stroke } bdef
/PtbRR {MtbRR fill } bdef
/stri 6 array def /dtri 6 array def
/smat 6 array def /dmat 6 array def
/tmat1 6 array def /tmat2 6 array def /dif 3 array def
/asub {/ind2 exch def /ind1 exch def dup dup
  ind1 get exch ind2 get sub exch } bdef
/tri_to_matrix {
  2 0 asub 3 1 asub 4 0 asub 5 1 asub
  dup 0 get exch 1 get 7 -1 roll astore } bdef
/compute_transform {
  dmat dtri tri_to_matrix tmat1 invertmatrix 
  smat stri tri_to_matrix tmat2 concatmatrix } bdef
/ds {stri astore pop} bdef
/dt {dtri astore pop} bdef
/db {2 copy /cols xdef /rows xdef mul dup 3 mul string
  currentfile 
  3 index 0 eq {/ASCIIHexDecode filter}
  {/ASCII85Decode filter 3 index 2 eq {/RunLengthDecode filter} if }
  ifelse exch readstring pop
  dup 0 3 index getinterval /rbmap xdef
  dup 2 index dup getinterval /gbmap xdef
  1 index dup 2 mul exch getinterval /bbmap xdef pop pop}bdef
/it {gs np dtri aload pop moveto lineto lineto cp c
  cols rows 8 compute_transform 
  rbmap gbmap bbmap true 3 colorimage gr}bdef
/il {newpath moveto lineto stroke}bdef
currentdict end def
%%EndProlog

%%BeginSetup
MathWorks begin

0 cap

end
%%EndSetup

%%Page: 1 1
%%BeginPageSetup
%%PageBoundingBox:  -138   193   733   648
MathWorks begin
bpage
%%EndPageSetup

%%BeginObject: obj1
bplot

/dpi2point 12 def
portraitMode -1656 7776 csm

    0     0 10457  5456 rc
85 dict begin %Colortable dictionary
/c0 { 0.000000 0.000000 0.000000 sr} bdef
/c1 { 1.000000 1.000000 1.000000 sr} bdef
/c2 { 0.900000 0.000000 0.000000 sr} bdef
/c3 { 0.000000 0.820000 0.000000 sr} bdef
/c4 { 0.000000 0.000000 0.800000 sr} bdef
/c5 { 0.910000 0.820000 0.320000 sr} bdef
/c6 { 1.000000 0.260000 0.820000 sr} bdef
/c7 { 0.000000 0.820000 0.820000 sr} bdef
c0
1 j
1 sg
   0    0 10458 5457 rf
6 w
0 3075 5405 0 0 -3075 242 3312 4 MP
PP
-5405 0 0 3075 5405 0 0 -3075 242 3312 5 MP stroke
4 w
DO
SO
6 w
0 sg
 242  237 mt 5647  237 L
 242 3312 mt 5647 3312 L
5647 3312 mt 5647  237 L
 242 3312 mt  242  237 L
 242 3312 mt 5647 3312 L
 242 3312 mt  242  237 L
 242 2872 mt  297 2872 L
5647 2872 mt 5592 2872 L
%%IncludeResource: font Helvetica
/Helvetica /WindowsLatin1Encoding 120 FMSR

  75 2916 mt 
(20) s
 242 2410 mt  297 2410 L
5647 2410 mt 5592 2410 L
  75 2454 mt 
(40) s
 242 1948 mt  297 1948 L
5647 1948 mt 5592 1948 L
  75 1992 mt 
(60) s
 242 1486 mt  297 1486 L
5647 1486 mt 5592 1486 L
  75 1530 mt 
(80) s
 242 1024 mt  297 1024 L
5647 1024 mt 5592 1024 L
   8 1068 mt 
(100) s
 242  562 mt  297  562 L
5647  562 mt 5592  562 L
   8  606 mt 
(120) s
 242  237 mt 5647  237 L
 242 3312 mt 5647 3312 L
5647 3312 mt 5647  237 L
 242 3312 mt  242  237 L
gs 242 237 5406 3077 rc
DA
/c8 { 1.000000 0.000000 0.000000 sr} bdef
c8
0 -69 335 1879 2 MP stroke
/c9 { 0.000000 0.000000 1.000000 sr} bdef
c9
0 -46 520 1902 2 MP stroke
c8
0 -93 793 1833 2 MP stroke
c9
0 -23 978 1948 2 MP stroke
c8
0 -46 1250 2410 2 MP stroke
c9
0 -23 1435 2480 2 MP stroke
c8
0 -70 1708 1602 2 MP stroke
c9
0 -92 1893 1694 2 MP stroke
c8
0 -69 2166 2295 2 MP stroke
c9
0 -69 2351 2341 2 MP stroke
c8
0 -23 2623 1371 2 MP stroke
c9
0 -92 2808 1463 2 MP stroke
c8
0 -92 3081 2179 2 MP stroke
c9
0 -24 3266 2226 2 MP stroke
c8
0 -23 3538 3080 2 MP stroke
c9
0 -23 3723 3103 2 MP stroke
c8
0 -46 3996 2526 2 MP stroke
c9
0 -69 4181 2572 2 MP stroke
c8
0 -23 4454 2849 2 MP stroke
c9
0 -23 4639 2895 2 MP stroke
c8
0 -162 4911 539 2 MP stroke
c9
0 -92 5096 608 2 MP stroke
c8
0 -47 5369 1787 2 MP stroke
c9
0 -46 5554 1856 2 MP stroke
c8
0 -93 335 2041 2 MP stroke
c9
0 -70 520 2041 2 MP stroke
c8
0 -47 793 2018 2 MP stroke
c9
0 -69 978 2087 2 MP stroke
c8
0 -69 1250 2526 2 MP stroke
c9
0 -23 1435 2526 2 MP stroke
c8
0 -139 1708 1833 2 MP stroke
c9
0 -70 1893 1833 2 MP stroke
c8
0 -69 2166 2410 2 MP stroke
c9
0 -70 2351 2457 2 MP stroke
c8
0 -93 2623 1556 2 MP stroke
c9
0 -69 2808 1625 2 MP stroke
c8
0 -69 3081 2318 2 MP stroke
c9
0 -69 3266 2341 2 MP stroke
c8
0 -24 3538 3127 2 MP stroke
c9
0 -23 3723 3150 2 MP stroke
c8
0 -46 3996 2641 2 MP stroke
c9
0 -46 4181 2664 2 MP stroke
c8
0 -24 4454 2919 2 MP stroke
c9
0 -23 4639 2942 2 MP stroke
c8
0 -138 4911 793 2 MP stroke
c9
0 -92 5096 839 2 MP stroke
c8
0 -69 5369 1948 2 MP stroke
c9
0 -69 5554 1971 2 MP stroke
SO
c8
46 0 312 1810 2 MP stroke
c9
46 0 497 1856 2 MP stroke
c8
46 0 770 1740 2 MP stroke
c9
46 0 955 1925 2 MP stroke
c8
46 0 1227 2364 2 MP stroke
c9
46 0 1412 2457 2 MP stroke
c8
46 0 1685 1532 2 MP stroke
c9
46 0 1870 1602 2 MP stroke
c8
47 0 2142 2226 2 MP stroke
c9
47 0 2327 2272 2 MP stroke
c8
46 0 2600 1348 2 MP stroke
c9
46 0 2785 1371 2 MP stroke
c8
46 0 3058 2087 2 MP stroke
c9
46 0 3243 2202 2 MP stroke
c8
47 0 3515 3057 2 MP stroke
c9
47 0 3700 3080 2 MP stroke
c8
46 0 3973 2480 2 MP stroke
c9
46 0 4158 2503 2 MP stroke
c8
46 0 4431 2826 2 MP stroke
c9
46 0 4616 2872 2 MP stroke
c8
46 0 4888 377 2 MP stroke
c9
46 0 5073 516 2 MP stroke
c8
46 0 5346 1740 2 MP stroke
c9
46 0 5531 1810 2 MP stroke
c8
46 0 312 2041 2 MP stroke
c9
46 0 497 2041 2 MP stroke
c8
46 0 770 2018 2 MP stroke
c9
46 0 955 2087 2 MP stroke
c8
46 0 1227 2526 2 MP stroke
c9
46 0 1412 2526 2 MP stroke
c8
46 0 1685 1833 2 MP stroke
c9
46 0 1870 1833 2 MP stroke
c8
47 0 2142 2410 2 MP stroke
c9
47 0 2327 2457 2 MP stroke
c8
46 0 2600 1556 2 MP stroke
c9
46 0 2785 1625 2 MP stroke
c8
46 0 3058 2318 2 MP stroke
c9
46 0 3243 2341 2 MP stroke
c8
47 0 3515 3127 2 MP stroke
c9
47 0 3700 3150 2 MP stroke
c8
46 0 3973 2641 2 MP stroke
c9
46 0 4158 2664 2 MP stroke
c8
46 0 4431 2919 2 MP stroke
c9
46 0 4616 2942 2 MP stroke
c8
46 0 4888 793 2 MP stroke
c9
46 0 5073 839 2 MP stroke
c8
46 0 5346 1948 2 MP stroke
c9
46 0 5531 1971 2 MP stroke
c8
23 -20 0 -3 -92 0 0 3 23 20 -23 20 0 26 92 0 
0 -26 -23 -20 312 1925 11 MP stroke
c9
23 -20 0 -3 -92 0 0 3 23 20 -23 20 0 26 92 0 
0 -26 -23 -20 497 1948 11 MP stroke
c8
24 -40 0 -6 -93 0 0 6 23 40 -23 40 0 52 93 0 
0 -52 -24 -40 770 1925 11 MP stroke
c9
24 -20 0 -15 -93 0 0 15 23 20 -23 20 0 15 93 0 
0 -15 -24 -20 955 1983 11 MP stroke
c8
23 -13 0 1 -93 0 0 -1 24 13 -24 13 0 22 93 0 
0 -22 -23 -13 1227 2445 11 MP stroke
c9
23 -6 0 6 -93 0 0 -6 24 6 -24 7 0 16 93 0 
0 -16 -23 -7 1412 2503 11 MP stroke
c8
23 -27 0 4 -92 0 0 -4 23 27 -23 26 0 43 92 0 
0 -43 -23 -26 1685 1671 11 MP stroke
c9
23 -20 0 -14 -92 0 0 14 23 20 -23 20 0 15 92 0 
0 -15 -23 -20 1870 1729 11 MP stroke
c8
23 -13 0 -10 -93 0 0 10 23 13 -23 13 0 10 93 0 
0 -10 -23 -13 2142 2318 11 MP stroke
c9
23 -13 0 -10 -93 0 0 10 23 13 -23 13 0 10 93 0 
0 -10 -23 -13 2327 2364 11 MP stroke
c8
23 -26 0 3 -92 0 0 -3 23 26 -23 26 0 43 92 0 
0 -43 -23 -26 2600 1440 11 MP stroke
c9
23 -27 0 -20 -92 0 0 20 23 27 -23 26 0 20 92 0 
0 -20 -23 -26 2785 1509 11 MP stroke
c8
23 -20 0 -27 -92 0 0 27 23 20 -23 19 0 4 92 0 
0 -4 -23 -19 3058 2202 11 MP stroke
c9
23 -13 0 -10 -92 0 0 10 23 13 -23 14 0 9 92 0 
0 -9 -23 -14 3243 2249 11 MP stroke
c8
23 -7 0 -16 -93 0 0 16 23 7 -23 6 0 -6 93 0 
0 6 -23 -6 3515 3080 11 MP stroke
c9
23 -7 0 -17 -93 0 0 17 23 7 -23 6 0 -6 93 0 
0 6 -23 -6 3700 3103 11 MP stroke
c8
23 -20 0 -3 -92 0 0 3 23 20 -23 20 0 26 92 0 
0 -26 -23 -20 3973 2572 11 MP stroke
c9
23 -13 0 -10 -92 0 0 10 23 13 -23 13 0 10 92 0 
0 -10 -23 -13 4158 2595 11 MP stroke
c8
24 -14 0 -9 -93 0 0 9 23 14 -23 13 0 10 93 0 
0 -10 -24 -13 4431 2872 11 MP stroke
c9
24 -7 0 -17 -93 0 0 17 23 7 -23 6 0 -6 93 0 
0 6 -24 -6 4616 2895 11 MP stroke
c8
23 -33 0 -14 -93 0 0 14 24 33 -24 33 0 36 93 0 
0 -36 -23 -33 4888 608 11 MP stroke
c9
23 -39 0 -30 -93 0 0 30 24 39 -24 40 0 30 93 0 
0 -30 -23 -40 5073 678 11 MP stroke
c8
23 -26 0 -20 -92 0 0 20 23 26 -23 27 0 19 92 0 
0 -19 -23 -27 5346 1833 11 MP stroke
c9
23 -13 0 2 -92 0 0 -2 23 13 -23 14 0 21 92 0 
0 -21 -23 -14 5531 1891 11 MP stroke
c8
46 0 312 1925 2 MP stroke
c9
46 0 497 1948 2 MP stroke
c8
46 0 770 1925 2 MP stroke
c9
46 0 955 1983 2 MP stroke
c8
46 0 1227 2445 2 MP stroke
c9
46 0 1412 2503 2 MP stroke
c8
46 0 1685 1671 2 MP stroke
c9
46 0 1870 1729 2 MP stroke
c8
47 0 2142 2318 2 MP stroke
c9
47 0 2327 2364 2 MP stroke
c8
46 0 2600 1440 2 MP stroke
c9
46 0 2785 1509 2 MP stroke
c8
46 0 3058 2202 2 MP stroke
c9
46 0 3243 2249 2 MP stroke
c8
47 0 3515 3080 2 MP stroke
c9
47 0 3700 3103 2 MP stroke
c8
46 0 3973 2572 2 MP stroke
c9
46 0 4158 2595 2 MP stroke
c8
46 0 4431 2872 2 MP stroke
c9
46 0 4616 2895 2 MP stroke
c8
46 0 4888 608 2 MP stroke
c9
46 0 5073 678 2 MP stroke
c8
46 0 5346 1833 2 MP stroke
c9
46 0 5531 1891 2 MP stroke
gs 262 1690 147 147 rc
c8
 299 1763 mt  371 1763 L
 335 1727 mt  335 1799 L
gr

c8
gs 1362 2360 147 286 rc
1399 2572 mt 1471 2572 L
1435 2536 mt 1435 2608 L
1399 2549 mt 1471 2549 L
1435 2513 mt 1435 2585 L
1399 2433 mt 1471 2433 L
1435 2397 mt 1435 2469 L
gr

gs 1820 1806 147 147 rc
1857 1879 mt 1929 1879 L
1893 1843 mt 1893 1915 L
gr

gs 2093 2384 147 147 rc
2130 2457 mt 2202 2457 L
2166 2421 mt 2166 2493 L
gr

gs 2278 2153 147 147 rc
2315 2226 mt 2387 2226 L
2351 2190 mt 2351 2262 L
gr

gs 3193 2060 147 401 rc
3230 2387 mt 3302 2387 L
3266 2351 mt 3266 2423 L
3230 2133 mt 3302 2133 L
3266 2097 mt 3266 2169 L
gr

gs 3465 2938 147 286 rc
3502 3150 mt 3574 3150 L
3538 3114 mt 3538 3186 L
3502 3034 mt 3574 3034 L
3538 2998 mt 3538 3070 L
3502 3011 mt 3574 3011 L
3538 2975 mt 3538 3047 L
gr

gs 3650 2961 147 286 rc
3687 3173 mt 3759 3173 L
3723 3137 mt 3723 3209 L
3687 3057 mt 3759 3057 L
3723 3021 mt 3723 3093 L
3687 3034 mt 3759 3034 L
3723 2998 mt 3723 3070 L
gr

gs 4566 2776 147 147 rc
4603 2849 mt 4675 2849 L
4639 2813 mt 4639 2885 L
gr

gs 4838 813 147 147 rc
4875  886 mt 4947  886 L
4911  850 mt 4911  922 L
gr

gr

c8
0 sg
 268 3449 mt 
(41) s
 725 3449 mt 
(52) s
1183 3449 mt 
(63) s
1641 3449 mt 
(a5) s
2098 3449 mt 
(b4) s
2560 3449 mt 
(c3) s
3014 3449 mt 
(d2) s
3471 3449 mt 
(e1) s
3876 3449 mt 
(nre1) s
4351 3449 mt 
(nrf2) s
4791 3449 mt 
(nrg3) s
5249 3449 mt 
(nrg4) s
 302 3611 mt 
(g) s
 487 3611 mt 
(p) s
 759 3611 mt 
(g) s
 944 3611 mt 
(p) s
1217 3611 mt 
(g) s
1402 3611 mt 
(p) s
1675 3611 mt 
(g) s
1860 3611 mt 
(p) s
2132 3611 mt 
(g) s
2317 3611 mt 
(p) s
2590 3611 mt 
(g) s
2775 3611 mt 
(p) s
3048 3611 mt 
(g) s
3233 3611 mt 
(p) s
3505 3611 mt 
(g) s
3690 3611 mt 
(p) s
3963 3611 mt 
(g) s
4148 3611 mt 
(p) s
4421 3611 mt 
(g) s
4606 3611 mt 
(p) s
4878 3611 mt 
(g) s
5064 3611 mt 
(p) s
5336 3611 mt 
(g) s
5521 3611 mt 
(p) s
gs 242 237 5406 3077 rc
gr

%%IncludeResource: font Helvetica-Bold
/Helvetica-Bold /WindowsLatin1Encoding 120 FMSR

2127  142 mt 
(Population at feasible region) s
%%IncludeResource: font Helvetica
/Helvetica /WindowsLatin1Encoding 120 FMSR

 225 3356 mt 
( ) s
5631  279 mt 
( ) s
1 sg
0 334 1031 0 0 -334 302 3254 4 MP
PP
-1031 0 0 334 1031 0 0 -334 302 3254 5 MP stroke
4 w
DO
SO
6 w
0 sg
 302 2920 mt 1333 2920 L
 302 3254 mt 1333 3254 L
1333 3254 mt 1333 2920 L
 302 3254 mt  302 2920 L
 302 3254 mt 1333 3254 L
 302 3254 mt  302 2920 L
 302 2920 mt 1333 2920 L
 302 3254 mt 1333 3254 L
1333 3254 mt 1333 2920 L
 302 3254 mt  302 2920 L
 765 3055 mt 
(PGSEMO) s
gs 302 2920 1032 335 rc
c9
355 0 373 3012 2 MP stroke
gr

c9
0 sg
 765 3204 mt 
(GCAIS) s
gs 302 2920 1032 335 rc
c8
355 0 373 3161 2 MP stroke
gr

c8

end %%Color Dict

eplot
%%EndObject

epage
end

showpage

%%Trailer
%%EOF
