%!PS-Adobe-3.0 EPSF-3.0
%%Creator: MATLAB, The MathWorks, Inc. Version 8.2.0.701 (R2013b). Operating System: Microsoft Windows 8.
%%Title: D:\PPSNthesis\exportingfig\fsol.eps
%%CreationDate: 01/07/2016  08:31:20
%%DocumentNeededFonts: Helvetica
%%+ Helvetica-Bold
%%DocumentProcessColors: Cyan Magenta Yellow Black
%%LanguageLevel: 2
%%Pages: 1
%%BoundingBox:  -138   193   733   648
%%EndComments

%%BeginProlog
% MathWorks dictionary
/MathWorks 160 dict begin
% definition operators
/bdef {bind def} bind def
/ldef {load def} bind def
/xdef {exch def} bdef
/xstore {exch store} bdef
% operator abbreviations
/c  /clip ldef
/cc /concat ldef
/cp /closepath ldef
/gr /grestore ldef
/gs /gsave ldef
/mt /moveto ldef
/np /newpath ldef
/cm /currentmatrix ldef
/sm /setmatrix ldef
/rm /rmoveto ldef
/rl /rlineto ldef
/s {show newpath} bdef
/sc {setcmykcolor} bdef
/sr /setrgbcolor ldef
/sg /setgray ldef
/w /setlinewidth ldef
/j /setlinejoin ldef
/cap /setlinecap ldef
/rc {rectclip} bdef
/rf {rectfill} bdef
% page state control
/pgsv () def
/bpage {/pgsv save def} bdef
/epage {pgsv restore} bdef
/bplot /gsave ldef
/eplot {stroke grestore} bdef
% orientation switch
/portraitMode 0 def /landscapeMode 1 def /rotateMode 2 def
% coordinate system mappings
/dpi2point 0 def
% font control
/FontSize 0 def
/FMS {/FontSize xstore findfont [FontSize 0 0 FontSize neg 0 0]
  makefont setfont} bdef
/ISOLatin1Encoding where {pop /WindowsLatin1Encoding 256 array bdef
ISOLatin1Encoding WindowsLatin1Encoding copy pop
/.notdef/.notdef/quotesinglbase/florin/quotedblbase/ellipsis/dagger
/daggerdbl/circumflex/perthousand/Scaron/guilsinglleft/OE/.notdef/.notdef
/.notdef/.notdef/quoteleft/quoteright/quotedblleft/quotedblright/bullet
/endash/emdash/tilde/trademark/scaron/guilsinglright/oe/.notdef/.notdef
/Ydieresis WindowsLatin1Encoding 128 32 getinterval astore pop}
{/WindowsLatin1Encoding StandardEncoding bdef} ifelse
/reencode {exch dup where {pop load} {pop StandardEncoding} ifelse
  exch dup 3 1 roll findfont dup length dict begin
  { 1 index /FID ne {def}{pop pop} ifelse } forall
  /Encoding exch def currentdict end definefont pop} bdef
/isroman {findfont /CharStrings get /Agrave known} bdef
/FMSR {3 1 roll 1 index dup isroman {reencode} {pop pop} ifelse
  exch FMS} bdef
/csm {1 dpi2point div -1 dpi2point div scale neg translate
 dup landscapeMode eq {pop -90 rotate}
  {rotateMode eq {90 rotate} if} ifelse} bdef
% line types: solid, dotted, dashed, dotdash
/SO { [] 0 setdash } bdef
/DO { [.5 dpi2point mul 4 dpi2point mul] 0 setdash } bdef
/DA { [6 dpi2point mul] 0 setdash } bdef
/DD { [.5 dpi2point mul 4 dpi2point mul 6 dpi2point mul 4
  dpi2point mul] 0 setdash } bdef
% macros for lines and objects
/L {lineto stroke} bdef
/MP {3 1 roll moveto 1 sub {rlineto} repeat} bdef
/AP {{rlineto} repeat} bdef
/PDlw -1 def
/W {/PDlw currentlinewidth def setlinewidth} def
/PP {closepath eofill} bdef
/DP {closepath stroke} bdef
/MR {4 -2 roll moveto dup  0 exch rlineto exch 0 rlineto
  neg 0 exch rlineto closepath} bdef
/FR {MR stroke} bdef
/PR {MR fill} bdef
/L1i {{currentfile picstr readhexstring pop} image} bdef
/tMatrix matrix def
/MakeOval {newpath tMatrix currentmatrix pop translate scale
0 0 1 0 360 arc tMatrix setmatrix} bdef
/FO {MakeOval stroke} bdef
/PO {MakeOval fill} bdef
/PD {currentlinewidth 2 div 0 360 arc fill
   PDlw -1 eq not {PDlw w /PDlw -1 def} if} def
/FA {newpath tMatrix currentmatrix pop translate scale
  0 0 1 5 -2 roll arc tMatrix setmatrix stroke} bdef
/PA {newpath tMatrix currentmatrix pop	translate 0 0 moveto scale
  0 0 1 5 -2 roll arc closepath tMatrix setmatrix fill} bdef
/FAn {newpath tMatrix currentmatrix pop translate scale
  0 0 1 5 -2 roll arcn tMatrix setmatrix stroke} bdef
/PAn {newpath tMatrix currentmatrix pop translate 0 0 moveto scale
  0 0 1 5 -2 roll arcn closepath tMatrix setmatrix fill} bdef
/vradius 0 def /hradius 0 def /lry 0 def
/lrx 0 def /uly 0 def /ulx 0 def /rad 0 def
/MRR {/vradius xdef /hradius xdef /lry xdef /lrx xdef /uly xdef
  /ulx xdef newpath tMatrix currentmatrix pop ulx hradius add uly
  vradius add translate hradius vradius scale 0 0 1 180 270 arc 
  tMatrix setmatrix lrx hradius sub uly vradius add translate
  hradius vradius scale 0 0 1 270 360 arc tMatrix setmatrix
  lrx hradius sub lry vradius sub translate hradius vradius scale
  0 0 1 0 90 arc tMatrix setmatrix ulx hradius add lry vradius sub
  translate hradius vradius scale 0 0 1 90 180 arc tMatrix setmatrix
  closepath} bdef
/FRR {MRR stroke } bdef
/PRR {MRR fill } bdef
/MlrRR {/lry xdef /lrx xdef /uly xdef /ulx xdef /rad lry uly sub 2 div def
  newpath tMatrix currentmatrix pop ulx rad add uly rad add translate
  rad rad scale 0 0 1 90 270 arc tMatrix setmatrix lrx rad sub lry rad
  sub translate rad rad scale 0 0 1 270 90 arc tMatrix setmatrix
  closepath} bdef
/FlrRR {MlrRR stroke } bdef
/PlrRR {MlrRR fill } bdef
/MtbRR {/lry xdef /lrx xdef /uly xdef /ulx xdef /rad lrx ulx sub 2 div def
  newpath tMatrix currentmatrix pop ulx rad add uly rad add translate
  rad rad scale 0 0 1 180 360 arc tMatrix setmatrix lrx rad sub lry rad
  sub translate rad rad scale 0 0 1 0 180 arc tMatrix setmatrix
  closepath} bdef
/FtbRR {MtbRR stroke } bdef
/PtbRR {MtbRR fill } bdef
/stri 6 array def /dtri 6 array def
/smat 6 array def /dmat 6 array def
/tmat1 6 array def /tmat2 6 array def /dif 3 array def
/asub {/ind2 exch def /ind1 exch def dup dup
  ind1 get exch ind2 get sub exch } bdef
/tri_to_matrix {
  2 0 asub 3 1 asub 4 0 asub 5 1 asub
  dup 0 get exch 1 get 7 -1 roll astore } bdef
/compute_transform {
  dmat dtri tri_to_matrix tmat1 invertmatrix 
  smat stri tri_to_matrix tmat2 concatmatrix } bdef
/ds {stri astore pop} bdef
/dt {dtri astore pop} bdef
/db {2 copy /cols xdef /rows xdef mul dup 3 mul string
  currentfile 
  3 index 0 eq {/ASCIIHexDecode filter}
  {/ASCII85Decode filter 3 index 2 eq {/RunLengthDecode filter} if }
  ifelse exch readstring pop
  dup 0 3 index getinterval /rbmap xdef
  dup 2 index dup getinterval /gbmap xdef
  1 index dup 2 mul exch getinterval /bbmap xdef pop pop}bdef
/it {gs np dtri aload pop moveto lineto lineto cp c
  cols rows 8 compute_transform 
  rbmap gbmap bbmap true 3 colorimage gr}bdef
/il {newpath moveto lineto stroke}bdef
currentdict end def
%%EndProlog

%%BeginSetup
MathWorks begin

0 cap

end
%%EndSetup

%%Page: 1 1
%%BeginPageSetup
%%PageBoundingBox:  -138   193   733   648
MathWorks begin
bpage
%%EndPageSetup

%%BeginObject: obj1
bplot

/dpi2point 12 def
portraitMode -1656 7776 csm

    0     0 10457  5456 rc
85 dict begin %Colortable dictionary
/c0 { 0.000000 0.000000 0.000000 sr} bdef
/c1 { 1.000000 1.000000 1.000000 sr} bdef
/c2 { 0.900000 0.000000 0.000000 sr} bdef
/c3 { 0.000000 0.820000 0.000000 sr} bdef
/c4 { 0.000000 0.000000 0.800000 sr} bdef
/c5 { 0.910000 0.820000 0.320000 sr} bdef
/c6 { 1.000000 0.260000 0.820000 sr} bdef
/c7 { 0.000000 0.820000 0.820000 sr} bdef
c0
1 j
1 sg
   0    0 10458 5457 rf
6 w
0 3310 5775 0 0 -3310 287 3538 4 MP
PP
-5775 0 0 3310 5775 0 0 -3310 287 3538 5 MP stroke
4 w
DO
SO
6 w
0 sg
 287  228 mt 6062  228 L
 287 3538 mt 6062 3538 L
6062 3538 mt 6062  228 L
 287 3538 mt  287  228 L
 287 3538 mt 6062 3538 L
 287 3538 mt  287  228 L
 287 3146 mt  345 3146 L
6062 3146 mt 6004 3146 L
%%IncludeResource: font Helvetica
/Helvetica /WindowsLatin1Encoding 120 FMSR

 120 3190 mt 
(20) s
 287 2745 mt  345 2745 L
6062 2745 mt 6004 2745 L
 120 2789 mt 
(40) s
 287 2344 mt  345 2344 L
6062 2344 mt 6004 2344 L
 120 2388 mt 
(60) s
 287 1943 mt  345 1943 L
6062 1943 mt 6004 1943 L
 120 1987 mt 
(80) s
 287 1542 mt  345 1542 L
6062 1542 mt 6004 1542 L
  53 1586 mt 
(100) s
 287 1141 mt  345 1141 L
6062 1141 mt 6004 1141 L
  53 1185 mt 
(120) s
 287  740 mt  345  740 L
6062  740 mt 6004  740 L
  53  784 mt 
(140) s
 287  339 mt  345  339 L
6062  339 mt 6004  339 L
  53  383 mt 
(160) s
 287  228 mt 6062  228 L
 287 3538 mt 6062 3538 L
6062 3538 mt 6062  228 L
 287 3538 mt  287  228 L
gs 287 229 5776 3310 rc
DA
/c8 { 1.000000 0.000000 0.000000 sr} bdef
c8
0 -341 386 1923 2 MP stroke
/c9 { 0.000000 0.000000 1.000000 sr} bdef
c9
0 -100 584 1923 2 MP stroke
c8
0 -381 875 1963 2 MP stroke
c9
0 -120 1073 1883 2 MP stroke
c8
0 -80 1364 2605 2 MP stroke
c9
0 -101 1562 2525 2 MP stroke
c8
0 -361 1853 1622 2 MP stroke
c9
0 -200 2051 1602 2 MP stroke
c8
0 -180 2342 2384 2 MP stroke
c9
0 -81 2540 2465 2 MP stroke
c8
0 -161 2831 1402 2 MP stroke
c9
0 -201 3029 1422 2 MP stroke
c8
0 -100 3320 2344 2 MP stroke
c9
0 -160 3518 2304 2 MP stroke
c8
0 -60 3809 3287 2 MP stroke
c9
0 -40 4007 3307 2 MP stroke
c8
0 -140 4298 2745 2 MP stroke
c9
0 -140 4496 2745 2 MP stroke
c8
0 -80 4787 3086 2 MP stroke
c9
0 -40 4985 3086 2 MP stroke
c8
0 -200 5276 579 2 MP stroke
c9
0 -181 5474 660 2 MP stroke
c8
0 -140 5765 1983 2 MP stroke
c9
0 -120 5963 2043 2 MP stroke
c8
0 -160 386 2324 2 MP stroke
c9
0 -180 584 2264 2 MP stroke
c8
0 -60 875 2284 2 MP stroke
c9
0 -261 1073 2324 2 MP stroke
c8
0 -121 1364 2806 2 MP stroke
c9
0 -40 1562 2725 2 MP stroke
c8
0 -281 1853 2144 2 MP stroke
c9
0 -220 2051 2043 2 MP stroke
c8
0 -120 2342 2685 2 MP stroke
c9
0 -120 2540 2725 2 MP stroke
c8
0 -221 2831 1903 2 MP stroke
c9
0 -100 3029 1682 2 MP stroke
c8
0 -120 3320 2605 2 MP stroke
c9
0 -140 3518 2625 2 MP stroke
c8
0 -60 3809 3387 2 MP stroke
c9
0 -20 4007 3367 2 MP stroke
c8
0 -80 4298 2926 2 MP stroke
c9
0 -60 4496 2906 2 MP stroke
c8
0 -20 4787 3166 2 MP stroke
c9
0 -41 4985 3187 2 MP stroke
c8
0 -281 5276 1161 2 MP stroke
c9
0 -101 5474 1021 2 MP stroke
c8
0 -160 5765 2344 2 MP stroke
c9
0 -60 5963 2224 2 MP stroke
SO
c8
49 0 362 1582 2 MP stroke
c9
50 0 559 1823 2 MP stroke
c8
49 0 851 1582 2 MP stroke
c9
50 0 1048 1763 2 MP stroke
c8
49 0 1340 2525 2 MP stroke
c9
50 0 1537 2424 2 MP stroke
c8
49 0 1829 1261 2 MP stroke
c9
50 0 2026 1402 2 MP stroke
c8
50 0 2317 2204 2 MP stroke
c9
50 0 2515 2384 2 MP stroke
c8
50 0 2806 1241 2 MP stroke
c9
50 0 3004 1221 2 MP stroke
c8
50 0 3295 2244 2 MP stroke
c9
50 0 3493 2144 2 MP stroke
c8
50 0 3784 3227 2 MP stroke
c9
50 0 3982 3267 2 MP stroke
c8
50 0 4273 2605 2 MP stroke
c9
49 0 4471 2605 2 MP stroke
c8
50 0 4762 3006 2 MP stroke
c9
49 0 4960 3046 2 MP stroke
c8
50 0 5251 379 2 MP stroke
c9
49 0 5449 479 2 MP stroke
c8
50 0 5740 1843 2 MP stroke
c9
49 0 5938 1923 2 MP stroke
c8
49 0 362 2324 2 MP stroke
c9
50 0 559 2264 2 MP stroke
c8
49 0 851 2284 2 MP stroke
c9
50 0 1048 2324 2 MP stroke
c8
49 0 1340 2806 2 MP stroke
c9
50 0 1537 2725 2 MP stroke
c8
49 0 1829 2144 2 MP stroke
c9
50 0 2026 2043 2 MP stroke
c8
50 0 2317 2685 2 MP stroke
c9
50 0 2515 2725 2 MP stroke
c8
50 0 2806 1903 2 MP stroke
c9
50 0 3004 1682 2 MP stroke
c8
50 0 3295 2605 2 MP stroke
c9
50 0 3493 2625 2 MP stroke
c8
50 0 3784 3387 2 MP stroke
c9
50 0 3982 3367 2 MP stroke
c8
50 0 4273 2926 2 MP stroke
c9
49 0 4471 2906 2 MP stroke
c8
50 0 4762 3166 2 MP stroke
c9
49 0 4960 3187 2 MP stroke
c8
50 0 5251 1161 2 MP stroke
c9
49 0 5449 1021 2 MP stroke
c8
50 0 5740 2344 2 MP stroke
c9
49 0 5938 2224 2 MP stroke
c8
25 -68 0 -22 -99 0 0 22 25 68 -25 69 0 82 99 0 
0 -82 -25 -69 362 2074 11 MP stroke
c9
24 -46 0 -65 -99 0 0 65 25 46 -25 46 0 4 99 0 
0 -4 -24 -46 559 1973 11 MP stroke
c8
25 -74 0 -46 -99 0 0 46 25 74 -25 75 0 66 99 0 
0 -66 -25 -75 851 2104 11 MP stroke
c9
24 -52 0 22 -99 0 0 -22 25 52 -25 51 0 99 99 0 
0 -99 -24 -51 1048 2033 11 MP stroke
c8
25 -23 0 -17 -99 0 0 17 25 23 -25 23 0 17 99 0 
0 -17 -25 -23 1340 2645 11 MP stroke
c9
24 -46 0 -14 -98 0 0 14 24 46 -24 46 0 54 98 0 
0 -54 -24 -46 1537 2625 11 MP stroke
c8
25 -69 0 -41 -99 0 0 41 25 69 -25 69 0 62 99 0 
0 -62 -25 -69 1829 1753 11 MP stroke
c9
24 -64 0 -67 -98 0 0 67 24 64 -24 63 0 27 98 0 
0 -27 -24 -63 2026 1692 11 MP stroke
c8
24 -51 0 -9 -99 0 0 9 25 51 -25 52 0 69 99 0 
0 -69 -24 -52 2317 2505 11 MP stroke
c9
24 -40 0 -80 -98 0 0 80 24 40 -24 41 0 -21 98 0 
0 21 -24 -41 2515 2485 11 MP stroke
c8
24 -80 0 -90 -99 0 0 90 25 80 -25 80 0 30 99 0 
0 -30 -24 -80 2806 1512 11 MP stroke
c9
25 -46 0 -34 -99 0 0 34 24 46 -24 46 0 34 99 0 
0 -34 -25 -46 3004 1502 11 MP stroke
c8
24 -40 -99 0 25 40 -25 41 0 60 99 0 0 -60 -24 -41 
3295 2445 9 MP stroke
c9
25 -52 0 -29 -99 0 0 29 24 52 -24 51 0 49 99 0 
0 -49 -25 -51 3493 2404 11 MP stroke
c8
24 -11 0 1 -98 0 0 -1 24 11 -24 12 0 18 98 0 
0 -18 -24 -12 3784 3317 11 MP stroke
c9
25 -11 0 -9 -99 0 0 9 24 11 -24 12 0 8 99 0 
0 -8 -25 -12 3982 3327 11 MP stroke
c8
24 -29 0 -32 -98 0 0 32 24 29 -24 28 0 12 98 0 
0 -12 -24 -28 4273 2785 11 MP stroke
c9
25 -29 0 -22 -99 0 0 22 25 29 -25 28 0 22 99 0 
0 -22 -25 -28 4471 2795 11 MP stroke
c8
24 -18 0 -2 -98 0 0 2 24 18 -24 17 0 23 98 0 
0 -23 -24 -17 4762 3126 11 MP stroke
c9
25 -18 0 -2 -99 0 0 2 25 18 -25 17 0 23 99 0 
0 -23 -25 -17 4960 3126 11 MP stroke
c8
25 -86 0 -94 -99 0 0 94 24 86 -24 86 0 35 99 0 
0 -35 -25 -86 5251 700 11 MP stroke
c9
25 -75 0 -55 -99 0 0 55 25 75 -25 75 0 55 99 0 
0 -55 -25 -75 5449 790 11 MP stroke
c8
25 -57 0 -23 -99 0 0 23 24 57 -24 58 0 63 99 0 
0 -63 -25 -58 5740 2104 11 MP stroke
c9
25 -34 0 -26 -99 0 0 26 25 34 -25 35 0 26 99 0 
0 -26 -25 -35 5938 2104 11 MP stroke
c8
49 0 362 2074 2 MP stroke
c9
50 0 559 1973 2 MP stroke
c8
49 0 851 2104 2 MP stroke
c9
50 0 1048 2033 2 MP stroke
c8
49 0 1340 2645 2 MP stroke
c9
50 0 1537 2625 2 MP stroke
c8
49 0 1829 1753 2 MP stroke
c9
50 0 2026 1692 2 MP stroke
c8
50 0 2317 2505 2 MP stroke
c9
50 0 2515 2485 2 MP stroke
c8
50 0 2806 1512 2 MP stroke
c9
50 0 3004 1502 2 MP stroke
c8
50 0 3295 2445 2 MP stroke
c9
50 0 3493 2404 2 MP stroke
c8
50 0 3784 3317 2 MP stroke
c9
50 0 3982 3327 2 MP stroke
c8
50 0 4273 2785 2 MP stroke
c9
49 0 4471 2795 2 MP stroke
c8
50 0 4762 3126 2 MP stroke
c9
49 0 4960 3126 2 MP stroke
c8
50 0 5251 700 2 MP stroke
c9
49 0 5449 790 2 MP stroke
c8
50 0 5740 2104 2 MP stroke
c9
49 0 5938 2104 2 MP stroke
gs 1780 1148 147 147 rc
c8
1817 1221 mt 1889 1221 L
1853 1185 mt 1853 1257 L
gr

c8
gs 2467 2151 147 147 rc
2504 2224 mt 2576 2224 L
2540 2188 mt 2540 2260 L
gr

gs 3247 2051 147 147 rc
3284 2124 mt 3356 2124 L
3320 2088 mt 3320 2160 L
gr

gs 3934 3154 147 147 rc
3971 3227 mt 4043 3227 L
4007 3191 mt 4007 3263 L
gr

gs 4912 2913 147 147 rc
4949 2986 mt 5021 2986 L
4985 2950 mt 4985 3022 L
gr

gr

c8
0 sg
 319 3674 mt 
(41) s
 808 3674 mt 
(52) s
1297 3674 mt 
(63) s
1786 3674 mt 
(a5) s
2275 3674 mt 
(b4) s
2768 3674 mt 
(c3) s
3253 3674 mt 
(d2) s
3742 3674 mt 
(e1) s
4178 3674 mt 
(nre1) s
4684 3674 mt 
(nrf2) s
5155 3674 mt 
(nrg3) s
5644 3674 mt 
(nrg4) s
 353 3836 mt 
(g) s
 551 3836 mt 
(p) s
 842 3836 mt 
(g) s
1040 3836 mt 
(p) s
1331 3836 mt 
(g) s
1529 3836 mt 
(p) s
1820 3836 mt 
(g) s
2018 3836 mt 
(p) s
2309 3836 mt 
(g) s
2506 3836 mt 
(p) s
2798 3836 mt 
(g) s
2995 3836 mt 
(p) s
3287 3836 mt 
(g) s
3484 3836 mt 
(p) s
3776 3836 mt 
(g) s
3973 3836 mt 
(p) s
4265 3836 mt 
(g) s
4462 3836 mt 
(p) s
4754 3836 mt 
(g) s
4951 3836 mt 
(p) s
5242 3836 mt 
(g) s
5440 3836 mt 
(p) s
5731 3836 mt 
(g) s
5929 3836 mt 
(p) s
gs 287 229 5776 3310 rc
gr

%%IncludeResource: font Helvetica-Bold
/Helvetica-Bold /WindowsLatin1Encoding 120 FMSR

2205  134 mt 
(Solution Quality at feasible region) s
%%IncludeResource: font Helvetica
/Helvetica /WindowsLatin1Encoding 120 FMSR

 270 3581 mt 
( ) s
6046  271 mt 
( ) s
1 sg
0 334 1031 0 0 -334 347 3479 4 MP
PP
-1031 0 0 334 1031 0 0 -334 347 3479 5 MP stroke
4 w
DO
SO
6 w
0 sg
 347 3145 mt 1378 3145 L
 347 3479 mt 1378 3479 L
1378 3479 mt 1378 3145 L
 347 3479 mt  347 3145 L
 347 3479 mt 1378 3479 L
 347 3479 mt  347 3145 L
 347 3145 mt 1378 3145 L
 347 3479 mt 1378 3479 L
1378 3479 mt 1378 3145 L
 347 3479 mt  347 3145 L
 810 3280 mt 
(PGSEMO) s
gs 347 3145 1032 335 rc
c9
355 0 418 3237 2 MP stroke
gr

c9
0 sg
 810 3429 mt 
(GCAIS) s
gs 347 3145 1032 335 rc
c8
355 0 418 3386 2 MP stroke
gr

c8

end %%Color Dict

eplot
%%EndObject

epage
end

showpage

%%Trailer
%%EOF
