%!PS-Adobe-3.0 EPSF-3.0
%%Creator: MATLAB, The MathWorks, Inc. Version 8.2.0.701 (R2013b). Operating System: Microsoft Windows 8.
%%Title: .\rem4.eps
%%CreationDate: 05/17/2016  17:34:08
%%DocumentNeededFonts: Helvetica
%%DocumentProcessColors: Cyan Magenta Yellow Black
%%LanguageLevel: 2
%%Pages: 1
%%BoundingBox:  -337    59   908   786
%%EndComments

%%BeginProlog
% MathWorks dictionary
/MathWorks 160 dict begin
% definition operators
/bdef {bind def} bind def
/ldef {load def} bind def
/xdef {exch def} bdef
/xstore {exch store} bdef
% operator abbreviations
/c  /clip ldef
/cc /concat ldef
/cp /closepath ldef
/gr /grestore ldef
/gs /gsave ldef
/mt /moveto ldef
/np /newpath ldef
/cm /currentmatrix ldef
/sm /setmatrix ldef
/rm /rmoveto ldef
/rl /rlineto ldef
/s {show newpath} bdef
/sc {setcmykcolor} bdef
/sr /setrgbcolor ldef
/sg /setgray ldef
/w /setlinewidth ldef
/j /setlinejoin ldef
/cap /setlinecap ldef
/rc {rectclip} bdef
/rf {rectfill} bdef
% page state control
/pgsv () def
/bpage {/pgsv save def} bdef
/epage {pgsv restore} bdef
/bplot /gsave ldef
/eplot {stroke grestore} bdef
% orientation switch
/portraitMode 0 def /landscapeMode 1 def /rotateMode 2 def
% coordinate system mappings
/dpi2point 0 def
% font control
/FontSize 0 def
/FMS {/FontSize xstore findfont [FontSize 0 0 FontSize neg 0 0]
  makefont setfont} bdef
/ISOLatin1Encoding where {pop /WindowsLatin1Encoding 256 array bdef
ISOLatin1Encoding WindowsLatin1Encoding copy pop
/.notdef/.notdef/quotesinglbase/florin/quotedblbase/ellipsis/dagger
/daggerdbl/circumflex/perthousand/Scaron/guilsinglleft/OE/.notdef/.notdef
/.notdef/.notdef/quoteleft/quoteright/quotedblleft/quotedblright/bullet
/endash/emdash/tilde/trademark/scaron/guilsinglright/oe/.notdef/.notdef
/Ydieresis WindowsLatin1Encoding 128 32 getinterval astore pop}
{/WindowsLatin1Encoding StandardEncoding bdef} ifelse
/reencode {exch dup where {pop load} {pop StandardEncoding} ifelse
  exch dup 3 1 roll findfont dup length dict begin
  { 1 index /FID ne {def}{pop pop} ifelse } forall
  /Encoding exch def currentdict end definefont pop} bdef
/isroman {findfont /CharStrings get /Agrave known} bdef
/FMSR {3 1 roll 1 index dup isroman {reencode} {pop pop} ifelse
  exch FMS} bdef
/csm {1 dpi2point div -1 dpi2point div scale neg translate
 dup landscapeMode eq {pop -90 rotate}
  {rotateMode eq {90 rotate} if} ifelse} bdef
% line types: solid, dotted, dashed, dotdash
/SO { [] 0 setdash } bdef
/DO { [.5 dpi2point mul 4 dpi2point mul] 0 setdash } bdef
/DA { [6 dpi2point mul] 0 setdash } bdef
/DD { [.5 dpi2point mul 4 dpi2point mul 6 dpi2point mul 4
  dpi2point mul] 0 setdash } bdef
% macros for lines and objects
/L {lineto stroke} bdef
/MP {3 1 roll moveto 1 sub {rlineto} repeat} bdef
/AP {{rlineto} repeat} bdef
/PDlw -1 def
/W {/PDlw currentlinewidth def setlinewidth} def
/PP {closepath eofill} bdef
/DP {closepath stroke} bdef
/MR {4 -2 roll moveto dup  0 exch rlineto exch 0 rlineto
  neg 0 exch rlineto closepath} bdef
/FR {MR stroke} bdef
/PR {MR fill} bdef
/L1i {{currentfile picstr readhexstring pop} image} bdef
/tMatrix matrix def
/MakeOval {newpath tMatrix currentmatrix pop translate scale
0 0 1 0 360 arc tMatrix setmatrix} bdef
/FO {MakeOval stroke} bdef
/PO {MakeOval fill} bdef
/PD {currentlinewidth 2 div 0 360 arc fill
   PDlw -1 eq not {PDlw w /PDlw -1 def} if} def
/FA {newpath tMatrix currentmatrix pop translate scale
  0 0 1 5 -2 roll arc tMatrix setmatrix stroke} bdef
/PA {newpath tMatrix currentmatrix pop	translate 0 0 moveto scale
  0 0 1 5 -2 roll arc closepath tMatrix setmatrix fill} bdef
/FAn {newpath tMatrix currentmatrix pop translate scale
  0 0 1 5 -2 roll arcn tMatrix setmatrix stroke} bdef
/PAn {newpath tMatrix currentmatrix pop translate 0 0 moveto scale
  0 0 1 5 -2 roll arcn closepath tMatrix setmatrix fill} bdef
/vradius 0 def /hradius 0 def /lry 0 def
/lrx 0 def /uly 0 def /ulx 0 def /rad 0 def
/MRR {/vradius xdef /hradius xdef /lry xdef /lrx xdef /uly xdef
  /ulx xdef newpath tMatrix currentmatrix pop ulx hradius add uly
  vradius add translate hradius vradius scale 0 0 1 180 270 arc 
  tMatrix setmatrix lrx hradius sub uly vradius add translate
  hradius vradius scale 0 0 1 270 360 arc tMatrix setmatrix
  lrx hradius sub lry vradius sub translate hradius vradius scale
  0 0 1 0 90 arc tMatrix setmatrix ulx hradius add lry vradius sub
  translate hradius vradius scale 0 0 1 90 180 arc tMatrix setmatrix
  closepath} bdef
/FRR {MRR stroke } bdef
/PRR {MRR fill } bdef
/MlrRR {/lry xdef /lrx xdef /uly xdef /ulx xdef /rad lry uly sub 2 div def
  newpath tMatrix currentmatrix pop ulx rad add uly rad add translate
  rad rad scale 0 0 1 90 270 arc tMatrix setmatrix lrx rad sub lry rad
  sub translate rad rad scale 0 0 1 270 90 arc tMatrix setmatrix
  closepath} bdef
/FlrRR {MlrRR stroke } bdef
/PlrRR {MlrRR fill } bdef
/MtbRR {/lry xdef /lrx xdef /uly xdef /ulx xdef /rad lrx ulx sub 2 div def
  newpath tMatrix currentmatrix pop ulx rad add uly rad add translate
  rad rad scale 0 0 1 180 360 arc tMatrix setmatrix lrx rad sub lry rad
  sub translate rad rad scale 0 0 1 0 180 arc tMatrix setmatrix
  closepath} bdef
/FtbRR {MtbRR stroke } bdef
/PtbRR {MtbRR fill } bdef
/stri 6 array def /dtri 6 array def
/smat 6 array def /dmat 6 array def
/tmat1 6 array def /tmat2 6 array def /dif 3 array def
/asub {/ind2 exch def /ind1 exch def dup dup
  ind1 get exch ind2 get sub exch } bdef
/tri_to_matrix {
  2 0 asub 3 1 asub 4 0 asub 5 1 asub
  dup 0 get exch 1 get 7 -1 roll astore } bdef
/compute_transform {
  dmat dtri tri_to_matrix tmat1 invertmatrix 
  smat stri tri_to_matrix tmat2 concatmatrix } bdef
/ds {stri astore pop} bdef
/dt {dtri astore pop} bdef
/db {2 copy /cols xdef /rows xdef mul dup 3 mul string
  currentfile 
  3 index 0 eq {/ASCIIHexDecode filter}
  {/ASCII85Decode filter 3 index 2 eq {/RunLengthDecode filter} if }
  ifelse exch readstring pop
  dup 0 3 index getinterval /rbmap xdef
  dup 2 index dup getinterval /gbmap xdef
  1 index dup 2 mul exch getinterval /bbmap xdef pop pop}bdef
/it {gs np dtri aload pop moveto lineto lineto cp c
  cols rows 8 compute_transform 
  rbmap gbmap bbmap true 3 colorimage gr}bdef
/il {newpath moveto lineto stroke}bdef
currentdict end def
%%EndProlog

%%BeginSetup
MathWorks begin

0 cap

end
%%EndSetup

%%Page: 1 1
%%BeginPageSetup
%%PageBoundingBox:  -337    59   908   786
MathWorks begin
bpage
%%EndPageSetup

%%BeginObject: obj1
bplot

/dpi2point 12 def
portraitMode -5064 9384 csm

 1013   -48 14954  8719 rc
94 dict begin %Colortable dictionary
/c0 { 0.000000 0.000000 0.000000 sr} bdef
/c1 { 1.000000 1.000000 1.000000 sr} bdef
/c2 { 0.900000 0.000000 0.000000 sr} bdef
/c3 { 0.000000 0.820000 0.000000 sr} bdef
/c4 { 0.000000 0.000000 0.800000 sr} bdef
/c5 { 0.910000 0.820000 0.320000 sr} bdef
/c6 { 1.000000 0.260000 0.820000 sr} bdef
/c7 { 0.000000 0.820000 0.820000 sr} bdef
c0
1 j
1 sg
   0    0 17295 8672 rf
6 w
0 6843 13403 0 0 -6843 2248 7673 4 MP
PP
-13403 0 0 6843 13403 0 0 -6843 2248 7673 5 MP stroke
4 w
DO
0 sg
2248 7673 mt 2248  830 L
2248  830 mt 2248  830 L
3923 7673 mt 3923  830 L
3923  830 mt 3923  830 L
5598 7673 mt 5598  830 L
5598  830 mt 5598  830 L
7274 7673 mt 7274  830 L
7274  830 mt 7274  830 L
8949 7673 mt 8949  830 L
8949  830 mt 8949  830 L
10624 7673 mt 10624  830 L
10624  830 mt 10624  830 L
12300 7673 mt 12300  830 L
12300  830 mt 12300  830 L
13975 7673 mt 13975  830 L
13975  830 mt 13975  830 L
15651 7673 mt 15651  830 L
15651  830 mt 15651  830 L
2248 7673 mt 15651 7673 L
15651 7673 mt 15651 7673 L
2248 5962 mt 15651 5962 L
15651 5962 mt 15651 5962 L
2248 4251 mt 15651 4251 L
15651 4251 mt 15651 4251 L
2248 2540 mt 15651 2540 L
15651 2540 mt 15651 2540 L
2248  830 mt 15651  830 L
15651  830 mt 15651  830 L
SO
6 w
2248  830 mt 15651  830 L
2248 7673 mt 15651 7673 L
15651 7673 mt 15651  830 L
2248 7673 mt 2248  830 L
2248 7673 mt 15651 7673 L
2248 7673 mt 2248  830 L
2248 7673 mt 2248 7538 L
2248  830 mt 2248  964 L
%%IncludeResource: font Helvetica
/Helvetica /WindowsLatin1Encoding 480 FMSR

1982 8153 mt 
(10) s
3923 7673 mt 3923 7538 L
3923  830 mt 3923  964 L
3657 8153 mt 
(20) s
5598 7673 mt 5598 7538 L
5598  830 mt 5598  964 L
5332 8153 mt 
(30) s
7274 7673 mt 7274 7538 L
7274  830 mt 7274  964 L
7008 8153 mt 
(40) s
8949 7673 mt 8949 7538 L
8949  830 mt 8949  964 L
8683 8153 mt 
(50) s
10624 7673 mt 10624 7538 L
10624  830 mt 10624  964 L
10358 8153 mt 
(60) s
12300 7673 mt 12300 7538 L
12300  830 mt 12300  964 L
12034 8153 mt 
(70) s
13975 7673 mt 13975 7538 L
13975  830 mt 13975  964 L
13709 8153 mt 
(80) s
15651 7673 mt 15651 7538 L
15651  830 mt 15651  964 L
15385 8153 mt 
(90) s
2248 7673 mt 2382 7673 L
15651 7673 mt 15516 7673 L
1013 7851 mt 
(1.204) s
2248 5962 mt 2382 5962 L
15651 5962 mt 15516 5962 L
1013 6140 mt 
(1.206) s
2248 4251 mt 2382 4251 L
15651 4251 mt 15516 4251 L
1013 4429 mt 
(1.208) s
2248 2540 mt 2382 2540 L
15651 2540 mt 15516 2540 L
1279 2718 mt 
(1.21) s
2248  830 mt 2382  830 L
15651  830 mt 15516  830 L
1013 1008 mt 
(1.212) s
2248  776 mt 
(x 10) s
%%IncludeResource: font Helvetica
/Helvetica /WindowsLatin1Encoding 320 FMSR

3155  479 mt 
(-12) s
2248  830 mt 15651  830 L
2248 7673 mt 15651 7673 L
15651 7673 mt 15651  830 L
2248 7673 mt 2248  830 L
gs 2248 830 13404 6844 rc
36 w
/c8 { 0.000000 0.000000 1.000000 sr} bdef
c8
1676 -846 1675 846 1676 0 1675 -846 1675 846 1676 -846 1675 846 1675 0 
2248 1017 9 MP stroke
gr

36 w
c8
gs 2030 799 13840 1283 rc
  90   90 2248 1017 FO
  90   90 3923 1017 FO
  90   90 5598 1863 FO
  90   90 7274 1017 FO
  90   90 8949 1863 FO
  90   90 10624 1017 FO
  90   90 12300 1017 FO
  90   90 13975 1863 FO
  90   90 15651 1017 FO
gr

gs 2248 830 13404 6844 rc
DO
/c9 { 1.000000 0.000000 0.000000 sr} bdef
c9
1676 0 1675 0 1676 0 1675 0 1675 0 1676 0 1675 0 1675 0 
2248 1017 9 MP stroke
gr

c9
DO
gs 2030 799 13840 437 rc
SO
0 j
104 179 -208 0 104 -179 2248 1136 4 MP
DP
104 179 -208 0 104 -179 3923 1136 4 MP
DP
104 179 -208 0 104 -179 5598 1136 4 MP
DP
104 179 -208 0 104 -179 7274 1136 4 MP
DP
104 179 -208 0 104 -179 8949 1136 4 MP
DP
104 179 -208 0 104 -179 10624 1136 4 MP
DP
104 179 -208 0 104 -179 12300 1136 4 MP
DP
104 179 -208 0 104 -179 13975 1136 4 MP
DP
104 179 -208 0 104 -179 15651 1136 4 MP
DP
DO
gr

gs 2248 830 13404 6844 rc
DD
/c10 { 0.000000 1.000000 0.000000 sr} bdef
c10
1676 846 1675 -846 1676 -1689 1675 845 1675 1690 1676 -846 1675 846 1675 -846 
2248 2709 9 MP stroke
gr

c10
DD
gs 2030 1645 13840 2972 rc
SO
2185 2646 mt 2311 2772 L
2311 2646 mt 2185 2772 L
3860 1800 mt 3986 1926 L
3986 1800 mt 3860 1926 L
5535 2646 mt 5661 2772 L
5661 2646 mt 5535 2772 L
7211 1800 mt 7337 1926 L
7337 1800 mt 7211 1926 L
8886 3490 mt 9012 3616 L
9012 3490 mt 8886 3616 L
10561 4335 mt 10687 4461 L
10687 4335 mt 10561 4461 L
12237 2646 mt 12363 2772 L
12363 2646 mt 12237 2772 L
13912 1800 mt 14038 1926 L
14038 1800 mt 13912 1926 L
15588 2646 mt 15714 2772 L
15714 2646 mt 15588 2772 L
DD
gr

gs 2248 830 13404 6844 rc
DA
/c11 { 0.000000 0.000000 0.172414 sr} bdef
c11
1676 846 1675 0 1676 0 1675 0 1675 -846 1676 846 1675 -846 1675 846 
2248 1017 9 MP stroke
gr

c11
DA
gs 2030 799 13840 1283 rc
SO
2158 1017 mt 2338 1017 L
2248  927 mt 2248 1107 L
3833 1863 mt 4013 1863 L
3923 1773 mt 3923 1953 L
5508 1017 mt 5688 1017 L
5598  927 mt 5598 1107 L
7184 1863 mt 7364 1863 L
7274 1773 mt 7274 1953 L
8859 1017 mt 9039 1017 L
8949  927 mt 8949 1107 L
10534 1017 mt 10714 1017 L
10624  927 mt 10624 1107 L
12210 1017 mt 12390 1017 L
12300  927 mt 12300 1107 L
13885 1017 mt 14065 1017 L
13975  927 mt 13975 1107 L
15561 1863 mt 15741 1863 L
15651 1773 mt 15651 1953 L
2185  954 mt 2311 1080 L
2311  954 mt 2185 1080 L
3860 1800 mt 3986 1926 L
3986 1800 mt 3860 1926 L
5535  954 mt 5661 1080 L
5661  954 mt 5535 1080 L
7211 1800 mt 7337 1926 L
7337 1800 mt 7211 1926 L
8886  954 mt 9012 1080 L
9012  954 mt 8886 1080 L
10561  954 mt 10687 1080 L
10687  954 mt 10561 1080 L
12237  954 mt 12363 1080 L
12363  954 mt 12237 1080 L
13912  954 mt 14038 1080 L
14038  954 mt 13912 1080 L
15588 1800 mt 15714 1926 L
15714 1800 mt 15588 1926 L
DA
gr

gs 2248 830 13404 6844 rc
SO
/c12 { 1.000000 0.103448 0.724138 sr} bdef
c12
1676 -1690 1675 -845 1676 -1686 1675 2531 1675 -845 1676 -843 1675 3378 1675 -2535 
2248 4398 9 MP stroke
gr

c12
SO
gs 2030 1645 13840 4658 rc
0 j
0 -142 -142 0 0 142 142 0 2177 4327 5 MP
DP
0 -142 -142 0 0 142 142 0 3852 1792 5 MP
DP
0 -142 -142 0 0 142 142 0 5527 5170 5 MP
DP
0 -142 -142 0 0 142 142 0 7203 4327 5 MP
DP
0 -142 -142 0 0 142 142 0 8878 3482 5 MP
DP
0 -142 -142 0 0 142 142 0 10553 6013 5 MP
DP
0 -142 -142 0 0 142 142 0 12229 4327 5 MP
DP
0 -142 -142 0 0 142 142 0 13904 3482 5 MP
DP
0 -142 -142 0 0 142 142 0 15580 1792 5 MP
DP
gr

gs 2248 830 13404 6844 rc
DO
/c13 { 0.000000 0.344828 0.000000 sr} bdef
c13
1676 0 1675 0 1676 0 1675 0 1675 -846 1676 846 1675 0 1675 0 
2248 1017 9 MP stroke
gr

c13
DO
gs 2030 799 13840 1283 rc
SO
0 j
90 119 -90 119 -90 -119 90 -119 2248 1136 5 MP
DP
90 119 -90 119 -90 -119 90 -119 3923 1136 5 MP
DP
90 119 -90 119 -90 -119 90 -119 5598 1136 5 MP
DP
90 119 -90 119 -90 -119 90 -119 7274 1982 5 MP
DP
90 119 -90 119 -90 -119 90 -119 8949 1136 5 MP
DP
90 119 -90 119 -90 -119 90 -119 10624 1136 5 MP
DP
90 119 -90 119 -90 -119 90 -119 12300 1136 5 MP
DP
90 119 -90 119 -90 -119 90 -119 13975 1136 5 MP
DP
90 119 -90 119 -90 -119 90 -119 15651 1136 5 MP
DP
DO
gr

gs 2248 830 13404 6844 rc
DD
1676 0 1675 0 1676 0 1675 0 1675 0 1676 0 1675 0 1675 0 
2248 1017 9 MP stroke
gr

DD
gs 2030 799 13840 437 rc
SO
60 W
2248 1017 PD
60 W
3923 1017 PD
60 W
5598 1017 PD
60 W
7274 1017 PD
60 W
8949 1017 PD
60 W
10624 1017 PD
60 W
12300 1017 PD
60 W
13975 1017 PD
60 W
15651 1017 PD
DD
gr

gs 2248 830 13404 6844 rc
DA
/c14 { 0.517241 0.517241 1.000000 sr} bdef
c14
1676 -846 1675 846 1676 -1692 1675 1692 1675 0 1676 0 1675 0 1675 0 
2248 1017 9 MP stroke
gr

c14
DA
gs 2030 799 13840 2129 rc
SO
0 j
-104 179 -104 -179 208 0 2144 1077 4 MP
DP
-104 179 -104 -179 208 0 3819 1077 4 MP
DP
-104 179 -104 -179 208 0 5494 1077 4 MP
DP
-104 179 -104 -179 208 0 7170 1077 4 MP
DP
-104 179 -104 -179 208 0 8845 1077 4 MP
DP
-104 179 -104 -179 208 0 10520 2769 4 MP
DP
-104 179 -104 -179 208 0 12196 1077 4 MP
DP
-104 179 -104 -179 208 0 13871 1923 4 MP
DP
-104 179 -104 -179 208 0 15547 1077 4 MP
DP
DA
gr

gs 2248 830 13404 6844 rc
SO
/c15 { 0.620690 0.310345 0.275862 sr} bdef
c15
1676 0 1675 0 1676 0 1675 -846 1675 846 1676 0 1675 0 1675 0 
2248 1017 9 MP stroke
gr

c15
SO
gs 2030 799 13840 1283 rc
0 j
-179 104 0 -208 179 104 2129 1017 4 MP
DP
-179 104 0 -208 179 104 3804 1017 4 MP
DP
-179 104 0 -208 179 104 5479 1017 4 MP
DP
-179 104 0 -208 179 104 7155 1017 4 MP
DP
-179 104 0 -208 179 104 8830 1863 4 MP
DP
-179 104 0 -208 179 104 10505 1017 4 MP
DP
-179 104 0 -208 179 104 12181 1017 4 MP
DP
-179 104 0 -208 179 104 13856 1017 4 MP
DP
-179 104 0 -208 179 104 15532 1017 4 MP
DP
gr

gs 2248 830 13404 6844 rc
DO
/c16 { 0.000000 1.000000 0.758621 sr} bdef
c16
1676 -846 1675 846 1676 0 1675 0 1675 0 1676 0 1675 0 1675 0 
2248 1017 9 MP stroke
gr

c16
DO
gs 2030 799 13840 1283 rc
SO
0 j
0 208 -179 -104 179 -104 2188 1121 4 MP
DP
0 208 -179 -104 179 -104 3863 1121 4 MP
DP
0 208 -179 -104 179 -104 5538 1121 4 MP
DP
0 208 -179 -104 179 -104 7214 1121 4 MP
DP
0 208 -179 -104 179 -104 8889 1121 4 MP
DP
0 208 -179 -104 179 -104 10564 1121 4 MP
DP
0 208 -179 -104 179 -104 12240 1121 4 MP
DP
0 208 -179 -104 179 -104 13915 1967 4 MP
DP
0 208 -179 -104 179 -104 15591 1121 4 MP
DP
DO
gr

gs 2248 830 13404 6844 rc
SO
/c17 { 0.000000 0.517241 0.586207 sr} bdef
c17
1676 -846 1675 846 1676 0 1675 -846 1675 846 1676 0 1675 0 1675 0 
2248 1017 9 MP stroke
gr

c17
SO
gs 2030 799 13840 1283 rc
0 j
-51 -39 18 -61 -53 36 -52 -36 18 61 -51 39 64 0 21 62 
22 -62 64 0 2162 989 11 MP
DP
-51 -39 18 -61 -53 36 -52 -36 18 61 -51 39 64 0 21 62 
22 -62 64 0 3837 989 11 MP
DP
-51 -39 18 -61 -53 36 -52 -36 18 61 -51 39 64 0 21 62 
22 -62 64 0 5512 989 11 MP
DP
-51 -39 18 -61 -53 36 -52 -36 18 61 -51 39 64 0 21 62 
22 -62 64 0 7188 989 11 MP
DP
-51 -39 18 -61 -53 36 -52 -36 18 61 -51 39 64 0 21 62 
22 -62 64 0 8863 1835 11 MP
DP
-51 -39 18 -61 -53 36 -52 -36 18 61 -51 39 64 0 21 62 
22 -62 64 0 10538 989 11 MP
DP
-51 -39 18 -61 -53 36 -52 -36 18 61 -51 39 64 0 21 62 
22 -62 64 0 12214 989 11 MP
DP
-51 -39 18 -61 -53 36 -52 -36 18 61 -51 39 64 0 21 62 
22 -62 64 0 13889 1835 11 MP
DP
-51 -39 18 -61 -53 36 -52 -36 18 61 -51 39 64 0 21 62 
22 -62 64 0 15565 989 11 MP
DP
gr

gs 2248 830 13404 6844 rc
DO
/c18 { 0.000000 0.000000 0.482759 sr} bdef
c18
1676 0 1675 0 1676 0 1675 0 1675 0 1676 0 1675 0 1675 0 
2248 1017 9 MP stroke
gr

c18
DO
gs 2030 799 13840 437 rc
SO
0 j
-32 -45 32 -45 -52 0 -25 -45 -25 45 -52 0 32 45 -32 45 
52 0 25 45 25 -45 52 0 2171 972 13 MP
DP
-32 -45 32 -45 -52 0 -25 -45 -25 45 -52 0 32 45 -32 45 
52 0 25 45 25 -45 52 0 3846 972 13 MP
DP
-32 -45 32 -45 -52 0 -25 -45 -25 45 -52 0 32 45 -32 45 
52 0 25 45 25 -45 52 0 5521 972 13 MP
DP
-32 -45 32 -45 -52 0 -25 -45 -25 45 -52 0 32 45 -32 45 
52 0 25 45 25 -45 52 0 7197 972 13 MP
DP
-32 -45 32 -45 -52 0 -25 -45 -25 45 -52 0 32 45 -32 45 
52 0 25 45 25 -45 52 0 8872 972 13 MP
DP
-32 -45 32 -45 -52 0 -25 -45 -25 45 -52 0 32 45 -32 45 
52 0 25 45 25 -45 52 0 10547 972 13 MP
DP
-32 -45 32 -45 -52 0 -25 -45 -25 45 -52 0 32 45 -32 45 
52 0 25 45 25 -45 52 0 12223 972 13 MP
DP
-32 -45 32 -45 -52 0 -25 -45 -25 45 -52 0 32 45 -32 45 
52 0 25 45 25 -45 52 0 13898 972 13 MP
DP
-32 -45 32 -45 -52 0 -25 -45 -25 45 -52 0 32 45 -32 45 
52 0 25 45 25 -45 52 0 15574 972 13 MP
DP
DO
gr

gs 2248 830 13404 6844 rc
gr

0 sg
%%IncludeResource: font Helvetica
/Helvetica /WindowsLatin1Encoding 480 FMSR

6478  446 mt 
(Wilcoxon rank sum test) s
6957 8561 mt 
(Elements removed) s
SO
6 w

end %%Color Dict

eplot
%%EndObject

epage
end

showpage

%%Trailer
%%EOF
