%!PS-Adobe-3.0 EPSF-3.0
%%Creator: MATLAB, The MathWorks, Inc. Version 8.2.0.701 (R2013b). Operating System: Microsoft Windows 8.
%%Title: .\rem5.eps
%%CreationDate: 05/17/2016  17:34:08
%%DocumentNeededFonts: Helvetica
%%DocumentProcessColors: Cyan Magenta Yellow Black
%%LanguageLevel: 2
%%Pages: 1
%%BoundingBox:  -305    59   908   786
%%EndComments

%%BeginProlog
% MathWorks dictionary
/MathWorks 160 dict begin
% definition operators
/bdef {bind def} bind def
/ldef {load def} bind def
/xdef {exch def} bdef
/xstore {exch store} bdef
% operator abbreviations
/c  /clip ldef
/cc /concat ldef
/cp /closepath ldef
/gr /grestore ldef
/gs /gsave ldef
/mt /moveto ldef
/np /newpath ldef
/cm /currentmatrix ldef
/sm /setmatrix ldef
/rm /rmoveto ldef
/rl /rlineto ldef
/s {show newpath} bdef
/sc {setcmykcolor} bdef
/sr /setrgbcolor ldef
/sg /setgray ldef
/w /setlinewidth ldef
/j /setlinejoin ldef
/cap /setlinecap ldef
/rc {rectclip} bdef
/rf {rectfill} bdef
% page state control
/pgsv () def
/bpage {/pgsv save def} bdef
/epage {pgsv restore} bdef
/bplot /gsave ldef
/eplot {stroke grestore} bdef
% orientation switch
/portraitMode 0 def /landscapeMode 1 def /rotateMode 2 def
% coordinate system mappings
/dpi2point 0 def
% font control
/FontSize 0 def
/FMS {/FontSize xstore findfont [FontSize 0 0 FontSize neg 0 0]
  makefont setfont} bdef
/ISOLatin1Encoding where {pop /WindowsLatin1Encoding 256 array bdef
ISOLatin1Encoding WindowsLatin1Encoding copy pop
/.notdef/.notdef/quotesinglbase/florin/quotedblbase/ellipsis/dagger
/daggerdbl/circumflex/perthousand/Scaron/guilsinglleft/OE/.notdef/.notdef
/.notdef/.notdef/quoteleft/quoteright/quotedblleft/quotedblright/bullet
/endash/emdash/tilde/trademark/scaron/guilsinglright/oe/.notdef/.notdef
/Ydieresis WindowsLatin1Encoding 128 32 getinterval astore pop}
{/WindowsLatin1Encoding StandardEncoding bdef} ifelse
/reencode {exch dup where {pop load} {pop StandardEncoding} ifelse
  exch dup 3 1 roll findfont dup length dict begin
  { 1 index /FID ne {def}{pop pop} ifelse } forall
  /Encoding exch def currentdict end definefont pop} bdef
/isroman {findfont /CharStrings get /Agrave known} bdef
/FMSR {3 1 roll 1 index dup isroman {reencode} {pop pop} ifelse
  exch FMS} bdef
/csm {1 dpi2point div -1 dpi2point div scale neg translate
 dup landscapeMode eq {pop -90 rotate}
  {rotateMode eq {90 rotate} if} ifelse} bdef
% line types: solid, dotted, dashed, dotdash
/SO { [] 0 setdash } bdef
/DO { [.5 dpi2point mul 4 dpi2point mul] 0 setdash } bdef
/DA { [6 dpi2point mul] 0 setdash } bdef
/DD { [.5 dpi2point mul 4 dpi2point mul 6 dpi2point mul 4
  dpi2point mul] 0 setdash } bdef
% macros for lines and objects
/L {lineto stroke} bdef
/MP {3 1 roll moveto 1 sub {rlineto} repeat} bdef
/AP {{rlineto} repeat} bdef
/PDlw -1 def
/W {/PDlw currentlinewidth def setlinewidth} def
/PP {closepath eofill} bdef
/DP {closepath stroke} bdef
/MR {4 -2 roll moveto dup  0 exch rlineto exch 0 rlineto
  neg 0 exch rlineto closepath} bdef
/FR {MR stroke} bdef
/PR {MR fill} bdef
/L1i {{currentfile picstr readhexstring pop} image} bdef
/tMatrix matrix def
/MakeOval {newpath tMatrix currentmatrix pop translate scale
0 0 1 0 360 arc tMatrix setmatrix} bdef
/FO {MakeOval stroke} bdef
/PO {MakeOval fill} bdef
/PD {currentlinewidth 2 div 0 360 arc fill
   PDlw -1 eq not {PDlw w /PDlw -1 def} if} def
/FA {newpath tMatrix currentmatrix pop translate scale
  0 0 1 5 -2 roll arc tMatrix setmatrix stroke} bdef
/PA {newpath tMatrix currentmatrix pop	translate 0 0 moveto scale
  0 0 1 5 -2 roll arc closepath tMatrix setmatrix fill} bdef
/FAn {newpath tMatrix currentmatrix pop translate scale
  0 0 1 5 -2 roll arcn tMatrix setmatrix stroke} bdef
/PAn {newpath tMatrix currentmatrix pop translate 0 0 moveto scale
  0 0 1 5 -2 roll arcn closepath tMatrix setmatrix fill} bdef
/vradius 0 def /hradius 0 def /lry 0 def
/lrx 0 def /uly 0 def /ulx 0 def /rad 0 def
/MRR {/vradius xdef /hradius xdef /lry xdef /lrx xdef /uly xdef
  /ulx xdef newpath tMatrix currentmatrix pop ulx hradius add uly
  vradius add translate hradius vradius scale 0 0 1 180 270 arc 
  tMatrix setmatrix lrx hradius sub uly vradius add translate
  hradius vradius scale 0 0 1 270 360 arc tMatrix setmatrix
  lrx hradius sub lry vradius sub translate hradius vradius scale
  0 0 1 0 90 arc tMatrix setmatrix ulx hradius add lry vradius sub
  translate hradius vradius scale 0 0 1 90 180 arc tMatrix setmatrix
  closepath} bdef
/FRR {MRR stroke } bdef
/PRR {MRR fill } bdef
/MlrRR {/lry xdef /lrx xdef /uly xdef /ulx xdef /rad lry uly sub 2 div def
  newpath tMatrix currentmatrix pop ulx rad add uly rad add translate
  rad rad scale 0 0 1 90 270 arc tMatrix setmatrix lrx rad sub lry rad
  sub translate rad rad scale 0 0 1 270 90 arc tMatrix setmatrix
  closepath} bdef
/FlrRR {MlrRR stroke } bdef
/PlrRR {MlrRR fill } bdef
/MtbRR {/lry xdef /lrx xdef /uly xdef /ulx xdef /rad lrx ulx sub 2 div def
  newpath tMatrix currentmatrix pop ulx rad add uly rad add translate
  rad rad scale 0 0 1 180 360 arc tMatrix setmatrix lrx rad sub lry rad
  sub translate rad rad scale 0 0 1 0 180 arc tMatrix setmatrix
  closepath} bdef
/FtbRR {MtbRR stroke } bdef
/PtbRR {MtbRR fill } bdef
/stri 6 array def /dtri 6 array def
/smat 6 array def /dmat 6 array def
/tmat1 6 array def /tmat2 6 array def /dif 3 array def
/asub {/ind2 exch def /ind1 exch def dup dup
  ind1 get exch ind2 get sub exch } bdef
/tri_to_matrix {
  2 0 asub 3 1 asub 4 0 asub 5 1 asub
  dup 0 get exch 1 get 7 -1 roll astore } bdef
/compute_transform {
  dmat dtri tri_to_matrix tmat1 invertmatrix 
  smat stri tri_to_matrix tmat2 concatmatrix } bdef
/ds {stri astore pop} bdef
/dt {dtri astore pop} bdef
/db {2 copy /cols xdef /rows xdef mul dup 3 mul string
  currentfile 
  3 index 0 eq {/ASCIIHexDecode filter}
  {/ASCII85Decode filter 3 index 2 eq {/RunLengthDecode filter} if }
  ifelse exch readstring pop
  dup 0 3 index getinterval /rbmap xdef
  dup 2 index dup getinterval /gbmap xdef
  1 index dup 2 mul exch getinterval /bbmap xdef pop pop}bdef
/it {gs np dtri aload pop moveto lineto lineto cp c
  cols rows 8 compute_transform 
  rbmap gbmap bbmap true 3 colorimage gr}bdef
/il {newpath moveto lineto stroke}bdef
currentdict end def
%%EndProlog

%%BeginSetup
MathWorks begin

0 cap

end
%%EndSetup

%%Page: 1 1
%%BeginPageSetup
%%PageBoundingBox:  -305    59   908   786
MathWorks begin
bpage
%%EndPageSetup

%%BeginObject: obj1
bplot

/dpi2point 12 def
portraitMode -5064 9384 csm

 1399   -48 14568  8719 rc
94 dict begin %Colortable dictionary
/c0 { 0.000000 0.000000 0.000000 sr} bdef
/c1 { 1.000000 1.000000 1.000000 sr} bdef
/c2 { 0.900000 0.000000 0.000000 sr} bdef
/c3 { 0.000000 0.820000 0.000000 sr} bdef
/c4 { 0.000000 0.000000 0.800000 sr} bdef
/c5 { 0.910000 0.820000 0.320000 sr} bdef
/c6 { 1.000000 0.260000 0.820000 sr} bdef
/c7 { 0.000000 0.820000 0.820000 sr} bdef
c0
1 j
1 sg
   0    0 17295 8672 rf
6 w
0 6625 13403 0 0 -6625 2248 7673 4 MP
PP
-13403 0 0 6625 13403 0 0 -6625 2248 7673 5 MP stroke
4 w
DO
0 sg
2248 7673 mt 2248 1048 L
2248 1048 mt 2248 1048 L
3923 7673 mt 3923 1048 L
3923 1048 mt 3923 1048 L
5598 7673 mt 5598 1048 L
5598 1048 mt 5598 1048 L
7274 7673 mt 7274 1048 L
7274 1048 mt 7274 1048 L
8949 7673 mt 8949 1048 L
8949 1048 mt 8949 1048 L
10624 7673 mt 10624 1048 L
10624 1048 mt 10624 1048 L
12300 7673 mt 12300 1048 L
12300 1048 mt 12300 1048 L
13975 7673 mt 13975 1048 L
13975 1048 mt 13975 1048 L
15651 7673 mt 15651 1048 L
15651 1048 mt 15651 1048 L
2248 7673 mt 15651 7673 L
15651 7673 mt 15651 7673 L
2248 6568 mt 15651 6568 L
15651 6568 mt 15651 6568 L
2248 5464 mt 15651 5464 L
15651 5464 mt 15651 5464 L
2248 4360 mt 15651 4360 L
15651 4360 mt 15651 4360 L
2248 3256 mt 15651 3256 L
15651 3256 mt 15651 3256 L
2248 2152 mt 15651 2152 L
15651 2152 mt 15651 2152 L
2248 1048 mt 15651 1048 L
15651 1048 mt 15651 1048 L
SO
6 w
2248 1048 mt 15651 1048 L
2248 7673 mt 15651 7673 L
15651 7673 mt 15651 1048 L
2248 7673 mt 2248 1048 L
2248 7673 mt 15651 7673 L
2248 7673 mt 2248 1048 L
2248 7673 mt 2248 7538 L
2248 1048 mt 2248 1182 L
%%IncludeResource: font Helvetica
/Helvetica /WindowsLatin1Encoding 480 FMSR

1982 8153 mt 
(10) s
3923 7673 mt 3923 7538 L
3923 1048 mt 3923 1182 L
3657 8153 mt 
(20) s
5598 7673 mt 5598 7538 L
5598 1048 mt 5598 1182 L
5332 8153 mt 
(30) s
7274 7673 mt 7274 7538 L
7274 1048 mt 7274 1182 L
7008 8153 mt 
(40) s
8949 7673 mt 8949 7538 L
8949 1048 mt 8949 1182 L
8683 8153 mt 
(50) s
10624 7673 mt 10624 7538 L
10624 1048 mt 10624 1182 L
10358 8153 mt 
(60) s
12300 7673 mt 12300 7538 L
12300 1048 mt 12300 1182 L
12034 8153 mt 
(70) s
13975 7673 mt 13975 7538 L
13975 1048 mt 13975 1182 L
13709 8153 mt 
(80) s
15651 7673 mt 15651 7538 L
15651 1048 mt 15651 1182 L
15385 8153 mt 
(90) s
2248 7673 mt 2382 7673 L
15651 7673 mt 15516 7673 L
1399 7851 mt 
(-25) s
2248 6568 mt 2382 6568 L
15651 6568 mt 15516 6568 L
1399 6746 mt 
(-20) s
2248 5464 mt 2382 5464 L
15651 5464 mt 15516 5464 L
1399 5642 mt 
(-15) s
2248 4360 mt 2382 4360 L
15651 4360 mt 15516 4360 L
1399 4538 mt 
(-10) s
2248 3256 mt 2382 3256 L
15651 3256 mt 15516 3256 L
1666 3434 mt 
(-5) s
2248 2152 mt 2382 2152 L
15651 2152 mt 15516 2152 L
1947 2330 mt 
(0) s
2248 1048 mt 2382 1048 L
15651 1048 mt 15516 1048 L
1947 1226 mt 
(5) s
2248 1048 mt 15651 1048 L
2248 7673 mt 15651 7673 L
15651 7673 mt 15651 1048 L
2248 7673 mt 2248 1048 L
gs 2248 1048 13404 6626 rc
36 w
/c8 { 0.000000 0.000000 1.000000 sr} bdef
c8
1676 692 1675 435 1676 279 1675 331 1675 310 1676 309 1675 287 1675 302 
2248 1960 9 MP stroke
gr

36 w
c8
gs 2030 1742 13840 3382 rc
  90   90 2248 1960 FO
  90   90 3923 2262 FO
  90   90 5598 2549 FO
  90   90 7274 2858 FO
  90   90 8949 3168 FO
  90   90 10624 3499 FO
  90   90 12300 3778 FO
  90   90 13975 4213 FO
  90   90 15651 4905 FO
gr

gs 2248 1048 13404 6626 rc
DO
/c9 { 1.000000 0.000000 0.000000 sr} bdef
c9
1676 1244 1675 869 1676 648 1675 515 1675 523 1676 677 1675 361 1675 537 
2248 2078 9 MP stroke
gr

c9
DO
gs 2030 1860 13840 5811 rc
SO
0 j
104 179 -208 0 104 -179 2248 2197 4 MP
DP
104 179 -208 0 104 -179 3923 2734 4 MP
DP
104 179 -208 0 104 -179 5598 3095 4 MP
DP
104 179 -208 0 104 -179 7274 3772 4 MP
DP
104 179 -208 0 104 -179 8949 4295 4 MP
DP
104 179 -208 0 104 -179 10624 4810 4 MP
DP
104 179 -208 0 104 -179 12300 5458 4 MP
DP
104 179 -208 0 104 -179 13975 6327 4 MP
DP
104 179 -208 0 104 -179 15651 7571 4 MP
DP
DO
gr

gs 2248 1048 13404 6626 rc
DD
/c10 { 0.000000 1.000000 0.000000 sr} bdef
c10
1676 45 1675 44 1676 -15 1675 -7 1675 103 1676 -30 1675 118 1675 37 
2248 2181 9 MP stroke
gr

c10
DD
gs 2030 1963 13840 732 rc
SO
2185 2118 mt 2311 2244 L
2311 2118 mt 2185 2244 L
3860 2155 mt 3986 2281 L
3986 2155 mt 3860 2281 L
5535 2273 mt 5661 2399 L
5661 2273 mt 5535 2399 L
7211 2243 mt 7337 2369 L
7337 2243 mt 7211 2369 L
8886 2346 mt 9012 2472 L
9012 2346 mt 8886 2472 L
10561 2339 mt 10687 2465 L
10687 2339 mt 10561 2465 L
12237 2324 mt 12363 2450 L
12363 2324 mt 12237 2450 L
13912 2368 mt 14038 2494 L
14038 2368 mt 13912 2494 L
15588 2413 mt 15714 2539 L
15714 2413 mt 15588 2539 L
DD
gr

gs 2248 1048 13404 6626 rc
DA
/c11 { 0.000000 0.000000 0.172414 sr} bdef
c11
1676 45 1675 73 1676 44 1675 111 1675 81 1676 81 1675 125 1675 66 
2248 2115 9 MP stroke
gr

c11
DA
gs 2030 1897 13840 1063 rc
SO
2158 2115 mt 2338 2115 L
2248 2025 mt 2248 2205 L
3833 2181 mt 4013 2181 L
3923 2091 mt 3923 2271 L
5508 2306 mt 5688 2306 L
5598 2216 mt 5598 2396 L
7184 2387 mt 7364 2387 L
7274 2297 mt 7274 2477 L
8859 2468 mt 9039 2468 L
8949 2378 mt 8949 2558 L
10534 2579 mt 10714 2579 L
10624 2489 mt 10624 2669 L
12210 2623 mt 12390 2623 L
12300 2533 mt 12300 2713 L
13885 2696 mt 14065 2696 L
13975 2606 mt 13975 2786 L
15561 2741 mt 15741 2741 L
15651 2651 mt 15651 2831 L
2185 2052 mt 2311 2178 L
2311 2052 mt 2185 2178 L
3860 2118 mt 3986 2244 L
3986 2118 mt 3860 2244 L
5535 2243 mt 5661 2369 L
5661 2243 mt 5535 2369 L
7211 2324 mt 7337 2450 L
7337 2324 mt 7211 2450 L
8886 2405 mt 9012 2531 L
9012 2405 mt 8886 2531 L
10561 2516 mt 10687 2642 L
10687 2516 mt 10561 2642 L
12237 2560 mt 12363 2686 L
12363 2560 mt 12237 2686 L
13912 2633 mt 14038 2759 L
14038 2633 mt 13912 2759 L
15588 2678 mt 15714 2804 L
15714 2678 mt 15588 2804 L
DA
gr

gs 2248 1048 13404 6626 rc
SO
/c12 { 1.000000 0.103448 0.724138 sr} bdef
c12
1676 0 1675 0 1676 0 1675 0 1675 0 1676 0 1675 0 1675 0 
2248 2152 9 MP stroke
gr

c12
SO
gs 2030 1934 13840 437 rc
0 j
0 -142 -142 0 0 142 142 0 2177 2081 5 MP
DP
0 -142 -142 0 0 142 142 0 3852 2081 5 MP
DP
0 -142 -142 0 0 142 142 0 5527 2081 5 MP
DP
0 -142 -142 0 0 142 142 0 7203 2081 5 MP
DP
0 -142 -142 0 0 142 142 0 8878 2081 5 MP
DP
0 -142 -142 0 0 142 142 0 10553 2081 5 MP
DP
0 -142 -142 0 0 142 142 0 12229 2081 5 MP
DP
0 -142 -142 0 0 142 142 0 13904 2081 5 MP
DP
0 -142 -142 0 0 142 142 0 15580 2081 5 MP
DP
gr

gs 2248 1048 13404 6626 rc
DO
/c13 { 0.000000 0.344828 0.000000 sr} bdef
c13
1676 154 1675 199 1676 110 1675 81 1675 89 1676 95 1675 214 1675 125 
2248 2137 9 MP stroke
gr

c13
DO
gs 2030 1919 13840 1504 rc
SO
0 j
90 119 -90 119 -90 -119 90 -119 2248 2256 5 MP
DP
90 119 -90 119 -90 -119 90 -119 3923 2381 5 MP
DP
90 119 -90 119 -90 -119 90 -119 5598 2595 5 MP
DP
90 119 -90 119 -90 -119 90 -119 7274 2690 5 MP
DP
90 119 -90 119 -90 -119 90 -119 8949 2779 5 MP
DP
90 119 -90 119 -90 -119 90 -119 10624 2860 5 MP
DP
90 119 -90 119 -90 -119 90 -119 12300 2970 5 MP
DP
90 119 -90 119 -90 -119 90 -119 13975 3169 5 MP
DP
90 119 -90 119 -90 -119 90 -119 15651 3323 5 MP
DP
DO
gr

gs 2248 1048 13404 6626 rc
DD
1676 449 1675 184 1676 162 1675 214 1675 206 1676 272 1675 258 1675 287 
2248 1997 9 MP stroke
gr

DD
gs 2030 1779 13840 2469 rc
SO
60 W
2248 1997 PD
60 W
3923 2284 PD
60 W
5598 2542 PD
60 W
7274 2814 PD
60 W
8949 3020 PD
60 W
10624 3234 PD
60 W
12300 3396 PD
60 W
13975 3580 PD
60 W
15651 4029 PD
DD
gr

gs 2248 1048 13404 6626 rc
DA
/c14 { 0.517241 0.517241 1.000000 sr} bdef
c14
1676 170 1675 -22 1676 88 1675 0 1675 -29 1676 154 1675 30 1675 132 
2248 2115 9 MP stroke
gr

c14
DA
gs 2030 1897 13840 960 rc
SO
0 j
-104 179 -104 -179 208 0 2144 2175 4 MP
DP
-104 179 -104 -179 208 0 3819 2307 4 MP
DP
-104 179 -104 -179 208 0 5494 2337 4 MP
DP
-104 179 -104 -179 208 0 7170 2491 4 MP
DP
-104 179 -104 -179 208 0 8845 2462 4 MP
DP
-104 179 -104 -179 208 0 10520 2462 4 MP
DP
-104 179 -104 -179 208 0 12196 2550 4 MP
DP
-104 179 -104 -179 208 0 13871 2528 4 MP
DP
-104 179 -104 -179 208 0 15547 2698 4 MP
DP
DA
gr

gs 2248 1048 13404 6626 rc
SO
/c15 { 0.620690 0.310345 0.275862 sr} bdef
c15
1676 81 1675 162 1676 52 1675 7 1675 236 1676 73 1675 155 1675 191 
2248 1865 9 MP stroke
gr

c15
SO
gs 2030 1647 13840 1394 rc
0 j
-179 104 0 -208 179 104 2129 1865 4 MP
DP
-179 104 0 -208 179 104 3804 2056 4 MP
DP
-179 104 0 -208 179 104 5479 2211 4 MP
DP
-179 104 0 -208 179 104 7155 2284 4 MP
DP
-179 104 0 -208 179 104 8830 2520 4 MP
DP
-179 104 0 -208 179 104 10505 2527 4 MP
DP
-179 104 0 -208 179 104 12181 2579 4 MP
DP
-179 104 0 -208 179 104 13856 2741 4 MP
DP
-179 104 0 -208 179 104 15532 2822 4 MP
DP
gr

gs 2248 1048 13404 6626 rc
DO
/c16 { 0.000000 1.000000 0.758621 sr} bdef
c16
1676 0 1675 -22 1676 22 1675 -7 1675 22 1676 0 1675 118 1675 36 
2248 2049 9 MP stroke
gr

c16
DO
gs 2030 1831 13840 628 rc
SO
0 j
0 208 -179 -104 179 -104 2188 2153 4 MP
DP
0 208 -179 -104 179 -104 3863 2189 4 MP
DP
0 208 -179 -104 179 -104 5538 2307 4 MP
DP
0 208 -179 -104 179 -104 7214 2307 4 MP
DP
0 208 -179 -104 179 -104 8889 2329 4 MP
DP
0 208 -179 -104 179 -104 10564 2322 4 MP
DP
0 208 -179 -104 179 -104 12240 2344 4 MP
DP
0 208 -179 -104 179 -104 13915 2322 4 MP
DP
0 208 -179 -104 179 -104 15591 2322 4 MP
DP
DO
gr

gs 2248 1048 13404 6626 rc
SO
/c17 { 0.000000 0.517241 0.586207 sr} bdef
c17
1676 -15 1675 59 1676 44 1675 30 1675 44 1676 73 1675 184 1675 140 
2248 2012 9 MP stroke
gr

c17
SO
gs 2030 1794 13840 1011 rc
0 j
-51 -39 18 -61 -53 36 -52 -36 18 61 -51 39 64 0 21 62 
22 -62 64 0 2162 1984 11 MP
DP
-51 -39 18 -61 -53 36 -52 -36 18 61 -51 39 64 0 21 62 
22 -62 64 0 3837 2124 11 MP
DP
-51 -39 18 -61 -53 36 -52 -36 18 61 -51 39 64 0 21 62 
22 -62 64 0 5512 2308 11 MP
DP
-51 -39 18 -61 -53 36 -52 -36 18 61 -51 39 64 0 21 62 
22 -62 64 0 7188 2381 11 MP
DP
-51 -39 18 -61 -53 36 -52 -36 18 61 -51 39 64 0 21 62 
22 -62 64 0 8863 2425 11 MP
DP
-51 -39 18 -61 -53 36 -52 -36 18 61 -51 39 64 0 21 62 
22 -62 64 0 10538 2455 11 MP
DP
-51 -39 18 -61 -53 36 -52 -36 18 61 -51 39 64 0 21 62 
22 -62 64 0 12214 2499 11 MP
DP
-51 -39 18 -61 -53 36 -52 -36 18 61 -51 39 64 0 21 62 
22 -62 64 0 13889 2558 11 MP
DP
-51 -39 18 -61 -53 36 -52 -36 18 61 -51 39 64 0 21 62 
22 -62 64 0 15565 2543 11 MP
DP
gr

gs 2248 1048 13404 6626 rc
DO
/c18 { 0.000000 0.000000 0.482759 sr} bdef
c18
1676 -66 1675 37 1676 -37 1675 66 1675 -51 1676 73 1675 15 1675 103 
2248 2078 9 MP stroke
gr

c18
DO
gs 2030 1860 13840 643 rc
SO
0 j
-32 -45 32 -45 -52 0 -25 -45 -25 45 -52 0 32 45 -32 45 
52 0 25 45 25 -45 52 0 2171 2033 13 MP
DP
-32 -45 32 -45 -52 0 -25 -45 -25 45 -52 0 32 45 -32 45 
52 0 25 45 25 -45 52 0 3846 2136 13 MP
DP
-32 -45 32 -45 -52 0 -25 -45 -25 45 -52 0 32 45 -32 45 
52 0 25 45 25 -45 52 0 5521 2151 13 MP
DP
-32 -45 32 -45 -52 0 -25 -45 -25 45 -52 0 32 45 -32 45 
52 0 25 45 25 -45 52 0 7197 2224 13 MP
DP
-32 -45 32 -45 -52 0 -25 -45 -25 45 -52 0 32 45 -32 45 
52 0 25 45 25 -45 52 0 8872 2173 13 MP
DP
-32 -45 32 -45 -52 0 -25 -45 -25 45 -52 0 32 45 -32 45 
52 0 25 45 25 -45 52 0 10547 2239 13 MP
DP
-32 -45 32 -45 -52 0 -25 -45 -25 45 -52 0 32 45 -32 45 
52 0 25 45 25 -45 52 0 12223 2202 13 MP
DP
-32 -45 32 -45 -52 0 -25 -45 -25 45 -52 0 32 45 -32 45 
52 0 25 45 25 -45 52 0 13898 2239 13 MP
DP
-32 -45 32 -45 -52 0 -25 -45 -25 45 -52 0 32 45 -32 45 
52 0 25 45 25 -45 52 0 15574 2173 13 MP
DP
DO
gr

gs 2248 1048 13404 6626 rc
gr

0 sg
6778  446 mt 
(Solution Quality \(D) s
%%IncludeResource: font Helvetica
/Helvetica /WindowsLatin1Encoding 384 FMSR

10779  686 mt 
(s) s
%%IncludeResource: font Helvetica
/Helvetica /WindowsLatin1Encoding 480 FMSR

10971  446 mt 
(\)) s
6957 8561 mt 
(Elements removed) s
SO
6 w

end %%Color Dict

eplot
%%EndObject

epage
end

showpage

%%Trailer
%%EOF
