%!PS-Adobe-3.0 EPSF-3.0
%%Creator: MATLAB, The MathWorks, Inc. Version 8.2.0.701 (R2013b). Operating System: Microsoft Windows 8.
%%Title: .\rem7.eps
%%CreationDate: 05/17/2016  17:34:09
%%DocumentNeededFonts: Helvetica
%%DocumentProcessColors: Cyan Magenta Yellow Black
%%LanguageLevel: 2
%%Pages: 1
%%BoundingBox:  -259    59   908   786
%%EndComments

%%BeginProlog
% MathWorks dictionary
/MathWorks 160 dict begin
% definition operators
/bdef {bind def} bind def
/ldef {load def} bind def
/xdef {exch def} bdef
/xstore {exch store} bdef
% operator abbreviations
/c  /clip ldef
/cc /concat ldef
/cp /closepath ldef
/gr /grestore ldef
/gs /gsave ldef
/mt /moveto ldef
/np /newpath ldef
/cm /currentmatrix ldef
/sm /setmatrix ldef
/rm /rmoveto ldef
/rl /rlineto ldef
/s {show newpath} bdef
/sc {setcmykcolor} bdef
/sr /setrgbcolor ldef
/sg /setgray ldef
/w /setlinewidth ldef
/j /setlinejoin ldef
/cap /setlinecap ldef
/rc {rectclip} bdef
/rf {rectfill} bdef
% page state control
/pgsv () def
/bpage {/pgsv save def} bdef
/epage {pgsv restore} bdef
/bplot /gsave ldef
/eplot {stroke grestore} bdef
% orientation switch
/portraitMode 0 def /landscapeMode 1 def /rotateMode 2 def
% coordinate system mappings
/dpi2point 0 def
% font control
/FontSize 0 def
/FMS {/FontSize xstore findfont [FontSize 0 0 FontSize neg 0 0]
  makefont setfont} bdef
/ISOLatin1Encoding where {pop /WindowsLatin1Encoding 256 array bdef
ISOLatin1Encoding WindowsLatin1Encoding copy pop
/.notdef/.notdef/quotesinglbase/florin/quotedblbase/ellipsis/dagger
/daggerdbl/circumflex/perthousand/Scaron/guilsinglleft/OE/.notdef/.notdef
/.notdef/.notdef/quoteleft/quoteright/quotedblleft/quotedblright/bullet
/endash/emdash/tilde/trademark/scaron/guilsinglright/oe/.notdef/.notdef
/Ydieresis WindowsLatin1Encoding 128 32 getinterval astore pop}
{/WindowsLatin1Encoding StandardEncoding bdef} ifelse
/reencode {exch dup where {pop load} {pop StandardEncoding} ifelse
  exch dup 3 1 roll findfont dup length dict begin
  { 1 index /FID ne {def}{pop pop} ifelse } forall
  /Encoding exch def currentdict end definefont pop} bdef
/isroman {findfont /CharStrings get /Agrave known} bdef
/FMSR {3 1 roll 1 index dup isroman {reencode} {pop pop} ifelse
  exch FMS} bdef
/csm {1 dpi2point div -1 dpi2point div scale neg translate
 dup landscapeMode eq {pop -90 rotate}
  {rotateMode eq {90 rotate} if} ifelse} bdef
% line types: solid, dotted, dashed, dotdash
/SO { [] 0 setdash } bdef
/DO { [.5 dpi2point mul 4 dpi2point mul] 0 setdash } bdef
/DA { [6 dpi2point mul] 0 setdash } bdef
/DD { [.5 dpi2point mul 4 dpi2point mul 6 dpi2point mul 4
  dpi2point mul] 0 setdash } bdef
% macros for lines and objects
/L {lineto stroke} bdef
/MP {3 1 roll moveto 1 sub {rlineto} repeat} bdef
/AP {{rlineto} repeat} bdef
/PDlw -1 def
/W {/PDlw currentlinewidth def setlinewidth} def
/PP {closepath eofill} bdef
/DP {closepath stroke} bdef
/MR {4 -2 roll moveto dup  0 exch rlineto exch 0 rlineto
  neg 0 exch rlineto closepath} bdef
/FR {MR stroke} bdef
/PR {MR fill} bdef
/L1i {{currentfile picstr readhexstring pop} image} bdef
/tMatrix matrix def
/MakeOval {newpath tMatrix currentmatrix pop translate scale
0 0 1 0 360 arc tMatrix setmatrix} bdef
/FO {MakeOval stroke} bdef
/PO {MakeOval fill} bdef
/PD {currentlinewidth 2 div 0 360 arc fill
   PDlw -1 eq not {PDlw w /PDlw -1 def} if} def
/FA {newpath tMatrix currentmatrix pop translate scale
  0 0 1 5 -2 roll arc tMatrix setmatrix stroke} bdef
/PA {newpath tMatrix currentmatrix pop	translate 0 0 moveto scale
  0 0 1 5 -2 roll arc closepath tMatrix setmatrix fill} bdef
/FAn {newpath tMatrix currentmatrix pop translate scale
  0 0 1 5 -2 roll arcn tMatrix setmatrix stroke} bdef
/PAn {newpath tMatrix currentmatrix pop translate 0 0 moveto scale
  0 0 1 5 -2 roll arcn closepath tMatrix setmatrix fill} bdef
/vradius 0 def /hradius 0 def /lry 0 def
/lrx 0 def /uly 0 def /ulx 0 def /rad 0 def
/MRR {/vradius xdef /hradius xdef /lry xdef /lrx xdef /uly xdef
  /ulx xdef newpath tMatrix currentmatrix pop ulx hradius add uly
  vradius add translate hradius vradius scale 0 0 1 180 270 arc 
  tMatrix setmatrix lrx hradius sub uly vradius add translate
  hradius vradius scale 0 0 1 270 360 arc tMatrix setmatrix
  lrx hradius sub lry vradius sub translate hradius vradius scale
  0 0 1 0 90 arc tMatrix setmatrix ulx hradius add lry vradius sub
  translate hradius vradius scale 0 0 1 90 180 arc tMatrix setmatrix
  closepath} bdef
/FRR {MRR stroke } bdef
/PRR {MRR fill } bdef
/MlrRR {/lry xdef /lrx xdef /uly xdef /ulx xdef /rad lry uly sub 2 div def
  newpath tMatrix currentmatrix pop ulx rad add uly rad add translate
  rad rad scale 0 0 1 90 270 arc tMatrix setmatrix lrx rad sub lry rad
  sub translate rad rad scale 0 0 1 270 90 arc tMatrix setmatrix
  closepath} bdef
/FlrRR {MlrRR stroke } bdef
/PlrRR {MlrRR fill } bdef
/MtbRR {/lry xdef /lrx xdef /uly xdef /ulx xdef /rad lrx ulx sub 2 div def
  newpath tMatrix currentmatrix pop ulx rad add uly rad add translate
  rad rad scale 0 0 1 180 360 arc tMatrix setmatrix lrx rad sub lry rad
  sub translate rad rad scale 0 0 1 0 180 arc tMatrix setmatrix
  closepath} bdef
/FtbRR {MtbRR stroke } bdef
/PtbRR {MtbRR fill } bdef
/stri 6 array def /dtri 6 array def
/smat 6 array def /dmat 6 array def
/tmat1 6 array def /tmat2 6 array def /dif 3 array def
/asub {/ind2 exch def /ind1 exch def dup dup
  ind1 get exch ind2 get sub exch } bdef
/tri_to_matrix {
  2 0 asub 3 1 asub 4 0 asub 5 1 asub
  dup 0 get exch 1 get 7 -1 roll astore } bdef
/compute_transform {
  dmat dtri tri_to_matrix tmat1 invertmatrix 
  smat stri tri_to_matrix tmat2 concatmatrix } bdef
/ds {stri astore pop} bdef
/dt {dtri astore pop} bdef
/db {2 copy /cols xdef /rows xdef mul dup 3 mul string
  currentfile 
  3 index 0 eq {/ASCIIHexDecode filter}
  {/ASCII85Decode filter 3 index 2 eq {/RunLengthDecode filter} if }
  ifelse exch readstring pop
  dup 0 3 index getinterval /rbmap xdef
  dup 2 index dup getinterval /gbmap xdef
  1 index dup 2 mul exch getinterval /bbmap xdef pop pop}bdef
/it {gs np dtri aload pop moveto lineto lineto cp c
  cols rows 8 compute_transform 
  rbmap gbmap bbmap true 3 colorimage gr}bdef
/il {newpath moveto lineto stroke}bdef
currentdict end def
%%EndProlog

%%BeginSetup
MathWorks begin

0 cap

end
%%EndSetup

%%Page: 1 1
%%BeginPageSetup
%%PageBoundingBox:  -259    59   908   786
MathWorks begin
bpage
%%EndPageSetup

%%BeginObject: obj1
bplot

/dpi2point 12 def
portraitMode -5064 9384 csm

 1947   -48 14020  8719 rc
94 dict begin %Colortable dictionary
/c0 { 0.000000 0.000000 0.000000 sr} bdef
/c1 { 1.000000 1.000000 1.000000 sr} bdef
/c2 { 0.900000 0.000000 0.000000 sr} bdef
/c3 { 0.000000 0.820000 0.000000 sr} bdef
/c4 { 0.000000 0.000000 0.800000 sr} bdef
/c5 { 0.910000 0.820000 0.320000 sr} bdef
/c6 { 1.000000 0.260000 0.820000 sr} bdef
/c7 { 0.000000 0.820000 0.820000 sr} bdef
c0
1 j
1 sg
   0    0 17295 8672 rf
6 w
0 6625 13403 0 0 -6625 2248 7673 4 MP
PP
-13403 0 0 6625 13403 0 0 -6625 2248 7673 5 MP stroke
4 w
DO
0 sg
2248 7673 mt 2248 1048 L
2248 1048 mt 2248 1048 L
3923 7673 mt 3923 1048 L
3923 1048 mt 3923 1048 L
5598 7673 mt 5598 1048 L
5598 1048 mt 5598 1048 L
7274 7673 mt 7274 1048 L
7274 1048 mt 7274 1048 L
8949 7673 mt 8949 1048 L
8949 1048 mt 8949 1048 L
10624 7673 mt 10624 1048 L
10624 1048 mt 10624 1048 L
12300 7673 mt 12300 1048 L
12300 1048 mt 12300 1048 L
13975 7673 mt 13975 1048 L
13975 1048 mt 13975 1048 L
15651 7673 mt 15651 1048 L
15651 1048 mt 15651 1048 L
2248 7673 mt 15651 7673 L
15651 7673 mt 15651 7673 L
2248 6568 mt 15651 6568 L
15651 6568 mt 15651 6568 L
2248 5464 mt 15651 5464 L
15651 5464 mt 15651 5464 L
2248 4360 mt 15651 4360 L
15651 4360 mt 15651 4360 L
2248 3256 mt 15651 3256 L
15651 3256 mt 15651 3256 L
2248 2152 mt 15651 2152 L
15651 2152 mt 15651 2152 L
2248 1048 mt 15651 1048 L
15651 1048 mt 15651 1048 L
SO
6 w
2248 1048 mt 15651 1048 L
2248 7673 mt 15651 7673 L
15651 7673 mt 15651 1048 L
2248 7673 mt 2248 1048 L
2248 7673 mt 15651 7673 L
2248 7673 mt 2248 1048 L
2248 7673 mt 2248 7538 L
2248 1048 mt 2248 1182 L
%%IncludeResource: font Helvetica
/Helvetica /WindowsLatin1Encoding 480 FMSR

1982 8153 mt 
(10) s
3923 7673 mt 3923 7538 L
3923 1048 mt 3923 1182 L
3657 8153 mt 
(20) s
5598 7673 mt 5598 7538 L
5598 1048 mt 5598 1182 L
5332 8153 mt 
(30) s
7274 7673 mt 7274 7538 L
7274 1048 mt 7274 1182 L
7008 8153 mt 
(40) s
8949 7673 mt 8949 7538 L
8949 1048 mt 8949 1182 L
8683 8153 mt 
(50) s
10624 7673 mt 10624 7538 L
10624 1048 mt 10624 1182 L
10358 8153 mt 
(60) s
12300 7673 mt 12300 7538 L
12300 1048 mt 12300 1182 L
12034 8153 mt 
(70) s
13975 7673 mt 13975 7538 L
13975 1048 mt 13975 1182 L
13709 8153 mt 
(80) s
15651 7673 mt 15651 7538 L
15651 1048 mt 15651 1182 L
15385 8153 mt 
(90) s
2248 7673 mt 2382 7673 L
15651 7673 mt 15516 7673 L
1947 7851 mt 
(0) s
2248 6568 mt 2382 6568 L
15651 6568 mt 15516 6568 L
1947 6746 mt 
(1) s
2248 5464 mt 2382 5464 L
15651 5464 mt 15516 5464 L
1947 5642 mt 
(2) s
2248 4360 mt 2382 4360 L
15651 4360 mt 15516 4360 L
1947 4538 mt 
(3) s
2248 3256 mt 2382 3256 L
15651 3256 mt 15516 3256 L
1947 3434 mt 
(4) s
2248 2152 mt 2382 2152 L
15651 2152 mt 15516 2152 L
1947 2330 mt 
(5) s
2248 1048 mt 2382 1048 L
15651 1048 mt 15516 1048 L
1947 1226 mt 
(6) s
2248  994 mt 
(x 10) s
%%IncludeResource: font Helvetica
/Helvetica /WindowsLatin1Encoding 320 FMSR

3155  697 mt 
(5) s
2248 1048 mt 15651 1048 L
2248 7673 mt 15651 7673 L
15651 7673 mt 15651 1048 L
2248 7673 mt 2248 1048 L
gs 2248 1048 13404 6626 rc
36 w
/c8 { 0.000000 0.000000 1.000000 sr} bdef
c8
1676 483 1675 325 1676 291 1675 159 1675 191 1676 237 1675 180 1675 95 
2248 4615 9 MP stroke
gr

36 w
c8
gs 2030 4397 13840 2398 rc
  90   90 2248 4615 FO
  90   90 3923 4710 FO
  90   90 5598 4890 FO
  90   90 7274 5127 FO
  90   90 8949 5318 FO
  90   90 10624 5477 FO
  90   90 12300 5768 FO
  90   90 13975 6093 FO
  90   90 15651 6576 FO
gr

gs 2248 1048 13404 6626 rc
DO
/c9 { 1.000000 0.000000 0.000000 sr} bdef
c9
1676 917 1675 621 1676 473 1675 499 1675 301 1676 392 1675 443 1675 325 
2248 1939 9 MP stroke
gr

c9
DO
gs 2030 1721 13840 4408 rc
SO
0 j
104 179 -208 0 104 -179 2248 2058 4 MP
DP
104 179 -208 0 104 -179 3923 2383 4 MP
DP
104 179 -208 0 104 -179 5598 2826 4 MP
DP
104 179 -208 0 104 -179 7274 3218 4 MP
DP
104 179 -208 0 104 -179 8949 3519 4 MP
DP
104 179 -208 0 104 -179 10624 4018 4 MP
DP
104 179 -208 0 104 -179 12300 4491 4 MP
DP
104 179 -208 0 104 -179 13975 5112 4 MP
DP
104 179 -208 0 104 -179 15651 6029 4 MP
DP
DO
gr

gs 2248 1048 13404 6626 rc
DD
/c10 { 0.000000 1.000000 0.000000 sr} bdef
c10
1676 29 1675 94 1676 10 1675 25 1675 18 1676 18 1675 54 1675 69 
2248 6906 9 MP stroke
gr

c10
DD
gs 2030 6688 13840 754 rc
SO
2185 6843 mt 2311 6969 L
2311 6843 mt 2185 6969 L
3860 6912 mt 3986 7038 L
3986 6912 mt 3860 7038 L
5535 6966 mt 5661 7092 L
5661 6966 mt 5535 7092 L
7211 6984 mt 7337 7110 L
7337 6984 mt 7211 7110 L
8886 7002 mt 9012 7128 L
9012 7002 mt 8886 7128 L
10561 7027 mt 10687 7153 L
10687 7027 mt 10561 7153 L
12237 7037 mt 12363 7163 L
12363 7037 mt 12237 7163 L
13912 7131 mt 14038 7257 L
14038 7131 mt 13912 7257 L
15588 7160 mt 15714 7286 L
15714 7160 mt 15588 7286 L
DD
gr

gs 2248 1048 13404 6626 rc
DA
/c11 { 0.000000 0.000000 0.172414 sr} bdef
c11
1676 49 1675 121 1676 55 1675 89 1675 56 1676 62 1675 63 1675 57 
2248 6405 9 MP stroke
gr

c11
DA
gs 2030 6187 13840 989 rc
SO
2158 6405 mt 2338 6405 L
2248 6315 mt 2248 6495 L
3833 6462 mt 4013 6462 L
3923 6372 mt 3923 6552 L
5508 6525 mt 5688 6525 L
5598 6435 mt 5598 6615 L
7184 6587 mt 7364 6587 L
7274 6497 mt 7274 6677 L
8859 6643 mt 9039 6643 L
8949 6553 mt 8949 6733 L
10534 6732 mt 10714 6732 L
10624 6642 mt 10624 6822 L
12210 6787 mt 12390 6787 L
12300 6697 mt 12300 6877 L
13885 6908 mt 14065 6908 L
13975 6818 mt 13975 6998 L
15561 6957 mt 15741 6957 L
15651 6867 mt 15651 7047 L
2185 6342 mt 2311 6468 L
2311 6342 mt 2185 6468 L
3860 6399 mt 3986 6525 L
3986 6399 mt 3860 6525 L
5535 6462 mt 5661 6588 L
5661 6462 mt 5535 6588 L
7211 6524 mt 7337 6650 L
7337 6524 mt 7211 6650 L
8886 6580 mt 9012 6706 L
9012 6580 mt 8886 6706 L
10561 6669 mt 10687 6795 L
10687 6669 mt 10561 6795 L
12237 6724 mt 12363 6850 L
12363 6724 mt 12237 6850 L
13912 6845 mt 14038 6971 L
14038 6845 mt 13912 6971 L
15588 6894 mt 15714 7020 L
15714 6894 mt 15588 7020 L
DA
gr

gs 2248 1048 13404 6626 rc
SO
/c12 { 1.000000 0.103448 0.724138 sr} bdef
c12
1676 -7 1675 5 1676 7 1675 -3 1675 1 1676 -5 1675 13 1675 -19 
2248 7613 9 MP stroke
gr

c12
SO
gs 2030 7376 13840 456 rc
0 j
0 -142 -142 0 0 142 142 0 2177 7542 5 MP
DP
0 -142 -142 0 0 142 142 0 3852 7523 5 MP
DP
0 -142 -142 0 0 142 142 0 5527 7536 5 MP
DP
0 -142 -142 0 0 142 142 0 7203 7531 5 MP
DP
0 -142 -142 0 0 142 142 0 8878 7532 5 MP
DP
0 -142 -142 0 0 142 142 0 10553 7529 5 MP
DP
0 -142 -142 0 0 142 142 0 12229 7536 5 MP
DP
0 -142 -142 0 0 142 142 0 13904 7541 5 MP
DP
0 -142 -142 0 0 142 142 0 15580 7534 5 MP
DP
gr

gs 2248 1048 13404 6626 rc
DO
/c13 { 0.000000 0.344828 0.000000 sr} bdef
c13
1676 228 1675 100 1676 110 1675 217 1675 65 1676 202 1675 52 1675 117 
2248 6013 9 MP stroke
gr

c13
DO
gs 2030 5795 13840 1528 rc
SO
0 j
90 119 -90 119 -90 -119 90 -119 2248 6132 5 MP
DP
90 119 -90 119 -90 -119 90 -119 3923 6249 5 MP
DP
90 119 -90 119 -90 -119 90 -119 5598 6301 5 MP
DP
90 119 -90 119 -90 -119 90 -119 7274 6503 5 MP
DP
90 119 -90 119 -90 -119 90 -119 8949 6568 5 MP
DP
90 119 -90 119 -90 -119 90 -119 10624 6785 5 MP
DP
90 119 -90 119 -90 -119 90 -119 12300 6895 5 MP
DP
90 119 -90 119 -90 -119 90 -119 13975 6995 5 MP
DP
90 119 -90 119 -90 -119 90 -119 15651 7223 5 MP
DP
DO
gr

gs 2248 1048 13404 6626 rc
DD
1676 392 1675 302 1676 278 1675 181 1675 266 1676 199 1675 232 1675 291 
2248 4647 9 MP stroke
gr

DD
gs 2030 4429 13840 2578 rc
SO
60 W
2248 4647 PD
60 W
3923 4938 PD
60 W
5598 5170 PD
60 W
7274 5369 PD
60 W
8949 5635 PD
60 W
10624 5816 PD
60 W
12300 6094 PD
60 W
13975 6396 PD
60 W
15651 6788 PD
DD
gr

gs 2248 1048 13404 6626 rc
DA
/c14 { 0.517241 0.517241 1.000000 sr} bdef
c14
1676 24 1675 127 1676 40 1675 70 1675 43 1676 46 1675 135 1675 16 
2248 6332 9 MP stroke
gr

c14
DA
gs 2030 6114 13840 938 rc
SO
0 j
-104 179 -104 -179 208 0 2144 6392 4 MP
DP
-104 179 -104 -179 208 0 3819 6408 4 MP
DP
-104 179 -104 -179 208 0 5494 6543 4 MP
DP
-104 179 -104 -179 208 0 7170 6589 4 MP
DP
-104 179 -104 -179 208 0 8845 6632 4 MP
DP
-104 179 -104 -179 208 0 10520 6702 4 MP
DP
-104 179 -104 -179 208 0 12196 6742 4 MP
DP
-104 179 -104 -179 208 0 13871 6869 4 MP
DP
-104 179 -104 -179 208 0 15547 6893 4 MP
DP
DA
gr

gs 2248 1048 13404 6626 rc
SO
/c15 { 0.620690 0.310345 0.275862 sr} bdef
c15
1676 55 1675 170 1676 67 1675 113 1675 121 1676 139 1675 157 1675 169 
2248 5292 9 MP stroke
gr

c15
SO
gs 2030 5074 13840 1428 rc
0 j
-179 104 0 -208 179 104 2129 5292 4 MP
DP
-179 104 0 -208 179 104 3804 5461 4 MP
DP
-179 104 0 -208 179 104 5479 5618 4 MP
DP
-179 104 0 -208 179 104 7155 5757 4 MP
DP
-179 104 0 -208 179 104 8830 5878 4 MP
DP
-179 104 0 -208 179 104 10505 5991 4 MP
DP
-179 104 0 -208 179 104 12181 6058 4 MP
DP
-179 104 0 -208 179 104 13856 6228 4 MP
DP
-179 104 0 -208 179 104 15532 6283 4 MP
DP
gr

gs 2248 1048 13404 6626 rc
DO
/c16 { 0.000000 1.000000 0.758621 sr} bdef
c16
1676 38 1675 74 1676 30 1675 12 1675 57 1676 81 1675 47 1675 88 
2248 7053 9 MP stroke
gr

c16
DO
gs 2030 6835 13840 864 rc
SO
0 j
0 208 -179 -104 179 -104 2188 7157 4 MP
DP
0 208 -179 -104 179 -104 3863 7245 4 MP
DP
0 208 -179 -104 179 -104 5538 7292 4 MP
DP
0 208 -179 -104 179 -104 7214 7373 4 MP
DP
0 208 -179 -104 179 -104 8889 7430 4 MP
DP
0 208 -179 -104 179 -104 10564 7442 4 MP
DP
0 208 -179 -104 179 -104 12240 7472 4 MP
DP
0 208 -179 -104 179 -104 13915 7546 4 MP
DP
0 208 -179 -104 179 -104 15591 7584 4 MP
DP
DO
gr

gs 2248 1048 13404 6626 rc
SO
/c17 { 0.000000 0.517241 0.586207 sr} bdef
c17
1676 192 1675 49 1676 161 1675 154 1675 84 1676 170 1675 107 1675 248 
2248 6065 9 MP stroke
gr

c17
SO
gs 2030 5847 13840 1602 rc
0 j
-51 -39 18 -61 -53 36 -52 -36 18 61 -51 39 64 0 21 62 
22 -62 64 0 2162 6037 11 MP
DP
-51 -39 18 -61 -53 36 -52 -36 18 61 -51 39 64 0 21 62 
22 -62 64 0 3837 6285 11 MP
DP
-51 -39 18 -61 -53 36 -52 -36 18 61 -51 39 64 0 21 62 
22 -62 64 0 5512 6392 11 MP
DP
-51 -39 18 -61 -53 36 -52 -36 18 61 -51 39 64 0 21 62 
22 -62 64 0 7188 6562 11 MP
DP
-51 -39 18 -61 -53 36 -52 -36 18 61 -51 39 64 0 21 62 
22 -62 64 0 8863 6646 11 MP
DP
-51 -39 18 -61 -53 36 -52 -36 18 61 -51 39 64 0 21 62 
22 -62 64 0 10538 6800 11 MP
DP
-51 -39 18 -61 -53 36 -52 -36 18 61 -51 39 64 0 21 62 
22 -62 64 0 12214 6961 11 MP
DP
-51 -39 18 -61 -53 36 -52 -36 18 61 -51 39 64 0 21 62 
22 -62 64 0 13889 7010 11 MP
DP
-51 -39 18 -61 -53 36 -52 -36 18 61 -51 39 64 0 21 62 
22 -62 64 0 15565 7202 11 MP
DP
gr

gs 2248 1048 13404 6626 rc
DO
/c18 { 0.000000 0.000000 0.482759 sr} bdef
c18
1676 126 1675 73 1676 10 1675 128 1675 77 1676 26 1675 164 1675 58 
2248 6712 9 MP stroke
gr

c18
DO
gs 2030 6494 13840 1099 rc
SO
0 j
-32 -45 32 -45 -52 0 -25 -45 -25 45 -52 0 32 45 -32 45 
52 0 25 45 25 -45 52 0 2171 6667 13 MP
DP
-32 -45 32 -45 -52 0 -25 -45 -25 45 -52 0 32 45 -32 45 
52 0 25 45 25 -45 52 0 3846 6725 13 MP
DP
-32 -45 32 -45 -52 0 -25 -45 -25 45 -52 0 32 45 -32 45 
52 0 25 45 25 -45 52 0 5521 6889 13 MP
DP
-32 -45 32 -45 -52 0 -25 -45 -25 45 -52 0 32 45 -32 45 
52 0 25 45 25 -45 52 0 7197 6915 13 MP
DP
-32 -45 32 -45 -52 0 -25 -45 -25 45 -52 0 32 45 -32 45 
52 0 25 45 25 -45 52 0 8872 6992 13 MP
DP
-32 -45 32 -45 -52 0 -25 -45 -25 45 -52 0 32 45 -32 45 
52 0 25 45 25 -45 52 0 10547 7120 13 MP
DP
-32 -45 32 -45 -52 0 -25 -45 -25 45 -52 0 32 45 -32 45 
52 0 25 45 25 -45 52 0 12223 7130 13 MP
DP
-32 -45 32 -45 -52 0 -25 -45 -25 45 -52 0 32 45 -32 45 
52 0 25 45 25 -45 52 0 13898 7203 13 MP
DP
-32 -45 32 -45 -52 0 -25 -45 -25 45 -52 0 32 45 -32 45 
52 0 25 45 25 -45 52 0 15574 7329 13 MP
DP
DO
gr

gs 2248 1048 13404 6626 rc
gr

0 sg
%%IncludeResource: font Helvetica
/Helvetica /WindowsLatin1Encoding 480 FMSR

5211  446 mt 
(Evaluations at end fo runs \(D) s
%%IncludeResource: font Helvetica
/Helvetica /WindowsLatin1Encoding 384 FMSR

11381  686 mt 
(e) s
%%IncludeResource: font Helvetica
/Helvetica /WindowsLatin1Encoding 480 FMSR

11594  446 mt 
( end\)) s
6957 8561 mt 
(Elements removed) s
SO
6 w

end %%Color Dict

eplot
%%EndObject

epage
end

showpage

%%Trailer
%%EOF
