%!PS-Adobe-3.0 EPSF-3.0
%%Creator: MATLAB, The MathWorks, Inc. Version 8.2.0.701 (R2013b). Operating System: Microsoft Windows 8.
%%Title: D:\PPSNthesis\EndofRun\Fitness.eps
%%CreationDate: 03/15/2016  14:01:14
%%DocumentNeededFonts: Helvetica
%%+ Helvetica-Bold
%%DocumentProcessColors: Cyan Magenta Yellow Black
%%LanguageLevel: 2
%%Pages: 1
%%BoundingBox:  -422    59  1019   782
%%EndComments

%%BeginProlog
% MathWorks dictionary
/MathWorks 160 dict begin
% definition operators
/bdef {bind def} bind def
/ldef {load def} bind def
/xdef {exch def} bdef
/xstore {exch store} bdef
% operator abbreviations
/c  /clip ldef
/cc /concat ldef
/cp /closepath ldef
/gr /grestore ldef
/gs /gsave ldef
/mt /moveto ldef
/np /newpath ldef
/cm /currentmatrix ldef
/sm /setmatrix ldef
/rm /rmoveto ldef
/rl /rlineto ldef
/s {show newpath} bdef
/sc {setcmykcolor} bdef
/sr /setrgbcolor ldef
/sg /setgray ldef
/w /setlinewidth ldef
/j /setlinejoin ldef
/cap /setlinecap ldef
/rc {rectclip} bdef
/rf {rectfill} bdef
% page state control
/pgsv () def
/bpage {/pgsv save def} bdef
/epage {pgsv restore} bdef
/bplot /gsave ldef
/eplot {stroke grestore} bdef
% orientation switch
/portraitMode 0 def /landscapeMode 1 def /rotateMode 2 def
% coordinate system mappings
/dpi2point 0 def
% font control
/FontSize 0 def
/FMS {/FontSize xstore findfont [FontSize 0 0 FontSize neg 0 0]
  makefont setfont} bdef
/ISOLatin1Encoding where {pop /WindowsLatin1Encoding 256 array bdef
ISOLatin1Encoding WindowsLatin1Encoding copy pop
/.notdef/.notdef/quotesinglbase/florin/quotedblbase/ellipsis/dagger
/daggerdbl/circumflex/perthousand/Scaron/guilsinglleft/OE/.notdef/.notdef
/.notdef/.notdef/quoteleft/quoteright/quotedblleft/quotedblright/bullet
/endash/emdash/tilde/trademark/scaron/guilsinglright/oe/.notdef/.notdef
/Ydieresis WindowsLatin1Encoding 128 32 getinterval astore pop}
{/WindowsLatin1Encoding StandardEncoding bdef} ifelse
/reencode {exch dup where {pop load} {pop StandardEncoding} ifelse
  exch dup 3 1 roll findfont dup length dict begin
  { 1 index /FID ne {def}{pop pop} ifelse } forall
  /Encoding exch def currentdict end definefont pop} bdef
/isroman {findfont /CharStrings get /Agrave known} bdef
/FMSR {3 1 roll 1 index dup isroman {reencode} {pop pop} ifelse
  exch FMS} bdef
/csm {1 dpi2point div -1 dpi2point div scale neg translate
 dup landscapeMode eq {pop -90 rotate}
  {rotateMode eq {90 rotate} if} ifelse} bdef
% line types: solid, dotted, dashed, dotdash
/SO { [] 0 setdash } bdef
/DO { [.5 dpi2point mul 4 dpi2point mul] 0 setdash } bdef
/DA { [6 dpi2point mul] 0 setdash } bdef
/DD { [.5 dpi2point mul 4 dpi2point mul 6 dpi2point mul 4
  dpi2point mul] 0 setdash } bdef
% macros for lines and objects
/L {lineto stroke} bdef
/MP {3 1 roll moveto 1 sub {rlineto} repeat} bdef
/AP {{rlineto} repeat} bdef
/PDlw -1 def
/W {/PDlw currentlinewidth def setlinewidth} def
/PP {closepath eofill} bdef
/DP {closepath stroke} bdef
/MR {4 -2 roll moveto dup  0 exch rlineto exch 0 rlineto
  neg 0 exch rlineto closepath} bdef
/FR {MR stroke} bdef
/PR {MR fill} bdef
/L1i {{currentfile picstr readhexstring pop} image} bdef
/tMatrix matrix def
/MakeOval {newpath tMatrix currentmatrix pop translate scale
0 0 1 0 360 arc tMatrix setmatrix} bdef
/FO {MakeOval stroke} bdef
/PO {MakeOval fill} bdef
/PD {currentlinewidth 2 div 0 360 arc fill
   PDlw -1 eq not {PDlw w /PDlw -1 def} if} def
/FA {newpath tMatrix currentmatrix pop translate scale
  0 0 1 5 -2 roll arc tMatrix setmatrix stroke} bdef
/PA {newpath tMatrix currentmatrix pop	translate 0 0 moveto scale
  0 0 1 5 -2 roll arc closepath tMatrix setmatrix fill} bdef
/FAn {newpath tMatrix currentmatrix pop translate scale
  0 0 1 5 -2 roll arcn tMatrix setmatrix stroke} bdef
/PAn {newpath tMatrix currentmatrix pop translate 0 0 moveto scale
  0 0 1 5 -2 roll arcn closepath tMatrix setmatrix fill} bdef
/vradius 0 def /hradius 0 def /lry 0 def
/lrx 0 def /uly 0 def /ulx 0 def /rad 0 def
/MRR {/vradius xdef /hradius xdef /lry xdef /lrx xdef /uly xdef
  /ulx xdef newpath tMatrix currentmatrix pop ulx hradius add uly
  vradius add translate hradius vradius scale 0 0 1 180 270 arc 
  tMatrix setmatrix lrx hradius sub uly vradius add translate
  hradius vradius scale 0 0 1 270 360 arc tMatrix setmatrix
  lrx hradius sub lry vradius sub translate hradius vradius scale
  0 0 1 0 90 arc tMatrix setmatrix ulx hradius add lry vradius sub
  translate hradius vradius scale 0 0 1 90 180 arc tMatrix setmatrix
  closepath} bdef
/FRR {MRR stroke } bdef
/PRR {MRR fill } bdef
/MlrRR {/lry xdef /lrx xdef /uly xdef /ulx xdef /rad lry uly sub 2 div def
  newpath tMatrix currentmatrix pop ulx rad add uly rad add translate
  rad rad scale 0 0 1 90 270 arc tMatrix setmatrix lrx rad sub lry rad
  sub translate rad rad scale 0 0 1 270 90 arc tMatrix setmatrix
  closepath} bdef
/FlrRR {MlrRR stroke } bdef
/PlrRR {MlrRR fill } bdef
/MtbRR {/lry xdef /lrx xdef /uly xdef /ulx xdef /rad lrx ulx sub 2 div def
  newpath tMatrix currentmatrix pop ulx rad add uly rad add translate
  rad rad scale 0 0 1 180 360 arc tMatrix setmatrix lrx rad sub lry rad
  sub translate rad rad scale 0 0 1 0 180 arc tMatrix setmatrix
  closepath} bdef
/FtbRR {MtbRR stroke } bdef
/PtbRR {MtbRR fill } bdef
/stri 6 array def /dtri 6 array def
/smat 6 array def /dmat 6 array def
/tmat1 6 array def /tmat2 6 array def /dif 3 array def
/asub {/ind2 exch def /ind1 exch def dup dup
  ind1 get exch ind2 get sub exch } bdef
/tri_to_matrix {
  2 0 asub 3 1 asub 4 0 asub 5 1 asub
  dup 0 get exch 1 get 7 -1 roll astore } bdef
/compute_transform {
  dmat dtri tri_to_matrix tmat1 invertmatrix 
  smat stri tri_to_matrix tmat2 concatmatrix } bdef
/ds {stri astore pop} bdef
/dt {dtri astore pop} bdef
/db {2 copy /cols xdef /rows xdef mul dup 3 mul string
  currentfile 
  3 index 0 eq {/ASCIIHexDecode filter}
  {/ASCII85Decode filter 3 index 2 eq {/RunLengthDecode filter} if }
  ifelse exch readstring pop
  dup 0 3 index getinterval /rbmap xdef
  dup 2 index dup getinterval /gbmap xdef
  1 index dup 2 mul exch getinterval /bbmap xdef pop pop}bdef
/it {gs np dtri aload pop moveto lineto lineto cp c
  cols rows 8 compute_transform 
  rbmap gbmap bbmap true 3 colorimage gr}bdef
/il {newpath moveto lineto stroke}bdef
currentdict end def
%%EndProlog

%%BeginSetup
MathWorks begin

0 cap

end
%%EndSetup

%%Page: 1 1
%%BeginPageSetup
%%PageBoundingBox:  -422    59  1019   782
MathWorks begin
bpage
%%EndPageSetup

%%BeginObject: obj1
bplot

/dpi2point 12 def
portraitMode -5064 9384 csm

    0     0 17294  8671 rc
85 dict begin %Colortable dictionary
/c0 { 0.000000 0.000000 0.000000 sr} bdef
/c1 { 1.000000 1.000000 1.000000 sr} bdef
/c2 { 0.900000 0.000000 0.000000 sr} bdef
/c3 { 0.000000 0.820000 0.000000 sr} bdef
/c4 { 0.000000 0.000000 0.800000 sr} bdef
/c5 { 0.910000 0.820000 0.320000 sr} bdef
/c6 { 1.000000 0.260000 0.820000 sr} bdef
/c7 { 0.000000 0.820000 0.820000 sr} bdef
c0
1 j
1 sg
   0    0 17295 8672 rf
6 w
0 7068 13404 0 0 -7068 2247 7717 4 MP
PP
-13404 0 0 7068 13404 0 0 -7068 2247 7717 5 MP stroke
4 w
DO
SO
6 w
0 sg
2247  649 mt 15651  649 L
2247 7717 mt 15651 7717 L
15651 7717 mt 15651  649 L
2247 7717 mt 2247  649 L
2247 7717 mt 15651 7717 L
2247 7717 mt 2247  649 L
3278 7717 mt 3278 7582 L
3278  649 mt 3278  784 L
%%IncludeResource: font Helvetica
/Helvetica /WindowsLatin1Encoding 360 FMSR

3078 8086 mt 
(41) s
4310 7717 mt 4310 7582 L
4310  649 mt 4310  784 L
4110 8086 mt 
(52) s
5341 7717 mt 5341 7582 L
5341  649 mt 5341  784 L
5141 8086 mt 
(63) s
6372 7717 mt 6372 7582 L
6372  649 mt 6372  784 L
6172 8086 mt 
(a5) s
7403 7717 mt 7403 7582 L
7403  649 mt 7403  784 L
7203 8086 mt 
(b4) s
8434 7717 mt 8434 7582 L
8434  649 mt 8434  784 L
8244 8086 mt 
(c3) s
9465 7717 mt 9465 7582 L
9465  649 mt 9465  784 L
9265 8086 mt 
(d2) s
10496 7717 mt 10496 7582 L
10496  649 mt 10496  784 L
10296 8086 mt 
(e1) s
11527 7717 mt 11527 7582 L
11527  649 mt 11527  784 L
11167 8086 mt 
(nre1) s
12558 7717 mt 12558 7582 L
12558  649 mt 12558  784 L
12248 8086 mt 
(nrf2) s
13589 7717 mt 13589 7582 L
13589  649 mt 13589  784 L
13229 8086 mt 
(nrg3) s
14620 7717 mt 14620 7582 L
14620  649 mt 14620  784 L
14260 8086 mt 
(nrh4) s
2247 7717 mt 2315 7717 L
15651 7717 mt 15583 7717 L
2247 7717 mt 2382 7717 L
15651 7717 mt 15516 7717 L
1680 7851 mt 
(10) s
%%IncludeResource: font Helvetica
/Helvetica /WindowsLatin1Encoding 240 FMSR

2080 7628 mt 
(4) s
2247 7185 mt 2315 7185 L
15651 7185 mt 15583 7185 L
2247 6874 mt 2315 6874 L
15651 6874 mt 15583 6874 L
2247 6653 mt 2315 6653 L
15651 6653 mt 15583 6653 L
2247 6482 mt 2315 6482 L
15651 6482 mt 15583 6482 L
2247 6342 mt 2315 6342 L
15651 6342 mt 15583 6342 L
2247 6223 mt 2315 6223 L
15651 6223 mt 15583 6223 L
2247 6121 mt 2315 6121 L
15651 6121 mt 15583 6121 L
2247 6031 mt 2315 6031 L
15651 6031 mt 15583 6031 L
2247 5950 mt 2315 5950 L
15651 5950 mt 15583 5950 L
2247 5950 mt 2382 5950 L
15651 5950 mt 15516 5950 L
%%IncludeResource: font Helvetica
/Helvetica /WindowsLatin1Encoding 360 FMSR

1680 6084 mt 
(10) s
%%IncludeResource: font Helvetica
/Helvetica /WindowsLatin1Encoding 240 FMSR

2080 5861 mt 
(5) s
2247 5418 mt 2315 5418 L
15651 5418 mt 15583 5418 L
2247 5107 mt 2315 5107 L
15651 5107 mt 15583 5107 L
2247 4886 mt 2315 4886 L
15651 4886 mt 15583 4886 L
2247 4715 mt 2315 4715 L
15651 4715 mt 15583 4715 L
2247 4575 mt 2315 4575 L
15651 4575 mt 15583 4575 L
2247 4457 mt 2315 4457 L
15651 4457 mt 15583 4457 L
2247 4354 mt 2315 4354 L
15651 4354 mt 15583 4354 L
2247 4264 mt 2315 4264 L
15651 4264 mt 15583 4264 L
2247 4183 mt 2315 4183 L
15651 4183 mt 15583 4183 L
2247 4183 mt 2382 4183 L
15651 4183 mt 15516 4183 L
%%IncludeResource: font Helvetica
/Helvetica /WindowsLatin1Encoding 360 FMSR

1680 4317 mt 
(10) s
%%IncludeResource: font Helvetica
/Helvetica /WindowsLatin1Encoding 240 FMSR

2080 4094 mt 
(6) s
2247 3651 mt 2315 3651 L
15651 3651 mt 15583 3651 L
2247 3340 mt 2315 3340 L
15651 3340 mt 15583 3340 L
2247 3119 mt 2315 3119 L
15651 3119 mt 15583 3119 L
2247 2948 mt 2315 2948 L
15651 2948 mt 15583 2948 L
2247 2808 mt 2315 2808 L
15651 2808 mt 15583 2808 L
2247 2690 mt 2315 2690 L
15651 2690 mt 15583 2690 L
2247 2587 mt 2315 2587 L
15651 2587 mt 15583 2587 L
2247 2497 mt 2315 2497 L
15651 2497 mt 15583 2497 L
2247 2416 mt 2315 2416 L
15651 2416 mt 15583 2416 L
2247 2416 mt 2382 2416 L
15651 2416 mt 15516 2416 L
%%IncludeResource: font Helvetica
/Helvetica /WindowsLatin1Encoding 360 FMSR

1680 2550 mt 
(10) s
%%IncludeResource: font Helvetica
/Helvetica /WindowsLatin1Encoding 240 FMSR

2080 2327 mt 
(7) s
2247 1884 mt 2315 1884 L
15651 1884 mt 15583 1884 L
2247 1573 mt 2315 1573 L
15651 1573 mt 15583 1573 L
2247 1353 mt 2315 1353 L
15651 1353 mt 15583 1353 L
2247 1181 mt 2315 1181 L
15651 1181 mt 15583 1181 L
2247 1041 mt 2315 1041 L
15651 1041 mt 15583 1041 L
2247  923 mt 2315  923 L
15651  923 mt 15583  923 L
2247  821 mt 2315  821 L
15651  821 mt 15583  821 L
2247  730 mt 2315  730 L
15651  730 mt 15583  730 L
2247  649 mt 2315  649 L
15651  649 mt 15583  649 L
2247  649 mt 2382  649 L
15651  649 mt 15516  649 L
%%IncludeResource: font Helvetica
/Helvetica /WindowsLatin1Encoding 360 FMSR

1680  783 mt 
(10) s
%%IncludeResource: font Helvetica
/Helvetica /WindowsLatin1Encoding 240 FMSR

2080  560 mt 
(8) s
2247  649 mt 15651  649 L
2247 7717 mt 15651 7717 L
15651 7717 mt 15651  649 L
2247 7717 mt 2247  649 L
gs 2248 650 13404 7068 rc
24 w
/c8 { 1.000000 0.000000 0.000000 sr} bdef
c8
0 261 3278 3687 2 MP stroke
227 0 3165 3687 2 MP stroke
227 0 3165 3948 2 MP stroke
0 425 4310 3151 2 MP stroke
227 0 4196 3151 2 MP stroke
227 0 4196 3576 2 MP stroke
0 232 5341 4336 2 MP stroke
227 0 5227 4336 2 MP stroke
227 0 5227 4568 2 MP stroke
0 354 6372 2708 2 MP stroke
227 0 6258 2708 2 MP stroke
227 0 6258 3062 2 MP stroke
0 260 7403 3320 2 MP stroke
227 0 7289 3320 2 MP stroke
227 0 7289 3580 2 MP stroke
0 312 8434 2380 2 MP stroke
227 0 8320 2380 2 MP stroke
227 0 8320 2692 2 MP stroke
0 262 9465 2975 2 MP stroke
227 0 9351 2975 2 MP stroke
227 0 9351 3237 2 MP stroke
0 316 10496 6033 2 MP stroke
227 0 10382 6033 2 MP stroke
227 0 10382 6349 2 MP stroke
0 325 11527 3179 2 MP stroke
227 0 11413 3179 2 MP stroke
227 0 11413 3504 2 MP stroke
0 310 12558 3652 2 MP stroke
227 0 12444 3652 2 MP stroke
227 0 12444 3962 2 MP stroke
0 234 13589 1388 2 MP stroke
227 0 13475 1388 2 MP stroke
227 0 13475 1622 2 MP stroke
0 257 14620 1910 2 MP stroke
227 0 14506 1910 2 MP stroke
227 0 14506 2167 2 MP stroke
gs 3132 1350 11635 4972 rc
3218 3807 mt 3338 3807 L
3278 3747 mt 3278 3867 L
4250 3334 mt 4370 3334 L
4310 3274 mt 4310 3394 L
5281 4443 mt 5401 4443 L
5341 4383 mt 5341 4503 L
6312 2865 mt 6432 2865 L
6372 2805 mt 6372 2925 L
7343 3439 mt 7463 3439 L
7403 3379 mt 7403 3499 L
8374 2520 mt 8494 2520 L
8434 2460 mt 8434 2580 L
9405 3095 mt 9525 3095 L
9465 3035 mt 9465 3155 L
10436 6175 mt 10556 6175 L
10496 6115 mt 10496 6235 L
11467 3325 mt 11587 3325 L
11527 3265 mt 11527 3385 L
12498 3792 mt 12618 3792 L
12558 3732 mt 12558 3852 L
13529 1496 mt 13649 1496 L
13589 1436 mt 13589 1556 L
14560 2028 mt 14680 2028 L
14620 1968 mt 14620 2088 L
3236 3765 mt 3320 3849 L
3320 3765 mt 3236 3849 L
4268 3292 mt 4352 3376 L
4352 3292 mt 4268 3376 L
5299 4401 mt 5383 4485 L
5383 4401 mt 5299 4485 L
6330 2823 mt 6414 2907 L
6414 2823 mt 6330 2907 L
7361 3397 mt 7445 3481 L
7445 3397 mt 7361 3481 L
8392 2478 mt 8476 2562 L
8476 2478 mt 8392 2562 L
9423 3053 mt 9507 3137 L
9507 3053 mt 9423 3137 L
10454 6133 mt 10538 6217 L
10538 6133 mt 10454 6217 L
11485 3283 mt 11569 3367 L
11569 3283 mt 11485 3367 L
12516 3750 mt 12600 3834 L
12600 3750 mt 12516 3834 L
13547 1454 mt 13631 1538 L
13631 1454 mt 13547 1538 L
14578 1986 mt 14662 2070 L
14662 1986 mt 14578 2070 L
gr

/c9 { 0.000000 0.000000 1.000000 sr} bdef
c9
0 168 3278 3593 2 MP stroke
227 0 3165 3593 2 MP stroke
227 0 3165 3761 2 MP stroke
0 160 4310 3062 2 MP stroke
227 0 4196 3062 2 MP stroke
227 0 4196 3222 2 MP stroke
0 183 5341 4086 2 MP stroke
227 0 5227 4086 2 MP stroke
227 0 5227 4269 2 MP stroke
0 261 6372 2511 2 MP stroke
227 0 6258 2511 2 MP stroke
227 0 6258 2772 2 MP stroke
0 166 7403 3050 2 MP stroke
227 0 7289 3050 2 MP stroke
227 0 7289 3216 2 MP stroke
0 196 8434 2210 2 MP stroke
227 0 8320 2210 2 MP stroke
227 0 8320 2406 2 MP stroke
0 160 9465 2720 2 MP stroke
227 0 9351 2720 2 MP stroke
227 0 9351 2880 2 MP stroke
0 178 10496 5808 2 MP stroke
227 0 10382 5808 2 MP stroke
227 0 10382 5986 2 MP stroke
0 130 11527 2937 2 MP stroke
227 0 11413 2937 2 MP stroke
227 0 11413 3067 2 MP stroke
0 204 12558 3342 2 MP stroke
227 0 12444 3342 2 MP stroke
227 0 12444 3546 2 MP stroke
0 280 13589 1083 2 MP stroke
227 0 13475 1083 2 MP stroke
227 0 13475 1363 2 MP stroke
0 183 14620 1638 2 MP stroke
227 0 14506 1638 2 MP stroke
227 0 14506 1821 2 MP stroke
gs 3132 1064 11635 4975 rc
3218 3672 mt 3338 3672 L
3278 3612 mt 3278 3732 L
4250 3138 mt 4370 3138 L
4310 3078 mt 4310 3198 L
5281 4172 mt 5401 4172 L
5341 4112 mt 5341 4232 L
6312 2630 mt 6432 2630 L
6372 2570 mt 6372 2690 L
7343 3128 mt 7463 3128 L
7403 3068 mt 7403 3188 L
8374 2301 mt 8494 2301 L
8434 2241 mt 8434 2361 L
9405 2796 mt 9525 2796 L
9465 2736 mt 9465 2856 L
10436 5892 mt 10556 5892 L
10496 5832 mt 10496 5952 L
11467 3000 mt 11587 3000 L
11527 2940 mt 11527 3060 L
12498 3437 mt 12618 3437 L
12558 3377 mt 12558 3497 L
13529 1210 mt 13649 1210 L
13589 1150 mt 13589 1270 L
14560 1724 mt 14680 1724 L
14620 1664 mt 14620 1784 L
3236 3630 mt 3320 3714 L
3320 3630 mt 3236 3714 L
4268 3096 mt 4352 3180 L
4352 3096 mt 4268 3180 L
5299 4130 mt 5383 4214 L
5383 4130 mt 5299 4214 L
6330 2588 mt 6414 2672 L
6414 2588 mt 6330 2672 L
7361 3086 mt 7445 3170 L
7445 3086 mt 7361 3170 L
8392 2259 mt 8476 2343 L
8476 2259 mt 8392 2343 L
9423 2754 mt 9507 2838 L
9507 2754 mt 9423 2838 L
10454 5850 mt 10538 5934 L
10538 5850 mt 10454 5934 L
11485 2958 mt 11569 3042 L
11569 2958 mt 11485 3042 L
12516 3395 mt 12600 3479 L
12600 3395 mt 12516 3479 L
13547 1168 mt 13631 1252 L
13631 1168 mt 13547 1252 L
14578 1682 mt 14662 1766 L
14662 1682 mt 14578 1766 L
gr

gr

24 w
c9
0 sg
%%IncludeResource: font Helvetica-Bold
/Helvetica-Bold /WindowsLatin1Encoding 360 FMSR

5724  361 mt 
(Fitness evaluations at the end of runs) s
%%IncludeResource: font Helvetica
/Helvetica /WindowsLatin1Encoding 120 FMSR

2231 7760 mt 
( ) s
15635  692 mt 
( ) s
6 w
1 sg
0 890 2086 0 0 -890 2308 7658 4 MP
PP
-2086 0 0 890 2086 0 0 -890 2308 7658 5 MP stroke
4 w
DO
SO
6 w
0 sg
2308 6768 mt 4394 6768 L
2308 7658 mt 4394 7658 L
4394 7658 mt 4394 6768 L
2308 7658 mt 2308 6768 L
2308 7658 mt 4394 7658 L
2308 7658 mt 2308 6768 L
2308 6768 mt 4394 6768 L
2308 7658 mt 4394 7658 L
4394 7658 mt 4394 6768 L
2308 7658 mt 2308 6768 L
%%IncludeResource: font Helvetica
/Helvetica /WindowsLatin1Encoding 360 FMSR

2772 7128 mt 
(GSEMO) s
gs 2308 6768 2087 891 rc
24 w
6 w
gs 2436 6879 243 243 rc
c8
2497 7000 mt 2617 7000 L
2557 6940 mt 2557 7060 L
2515 6958 mt 2599 7042 L
2599 6958 mt 2515 7042 L
gr

c8
gr

c8
0 sg
2772 7553 mt 
(PGSEMO) s
gs 2308 6768 2087 891 rc
24 w
6 w
gs 2436 7304 243 243 rc
c9
2497 7425 mt 2617 7425 L
2557 7365 mt 2557 7485 L
2515 7383 mt 2599 7467 L
2599 7383 mt 2515 7467 L
gr

c9
gr

c9

end %%Color Dict

eplot
%%EndObject

epage
end

showpage

%%Trailer
%%EOF
