%!PS-Adobe-3.0 EPSF-3.0
%%Creator: MATLAB, The MathWorks, Inc. Version 8.2.0.701 (R2013b). Operating System: Microsoft Windows 8.
%%Title: D:\PPSNthesis\EndofRun\iter.eps
%%CreationDate: 03/15/2016  14:02:01
%%DocumentNeededFonts: Helvetica
%%+ Helvetica-Bold
%%DocumentProcessColors: Cyan Magenta Yellow Black
%%LanguageLevel: 2
%%Pages: 1
%%BoundingBox:  -422    59  1019   782
%%EndComments

%%BeginProlog
% MathWorks dictionary
/MathWorks 160 dict begin
% definition operators
/bdef {bind def} bind def
/ldef {load def} bind def
/xdef {exch def} bdef
/xstore {exch store} bdef
% operator abbreviations
/c  /clip ldef
/cc /concat ldef
/cp /closepath ldef
/gr /grestore ldef
/gs /gsave ldef
/mt /moveto ldef
/np /newpath ldef
/cm /currentmatrix ldef
/sm /setmatrix ldef
/rm /rmoveto ldef
/rl /rlineto ldef
/s {show newpath} bdef
/sc {setcmykcolor} bdef
/sr /setrgbcolor ldef
/sg /setgray ldef
/w /setlinewidth ldef
/j /setlinejoin ldef
/cap /setlinecap ldef
/rc {rectclip} bdef
/rf {rectfill} bdef
% page state control
/pgsv () def
/bpage {/pgsv save def} bdef
/epage {pgsv restore} bdef
/bplot /gsave ldef
/eplot {stroke grestore} bdef
% orientation switch
/portraitMode 0 def /landscapeMode 1 def /rotateMode 2 def
% coordinate system mappings
/dpi2point 0 def
% font control
/FontSize 0 def
/FMS {/FontSize xstore findfont [FontSize 0 0 FontSize neg 0 0]
  makefont setfont} bdef
/ISOLatin1Encoding where {pop /WindowsLatin1Encoding 256 array bdef
ISOLatin1Encoding WindowsLatin1Encoding copy pop
/.notdef/.notdef/quotesinglbase/florin/quotedblbase/ellipsis/dagger
/daggerdbl/circumflex/perthousand/Scaron/guilsinglleft/OE/.notdef/.notdef
/.notdef/.notdef/quoteleft/quoteright/quotedblleft/quotedblright/bullet
/endash/emdash/tilde/trademark/scaron/guilsinglright/oe/.notdef/.notdef
/Ydieresis WindowsLatin1Encoding 128 32 getinterval astore pop}
{/WindowsLatin1Encoding StandardEncoding bdef} ifelse
/reencode {exch dup where {pop load} {pop StandardEncoding} ifelse
  exch dup 3 1 roll findfont dup length dict begin
  { 1 index /FID ne {def}{pop pop} ifelse } forall
  /Encoding exch def currentdict end definefont pop} bdef
/isroman {findfont /CharStrings get /Agrave known} bdef
/FMSR {3 1 roll 1 index dup isroman {reencode} {pop pop} ifelse
  exch FMS} bdef
/csm {1 dpi2point div -1 dpi2point div scale neg translate
 dup landscapeMode eq {pop -90 rotate}
  {rotateMode eq {90 rotate} if} ifelse} bdef
% line types: solid, dotted, dashed, dotdash
/SO { [] 0 setdash } bdef
/DO { [.5 dpi2point mul 4 dpi2point mul] 0 setdash } bdef
/DA { [6 dpi2point mul] 0 setdash } bdef
/DD { [.5 dpi2point mul 4 dpi2point mul 6 dpi2point mul 4
  dpi2point mul] 0 setdash } bdef
% macros for lines and objects
/L {lineto stroke} bdef
/MP {3 1 roll moveto 1 sub {rlineto} repeat} bdef
/AP {{rlineto} repeat} bdef
/PDlw -1 def
/W {/PDlw currentlinewidth def setlinewidth} def
/PP {closepath eofill} bdef
/DP {closepath stroke} bdef
/MR {4 -2 roll moveto dup  0 exch rlineto exch 0 rlineto
  neg 0 exch rlineto closepath} bdef
/FR {MR stroke} bdef
/PR {MR fill} bdef
/L1i {{currentfile picstr readhexstring pop} image} bdef
/tMatrix matrix def
/MakeOval {newpath tMatrix currentmatrix pop translate scale
0 0 1 0 360 arc tMatrix setmatrix} bdef
/FO {MakeOval stroke} bdef
/PO {MakeOval fill} bdef
/PD {currentlinewidth 2 div 0 360 arc fill
   PDlw -1 eq not {PDlw w /PDlw -1 def} if} def
/FA {newpath tMatrix currentmatrix pop translate scale
  0 0 1 5 -2 roll arc tMatrix setmatrix stroke} bdef
/PA {newpath tMatrix currentmatrix pop	translate 0 0 moveto scale
  0 0 1 5 -2 roll arc closepath tMatrix setmatrix fill} bdef
/FAn {newpath tMatrix currentmatrix pop translate scale
  0 0 1 5 -2 roll arcn tMatrix setmatrix stroke} bdef
/PAn {newpath tMatrix currentmatrix pop translate 0 0 moveto scale
  0 0 1 5 -2 roll arcn closepath tMatrix setmatrix fill} bdef
/vradius 0 def /hradius 0 def /lry 0 def
/lrx 0 def /uly 0 def /ulx 0 def /rad 0 def
/MRR {/vradius xdef /hradius xdef /lry xdef /lrx xdef /uly xdef
  /ulx xdef newpath tMatrix currentmatrix pop ulx hradius add uly
  vradius add translate hradius vradius scale 0 0 1 180 270 arc 
  tMatrix setmatrix lrx hradius sub uly vradius add translate
  hradius vradius scale 0 0 1 270 360 arc tMatrix setmatrix
  lrx hradius sub lry vradius sub translate hradius vradius scale
  0 0 1 0 90 arc tMatrix setmatrix ulx hradius add lry vradius sub
  translate hradius vradius scale 0 0 1 90 180 arc tMatrix setmatrix
  closepath} bdef
/FRR {MRR stroke } bdef
/PRR {MRR fill } bdef
/MlrRR {/lry xdef /lrx xdef /uly xdef /ulx xdef /rad lry uly sub 2 div def
  newpath tMatrix currentmatrix pop ulx rad add uly rad add translate
  rad rad scale 0 0 1 90 270 arc tMatrix setmatrix lrx rad sub lry rad
  sub translate rad rad scale 0 0 1 270 90 arc tMatrix setmatrix
  closepath} bdef
/FlrRR {MlrRR stroke } bdef
/PlrRR {MlrRR fill } bdef
/MtbRR {/lry xdef /lrx xdef /uly xdef /ulx xdef /rad lrx ulx sub 2 div def
  newpath tMatrix currentmatrix pop ulx rad add uly rad add translate
  rad rad scale 0 0 1 180 360 arc tMatrix setmatrix lrx rad sub lry rad
  sub translate rad rad scale 0 0 1 0 180 arc tMatrix setmatrix
  closepath} bdef
/FtbRR {MtbRR stroke } bdef
/PtbRR {MtbRR fill } bdef
/stri 6 array def /dtri 6 array def
/smat 6 array def /dmat 6 array def
/tmat1 6 array def /tmat2 6 array def /dif 3 array def
/asub {/ind2 exch def /ind1 exch def dup dup
  ind1 get exch ind2 get sub exch } bdef
/tri_to_matrix {
  2 0 asub 3 1 asub 4 0 asub 5 1 asub
  dup 0 get exch 1 get 7 -1 roll astore } bdef
/compute_transform {
  dmat dtri tri_to_matrix tmat1 invertmatrix 
  smat stri tri_to_matrix tmat2 concatmatrix } bdef
/ds {stri astore pop} bdef
/dt {dtri astore pop} bdef
/db {2 copy /cols xdef /rows xdef mul dup 3 mul string
  currentfile 
  3 index 0 eq {/ASCIIHexDecode filter}
  {/ASCII85Decode filter 3 index 2 eq {/RunLengthDecode filter} if }
  ifelse exch readstring pop
  dup 0 3 index getinterval /rbmap xdef
  dup 2 index dup getinterval /gbmap xdef
  1 index dup 2 mul exch getinterval /bbmap xdef pop pop}bdef
/it {gs np dtri aload pop moveto lineto lineto cp c
  cols rows 8 compute_transform 
  rbmap gbmap bbmap true 3 colorimage gr}bdef
/il {newpath moveto lineto stroke}bdef
currentdict end def
%%EndProlog

%%BeginSetup
MathWorks begin

0 cap

end
%%EndSetup

%%Page: 1 1
%%BeginPageSetup
%%PageBoundingBox:  -422    59  1019   782
MathWorks begin
bpage
%%EndPageSetup

%%BeginObject: obj1
bplot

/dpi2point 12 def
portraitMode -5064 9384 csm

    0     0 17294  8671 rc
85 dict begin %Colortable dictionary
/c0 { 0.000000 0.000000 0.000000 sr} bdef
/c1 { 1.000000 1.000000 1.000000 sr} bdef
/c2 { 0.900000 0.000000 0.000000 sr} bdef
/c3 { 0.000000 0.820000 0.000000 sr} bdef
/c4 { 0.000000 0.000000 0.800000 sr} bdef
/c5 { 0.910000 0.820000 0.320000 sr} bdef
/c6 { 1.000000 0.260000 0.820000 sr} bdef
/c7 { 0.000000 0.820000 0.820000 sr} bdef
c0
1 j
1 sg
   0    0 17295 8672 rf
6 w
0 7067 13403 0 0 -7067 2248 7717 4 MP
PP
-13403 0 0 7067 13403 0 0 -7067 2248 7717 5 MP stroke
4 w
DO
SO
6 w
0 sg
2248  650 mt 15651  650 L
2248 7717 mt 15651 7717 L
15651 7717 mt 15651  650 L
2248 7717 mt 2248  650 L
2248 7717 mt 15651 7717 L
2248 7717 mt 2248  650 L
3279 7717 mt 3279 7582 L
3279  650 mt 3279  784 L
%%IncludeResource: font Helvetica
/Helvetica /WindowsLatin1Encoding 360 FMSR

3079 8086 mt 
(41) s
4310 7717 mt 4310 7582 L
4310  650 mt 4310  784 L
4110 8086 mt 
(52) s
5341 7717 mt 5341 7582 L
5341  650 mt 5341  784 L
5141 8086 mt 
(63) s
6372 7717 mt 6372 7582 L
6372  650 mt 6372  784 L
6172 8086 mt 
(a5) s
7403 7717 mt 7403 7582 L
7403  650 mt 7403  784 L
7203 8086 mt 
(b4) s
8434 7717 mt 8434 7582 L
8434  650 mt 8434  784 L
8244 8086 mt 
(c3) s
9465 7717 mt 9465 7582 L
9465  650 mt 9465  784 L
9265 8086 mt 
(d2) s
10496 7717 mt 10496 7582 L
10496  650 mt 10496  784 L
10296 8086 mt 
(e1) s
11527 7717 mt 11527 7582 L
11527  650 mt 11527  784 L
11167 8086 mt 
(nre1) s
12558 7717 mt 12558 7582 L
12558  650 mt 12558  784 L
12248 8086 mt 
(nrf2) s
13589 7717 mt 13589 7582 L
13589  650 mt 13589  784 L
13229 8086 mt 
(nrg3) s
14620 7717 mt 14620 7582 L
14620  650 mt 14620  784 L
14260 8086 mt 
(nrh4) s
2248 7717 mt 2382 7717 L
15651 7717 mt 15516 7717 L
2013 7851 mt 
(0) s
2248 6539 mt 2382 6539 L
15651 6539 mt 15516 6539 L
2013 6673 mt 
(1) s
2248 5361 mt 2382 5361 L
15651 5361 mt 15516 5361 L
2013 5495 mt 
(2) s
2248 4183 mt 2382 4183 L
15651 4183 mt 15516 4183 L
2013 4317 mt 
(3) s
2248 3005 mt 2382 3005 L
15651 3005 mt 15516 3005 L
2013 3139 mt 
(4) s
2248 1827 mt 2382 1827 L
15651 1827 mt 15516 1827 L
2013 1961 mt 
(5) s
2248  650 mt 2382  650 L
15651  650 mt 15516  650 L
2013  784 mt 
(6) s
2248  596 mt 
(x 10) s
%%IncludeResource: font Helvetica
/Helvetica /WindowsLatin1Encoding 240 FMSR

2928  373 mt 
(5) s
2248  650 mt 15651  650 L
2248 7717 mt 15651 7717 L
15651 7717 mt 15651  650 L
2248 7717 mt 2248  650 L
gs 2248 650 13404 7068 rc
24 w
/c8 { 1.000000 0.000000 0.000000 sr} bdef
c8
0 158 3279 7190 2 MP stroke
227 0 3165 7190 2 MP stroke
227 0 3165 7348 2 MP stroke
0 524 4310 6527 2 MP stroke
227 0 4196 6527 2 MP stroke
227 0 4196 7051 2 MP stroke
0 106 5341 7312 2 MP stroke
227 0 5227 7312 2 MP stroke
227 0 5227 7418 2 MP stroke
0 718 6372 5815 2 MP stroke
227 0 6258 5815 2 MP stroke
227 0 6258 6533 2 MP stroke
0 441 7403 6257 2 MP stroke
227 0 7289 6257 2 MP stroke
227 0 7289 6698 2 MP stroke
0 897 8434 5104 2 MP stroke
227 0 8320 5104 2 MP stroke
227 0 8320 6001 2 MP stroke
0 627 9465 5616 2 MP stroke
227 0 9351 5616 2 MP stroke
227 0 9351 6243 2 MP stroke
0 59 10496 7553 2 MP stroke
227 0 10382 7553 2 MP stroke
227 0 10382 7612 2 MP stroke
0 848 11527 5397 2 MP stroke
227 0 11413 5397 2 MP stroke
227 0 11413 6245 2 MP stroke
0 736 12558 5699 2 MP stroke
227 0 12444 5699 2 MP stroke
227 0 12444 6435 2 MP stroke
0 1851 13589 889 2 MP stroke
227 0 13475 889 2 MP stroke
227 0 13475 2740 2 MP stroke
0 1828 14620 1469 2 MP stroke
227 0 14506 1469 2 MP stroke
227 0 14506 3297 2 MP stroke
gr

24 w
c8
3219 7269 mt 3339 7269 L
3279 7209 mt 3279 7329 L
4250 6789 mt 4370 6789 L
4310 6729 mt 4310 6849 L
5281 7365 mt 5401 7365 L
5341 7305 mt 5341 7425 L
6312 6174 mt 6432 6174 L
6372 6114 mt 6372 6234 L
7343 6477 mt 7463 6477 L
7403 6417 mt 7403 6537 L
8374 5553 mt 8494 5553 L
8434 5493 mt 8434 5613 L
9405 5929 mt 9525 5929 L
9465 5869 mt 9465 5989 L
10436 7583 mt 10556 7583 L
10496 7523 mt 10496 7643 L
11467 5821 mt 11587 5821 L
11527 5761 mt 11527 5881 L
12498 6067 mt 12618 6067 L
12558 6007 mt 12558 6127 L
13529 1814 mt 13649 1814 L
13589 1754 mt 13589 1874 L
14560 2383 mt 14680 2383 L
14620 2323 mt 14620 2443 L
3237 7227 mt 3321 7311 L
3321 7227 mt 3237 7311 L
4268 6747 mt 4352 6831 L
4352 6747 mt 4268 6831 L
5299 7323 mt 5383 7407 L
5383 7323 mt 5299 7407 L
6330 6132 mt 6414 6216 L
6414 6132 mt 6330 6216 L
7361 6435 mt 7445 6519 L
7445 6435 mt 7361 6519 L
8392 5511 mt 8476 5595 L
8476 5511 mt 8392 5595 L
9423 5887 mt 9507 5971 L
9507 5887 mt 9423 5971 L
10454 7541 mt 10538 7625 L
10538 7541 mt 10454 7625 L
11485 5779 mt 11569 5863 L
11569 5779 mt 11485 5863 L
12516 6025 mt 12600 6109 L
12600 6025 mt 12516 6109 L
13547 1772 mt 13631 1856 L
13631 1772 mt 13547 1856 L
14578 2341 mt 14662 2425 L
14662 2341 mt 14578 2425 L
gs 2248 650 13404 7068 rc
/c9 { 0.000000 0.000000 1.000000 sr} bdef
c9
0 76 3279 7331 2 MP stroke
227 0 3165 7331 2 MP stroke
227 0 3165 7407 2 MP stroke
0 145 4310 6947 2 MP stroke
227 0 4196 6947 2 MP stroke
227 0 4196 7092 2 MP stroke
0 71 5341 7382 2 MP stroke
227 0 5227 7382 2 MP stroke
227 0 5227 7453 2 MP stroke
0 389 6372 6365 2 MP stroke
227 0 6258 6365 2 MP stroke
227 0 6258 6754 2 MP stroke
0 219 7403 6595 2 MP stroke
227 0 7289 6595 2 MP stroke
227 0 7289 6814 2 MP stroke
0 396 8434 5964 2 MP stroke
227 0 8320 5964 2 MP stroke
227 0 8320 6360 2 MP stroke
0 293 9465 6162 2 MP stroke
227 0 9351 6162 2 MP stroke
227 0 9351 6455 2 MP stroke
0 26 10496 7588 2 MP stroke
227 0 10382 7588 2 MP stroke
227 0 10382 7614 2 MP stroke
0 266 11527 6010 2 MP stroke
227 0 11413 6010 2 MP stroke
227 0 11413 6276 2 MP stroke
0 412 12558 5953 2 MP stroke
227 0 12444 5953 2 MP stroke
227 0 12444 6365 2 MP stroke
0 1638 13589 2361 2 MP stroke
227 0 13475 2361 2 MP stroke
227 0 13475 3999 2 MP stroke
0 1014 14620 2941 2 MP stroke
227 0 14506 2941 2 MP stroke
227 0 14506 3955 2 MP stroke
gr

c9
3219 7369 mt 3339 7369 L
3279 7309 mt 3279 7429 L
4250 7020 mt 4370 7020 L
4310 6960 mt 4310 7080 L
5281 7418 mt 5401 7418 L
5341 7358 mt 5341 7478 L
6312 6560 mt 6432 6560 L
6372 6500 mt 6372 6620 L
7343 6704 mt 7463 6704 L
7403 6644 mt 7403 6764 L
8374 6162 mt 8494 6162 L
8434 6102 mt 8434 6222 L
9405 6309 mt 9525 6309 L
9465 6249 mt 9465 6369 L
10436 7601 mt 10556 7601 L
10496 7541 mt 10496 7661 L
11467 6143 mt 11587 6143 L
11527 6083 mt 11527 6203 L
12498 6159 mt 12618 6159 L
12558 6099 mt 12558 6219 L
13529 3180 mt 13649 3180 L
13589 3120 mt 13589 3240 L
14560 3448 mt 14680 3448 L
14620 3388 mt 14620 3508 L
3237 7327 mt 3321 7411 L
3321 7327 mt 3237 7411 L
4268 6978 mt 4352 7062 L
4352 6978 mt 4268 7062 L
5299 7376 mt 5383 7460 L
5383 7376 mt 5299 7460 L
6330 6518 mt 6414 6602 L
6414 6518 mt 6330 6602 L
7361 6662 mt 7445 6746 L
7445 6662 mt 7361 6746 L
8392 6120 mt 8476 6204 L
8476 6120 mt 8392 6204 L
9423 6267 mt 9507 6351 L
9507 6267 mt 9423 6351 L
10454 7559 mt 10538 7643 L
10538 7559 mt 10454 7643 L
11485 6101 mt 11569 6185 L
11569 6101 mt 11485 6185 L
12516 6117 mt 12600 6201 L
12600 6117 mt 12516 6201 L
13547 3138 mt 13631 3222 L
13631 3138 mt 13547 3222 L
14578 3406 mt 14662 3490 L
14662 3406 mt 14578 3490 L
gs 2248 650 13404 7068 rc
gr

0 sg
%%IncludeResource: font Helvetica-Bold
/Helvetica-Bold /WindowsLatin1Encoding 360 FMSR

6579  361 mt 
(Iterations at the end of runs) s
%%IncludeResource: font Helvetica
/Helvetica /WindowsLatin1Encoding 120 FMSR

2231 7760 mt 
( ) s
15635  692 mt 
( ) s
6 w
1 sg
0 900 2106 0 0 -900 2430 1759 4 MP
PP
-2106 0 0 900 2106 0 0 -900 2430 1759 5 MP stroke
4 w
DO
SO
6 w
0 sg
2430  859 mt 4536  859 L
2430 1759 mt 4536 1759 L
4536 1759 mt 4536  859 L
2430 1759 mt 2430  859 L
2430 1759 mt 4536 1759 L
2430 1759 mt 2430  859 L
2430  859 mt 4536  859 L
2430 1759 mt 4536 1759 L
4536 1759 mt 4536  859 L
2430 1759 mt 2430  859 L
%%IncludeResource: font Helvetica
/Helvetica /WindowsLatin1Encoding 360 FMSR

2898 1222 mt 
(GSEMO) s
gs 2430 859 2107 901 rc
24 w
6 w
gs 2561 973 243 243 rc
c8
2622 1094 mt 2742 1094 L
2682 1034 mt 2682 1154 L
2640 1052 mt 2724 1136 L
2724 1052 mt 2640 1136 L
gr

c8
gr

c8
0 sg
2898 1651 mt 
(PGSEMO) s
gs 2430 859 2107 901 rc
24 w
6 w
gs 2561 1402 243 243 rc
c9
2622 1523 mt 2742 1523 L
2682 1463 mt 2682 1583 L
2640 1481 mt 2724 1565 L
2724 1481 mt 2640 1565 L
gr

c9
gr

c9

end %%Color Dict

eplot
%%EndObject

epage
end

showpage

%%Trailer
%%EOF
