%!PS-Adobe-3.0 EPSF-3.0
%%Creator: MATLAB, The MathWorks, Inc. Version 8.2.0.701 (R2013b). Operating System: Microsoft Windows 8.
%%Title: .\swap1.eps
%%CreationDate: 05/17/2016  17:48:33
%%DocumentNeededFonts: Helvetica
%%DocumentProcessColors: Cyan Magenta Yellow Black
%%LanguageLevel: 2
%%Pages: 1
%%BoundingBox:  -305    59   908   786
%%EndComments

%%BeginProlog
% MathWorks dictionary
/MathWorks 160 dict begin
% definition operators
/bdef {bind def} bind def
/ldef {load def} bind def
/xdef {exch def} bdef
/xstore {exch store} bdef
% operator abbreviations
/c  /clip ldef
/cc /concat ldef
/cp /closepath ldef
/gr /grestore ldef
/gs /gsave ldef
/mt /moveto ldef
/np /newpath ldef
/cm /currentmatrix ldef
/sm /setmatrix ldef
/rm /rmoveto ldef
/rl /rlineto ldef
/s {show newpath} bdef
/sc {setcmykcolor} bdef
/sr /setrgbcolor ldef
/sg /setgray ldef
/w /setlinewidth ldef
/j /setlinejoin ldef
/cap /setlinecap ldef
/rc {rectclip} bdef
/rf {rectfill} bdef
% page state control
/pgsv () def
/bpage {/pgsv save def} bdef
/epage {pgsv restore} bdef
/bplot /gsave ldef
/eplot {stroke grestore} bdef
% orientation switch
/portraitMode 0 def /landscapeMode 1 def /rotateMode 2 def
% coordinate system mappings
/dpi2point 0 def
% font control
/FontSize 0 def
/FMS {/FontSize xstore findfont [FontSize 0 0 FontSize neg 0 0]
  makefont setfont} bdef
/ISOLatin1Encoding where {pop /WindowsLatin1Encoding 256 array bdef
ISOLatin1Encoding WindowsLatin1Encoding copy pop
/.notdef/.notdef/quotesinglbase/florin/quotedblbase/ellipsis/dagger
/daggerdbl/circumflex/perthousand/Scaron/guilsinglleft/OE/.notdef/.notdef
/.notdef/.notdef/quoteleft/quoteright/quotedblleft/quotedblright/bullet
/endash/emdash/tilde/trademark/scaron/guilsinglright/oe/.notdef/.notdef
/Ydieresis WindowsLatin1Encoding 128 32 getinterval astore pop}
{/WindowsLatin1Encoding StandardEncoding bdef} ifelse
/reencode {exch dup where {pop load} {pop StandardEncoding} ifelse
  exch dup 3 1 roll findfont dup length dict begin
  { 1 index /FID ne {def}{pop pop} ifelse } forall
  /Encoding exch def currentdict end definefont pop} bdef
/isroman {findfont /CharStrings get /Agrave known} bdef
/FMSR {3 1 roll 1 index dup isroman {reencode} {pop pop} ifelse
  exch FMS} bdef
/csm {1 dpi2point div -1 dpi2point div scale neg translate
 dup landscapeMode eq {pop -90 rotate}
  {rotateMode eq {90 rotate} if} ifelse} bdef
% line types: solid, dotted, dashed, dotdash
/SO { [] 0 setdash } bdef
/DO { [.5 dpi2point mul 4 dpi2point mul] 0 setdash } bdef
/DA { [6 dpi2point mul] 0 setdash } bdef
/DD { [.5 dpi2point mul 4 dpi2point mul 6 dpi2point mul 4
  dpi2point mul] 0 setdash } bdef
% macros for lines and objects
/L {lineto stroke} bdef
/MP {3 1 roll moveto 1 sub {rlineto} repeat} bdef
/AP {{rlineto} repeat} bdef
/PDlw -1 def
/W {/PDlw currentlinewidth def setlinewidth} def
/PP {closepath eofill} bdef
/DP {closepath stroke} bdef
/MR {4 -2 roll moveto dup  0 exch rlineto exch 0 rlineto
  neg 0 exch rlineto closepath} bdef
/FR {MR stroke} bdef
/PR {MR fill} bdef
/L1i {{currentfile picstr readhexstring pop} image} bdef
/tMatrix matrix def
/MakeOval {newpath tMatrix currentmatrix pop translate scale
0 0 1 0 360 arc tMatrix setmatrix} bdef
/FO {MakeOval stroke} bdef
/PO {MakeOval fill} bdef
/PD {currentlinewidth 2 div 0 360 arc fill
   PDlw -1 eq not {PDlw w /PDlw -1 def} if} def
/FA {newpath tMatrix currentmatrix pop translate scale
  0 0 1 5 -2 roll arc tMatrix setmatrix stroke} bdef
/PA {newpath tMatrix currentmatrix pop	translate 0 0 moveto scale
  0 0 1 5 -2 roll arc closepath tMatrix setmatrix fill} bdef
/FAn {newpath tMatrix currentmatrix pop translate scale
  0 0 1 5 -2 roll arcn tMatrix setmatrix stroke} bdef
/PAn {newpath tMatrix currentmatrix pop translate 0 0 moveto scale
  0 0 1 5 -2 roll arcn closepath tMatrix setmatrix fill} bdef
/vradius 0 def /hradius 0 def /lry 0 def
/lrx 0 def /uly 0 def /ulx 0 def /rad 0 def
/MRR {/vradius xdef /hradius xdef /lry xdef /lrx xdef /uly xdef
  /ulx xdef newpath tMatrix currentmatrix pop ulx hradius add uly
  vradius add translate hradius vradius scale 0 0 1 180 270 arc 
  tMatrix setmatrix lrx hradius sub uly vradius add translate
  hradius vradius scale 0 0 1 270 360 arc tMatrix setmatrix
  lrx hradius sub lry vradius sub translate hradius vradius scale
  0 0 1 0 90 arc tMatrix setmatrix ulx hradius add lry vradius sub
  translate hradius vradius scale 0 0 1 90 180 arc tMatrix setmatrix
  closepath} bdef
/FRR {MRR stroke } bdef
/PRR {MRR fill } bdef
/MlrRR {/lry xdef /lrx xdef /uly xdef /ulx xdef /rad lry uly sub 2 div def
  newpath tMatrix currentmatrix pop ulx rad add uly rad add translate
  rad rad scale 0 0 1 90 270 arc tMatrix setmatrix lrx rad sub lry rad
  sub translate rad rad scale 0 0 1 270 90 arc tMatrix setmatrix
  closepath} bdef
/FlrRR {MlrRR stroke } bdef
/PlrRR {MlrRR fill } bdef
/MtbRR {/lry xdef /lrx xdef /uly xdef /ulx xdef /rad lrx ulx sub 2 div def
  newpath tMatrix currentmatrix pop ulx rad add uly rad add translate
  rad rad scale 0 0 1 180 360 arc tMatrix setmatrix lrx rad sub lry rad
  sub translate rad rad scale 0 0 1 0 180 arc tMatrix setmatrix
  closepath} bdef
/FtbRR {MtbRR stroke } bdef
/PtbRR {MtbRR fill } bdef
/stri 6 array def /dtri 6 array def
/smat 6 array def /dmat 6 array def
/tmat1 6 array def /tmat2 6 array def /dif 3 array def
/asub {/ind2 exch def /ind1 exch def dup dup
  ind1 get exch ind2 get sub exch } bdef
/tri_to_matrix {
  2 0 asub 3 1 asub 4 0 asub 5 1 asub
  dup 0 get exch 1 get 7 -1 roll astore } bdef
/compute_transform {
  dmat dtri tri_to_matrix tmat1 invertmatrix 
  smat stri tri_to_matrix tmat2 concatmatrix } bdef
/ds {stri astore pop} bdef
/dt {dtri astore pop} bdef
/db {2 copy /cols xdef /rows xdef mul dup 3 mul string
  currentfile 
  3 index 0 eq {/ASCIIHexDecode filter}
  {/ASCII85Decode filter 3 index 2 eq {/RunLengthDecode filter} if }
  ifelse exch readstring pop
  dup 0 3 index getinterval /rbmap xdef
  dup 2 index dup getinterval /gbmap xdef
  1 index dup 2 mul exch getinterval /bbmap xdef pop pop}bdef
/it {gs np dtri aload pop moveto lineto lineto cp c
  cols rows 8 compute_transform 
  rbmap gbmap bbmap true 3 colorimage gr}bdef
/il {newpath moveto lineto stroke}bdef
currentdict end def
%%EndProlog

%%BeginSetup
MathWorks begin

0 cap

end
%%EndSetup

%%Page: 1 1
%%BeginPageSetup
%%PageBoundingBox:  -305    59   908   786
MathWorks begin
bpage
%%EndPageSetup

%%BeginObject: obj1
bplot

/dpi2point 12 def
portraitMode -5064 9384 csm

 1399   -48 14568  8719 rc
94 dict begin %Colortable dictionary
/c0 { 0.000000 0.000000 0.000000 sr} bdef
/c1 { 1.000000 1.000000 1.000000 sr} bdef
/c2 { 0.900000 0.000000 0.000000 sr} bdef
/c3 { 0.000000 0.820000 0.000000 sr} bdef
/c4 { 0.000000 0.000000 0.800000 sr} bdef
/c5 { 0.910000 0.820000 0.320000 sr} bdef
/c6 { 1.000000 0.260000 0.820000 sr} bdef
/c7 { 0.000000 0.820000 0.820000 sr} bdef
c0
1 j
1 sg
   0    0 17295 8672 rf
6 w
0 6625 13403 0 0 -6625 2248 7673 4 MP
PP
-13403 0 0 6625 13403 0 0 -6625 2248 7673 5 MP stroke
4 w
DO
0 sg
2248 7673 mt 2248 1048 L
2248 1048 mt 2248 1048 L
3923 7673 mt 3923 1048 L
3923 1048 mt 3923 1048 L
5598 7673 mt 5598 1048 L
5598 1048 mt 5598 1048 L
7274 7673 mt 7274 1048 L
7274 1048 mt 7274 1048 L
8949 7673 mt 8949 1048 L
8949 1048 mt 8949 1048 L
10624 7673 mt 10624 1048 L
10624 1048 mt 10624 1048 L
12300 7673 mt 12300 1048 L
12300 1048 mt 12300 1048 L
13975 7673 mt 13975 1048 L
13975 1048 mt 13975 1048 L
15651 7673 mt 15651 1048 L
15651 1048 mt 15651 1048 L
2248 7673 mt 15651 7673 L
15651 7673 mt 15651 7673 L
2248 6348 mt 15651 6348 L
15651 6348 mt 15651 6348 L
2248 5023 mt 15651 5023 L
15651 5023 mt 15651 5023 L
2248 3698 mt 15651 3698 L
15651 3698 mt 15651 3698 L
2248 2373 mt 15651 2373 L
15651 2373 mt 15651 2373 L
2248 1048 mt 15651 1048 L
15651 1048 mt 15651 1048 L
SO
6 w
2248 1048 mt 15651 1048 L
2248 7673 mt 15651 7673 L
15651 7673 mt 15651 1048 L
2248 7673 mt 2248 1048 L
2248 7673 mt 15651 7673 L
2248 7673 mt 2248 1048 L
2248 7673 mt 2248 7538 L
2248 1048 mt 2248 1182 L
%%IncludeResource: font Helvetica
/Helvetica /WindowsLatin1Encoding 480 FMSR

1982 8153 mt 
(10) s
3923 7673 mt 3923 7538 L
3923 1048 mt 3923 1182 L
3657 8153 mt 
(20) s
5598 7673 mt 5598 7538 L
5598 1048 mt 5598 1182 L
5332 8153 mt 
(30) s
7274 7673 mt 7274 7538 L
7274 1048 mt 7274 1182 L
7008 8153 mt 
(40) s
8949 7673 mt 8949 7538 L
8949 1048 mt 8949 1182 L
8683 8153 mt 
(50) s
10624 7673 mt 10624 7538 L
10624 1048 mt 10624 1182 L
10358 8153 mt 
(60) s
12300 7673 mt 12300 7538 L
12300 1048 mt 12300 1182 L
12034 8153 mt 
(70) s
13975 7673 mt 13975 7538 L
13975 1048 mt 13975 1182 L
13709 8153 mt 
(80) s
15651 7673 mt 15651 7538 L
15651 1048 mt 15651 1182 L
15385 8153 mt 
(90) s
2248 7673 mt 2382 7673 L
15651 7673 mt 15516 7673 L
1399 7851 mt 
(-50) s
2248 6348 mt 2382 6348 L
15651 6348 mt 15516 6348 L
1947 6526 mt 
(0) s
2248 5023 mt 2382 5023 L
15651 5023 mt 15516 5023 L
1680 5201 mt 
(50) s
2248 3698 mt 2382 3698 L
15651 3698 mt 15516 3698 L
1413 3876 mt 
(100) s
2248 2373 mt 2382 2373 L
15651 2373 mt 15516 2373 L
1413 2551 mt 
(150) s
2248 1048 mt 2382 1048 L
15651 1048 mt 15516 1048 L
1413 1226 mt 
(200) s
2248 1048 mt 15651 1048 L
2248 7673 mt 15651 7673 L
15651 7673 mt 15651 1048 L
2248 7673 mt 2248 1048 L
gs 2248 1048 13404 6626 rc
36 w
/c8 { 0.000000 0.000000 1.000000 sr} bdef
c8
1676 121 1675 67 1676 147 1675 -151 1675 567 1676 -81 1675 29 1675 536 
2248 4631 9 MP stroke
gr

36 w
c8
gs 2030 4413 13840 1672 rc
  90   90 2248 4631 FO
  90   90 3923 5167 FO
  90   90 5598 5196 FO
  90   90 7274 5115 FO
  90   90 8949 5682 FO
  90   90 10624 5531 FO
  90   90 12300 5678 FO
  90   90 13975 5745 FO
  90   90 15651 5866 FO
gr

gs 2248 1048 13404 6626 rc
DO
/c9 { 1.000000 0.000000 0.000000 sr} bdef
c9
1676 -636 1675 -644 1676 1471 1675 114 1675 454 1676 -80 1675 485 1675 344 
2248 3167 9 MP stroke
gr

c9
DO
gs 2030 2949 13840 3225 rc
SO
0 j
104 179 -208 0 104 -179 2248 3286 4 MP
DP
104 179 -208 0 104 -179 3923 3630 4 MP
DP
104 179 -208 0 104 -179 5598 4115 4 MP
DP
104 179 -208 0 104 -179 7274 4035 4 MP
DP
104 179 -208 0 104 -179 8949 4489 4 MP
DP
104 179 -208 0 104 -179 10624 4603 4 MP
DP
104 179 -208 0 104 -179 12300 6074 4 MP
DP
104 179 -208 0 104 -179 13975 5430 4 MP
DP
104 179 -208 0 104 -179 15651 4794 4 MP
DP
DO
gr

gs 2248 1048 13404 6626 rc
DD
/c10 { 0.000000 1.000000 0.000000 sr} bdef
c10
1676 55 1675 -82 1676 25 1675 43 1675 -26 1676 67 1675 34 1675 99 
2248 5863 9 MP stroke
gr

c10
DD
gs 2030 5645 13840 679 rc
SO
2185 5800 mt 2311 5926 L
2311 5800 mt 2185 5926 L
3860 5899 mt 3986 6025 L
3986 5899 mt 3860 6025 L
5535 5933 mt 5661 6059 L
5661 5933 mt 5535 6059 L
7211 6000 mt 7337 6126 L
7337 6000 mt 7211 6126 L
8886 5974 mt 9012 6100 L
9012 5974 mt 8886 6100 L
10561 6017 mt 10687 6143 L
10687 6017 mt 10561 6143 L
12237 6042 mt 12363 6168 L
12363 6042 mt 12237 6168 L
13912 5960 mt 14038 6086 L
14038 5960 mt 13912 6086 L
15588 6015 mt 15714 6141 L
15714 6015 mt 15588 6141 L
DD
gr

gs 2248 1048 13404 6626 rc
DA
/c11 { 0.000000 0.000000 0.172414 sr} bdef
c11
1676 71 1675 138 1676 -165 1675 119 1675 2 1676 136 1675 151 1675 -41 
2248 5599 9 MP stroke
gr

c11
DA
gs 2030 5340 13840 889 rc
SO
2158 5599 mt 2338 5599 L
2248 5509 mt 2248 5689 L
3833 5558 mt 4013 5558 L
3923 5468 mt 3923 5648 L
5508 5709 mt 5688 5709 L
5598 5619 mt 5598 5799 L
7184 5845 mt 7364 5845 L
7274 5755 mt 7274 5935 L
8859 5847 mt 9039 5847 L
8949 5757 mt 8949 5937 L
10534 5966 mt 10714 5966 L
10624 5876 mt 10624 6056 L
12210 5801 mt 12390 5801 L
12300 5711 mt 12300 5891 L
13885 5939 mt 14065 5939 L
13975 5849 mt 13975 6029 L
15561 6010 mt 15741 6010 L
15651 5920 mt 15651 6100 L
2185 5536 mt 2311 5662 L
2311 5536 mt 2185 5662 L
3860 5495 mt 3986 5621 L
3986 5495 mt 3860 5621 L
5535 5646 mt 5661 5772 L
5661 5646 mt 5535 5772 L
7211 5782 mt 7337 5908 L
7337 5782 mt 7211 5908 L
8886 5784 mt 9012 5910 L
9012 5784 mt 8886 5910 L
10561 5903 mt 10687 6029 L
10687 5903 mt 10561 6029 L
12237 5738 mt 12363 5864 L
12363 5738 mt 12237 5864 L
13912 5876 mt 14038 6002 L
14038 5876 mt 13912 6002 L
15588 5947 mt 15714 6073 L
15714 5947 mt 15588 6073 L
DA
gr

gs 2248 1048 13404 6626 rc
SO
/c12 { 1.000000 0.103448 0.724138 sr} bdef
c12
1676 10 1675 -64 1676 10 1675 -2 1675 4 1676 52 1675 7 1675 -13 
2248 5957 9 MP stroke
gr

c12
SO
gs 2030 5726 13840 508 rc
0 j
0 -142 -142 0 0 142 142 0 2177 5886 5 MP
DP
0 -142 -142 0 0 142 142 0 3852 5873 5 MP
DP
0 -142 -142 0 0 142 142 0 5527 5880 5 MP
DP
0 -142 -142 0 0 142 142 0 7203 5932 5 MP
DP
0 -142 -142 0 0 142 142 0 8878 5936 5 MP
DP
0 -142 -142 0 0 142 142 0 10553 5934 5 MP
DP
0 -142 -142 0 0 142 142 0 12229 5944 5 MP
DP
0 -142 -142 0 0 142 142 0 13904 5880 5 MP
DP
0 -142 -142 0 0 142 142 0 15580 5890 5 MP
DP
gr

gs 2248 1048 13404 6626 rc
DO
/c13 { 0.000000 0.344828 0.000000 sr} bdef
c13
1676 8 1675 -68 1676 132 1675 86 1675 258 1676 -61 1675 338 1675 58 
2248 5104 9 MP stroke
gr

c13
DO
gs 2030 4886 13840 1248 rc
SO
0 j
90 119 -90 119 -90 -119 90 -119 2248 5223 5 MP
DP
90 119 -90 119 -90 -119 90 -119 3923 5281 5 MP
DP
90 119 -90 119 -90 -119 90 -119 5598 5619 5 MP
DP
90 119 -90 119 -90 -119 90 -119 7274 5558 5 MP
DP
90 119 -90 119 -90 -119 90 -119 8949 5816 5 MP
DP
90 119 -90 119 -90 -119 90 -119 10624 5902 5 MP
DP
90 119 -90 119 -90 -119 90 -119 12300 6034 5 MP
DP
90 119 -90 119 -90 -119 90 -119 13975 5966 5 MP
DP
90 119 -90 119 -90 -119 90 -119 15651 5974 5 MP
DP
DO
gr

gs 2248 1048 13404 6626 rc
DD
1676 620 1675 -333 1676 275 1675 231 1675 -27 1676 358 1675 1691 1675 -22 
2248 3009 9 MP stroke
gr

DD
gs 2030 2769 13840 3252 rc
SO
60 W
2248 3009 PD
60 W
3923 2987 PD
60 W
5598 4678 PD
60 W
7274 5036 PD
60 W
8949 5009 PD
60 W
10624 5240 PD
60 W
12300 5515 PD
60 W
13975 5182 PD
60 W
15651 5802 PD
DD
gr

gs 2248 1048 13404 6626 rc
DA
/c14 { 0.517241 0.517241 1.000000 sr} bdef
c14
1676 -358 1675 486 1676 -292 1675 299 1675 -231 1676 500 1675 -138 1675 611 
2248 4496 9 MP stroke
gr

c14
DA
gs 2030 4278 13840 1672 rc
SO
0 j
-104 179 -104 -179 208 0 2144 4556 4 MP
DP
-104 179 -104 -179 208 0 3819 5167 4 MP
DP
-104 179 -104 -179 208 0 5494 5029 4 MP
DP
-104 179 -104 -179 208 0 7170 5529 4 MP
DP
-104 179 -104 -179 208 0 8845 5298 4 MP
DP
-104 179 -104 -179 208 0 10520 5597 4 MP
DP
-104 179 -104 -179 208 0 12196 5305 4 MP
DP
-104 179 -104 -179 208 0 13871 5791 4 MP
DP
-104 179 -104 -179 208 0 15547 5433 4 MP
DP
DA
gr

gs 2248 1048 13404 6626 rc
SO
/c15 { 0.620690 0.310345 0.275862 sr} bdef
c15
1676 956 1675 -783 1676 296 1675 157 1675 498 1676 547 1675 607 1675 405 
2248 2527 9 MP stroke
gr

c15
SO
gs 2030 2309 13840 3120 rc
0 j
-179 104 0 -208 179 104 2129 2527 4 MP
DP
-179 104 0 -208 179 104 3804 2932 4 MP
DP
-179 104 0 -208 179 104 5479 3539 4 MP
DP
-179 104 0 -208 179 104 7155 4086 4 MP
DP
-179 104 0 -208 179 104 8830 4584 4 MP
DP
-179 104 0 -208 179 104 10505 4741 4 MP
DP
-179 104 0 -208 179 104 12181 5037 4 MP
DP
-179 104 0 -208 179 104 13856 4254 4 MP
DP
-179 104 0 -208 179 104 15532 5210 4 MP
DP
gr

gs 2248 1048 13404 6626 rc
DO
/c16 { 0.000000 1.000000 0.758621 sr} bdef
c16
1676 -64 1675 -1 1676 154 1675 15 1675 10 1676 319 1675 211 1675 137 
2248 5164 9 MP stroke
gr

c16
DO
gs 2030 4946 13840 1283 rc
SO
0 j
0 208 -179 -104 179 -104 2188 5268 4 MP
DP
0 208 -179 -104 179 -104 3863 5405 4 MP
DP
0 208 -179 -104 179 -104 5538 5616 4 MP
DP
0 208 -179 -104 179 -104 7214 5935 4 MP
DP
0 208 -179 -104 179 -104 8889 5945 4 MP
DP
0 208 -179 -104 179 -104 10564 5960 4 MP
DP
0 208 -179 -104 179 -104 12240 6114 4 MP
DP
0 208 -179 -104 179 -104 13915 6113 4 MP
DP
0 208 -179 -104 179 -104 15591 6049 4 MP
DP
DO
gr

gs 2248 1048 13404 6626 rc
SO
/c17 { 0.000000 0.517241 0.586207 sr} bdef
c17
1676 -257 1675 370 1676 49 1675 -331 1675 713 1676 646 1675 335 1675 369 
2248 3255 9 MP stroke
gr

c17
SO
gs 2030 3037 13840 2588 rc
0 j
-51 -39 18 -61 -53 36 -52 -36 18 61 -51 39 64 0 21 62 
22 -62 64 0 2162 3227 11 MP
DP
-51 -39 18 -61 -53 36 -52 -36 18 61 -51 39 64 0 21 62 
22 -62 64 0 3837 3596 11 MP
DP
-51 -39 18 -61 -53 36 -52 -36 18 61 -51 39 64 0 21 62 
22 -62 64 0 5512 3931 11 MP
DP
-51 -39 18 -61 -53 36 -52 -36 18 61 -51 39 64 0 21 62 
22 -62 64 0 7188 4577 11 MP
DP
-51 -39 18 -61 -53 36 -52 -36 18 61 -51 39 64 0 21 62 
22 -62 64 0 8863 5290 11 MP
DP
-51 -39 18 -61 -53 36 -52 -36 18 61 -51 39 64 0 21 62 
22 -62 64 0 10538 4959 11 MP
DP
-51 -39 18 -61 -53 36 -52 -36 18 61 -51 39 64 0 21 62 
22 -62 64 0 12214 5008 11 MP
DP
-51 -39 18 -61 -53 36 -52 -36 18 61 -51 39 64 0 21 62 
22 -62 64 0 13889 5378 11 MP
DP
-51 -39 18 -61 -53 36 -52 -36 18 61 -51 39 64 0 21 62 
22 -62 64 0 15565 5121 11 MP
DP
gr

gs 2248 1048 13404 6626 rc
DO
/c18 { 0.000000 0.000000 0.482759 sr} bdef
c18
1676 1276 1675 -95 1676 581 1675 -79 1675 502 1676 508 1675 1757 1675 -773 
2248 2777 9 MP stroke
gr

c18
DO
gs 2030 1786 13840 4887 rc
SO
0 j
-32 -45 32 -45 -52 0 -25 -45 -25 45 -52 0 32 45 -32 45 
52 0 25 45 25 -45 52 0 2171 2732 13 MP
DP
-32 -45 32 -45 -52 0 -25 -45 -25 45 -52 0 32 45 -32 45 
52 0 25 45 25 -45 52 0 3846 1959 13 MP
DP
-32 -45 32 -45 -52 0 -25 -45 -25 45 -52 0 32 45 -32 45 
52 0 25 45 25 -45 52 0 5521 3716 13 MP
DP
-32 -45 32 -45 -52 0 -25 -45 -25 45 -52 0 32 45 -32 45 
52 0 25 45 25 -45 52 0 7197 4224 13 MP
DP
-32 -45 32 -45 -52 0 -25 -45 -25 45 -52 0 32 45 -32 45 
52 0 25 45 25 -45 52 0 8872 4726 13 MP
DP
-32 -45 32 -45 -52 0 -25 -45 -25 45 -52 0 32 45 -32 45 
52 0 25 45 25 -45 52 0 10547 4647 13 MP
DP
-32 -45 32 -45 -52 0 -25 -45 -25 45 -52 0 32 45 -32 45 
52 0 25 45 25 -45 52 0 12223 5228 13 MP
DP
-32 -45 32 -45 -52 0 -25 -45 -25 45 -52 0 32 45 -32 45 
52 0 25 45 25 -45 52 0 13898 5133 13 MP
DP
-32 -45 32 -45 -52 0 -25 -45 -25 45 -52 0 32 45 -32 45 
52 0 25 45 25 -45 52 0 15574 6409 13 MP
DP
DO
gr

gs 2248 1048 13404 6626 rc
gr

0 sg
4587  446 mt 
(Generations to reach feasible region \(D) s
%%IncludeResource: font Helvetica
/Helvetica /WindowsLatin1Encoding 384 FMSR

12935  686 mt 
(g) s
%%IncludeResource: font Helvetica
/Helvetica /WindowsLatin1Encoding 480 FMSR

13148  446 mt 
(\)) s
6931 8561 mt 
(Elements swapped) s
SO
6 w

end %%Color Dict

eplot
%%EndObject

epage
end

showpage

%%Trailer
%%EOF
