%!PS-Adobe-3.0 EPSF-3.0
%%Creator: MATLAB, The MathWorks, Inc. Version 8.2.0.701 (R2013b). Operating System: Microsoft Windows 8.
%%Title: .\swap6.eps
%%CreationDate: 05/17/2016  17:48:35
%%DocumentNeededFonts: Helvetica
%%DocumentProcessColors: Cyan Magenta Yellow Black
%%LanguageLevel: 2
%%Pages: 1
%%BoundingBox:  -293    59   908   786
%%EndComments

%%BeginProlog
% MathWorks dictionary
/MathWorks 160 dict begin
% definition operators
/bdef {bind def} bind def
/ldef {load def} bind def
/xdef {exch def} bdef
/xstore {exch store} bdef
% operator abbreviations
/c  /clip ldef
/cc /concat ldef
/cp /closepath ldef
/gr /grestore ldef
/gs /gsave ldef
/mt /moveto ldef
/np /newpath ldef
/cm /currentmatrix ldef
/sm /setmatrix ldef
/rm /rmoveto ldef
/rl /rlineto ldef
/s {show newpath} bdef
/sc {setcmykcolor} bdef
/sr /setrgbcolor ldef
/sg /setgray ldef
/w /setlinewidth ldef
/j /setlinejoin ldef
/cap /setlinecap ldef
/rc {rectclip} bdef
/rf {rectfill} bdef
% page state control
/pgsv () def
/bpage {/pgsv save def} bdef
/epage {pgsv restore} bdef
/bplot /gsave ldef
/eplot {stroke grestore} bdef
% orientation switch
/portraitMode 0 def /landscapeMode 1 def /rotateMode 2 def
% coordinate system mappings
/dpi2point 0 def
% font control
/FontSize 0 def
/FMS {/FontSize xstore findfont [FontSize 0 0 FontSize neg 0 0]
  makefont setfont} bdef
/ISOLatin1Encoding where {pop /WindowsLatin1Encoding 256 array bdef
ISOLatin1Encoding WindowsLatin1Encoding copy pop
/.notdef/.notdef/quotesinglbase/florin/quotedblbase/ellipsis/dagger
/daggerdbl/circumflex/perthousand/Scaron/guilsinglleft/OE/.notdef/.notdef
/.notdef/.notdef/quoteleft/quoteright/quotedblleft/quotedblright/bullet
/endash/emdash/tilde/trademark/scaron/guilsinglright/oe/.notdef/.notdef
/Ydieresis WindowsLatin1Encoding 128 32 getinterval astore pop}
{/WindowsLatin1Encoding StandardEncoding bdef} ifelse
/reencode {exch dup where {pop load} {pop StandardEncoding} ifelse
  exch dup 3 1 roll findfont dup length dict begin
  { 1 index /FID ne {def}{pop pop} ifelse } forall
  /Encoding exch def currentdict end definefont pop} bdef
/isroman {findfont /CharStrings get /Agrave known} bdef
/FMSR {3 1 roll 1 index dup isroman {reencode} {pop pop} ifelse
  exch FMS} bdef
/csm {1 dpi2point div -1 dpi2point div scale neg translate
 dup landscapeMode eq {pop -90 rotate}
  {rotateMode eq {90 rotate} if} ifelse} bdef
% line types: solid, dotted, dashed, dotdash
/SO { [] 0 setdash } bdef
/DO { [.5 dpi2point mul 4 dpi2point mul] 0 setdash } bdef
/DA { [6 dpi2point mul] 0 setdash } bdef
/DD { [.5 dpi2point mul 4 dpi2point mul 6 dpi2point mul 4
  dpi2point mul] 0 setdash } bdef
% macros for lines and objects
/L {lineto stroke} bdef
/MP {3 1 roll moveto 1 sub {rlineto} repeat} bdef
/AP {{rlineto} repeat} bdef
/PDlw -1 def
/W {/PDlw currentlinewidth def setlinewidth} def
/PP {closepath eofill} bdef
/DP {closepath stroke} bdef
/MR {4 -2 roll moveto dup  0 exch rlineto exch 0 rlineto
  neg 0 exch rlineto closepath} bdef
/FR {MR stroke} bdef
/PR {MR fill} bdef
/L1i {{currentfile picstr readhexstring pop} image} bdef
/tMatrix matrix def
/MakeOval {newpath tMatrix currentmatrix pop translate scale
0 0 1 0 360 arc tMatrix setmatrix} bdef
/FO {MakeOval stroke} bdef
/PO {MakeOval fill} bdef
/PD {currentlinewidth 2 div 0 360 arc fill
   PDlw -1 eq not {PDlw w /PDlw -1 def} if} def
/FA {newpath tMatrix currentmatrix pop translate scale
  0 0 1 5 -2 roll arc tMatrix setmatrix stroke} bdef
/PA {newpath tMatrix currentmatrix pop	translate 0 0 moveto scale
  0 0 1 5 -2 roll arc closepath tMatrix setmatrix fill} bdef
/FAn {newpath tMatrix currentmatrix pop translate scale
  0 0 1 5 -2 roll arcn tMatrix setmatrix stroke} bdef
/PAn {newpath tMatrix currentmatrix pop translate 0 0 moveto scale
  0 0 1 5 -2 roll arcn closepath tMatrix setmatrix fill} bdef
/vradius 0 def /hradius 0 def /lry 0 def
/lrx 0 def /uly 0 def /ulx 0 def /rad 0 def
/MRR {/vradius xdef /hradius xdef /lry xdef /lrx xdef /uly xdef
  /ulx xdef newpath tMatrix currentmatrix pop ulx hradius add uly
  vradius add translate hradius vradius scale 0 0 1 180 270 arc 
  tMatrix setmatrix lrx hradius sub uly vradius add translate
  hradius vradius scale 0 0 1 270 360 arc tMatrix setmatrix
  lrx hradius sub lry vradius sub translate hradius vradius scale
  0 0 1 0 90 arc tMatrix setmatrix ulx hradius add lry vradius sub
  translate hradius vradius scale 0 0 1 90 180 arc tMatrix setmatrix
  closepath} bdef
/FRR {MRR stroke } bdef
/PRR {MRR fill } bdef
/MlrRR {/lry xdef /lrx xdef /uly xdef /ulx xdef /rad lry uly sub 2 div def
  newpath tMatrix currentmatrix pop ulx rad add uly rad add translate
  rad rad scale 0 0 1 90 270 arc tMatrix setmatrix lrx rad sub lry rad
  sub translate rad rad scale 0 0 1 270 90 arc tMatrix setmatrix
  closepath} bdef
/FlrRR {MlrRR stroke } bdef
/PlrRR {MlrRR fill } bdef
/MtbRR {/lry xdef /lrx xdef /uly xdef /ulx xdef /rad lrx ulx sub 2 div def
  newpath tMatrix currentmatrix pop ulx rad add uly rad add translate
  rad rad scale 0 0 1 180 360 arc tMatrix setmatrix lrx rad sub lry rad
  sub translate rad rad scale 0 0 1 0 180 arc tMatrix setmatrix
  closepath} bdef
/FtbRR {MtbRR stroke } bdef
/PtbRR {MtbRR fill } bdef
/stri 6 array def /dtri 6 array def
/smat 6 array def /dmat 6 array def
/tmat1 6 array def /tmat2 6 array def /dif 3 array def
/asub {/ind2 exch def /ind1 exch def dup dup
  ind1 get exch ind2 get sub exch } bdef
/tri_to_matrix {
  2 0 asub 3 1 asub 4 0 asub 5 1 asub
  dup 0 get exch 1 get 7 -1 roll astore } bdef
/compute_transform {
  dmat dtri tri_to_matrix tmat1 invertmatrix 
  smat stri tri_to_matrix tmat2 concatmatrix } bdef
/ds {stri astore pop} bdef
/dt {dtri astore pop} bdef
/db {2 copy /cols xdef /rows xdef mul dup 3 mul string
  currentfile 
  3 index 0 eq {/ASCIIHexDecode filter}
  {/ASCII85Decode filter 3 index 2 eq {/RunLengthDecode filter} if }
  ifelse exch readstring pop
  dup 0 3 index getinterval /rbmap xdef
  dup 2 index dup getinterval /gbmap xdef
  1 index dup 2 mul exch getinterval /bbmap xdef pop pop}bdef
/it {gs np dtri aload pop moveto lineto lineto cp c
  cols rows 8 compute_transform 
  rbmap gbmap bbmap true 3 colorimage gr}bdef
/il {newpath moveto lineto stroke}bdef
currentdict end def
%%EndProlog

%%BeginSetup
MathWorks begin

0 cap

end
%%EndSetup

%%Page: 1 1
%%BeginPageSetup
%%PageBoundingBox:  -293    59   908   786
MathWorks begin
bpage
%%EndPageSetup

%%BeginObject: obj1
bplot

/dpi2point 12 def
portraitMode -5064 9384 csm

 1546   -48 14421  8719 rc
94 dict begin %Colortable dictionary
/c0 { 0.000000 0.000000 0.000000 sr} bdef
/c1 { 1.000000 1.000000 1.000000 sr} bdef
/c2 { 0.900000 0.000000 0.000000 sr} bdef
/c3 { 0.000000 0.820000 0.000000 sr} bdef
/c4 { 0.000000 0.000000 0.800000 sr} bdef
/c5 { 0.910000 0.820000 0.320000 sr} bdef
/c6 { 1.000000 0.260000 0.820000 sr} bdef
/c7 { 0.000000 0.820000 0.820000 sr} bdef
c0
1 j
1 sg
   0    0 17295 8672 rf
6 w
0 6843 13403 0 0 -6843 2248 7673 4 MP
PP
-13403 0 0 6843 13403 0 0 -6843 2248 7673 5 MP stroke
4 w
DO
0 sg
2248 7673 mt 2248  830 L
2248  830 mt 2248  830 L
3923 7673 mt 3923  830 L
3923  830 mt 3923  830 L
5598 7673 mt 5598  830 L
5598  830 mt 5598  830 L
7274 7673 mt 7274  830 L
7274  830 mt 7274  830 L
8949 7673 mt 8949  830 L
8949  830 mt 8949  830 L
10624 7673 mt 10624  830 L
10624  830 mt 10624  830 L
12300 7673 mt 12300  830 L
12300  830 mt 12300  830 L
13975 7673 mt 13975  830 L
13975  830 mt 13975  830 L
15651 7673 mt 15651  830 L
15651  830 mt 15651  830 L
2248 7673 mt 15651 7673 L
15651 7673 mt 15651 7673 L
2248 6304 mt 15651 6304 L
15651 6304 mt 15651 6304 L
2248 4935 mt 15651 4935 L
15651 4935 mt 15651 4935 L
2248 3567 mt 15651 3567 L
15651 3567 mt 15651 3567 L
2248 2198 mt 15651 2198 L
15651 2198 mt 15651 2198 L
2248  830 mt 15651  830 L
15651  830 mt 15651  830 L
SO
6 w
2248  830 mt 15651  830 L
2248 7673 mt 15651 7673 L
15651 7673 mt 15651  830 L
2248 7673 mt 2248  830 L
2248 7673 mt 15651 7673 L
2248 7673 mt 2248  830 L
2248 7673 mt 2248 7538 L
2248  830 mt 2248  964 L
%%IncludeResource: font Helvetica
/Helvetica /WindowsLatin1Encoding 480 FMSR

1982 8153 mt 
(10) s
3923 7673 mt 3923 7538 L
3923  830 mt 3923  964 L
3657 8153 mt 
(20) s
5598 7673 mt 5598 7538 L
5598  830 mt 5598  964 L
5332 8153 mt 
(30) s
7274 7673 mt 7274 7538 L
7274  830 mt 7274  964 L
7008 8153 mt 
(40) s
8949 7673 mt 8949 7538 L
8949  830 mt 8949  964 L
8683 8153 mt 
(50) s
10624 7673 mt 10624 7538 L
10624  830 mt 10624  964 L
10358 8153 mt 
(60) s
12300 7673 mt 12300 7538 L
12300  830 mt 12300  964 L
12034 8153 mt 
(70) s
13975 7673 mt 13975 7538 L
13975  830 mt 13975  964 L
13709 8153 mt 
(80) s
15651 7673 mt 15651 7538 L
15651  830 mt 15651  964 L
15385 8153 mt 
(90) s
2248 7673 mt 2382 7673 L
15651 7673 mt 15516 7673 L
1947 7851 mt 
(0) s
2248 6304 mt 2382 6304 L
15651 6304 mt 15516 6304 L
1546 6482 mt 
(0.2) s
2248 4935 mt 2382 4935 L
15651 4935 mt 15516 4935 L
1546 5113 mt 
(0.4) s
2248 3567 mt 2382 3567 L
15651 3567 mt 15516 3567 L
1546 3745 mt 
(0.6) s
2248 2198 mt 2382 2198 L
15651 2198 mt 15516 2198 L
1546 2376 mt 
(0.8) s
2248  830 mt 2382  830 L
15651  830 mt 15516  830 L
1947 1008 mt 
(1) s
2248  830 mt 15651  830 L
2248 7673 mt 15651 7673 L
15651 7673 mt 15651  830 L
2248 7673 mt 2248  830 L
gs 2248 830 13404 6844 rc
36 w
/c8 { 0.000000 0.000000 1.000000 sr} bdef
c8
1676 0 1675 0 1676 0 1675 0 1675 0 1676 0 1675 0 1675 0 
2248 7672 9 MP stroke
gr

36 w
c8
gs 2030 7454 13840 437 rc
  90   90 2248 7672 FO
  90   90 3923 7672 FO
  90   90 5598 7672 FO
  90   90 7274 7672 FO
  90   90 8949 7672 FO
  90   90 10624 7672 FO
  90   90 12300 7672 FO
  90   90 13975 7672 FO
  90   90 15651 7672 FO
gr

gs 2248 830 13404 6844 rc
DO
/c9 { 1.000000 0.000000 0.000000 sr} bdef
c9
1676 0 1675 0 1676 0 1675 0 1675 0 1676 0 1675 0 1675 0 
2248 7672 9 MP stroke
gr

c9
DO
gs 2030 7454 13840 437 rc
SO
0 j
104 179 -208 0 104 -179 2248 7791 4 MP
DP
104 179 -208 0 104 -179 3923 7791 4 MP
DP
104 179 -208 0 104 -179 5598 7791 4 MP
DP
104 179 -208 0 104 -179 7274 7791 4 MP
DP
104 179 -208 0 104 -179 8949 7791 4 MP
DP
104 179 -208 0 104 -179 10624 7791 4 MP
DP
104 179 -208 0 104 -179 12300 7791 4 MP
DP
104 179 -208 0 104 -179 13975 7791 4 MP
DP
104 179 -208 0 104 -179 15651 7791 4 MP
DP
DO
gr

gs 2248 830 13404 6844 rc
DD
/c10 { 0.000000 1.000000 0.000000 sr} bdef
c10
1676 0 1675 0 1676 0 1675 0 1675 0 1676 0 1675 0 1675 0 
2248 7672 9 MP stroke
gr

c10
DD
gs 2030 7454 13840 437 rc
SO
2185 7609 mt 2311 7735 L
2311 7609 mt 2185 7735 L
3860 7609 mt 3986 7735 L
3986 7609 mt 3860 7735 L
5535 7609 mt 5661 7735 L
5661 7609 mt 5535 7735 L
7211 7609 mt 7337 7735 L
7337 7609 mt 7211 7735 L
8886 7609 mt 9012 7735 L
9012 7609 mt 8886 7735 L
10561 7609 mt 10687 7735 L
10687 7609 mt 10561 7735 L
12237 7609 mt 12363 7735 L
12363 7609 mt 12237 7735 L
13912 7609 mt 14038 7735 L
14038 7609 mt 13912 7735 L
15588 7609 mt 15714 7735 L
15714 7609 mt 15588 7735 L
DD
gr

gs 2248 830 13404 6844 rc
DA
/c11 { 0.000000 0.000000 0.172414 sr} bdef
c11
1676 0 1675 0 1676 0 1675 0 1675 0 1676 0 1675 0 1675 1343 
2248 6329 9 MP stroke
gr

c11
DA
gs 2030 6111 13840 1780 rc
SO
2158 6329 mt 2338 6329 L
2248 6239 mt 2248 6419 L
3833 7672 mt 4013 7672 L
3923 7582 mt 3923 7762 L
5508 7672 mt 5688 7672 L
5598 7582 mt 5598 7762 L
7184 7672 mt 7364 7672 L
7274 7582 mt 7274 7762 L
8859 7672 mt 9039 7672 L
8949 7582 mt 8949 7762 L
10534 7672 mt 10714 7672 L
10624 7582 mt 10624 7762 L
12210 7672 mt 12390 7672 L
12300 7582 mt 12300 7762 L
13885 7672 mt 14065 7672 L
13975 7582 mt 13975 7762 L
15561 7672 mt 15741 7672 L
15651 7582 mt 15651 7762 L
2185 6266 mt 2311 6392 L
2311 6266 mt 2185 6392 L
3860 7609 mt 3986 7735 L
3986 7609 mt 3860 7735 L
5535 7609 mt 5661 7735 L
5661 7609 mt 5535 7735 L
7211 7609 mt 7337 7735 L
7337 7609 mt 7211 7735 L
8886 7609 mt 9012 7735 L
9012 7609 mt 8886 7735 L
10561 7609 mt 10687 7735 L
10687 7609 mt 10561 7735 L
12237 7609 mt 12363 7735 L
12363 7609 mt 12237 7735 L
13912 7609 mt 14038 7735 L
14038 7609 mt 13912 7735 L
15588 7609 mt 15714 7735 L
15714 7609 mt 15588 7735 L
DA
gr

gs 2248 830 13404 6844 rc
DO
/c12 { 0.000000 0.344828 0.000000 sr} bdef
c12
1676 0 1675 0 1676 0 1675 0 1675 0 1676 0 1675 0 1675 0 
2248 7672 9 MP stroke
gr

c12
DO
gs 2030 7454 13840 437 rc
SO
0 j
90 119 -90 119 -90 -119 90 -119 2248 7791 5 MP
DP
90 119 -90 119 -90 -119 90 -119 3923 7791 5 MP
DP
90 119 -90 119 -90 -119 90 -119 5598 7791 5 MP
DP
90 119 -90 119 -90 -119 90 -119 7274 7791 5 MP
DP
90 119 -90 119 -90 -119 90 -119 8949 7791 5 MP
DP
90 119 -90 119 -90 -119 90 -119 10624 7791 5 MP
DP
90 119 -90 119 -90 -119 90 -119 12300 7791 5 MP
DP
90 119 -90 119 -90 -119 90 -119 13975 7791 5 MP
DP
90 119 -90 119 -90 -119 90 -119 15651 7791 5 MP
DP
DO
gr

gs 2248 830 13404 6844 rc
DD
1676 0 1675 0 1676 0 1675 0 1675 0 1676 0 1675 0 1675 3 
2248 7669 9 MP stroke
gr

DD
gs 2030 7451 13840 440 rc
SO
60 W
2248 7669 PD
60 W
3923 7672 PD
60 W
5598 7672 PD
60 W
7274 7672 PD
60 W
8949 7672 PD
60 W
10624 7672 PD
60 W
12300 7672 PD
60 W
13975 7672 PD
60 W
15651 7672 PD
DD
gr

gs 2248 830 13404 6844 rc
DA
/c13 { 0.517241 0.517241 1.000000 sr} bdef
c13
1676 0 1675 0 1676 0 1675 0 1675 0 1676 0 1675 0 1675 1487 
2248 6185 9 MP stroke
gr

c13
DA
gs 2030 5967 13840 1924 rc
SO
0 j
-104 179 -104 -179 208 0 2144 6245 4 MP
DP
-104 179 -104 -179 208 0 3819 7732 4 MP
DP
-104 179 -104 -179 208 0 5494 7732 4 MP
DP
-104 179 -104 -179 208 0 7170 7732 4 MP
DP
-104 179 -104 -179 208 0 8845 7732 4 MP
DP
-104 179 -104 -179 208 0 10520 7732 4 MP
DP
-104 179 -104 -179 208 0 12196 7732 4 MP
DP
-104 179 -104 -179 208 0 13871 7732 4 MP
DP
-104 179 -104 -179 208 0 15547 7732 4 MP
DP
DA
gr

gs 2248 830 13404 6844 rc
SO
/c14 { 0.620690 0.310345 0.275862 sr} bdef
c14
1676 0 1675 0 1676 0 1675 0 1675 3 1676 -3 1675 1252 1675 -788 
2248 7208 9 MP stroke
gr

c14
SO
gs 2030 6202 13840 1689 rc
0 j
-179 104 0 -208 179 104 2129 7208 4 MP
DP
-179 104 0 -208 179 104 3804 6420 4 MP
DP
-179 104 0 -208 179 104 5479 7672 4 MP
DP
-179 104 0 -208 179 104 7155 7669 4 MP
DP
-179 104 0 -208 179 104 8830 7672 4 MP
DP
-179 104 0 -208 179 104 10505 7672 4 MP
DP
-179 104 0 -208 179 104 12181 7672 4 MP
DP
-179 104 0 -208 179 104 13856 7672 4 MP
DP
-179 104 0 -208 179 104 15532 7672 4 MP
DP
gr

gs 2248 830 13404 6844 rc
DO
/c15 { 0.000000 1.000000 0.758621 sr} bdef
c15
1676 -1305 1675 1 1676 415 1675 -351 1675 737 1676 -672 1675 5473 1675 -2701 
2248 4745 9 MP stroke
gr

c15
DO
gs 2030 1826 13840 6040 rc
SO
0 j
0 208 -179 -104 179 -104 2188 4849 4 MP
DP
0 208 -179 -104 179 -104 3863 2148 4 MP
DP
0 208 -179 -104 179 -104 5538 7621 4 MP
DP
0 208 -179 -104 179 -104 7214 6949 4 MP
DP
0 208 -179 -104 179 -104 8889 7686 4 MP
DP
0 208 -179 -104 179 -104 10564 7335 4 MP
DP
0 208 -179 -104 179 -104 12240 7750 4 MP
DP
0 208 -179 -104 179 -104 13915 7751 4 MP
DP
0 208 -179 -104 179 -104 15591 6446 4 MP
DP
DO
gr

gs 2248 830 13404 6844 rc
SO
/c16 { 0.000000 0.517241 0.586207 sr} bdef
c16
1676 0 1675 0 1676 0 1675 0 1675 0 1676 0 1675 7 1675 2846 
2248 4819 9 MP stroke
gr

c16
SO
gs 2030 4601 13840 3290 rc
0 j
-51 -39 18 -61 -53 36 -52 -36 18 61 -51 39 64 0 21 62 
22 -62 64 0 2162 4791 11 MP
DP
-51 -39 18 -61 -53 36 -52 -36 18 61 -51 39 64 0 21 62 
22 -62 64 0 3837 7637 11 MP
DP
-51 -39 18 -61 -53 36 -52 -36 18 61 -51 39 64 0 21 62 
22 -62 64 0 5512 7644 11 MP
DP
-51 -39 18 -61 -53 36 -52 -36 18 61 -51 39 64 0 21 62 
22 -62 64 0 7188 7644 11 MP
DP
-51 -39 18 -61 -53 36 -52 -36 18 61 -51 39 64 0 21 62 
22 -62 64 0 8863 7644 11 MP
DP
-51 -39 18 -61 -53 36 -52 -36 18 61 -51 39 64 0 21 62 
22 -62 64 0 10538 7644 11 MP
DP
-51 -39 18 -61 -53 36 -52 -36 18 61 -51 39 64 0 21 62 
22 -62 64 0 12214 7644 11 MP
DP
-51 -39 18 -61 -53 36 -52 -36 18 61 -51 39 64 0 21 62 
22 -62 64 0 13889 7644 11 MP
DP
-51 -39 18 -61 -53 36 -52 -36 18 61 -51 39 64 0 21 62 
22 -62 64 0 15565 7644 11 MP
DP
gr

gs 2248 830 13404 6844 rc
DO
/c17 { 0.000000 0.000000 0.482759 sr} bdef
c17
1676 432 1675 1307 1676 1331 1675 -3121 1675 -107 1676 315 1675 1263 1675 421 
2248 5603 9 MP stroke
gr

c17
DO
gs 2030 4156 13840 3665 rc
SO
0 j
-32 -45 32 -45 -52 0 -25 -45 -25 45 -52 0 32 45 -32 45 
52 0 25 45 25 -45 52 0 2171 5558 13 MP
DP
-32 -45 32 -45 -52 0 -25 -45 -25 45 -52 0 32 45 -32 45 
52 0 25 45 25 -45 52 0 3846 5979 13 MP
DP
-32 -45 32 -45 -52 0 -25 -45 -25 45 -52 0 32 45 -32 45 
52 0 25 45 25 -45 52 0 5521 7242 13 MP
DP
-32 -45 32 -45 -52 0 -25 -45 -25 45 -52 0 32 45 -32 45 
52 0 25 45 25 -45 52 0 7197 7557 13 MP
DP
-32 -45 32 -45 -52 0 -25 -45 -25 45 -52 0 32 45 -32 45 
52 0 25 45 25 -45 52 0 8872 7450 13 MP
DP
-32 -45 32 -45 -52 0 -25 -45 -25 45 -52 0 32 45 -32 45 
52 0 25 45 25 -45 52 0 10547 4329 13 MP
DP
-32 -45 32 -45 -52 0 -25 -45 -25 45 -52 0 32 45 -32 45 
52 0 25 45 25 -45 52 0 12223 5660 13 MP
DP
-32 -45 32 -45 -52 0 -25 -45 -25 45 -52 0 32 45 -32 45 
52 0 25 45 25 -45 52 0 13898 6967 13 MP
DP
-32 -45 32 -45 -52 0 -25 -45 -25 45 -52 0 32 45 -32 45 
52 0 25 45 25 -45 52 0 15574 7399 13 MP
DP
DO
gr

gs 2248 830 13404 6844 rc
gr

0 sg
6478  446 mt 
(Wilcoxon rank sum test) s
6931 8561 mt 
(Elements swapped) s
SO
6 w

end %%Color Dict

eplot
%%EndObject

epage
end

showpage

%%Trailer
%%EOF
