%!PS-Adobe-3.0 EPSF-3.0
%%Creator: MATLAB, The MathWorks, Inc. Version 8.2.0.701 (R2013b). Operating System: Microsoft Windows 8.
%%Title: .\swap7.eps
%%CreationDate: 05/17/2016  17:48:36
%%DocumentNeededFonts: Helvetica
%%DocumentProcessColors: Cyan Magenta Yellow Black
%%LanguageLevel: 2
%%Pages: 1
%%BoundingBox:  -259    59   908   786
%%EndComments

%%BeginProlog
% MathWorks dictionary
/MathWorks 160 dict begin
% definition operators
/bdef {bind def} bind def
/ldef {load def} bind def
/xdef {exch def} bdef
/xstore {exch store} bdef
% operator abbreviations
/c  /clip ldef
/cc /concat ldef
/cp /closepath ldef
/gr /grestore ldef
/gs /gsave ldef
/mt /moveto ldef
/np /newpath ldef
/cm /currentmatrix ldef
/sm /setmatrix ldef
/rm /rmoveto ldef
/rl /rlineto ldef
/s {show newpath} bdef
/sc {setcmykcolor} bdef
/sr /setrgbcolor ldef
/sg /setgray ldef
/w /setlinewidth ldef
/j /setlinejoin ldef
/cap /setlinecap ldef
/rc {rectclip} bdef
/rf {rectfill} bdef
% page state control
/pgsv () def
/bpage {/pgsv save def} bdef
/epage {pgsv restore} bdef
/bplot /gsave ldef
/eplot {stroke grestore} bdef
% orientation switch
/portraitMode 0 def /landscapeMode 1 def /rotateMode 2 def
% coordinate system mappings
/dpi2point 0 def
% font control
/FontSize 0 def
/FMS {/FontSize xstore findfont [FontSize 0 0 FontSize neg 0 0]
  makefont setfont} bdef
/ISOLatin1Encoding where {pop /WindowsLatin1Encoding 256 array bdef
ISOLatin1Encoding WindowsLatin1Encoding copy pop
/.notdef/.notdef/quotesinglbase/florin/quotedblbase/ellipsis/dagger
/daggerdbl/circumflex/perthousand/Scaron/guilsinglleft/OE/.notdef/.notdef
/.notdef/.notdef/quoteleft/quoteright/quotedblleft/quotedblright/bullet
/endash/emdash/tilde/trademark/scaron/guilsinglright/oe/.notdef/.notdef
/Ydieresis WindowsLatin1Encoding 128 32 getinterval astore pop}
{/WindowsLatin1Encoding StandardEncoding bdef} ifelse
/reencode {exch dup where {pop load} {pop StandardEncoding} ifelse
  exch dup 3 1 roll findfont dup length dict begin
  { 1 index /FID ne {def}{pop pop} ifelse } forall
  /Encoding exch def currentdict end definefont pop} bdef
/isroman {findfont /CharStrings get /Agrave known} bdef
/FMSR {3 1 roll 1 index dup isroman {reencode} {pop pop} ifelse
  exch FMS} bdef
/csm {1 dpi2point div -1 dpi2point div scale neg translate
 dup landscapeMode eq {pop -90 rotate}
  {rotateMode eq {90 rotate} if} ifelse} bdef
% line types: solid, dotted, dashed, dotdash
/SO { [] 0 setdash } bdef
/DO { [.5 dpi2point mul 4 dpi2point mul] 0 setdash } bdef
/DA { [6 dpi2point mul] 0 setdash } bdef
/DD { [.5 dpi2point mul 4 dpi2point mul 6 dpi2point mul 4
  dpi2point mul] 0 setdash } bdef
% macros for lines and objects
/L {lineto stroke} bdef
/MP {3 1 roll moveto 1 sub {rlineto} repeat} bdef
/AP {{rlineto} repeat} bdef
/PDlw -1 def
/W {/PDlw currentlinewidth def setlinewidth} def
/PP {closepath eofill} bdef
/DP {closepath stroke} bdef
/MR {4 -2 roll moveto dup  0 exch rlineto exch 0 rlineto
  neg 0 exch rlineto closepath} bdef
/FR {MR stroke} bdef
/PR {MR fill} bdef
/L1i {{currentfile picstr readhexstring pop} image} bdef
/tMatrix matrix def
/MakeOval {newpath tMatrix currentmatrix pop translate scale
0 0 1 0 360 arc tMatrix setmatrix} bdef
/FO {MakeOval stroke} bdef
/PO {MakeOval fill} bdef
/PD {currentlinewidth 2 div 0 360 arc fill
   PDlw -1 eq not {PDlw w /PDlw -1 def} if} def
/FA {newpath tMatrix currentmatrix pop translate scale
  0 0 1 5 -2 roll arc tMatrix setmatrix stroke} bdef
/PA {newpath tMatrix currentmatrix pop	translate 0 0 moveto scale
  0 0 1 5 -2 roll arc closepath tMatrix setmatrix fill} bdef
/FAn {newpath tMatrix currentmatrix pop translate scale
  0 0 1 5 -2 roll arcn tMatrix setmatrix stroke} bdef
/PAn {newpath tMatrix currentmatrix pop translate 0 0 moveto scale
  0 0 1 5 -2 roll arcn closepath tMatrix setmatrix fill} bdef
/vradius 0 def /hradius 0 def /lry 0 def
/lrx 0 def /uly 0 def /ulx 0 def /rad 0 def
/MRR {/vradius xdef /hradius xdef /lry xdef /lrx xdef /uly xdef
  /ulx xdef newpath tMatrix currentmatrix pop ulx hradius add uly
  vradius add translate hradius vradius scale 0 0 1 180 270 arc 
  tMatrix setmatrix lrx hradius sub uly vradius add translate
  hradius vradius scale 0 0 1 270 360 arc tMatrix setmatrix
  lrx hradius sub lry vradius sub translate hradius vradius scale
  0 0 1 0 90 arc tMatrix setmatrix ulx hradius add lry vradius sub
  translate hradius vradius scale 0 0 1 90 180 arc tMatrix setmatrix
  closepath} bdef
/FRR {MRR stroke } bdef
/PRR {MRR fill } bdef
/MlrRR {/lry xdef /lrx xdef /uly xdef /ulx xdef /rad lry uly sub 2 div def
  newpath tMatrix currentmatrix pop ulx rad add uly rad add translate
  rad rad scale 0 0 1 90 270 arc tMatrix setmatrix lrx rad sub lry rad
  sub translate rad rad scale 0 0 1 270 90 arc tMatrix setmatrix
  closepath} bdef
/FlrRR {MlrRR stroke } bdef
/PlrRR {MlrRR fill } bdef
/MtbRR {/lry xdef /lrx xdef /uly xdef /ulx xdef /rad lrx ulx sub 2 div def
  newpath tMatrix currentmatrix pop ulx rad add uly rad add translate
  rad rad scale 0 0 1 180 360 arc tMatrix setmatrix lrx rad sub lry rad
  sub translate rad rad scale 0 0 1 0 180 arc tMatrix setmatrix
  closepath} bdef
/FtbRR {MtbRR stroke } bdef
/PtbRR {MtbRR fill } bdef
/stri 6 array def /dtri 6 array def
/smat 6 array def /dmat 6 array def
/tmat1 6 array def /tmat2 6 array def /dif 3 array def
/asub {/ind2 exch def /ind1 exch def dup dup
  ind1 get exch ind2 get sub exch } bdef
/tri_to_matrix {
  2 0 asub 3 1 asub 4 0 asub 5 1 asub
  dup 0 get exch 1 get 7 -1 roll astore } bdef
/compute_transform {
  dmat dtri tri_to_matrix tmat1 invertmatrix 
  smat stri tri_to_matrix tmat2 concatmatrix } bdef
/ds {stri astore pop} bdef
/dt {dtri astore pop} bdef
/db {2 copy /cols xdef /rows xdef mul dup 3 mul string
  currentfile 
  3 index 0 eq {/ASCIIHexDecode filter}
  {/ASCII85Decode filter 3 index 2 eq {/RunLengthDecode filter} if }
  ifelse exch readstring pop
  dup 0 3 index getinterval /rbmap xdef
  dup 2 index dup getinterval /gbmap xdef
  1 index dup 2 mul exch getinterval /bbmap xdef pop pop}bdef
/it {gs np dtri aload pop moveto lineto lineto cp c
  cols rows 8 compute_transform 
  rbmap gbmap bbmap true 3 colorimage gr}bdef
/il {newpath moveto lineto stroke}bdef
currentdict end def
%%EndProlog

%%BeginSetup
MathWorks begin

0 cap

end
%%EndSetup

%%Page: 1 1
%%BeginPageSetup
%%PageBoundingBox:  -259    59   908   786
MathWorks begin
bpage
%%EndPageSetup

%%BeginObject: obj1
bplot

/dpi2point 12 def
portraitMode -5064 9384 csm

 1947   -48 14020  8719 rc
94 dict begin %Colortable dictionary
/c0 { 0.000000 0.000000 0.000000 sr} bdef
/c1 { 1.000000 1.000000 1.000000 sr} bdef
/c2 { 0.900000 0.000000 0.000000 sr} bdef
/c3 { 0.000000 0.820000 0.000000 sr} bdef
/c4 { 0.000000 0.000000 0.800000 sr} bdef
/c5 { 0.910000 0.820000 0.320000 sr} bdef
/c6 { 1.000000 0.260000 0.820000 sr} bdef
/c7 { 0.000000 0.820000 0.820000 sr} bdef
c0
1 j
1 sg
   0    0 17295 8672 rf
6 w
0 6625 13403 0 0 -6625 2248 7673 4 MP
PP
-13403 0 0 6625 13403 0 0 -6625 2248 7673 5 MP stroke
4 w
DO
0 sg
2248 7673 mt 2248 1048 L
2248 1048 mt 2248 1048 L
3923 7673 mt 3923 1048 L
3923 1048 mt 3923 1048 L
5598 7673 mt 5598 1048 L
5598 1048 mt 5598 1048 L
7274 7673 mt 7274 1048 L
7274 1048 mt 7274 1048 L
8949 7673 mt 8949 1048 L
8949 1048 mt 8949 1048 L
10624 7673 mt 10624 1048 L
10624 1048 mt 10624 1048 L
12300 7673 mt 12300 1048 L
12300 1048 mt 12300 1048 L
13975 7673 mt 13975 1048 L
13975 1048 mt 13975 1048 L
15651 7673 mt 15651 1048 L
15651 1048 mt 15651 1048 L
2248 7673 mt 15651 7673 L
15651 7673 mt 15651 7673 L
2248 6348 mt 15651 6348 L
15651 6348 mt 15651 6348 L
2248 5023 mt 15651 5023 L
15651 5023 mt 15651 5023 L
2248 3698 mt 15651 3698 L
15651 3698 mt 15651 3698 L
2248 2373 mt 15651 2373 L
15651 2373 mt 15651 2373 L
2248 1048 mt 15651 1048 L
15651 1048 mt 15651 1048 L
SO
6 w
2248 1048 mt 15651 1048 L
2248 7673 mt 15651 7673 L
15651 7673 mt 15651 1048 L
2248 7673 mt 2248 1048 L
2248 7673 mt 15651 7673 L
2248 7673 mt 2248 1048 L
2248 7673 mt 2248 7538 L
2248 1048 mt 2248 1182 L
%%IncludeResource: font Helvetica
/Helvetica /WindowsLatin1Encoding 480 FMSR

1982 8153 mt 
(10) s
3923 7673 mt 3923 7538 L
3923 1048 mt 3923 1182 L
3657 8153 mt 
(20) s
5598 7673 mt 5598 7538 L
5598 1048 mt 5598 1182 L
5332 8153 mt 
(30) s
7274 7673 mt 7274 7538 L
7274 1048 mt 7274 1182 L
7008 8153 mt 
(40) s
8949 7673 mt 8949 7538 L
8949 1048 mt 8949 1182 L
8683 8153 mt 
(50) s
10624 7673 mt 10624 7538 L
10624 1048 mt 10624 1182 L
10358 8153 mt 
(60) s
12300 7673 mt 12300 7538 L
12300 1048 mt 12300 1182 L
12034 8153 mt 
(70) s
13975 7673 mt 13975 7538 L
13975 1048 mt 13975 1182 L
13709 8153 mt 
(80) s
15651 7673 mt 15651 7538 L
15651 1048 mt 15651 1182 L
15385 8153 mt 
(90) s
2248 7673 mt 2382 7673 L
15651 7673 mt 15516 7673 L
1947 7851 mt 
(0) s
2248 6348 mt 2382 6348 L
15651 6348 mt 15516 6348 L
1947 6526 mt 
(1) s
2248 5023 mt 2382 5023 L
15651 5023 mt 15516 5023 L
1947 5201 mt 
(2) s
2248 3698 mt 2382 3698 L
15651 3698 mt 15516 3698 L
1947 3876 mt 
(3) s
2248 2373 mt 2382 2373 L
15651 2373 mt 15516 2373 L
1947 2551 mt 
(4) s
2248 1048 mt 2382 1048 L
15651 1048 mt 15516 1048 L
1947 1226 mt 
(5) s
2248  994 mt 
(x 10) s
%%IncludeResource: font Helvetica
/Helvetica /WindowsLatin1Encoding 320 FMSR

3155  697 mt 
(5) s
2248 1048 mt 15651 1048 L
2248 7673 mt 15651 7673 L
15651 7673 mt 15651 1048 L
2248 7673 mt 2248 1048 L
gs 2248 1048 13404 6626 rc
36 w
/c8 { 0.000000 0.000000 1.000000 sr} bdef
c8
1676 74 1675 -9 1676 162 1675 170 1675 239 1676 10 1675 260 1675 307 
2248 4283 9 MP stroke
gr

36 w
c8
gs 2030 4065 13840 1650 rc
  90   90 2248 4283 FO
  90   90 3923 4590 FO
  90   90 5598 4850 FO
  90   90 7274 4860 FO
  90   90 8949 5099 FO
  90   90 10624 5269 FO
  90   90 12300 5431 FO
  90   90 13975 5422 FO
  90   90 15651 5496 FO
gr

gs 2248 1048 13404 6626 rc
DO
/c9 { 1.000000 0.000000 0.000000 sr} bdef
c9
1676 175 1675 271 1676 169 1675 321 1675 172 1676 466 1675 523 1675 464 
2248 1426 9 MP stroke
gr

c9
DO
gs 2030 1208 13840 2998 rc
SO
0 j
104 179 -208 0 104 -179 2248 1545 4 MP
DP
104 179 -208 0 104 -179 3923 2009 4 MP
DP
104 179 -208 0 104 -179 5598 2532 4 MP
DP
104 179 -208 0 104 -179 7274 2998 4 MP
DP
104 179 -208 0 104 -179 8949 3170 4 MP
DP
104 179 -208 0 104 -179 10624 3491 4 MP
DP
104 179 -208 0 104 -179 12300 3660 4 MP
DP
104 179 -208 0 104 -179 13975 3931 4 MP
DP
104 179 -208 0 104 -179 15651 4106 4 MP
DP
DO
gr

gs 2248 1048 13404 6626 rc
DD
/c10 { 0.000000 1.000000 0.000000 sr} bdef
c10
1676 55 1675 -22 1676 37 1675 -8 1675 2 1676 85 1675 44 1675 51 
2248 6838 9 MP stroke
gr

c10
DD
gs 2030 6620 13840 681 rc
SO
2185 6775 mt 2311 6901 L
2311 6775 mt 2185 6901 L
3860 6826 mt 3986 6952 L
3986 6826 mt 3860 6952 L
5535 6870 mt 5661 6996 L
5661 6870 mt 5535 6996 L
7211 6955 mt 7337 7081 L
7337 6955 mt 7211 7081 L
8886 6957 mt 9012 7083 L
9012 6957 mt 8886 7083 L
10561 6949 mt 10687 7075 L
10687 6949 mt 10561 7075 L
12237 6986 mt 12363 7112 L
12363 6986 mt 12237 7112 L
13912 6964 mt 14038 7090 L
14038 6964 mt 13912 7090 L
15588 7019 mt 15714 7145 L
15714 7019 mt 15588 7145 L
DD
gr

gs 2248 1048 13404 6626 rc
DA
/c11 { 0.000000 0.000000 0.172414 sr} bdef
c11
1676 45 1675 14 1676 38 1675 77 1675 -9 1676 111 1675 108 1675 23 
2248 6296 9 MP stroke
gr

c11
DA
gs 2030 6078 13840 844 rc
SO
2158 6296 mt 2338 6296 L
2248 6206 mt 2248 6386 L
3833 6319 mt 4013 6319 L
3923 6229 mt 3923 6409 L
5508 6427 mt 5688 6427 L
5598 6337 mt 5598 6517 L
7184 6538 mt 7364 6538 L
7274 6448 mt 7274 6628 L
8859 6529 mt 9039 6529 L
8949 6439 mt 8949 6619 L
10534 6606 mt 10714 6606 L
10624 6516 mt 10624 6696 L
12210 6644 mt 12390 6644 L
12300 6554 mt 12300 6734 L
13885 6658 mt 14065 6658 L
13975 6568 mt 13975 6748 L
15561 6703 mt 15741 6703 L
15651 6613 mt 15651 6793 L
2185 6233 mt 2311 6359 L
2311 6233 mt 2185 6359 L
3860 6256 mt 3986 6382 L
3986 6256 mt 3860 6382 L
5535 6364 mt 5661 6490 L
5661 6364 mt 5535 6490 L
7211 6475 mt 7337 6601 L
7337 6475 mt 7211 6601 L
8886 6466 mt 9012 6592 L
9012 6466 mt 8886 6592 L
10561 6543 mt 10687 6669 L
10687 6543 mt 10561 6669 L
12237 6581 mt 12363 6707 L
12363 6581 mt 12237 6707 L
13912 6595 mt 14038 6721 L
14038 6595 mt 13912 6721 L
15588 6640 mt 15714 6766 L
15714 6640 mt 15588 6766 L
DA
gr

gs 2248 1048 13404 6626 rc
SO
/c12 { 1.000000 0.103448 0.724138 sr} bdef
c12
1676 -11 1675 1 1676 8 1675 -15 1675 14 1676 -16 1675 13 1675 -5 
2248 7595 9 MP stroke
gr

c12
SO
gs 2030 7366 13840 456 rc
0 j
0 -142 -142 0 0 142 142 0 2177 7524 5 MP
DP
0 -142 -142 0 0 142 142 0 3852 7519 5 MP
DP
0 -142 -142 0 0 142 142 0 5527 7532 5 MP
DP
0 -142 -142 0 0 142 142 0 7203 7516 5 MP
DP
0 -142 -142 0 0 142 142 0 8878 7530 5 MP
DP
0 -142 -142 0 0 142 142 0 10553 7515 5 MP
DP
0 -142 -142 0 0 142 142 0 12229 7523 5 MP
DP
0 -142 -142 0 0 142 142 0 13904 7524 5 MP
DP
0 -142 -142 0 0 142 142 0 15580 7513 5 MP
DP
gr

gs 2248 1048 13404 6626 rc
DO
/c13 { 0.000000 0.344828 0.000000 sr} bdef
c13
1676 33 1675 5 1676 63 1675 74 1675 46 1676 105 1675 167 1675 138 
2248 5930 9 MP stroke
gr

c13
DO
gs 2030 5712 13840 1068 rc
SO
0 j
90 119 -90 119 -90 -119 90 -119 2248 6049 5 MP
DP
90 119 -90 119 -90 -119 90 -119 3923 6187 5 MP
DP
90 119 -90 119 -90 -119 90 -119 5598 6354 5 MP
DP
90 119 -90 119 -90 -119 90 -119 7274 6459 5 MP
DP
90 119 -90 119 -90 -119 90 -119 8949 6505 5 MP
DP
90 119 -90 119 -90 -119 90 -119 10624 6579 5 MP
DP
90 119 -90 119 -90 -119 90 -119 12300 6642 5 MP
DP
90 119 -90 119 -90 -119 90 -119 13975 6647 5 MP
DP
90 119 -90 119 -90 -119 90 -119 15651 6680 5 MP
DP
DO
gr

gs 2248 1048 13404 6626 rc
DD
1676 2 1675 185 1676 81 1675 148 1675 135 1676 250 1675 166 1675 506 
2248 4435 9 MP stroke
gr

DD
gs 2030 4217 13840 1910 rc
SO
60 W
2248 4435 PD
60 W
3923 4941 PD
60 W
5598 5107 PD
60 W
7274 5357 PD
60 W
8949 5492 PD
60 W
10624 5640 PD
60 W
12300 5721 PD
60 W
13975 5906 PD
60 W
15651 5908 PD
DD
gr

gs 2248 1048 13404 6626 rc
DA
/c14 { 0.517241 0.517241 1.000000 sr} bdef
c14
1676 -23 1675 62 1676 39 1675 37 1675 120 1676 50 1675 91 1675 33 
2248 6232 9 MP stroke
gr

c14
DA
gs 2030 6014 13840 869 rc
SO
0 j
-104 179 -104 -179 208 0 2144 6292 4 MP
DP
-104 179 -104 -179 208 0 3819 6325 4 MP
DP
-104 179 -104 -179 208 0 5494 6416 4 MP
DP
-104 179 -104 -179 208 0 7170 6466 4 MP
DP
-104 179 -104 -179 208 0 8845 6586 4 MP
DP
-104 179 -104 -179 208 0 10520 6623 4 MP
DP
-104 179 -104 -179 208 0 12196 6662 4 MP
DP
-104 179 -104 -179 208 0 13871 6724 4 MP
DP
-104 179 -104 -179 208 0 15547 6701 4 MP
DP
DA
gr

gs 2248 1048 13404 6626 rc
SO
/c15 { 0.620690 0.310345 0.275862 sr} bdef
c15
1676 96 1675 159 1676 -24 1675 164 1675 175 1676 104 1675 125 1675 300 
2248 4970 9 MP stroke
gr

c15
SO
gs 2030 4752 13840 1536 rc
0 j
-179 104 0 -208 179 104 2129 4970 4 MP
DP
-179 104 0 -208 179 104 3804 5270 4 MP
DP
-179 104 0 -208 179 104 5479 5395 4 MP
DP
-179 104 0 -208 179 104 7155 5499 4 MP
DP
-179 104 0 -208 179 104 8830 5674 4 MP
DP
-179 104 0 -208 179 104 10505 5838 4 MP
DP
-179 104 0 -208 179 104 12181 5814 4 MP
DP
-179 104 0 -208 179 104 13856 5973 4 MP
DP
-179 104 0 -208 179 104 15532 6069 4 MP
DP
gr

gs 2248 1048 13404 6626 rc
DO
/c16 { 0.000000 1.000000 0.758621 sr} bdef
c16
1676 14 1675 -8 1676 -30 1675 96 1675 2 1676 47 1675 111 1675 78 
2248 7051 9 MP stroke
gr

c16
DO
gs 2030 6833 13840 771 rc
SO
0 j
0 208 -179 -104 179 -104 2188 7155 4 MP
DP
0 208 -179 -104 179 -104 3863 7233 4 MP
DP
0 208 -179 -104 179 -104 5538 7344 4 MP
DP
0 208 -179 -104 179 -104 7214 7391 4 MP
DP
0 208 -179 -104 179 -104 8889 7393 4 MP
DP
0 208 -179 -104 179 -104 10564 7489 4 MP
DP
0 208 -179 -104 179 -104 12240 7459 4 MP
DP
0 208 -179 -104 179 -104 13915 7451 4 MP
DP
0 208 -179 -104 179 -104 15591 7465 4 MP
DP
DO
gr

gs 2248 1048 13404 6626 rc
SO
/c17 { 0.000000 0.517241 0.586207 sr} bdef
c17
1676 78 1675 49 1676 41 1675 91 1675 74 1676 155 1675 158 1675 198 
2248 5954 9 MP stroke
gr

c17
SO
gs 2030 5736 13840 1281 rc
0 j
-51 -39 18 -61 -53 36 -52 -36 18 61 -51 39 64 0 21 62 
22 -62 64 0 2162 5926 11 MP
DP
-51 -39 18 -61 -53 36 -52 -36 18 61 -51 39 64 0 21 62 
22 -62 64 0 3837 6124 11 MP
DP
-51 -39 18 -61 -53 36 -52 -36 18 61 -51 39 64 0 21 62 
22 -62 64 0 5512 6282 11 MP
DP
-51 -39 18 -61 -53 36 -52 -36 18 61 -51 39 64 0 21 62 
22 -62 64 0 7188 6437 11 MP
DP
-51 -39 18 -61 -53 36 -52 -36 18 61 -51 39 64 0 21 62 
22 -62 64 0 8863 6511 11 MP
DP
-51 -39 18 -61 -53 36 -52 -36 18 61 -51 39 64 0 21 62 
22 -62 64 0 10538 6602 11 MP
DP
-51 -39 18 -61 -53 36 -52 -36 18 61 -51 39 64 0 21 62 
22 -62 64 0 12214 6643 11 MP
DP
-51 -39 18 -61 -53 36 -52 -36 18 61 -51 39 64 0 21 62 
22 -62 64 0 13889 6692 11 MP
DP
-51 -39 18 -61 -53 36 -52 -36 18 61 -51 39 64 0 21 62 
22 -62 64 0 15565 6770 11 MP
DP
gr

gs 2248 1048 13404 6626 rc
DO
/c18 { 0.000000 0.000000 0.482759 sr} bdef
c18
1676 -10 1675 143 1676 -21 1675 7 1675 31 1676 127 1675 22 1675 128 
2248 6690 9 MP stroke
gr

c18
DO
gs 2030 6472 13840 874 rc
SO
0 j
-32 -45 32 -45 -52 0 -25 -45 -25 45 -52 0 32 45 -32 45 
52 0 25 45 25 -45 52 0 2171 6645 13 MP
DP
-32 -45 32 -45 -52 0 -25 -45 -25 45 -52 0 32 45 -32 45 
52 0 25 45 25 -45 52 0 3846 6773 13 MP
DP
-32 -45 32 -45 -52 0 -25 -45 -25 45 -52 0 32 45 -32 45 
52 0 25 45 25 -45 52 0 5521 6795 13 MP
DP
-32 -45 32 -45 -52 0 -25 -45 -25 45 -52 0 32 45 -32 45 
52 0 25 45 25 -45 52 0 7197 6922 13 MP
DP
-32 -45 32 -45 -52 0 -25 -45 -25 45 -52 0 32 45 -32 45 
52 0 25 45 25 -45 52 0 8872 6953 13 MP
DP
-32 -45 32 -45 -52 0 -25 -45 -25 45 -52 0 32 45 -32 45 
52 0 25 45 25 -45 52 0 10547 6960 13 MP
DP
-32 -45 32 -45 -52 0 -25 -45 -25 45 -52 0 32 45 -32 45 
52 0 25 45 25 -45 52 0 12223 6939 13 MP
DP
-32 -45 32 -45 -52 0 -25 -45 -25 45 -52 0 32 45 -32 45 
52 0 25 45 25 -45 52 0 13898 7082 13 MP
DP
-32 -45 32 -45 -52 0 -25 -45 -25 45 -52 0 32 45 -32 45 
52 0 25 45 25 -45 52 0 15574 7072 13 MP
DP
DO
gr

gs 2248 1048 13404 6626 rc
gr

0 sg
%%IncludeResource: font Helvetica
/Helvetica /WindowsLatin1Encoding 480 FMSR

5211  446 mt 
(Evaluations at end fo runs \(D) s
%%IncludeResource: font Helvetica
/Helvetica /WindowsLatin1Encoding 384 FMSR

11381  686 mt 
(e) s
%%IncludeResource: font Helvetica
/Helvetica /WindowsLatin1Encoding 480 FMSR

11594  446 mt 
( end\)) s
6931 8561 mt 
(Elements swapped) s
SO
6 w

end %%Color Dict

eplot
%%EndObject

epage
end

showpage

%%Trailer
%%EOF
