%!PS-Adobe-3.0 EPSF-3.0
%%Creator: MATLAB, The MathWorks, Inc. Version 8.2.0.701 (R2013b). Operating System: Microsoft Windows 8.
%%Title: .\swap3.eps
%%CreationDate: 05/17/2016  17:48:34
%%DocumentNeededFonts: Helvetica
%%DocumentProcessColors: Cyan Magenta Yellow Black
%%LanguageLevel: 2
%%Pages: 1
%%BoundingBox:  -293    59   908   786
%%EndComments

%%BeginProlog
% MathWorks dictionary
/MathWorks 160 dict begin
% definition operators
/bdef {bind def} bind def
/ldef {load def} bind def
/xdef {exch def} bdef
/xstore {exch store} bdef
% operator abbreviations
/c  /clip ldef
/cc /concat ldef
/cp /closepath ldef
/gr /grestore ldef
/gs /gsave ldef
/mt /moveto ldef
/np /newpath ldef
/cm /currentmatrix ldef
/sm /setmatrix ldef
/rm /rmoveto ldef
/rl /rlineto ldef
/s {show newpath} bdef
/sc {setcmykcolor} bdef
/sr /setrgbcolor ldef
/sg /setgray ldef
/w /setlinewidth ldef
/j /setlinejoin ldef
/cap /setlinecap ldef
/rc {rectclip} bdef
/rf {rectfill} bdef
% page state control
/pgsv () def
/bpage {/pgsv save def} bdef
/epage {pgsv restore} bdef
/bplot /gsave ldef
/eplot {stroke grestore} bdef
% orientation switch
/portraitMode 0 def /landscapeMode 1 def /rotateMode 2 def
% coordinate system mappings
/dpi2point 0 def
% font control
/FontSize 0 def
/FMS {/FontSize xstore findfont [FontSize 0 0 FontSize neg 0 0]
  makefont setfont} bdef
/ISOLatin1Encoding where {pop /WindowsLatin1Encoding 256 array bdef
ISOLatin1Encoding WindowsLatin1Encoding copy pop
/.notdef/.notdef/quotesinglbase/florin/quotedblbase/ellipsis/dagger
/daggerdbl/circumflex/perthousand/Scaron/guilsinglleft/OE/.notdef/.notdef
/.notdef/.notdef/quoteleft/quoteright/quotedblleft/quotedblright/bullet
/endash/emdash/tilde/trademark/scaron/guilsinglright/oe/.notdef/.notdef
/Ydieresis WindowsLatin1Encoding 128 32 getinterval astore pop}
{/WindowsLatin1Encoding StandardEncoding bdef} ifelse
/reencode {exch dup where {pop load} {pop StandardEncoding} ifelse
  exch dup 3 1 roll findfont dup length dict begin
  { 1 index /FID ne {def}{pop pop} ifelse } forall
  /Encoding exch def currentdict end definefont pop} bdef
/isroman {findfont /CharStrings get /Agrave known} bdef
/FMSR {3 1 roll 1 index dup isroman {reencode} {pop pop} ifelse
  exch FMS} bdef
/csm {1 dpi2point div -1 dpi2point div scale neg translate
 dup landscapeMode eq {pop -90 rotate}
  {rotateMode eq {90 rotate} if} ifelse} bdef
% line types: solid, dotted, dashed, dotdash
/SO { [] 0 setdash } bdef
/DO { [.5 dpi2point mul 4 dpi2point mul] 0 setdash } bdef
/DA { [6 dpi2point mul] 0 setdash } bdef
/DD { [.5 dpi2point mul 4 dpi2point mul 6 dpi2point mul 4
  dpi2point mul] 0 setdash } bdef
% macros for lines and objects
/L {lineto stroke} bdef
/MP {3 1 roll moveto 1 sub {rlineto} repeat} bdef
/AP {{rlineto} repeat} bdef
/PDlw -1 def
/W {/PDlw currentlinewidth def setlinewidth} def
/PP {closepath eofill} bdef
/DP {closepath stroke} bdef
/MR {4 -2 roll moveto dup  0 exch rlineto exch 0 rlineto
  neg 0 exch rlineto closepath} bdef
/FR {MR stroke} bdef
/PR {MR fill} bdef
/L1i {{currentfile picstr readhexstring pop} image} bdef
/tMatrix matrix def
/MakeOval {newpath tMatrix currentmatrix pop translate scale
0 0 1 0 360 arc tMatrix setmatrix} bdef
/FO {MakeOval stroke} bdef
/PO {MakeOval fill} bdef
/PD {currentlinewidth 2 div 0 360 arc fill
   PDlw -1 eq not {PDlw w /PDlw -1 def} if} def
/FA {newpath tMatrix currentmatrix pop translate scale
  0 0 1 5 -2 roll arc tMatrix setmatrix stroke} bdef
/PA {newpath tMatrix currentmatrix pop	translate 0 0 moveto scale
  0 0 1 5 -2 roll arc closepath tMatrix setmatrix fill} bdef
/FAn {newpath tMatrix currentmatrix pop translate scale
  0 0 1 5 -2 roll arcn tMatrix setmatrix stroke} bdef
/PAn {newpath tMatrix currentmatrix pop translate 0 0 moveto scale
  0 0 1 5 -2 roll arcn closepath tMatrix setmatrix fill} bdef
/vradius 0 def /hradius 0 def /lry 0 def
/lrx 0 def /uly 0 def /ulx 0 def /rad 0 def
/MRR {/vradius xdef /hradius xdef /lry xdef /lrx xdef /uly xdef
  /ulx xdef newpath tMatrix currentmatrix pop ulx hradius add uly
  vradius add translate hradius vradius scale 0 0 1 180 270 arc 
  tMatrix setmatrix lrx hradius sub uly vradius add translate
  hradius vradius scale 0 0 1 270 360 arc tMatrix setmatrix
  lrx hradius sub lry vradius sub translate hradius vradius scale
  0 0 1 0 90 arc tMatrix setmatrix ulx hradius add lry vradius sub
  translate hradius vradius scale 0 0 1 90 180 arc tMatrix setmatrix
  closepath} bdef
/FRR {MRR stroke } bdef
/PRR {MRR fill } bdef
/MlrRR {/lry xdef /lrx xdef /uly xdef /ulx xdef /rad lry uly sub 2 div def
  newpath tMatrix currentmatrix pop ulx rad add uly rad add translate
  rad rad scale 0 0 1 90 270 arc tMatrix setmatrix lrx rad sub lry rad
  sub translate rad rad scale 0 0 1 270 90 arc tMatrix setmatrix
  closepath} bdef
/FlrRR {MlrRR stroke } bdef
/PlrRR {MlrRR fill } bdef
/MtbRR {/lry xdef /lrx xdef /uly xdef /ulx xdef /rad lrx ulx sub 2 div def
  newpath tMatrix currentmatrix pop ulx rad add uly rad add translate
  rad rad scale 0 0 1 180 360 arc tMatrix setmatrix lrx rad sub lry rad
  sub translate rad rad scale 0 0 1 0 180 arc tMatrix setmatrix
  closepath} bdef
/FtbRR {MtbRR stroke } bdef
/PtbRR {MtbRR fill } bdef
/stri 6 array def /dtri 6 array def
/smat 6 array def /dmat 6 array def
/tmat1 6 array def /tmat2 6 array def /dif 3 array def
/asub {/ind2 exch def /ind1 exch def dup dup
  ind1 get exch ind2 get sub exch } bdef
/tri_to_matrix {
  2 0 asub 3 1 asub 4 0 asub 5 1 asub
  dup 0 get exch 1 get 7 -1 roll astore } bdef
/compute_transform {
  dmat dtri tri_to_matrix tmat1 invertmatrix 
  smat stri tri_to_matrix tmat2 concatmatrix } bdef
/ds {stri astore pop} bdef
/dt {dtri astore pop} bdef
/db {2 copy /cols xdef /rows xdef mul dup 3 mul string
  currentfile 
  3 index 0 eq {/ASCIIHexDecode filter}
  {/ASCII85Decode filter 3 index 2 eq {/RunLengthDecode filter} if }
  ifelse exch readstring pop
  dup 0 3 index getinterval /rbmap xdef
  dup 2 index dup getinterval /gbmap xdef
  1 index dup 2 mul exch getinterval /bbmap xdef pop pop}bdef
/it {gs np dtri aload pop moveto lineto lineto cp c
  cols rows 8 compute_transform 
  rbmap gbmap bbmap true 3 colorimage gr}bdef
/il {newpath moveto lineto stroke}bdef
currentdict end def
%%EndProlog

%%BeginSetup
MathWorks begin

0 cap

end
%%EndSetup

%%Page: 1 1
%%BeginPageSetup
%%PageBoundingBox:  -293    59   908   786
MathWorks begin
bpage
%%EndPageSetup

%%BeginObject: obj1
bplot

/dpi2point 12 def
portraitMode -5064 9384 csm

 1546   -48 14421  8719 rc
94 dict begin %Colortable dictionary
/c0 { 0.000000 0.000000 0.000000 sr} bdef
/c1 { 1.000000 1.000000 1.000000 sr} bdef
/c2 { 0.900000 0.000000 0.000000 sr} bdef
/c3 { 0.000000 0.820000 0.000000 sr} bdef
/c4 { 0.000000 0.000000 0.800000 sr} bdef
/c5 { 0.910000 0.820000 0.320000 sr} bdef
/c6 { 1.000000 0.260000 0.820000 sr} bdef
/c7 { 0.000000 0.820000 0.820000 sr} bdef
c0
1 j
1 sg
   0    0 17295 8672 rf
6 w
0 6625 13403 0 0 -6625 2248 7673 4 MP
PP
-13403 0 0 6625 13403 0 0 -6625 2248 7673 5 MP stroke
4 w
DO
0 sg
2248 7673 mt 2248 1048 L
2248 1048 mt 2248 1048 L
3923 7673 mt 3923 1048 L
3923 1048 mt 3923 1048 L
5598 7673 mt 5598 1048 L
5598 1048 mt 5598 1048 L
7274 7673 mt 7274 1048 L
7274 1048 mt 7274 1048 L
8949 7673 mt 8949 1048 L
8949 1048 mt 8949 1048 L
10624 7673 mt 10624 1048 L
10624 1048 mt 10624 1048 L
12300 7673 mt 12300 1048 L
12300 1048 mt 12300 1048 L
13975 7673 mt 13975 1048 L
13975 1048 mt 13975 1048 L
15651 7673 mt 15651 1048 L
15651 1048 mt 15651 1048 L
2248 7673 mt 15651 7673 L
15651 7673 mt 15651 7673 L
2248 6348 mt 15651 6348 L
15651 6348 mt 15651 6348 L
2248 5023 mt 15651 5023 L
15651 5023 mt 15651 5023 L
2248 3698 mt 15651 3698 L
15651 3698 mt 15651 3698 L
2248 2373 mt 15651 2373 L
15651 2373 mt 15651 2373 L
2248 1048 mt 15651 1048 L
15651 1048 mt 15651 1048 L
SO
6 w
2248 1048 mt 15651 1048 L
2248 7673 mt 15651 7673 L
15651 7673 mt 15651 1048 L
2248 7673 mt 2248 1048 L
2248 7673 mt 15651 7673 L
2248 7673 mt 2248 1048 L
2248 7673 mt 2248 7538 L
2248 1048 mt 2248 1182 L
%%IncludeResource: font Helvetica
/Helvetica /WindowsLatin1Encoding 480 FMSR

1982 8153 mt 
(10) s
3923 7673 mt 3923 7538 L
3923 1048 mt 3923 1182 L
3657 8153 mt 
(20) s
5598 7673 mt 5598 7538 L
5598 1048 mt 5598 1182 L
5332 8153 mt 
(30) s
7274 7673 mt 7274 7538 L
7274 1048 mt 7274 1182 L
7008 8153 mt 
(40) s
8949 7673 mt 8949 7538 L
8949 1048 mt 8949 1182 L
8683 8153 mt 
(50) s
10624 7673 mt 10624 7538 L
10624 1048 mt 10624 1182 L
10358 8153 mt 
(60) s
12300 7673 mt 12300 7538 L
12300 1048 mt 12300 1182 L
12034 8153 mt 
(70) s
13975 7673 mt 13975 7538 L
13975 1048 mt 13975 1182 L
13709 8153 mt 
(80) s
15651 7673 mt 15651 7538 L
15651 1048 mt 15651 1182 L
15385 8153 mt 
(90) s
2248 7673 mt 2382 7673 L
15651 7673 mt 15516 7673 L
1947 7851 mt 
(0) s
2248 6348 mt 2382 6348 L
15651 6348 mt 15516 6348 L
1546 6526 mt 
(0.5) s
2248 5023 mt 2382 5023 L
15651 5023 mt 15516 5023 L
1947 5201 mt 
(1) s
2248 3698 mt 2382 3698 L
15651 3698 mt 15516 3698 L
1546 3876 mt 
(1.5) s
2248 2373 mt 2382 2373 L
15651 2373 mt 15516 2373 L
1947 2551 mt 
(2) s
2248 1048 mt 2382 1048 L
15651 1048 mt 15516 1048 L
1546 1226 mt 
(2.5) s
2248  994 mt 
(x 10) s
%%IncludeResource: font Helvetica
/Helvetica /WindowsLatin1Encoding 320 FMSR

3155  697 mt 
(4) s
2248 1048 mt 15651 1048 L
2248 7673 mt 15651 7673 L
15651 7673 mt 15651 1048 L
2248 7673 mt 2248 1048 L
gs 2248 1048 13404 6626 rc
36 w
/c8 { 0.000000 0.000000 1.000000 sr} bdef
c8
1676 105 1675 1 1676 79 1675 -14 1675 198 1676 -80 1675 117 1675 158 
2248 6519 9 MP stroke
gr

36 w
c8
gs 2030 6301 13840 1001 rc
  90   90 2248 6519 FO
  90   90 3923 6677 FO
  90   90 5598 6794 FO
  90   90 7274 6714 FO
  90   90 8949 6912 FO
  90   90 10624 6898 FO
  90   90 12300 6977 FO
  90   90 13975 6978 FO
  90   90 15651 7083 FO
gr

gs 2248 1048 13404 6626 rc
DO
/c9 { 1.000000 0.000000 0.000000 sr} bdef
c9
1676 -3 1675 -328 1676 1024 1675 288 1675 232 1676 6 1675 1064 1675 -70 
2248 2415 9 MP stroke
gr

c9
DO
gs 2030 2127 13840 3051 rc
SO
0 j
104 179 -208 0 104 -179 2248 2534 4 MP
DP
104 179 -208 0 104 -179 3923 2464 4 MP
DP
104 179 -208 0 104 -179 5598 3528 4 MP
DP
104 179 -208 0 104 -179 7274 3534 4 MP
DP
104 179 -208 0 104 -179 8949 3766 4 MP
DP
104 179 -208 0 104 -179 10624 4054 4 MP
DP
104 179 -208 0 104 -179 12300 5078 4 MP
DP
104 179 -208 0 104 -179 13975 4750 4 MP
DP
104 179 -208 0 104 -179 15651 4747 4 MP
DP
DO
gr

gs 2248 1048 13404 6626 rc
DD
/c10 { 0.000000 1.000000 0.000000 sr} bdef
c10
1676 8 1675 -9 1676 1 1675 7 1675 -2 1676 5 1675 1 1675 7 
2248 7607 9 MP stroke
gr

c10
DD
gs 2030 7389 13840 456 rc
SO
2185 7544 mt 2311 7670 L
2311 7544 mt 2185 7670 L
3860 7551 mt 3986 7677 L
3986 7551 mt 3860 7677 L
5535 7552 mt 5661 7678 L
5661 7552 mt 5535 7678 L
7211 7557 mt 7337 7683 L
7337 7557 mt 7211 7683 L
8886 7555 mt 9012 7681 L
9012 7555 mt 8886 7681 L
10561 7562 mt 10687 7688 L
10687 7562 mt 10561 7688 L
12237 7563 mt 12363 7689 L
12363 7563 mt 12237 7689 L
13912 7554 mt 14038 7680 L
14038 7554 mt 13912 7680 L
15588 7562 mt 15714 7688 L
15714 7562 mt 15588 7688 L
DD
gr

gs 2248 1048 13404 6626 rc
DA
/c11 { 0.000000 0.000000 0.172414 sr} bdef
c11
1676 15 1675 34 1676 -21 1675 19 1675 -9 1676 41 1675 13 1675 -15 
2248 7451 9 MP stroke
gr

c11
DA
gs 2030 7218 13840 529 rc
SO
2158 7451 mt 2338 7451 L
2248 7361 mt 2248 7541 L
3833 7436 mt 4013 7436 L
3923 7346 mt 3923 7526 L
5508 7449 mt 5688 7449 L
5598 7359 mt 5598 7539 L
7184 7490 mt 7364 7490 L
7274 7400 mt 7274 7580 L
8859 7481 mt 9039 7481 L
8949 7391 mt 8949 7571 L
10534 7500 mt 10714 7500 L
10624 7410 mt 10624 7590 L
12210 7479 mt 12390 7479 L
12300 7389 mt 12300 7569 L
13885 7513 mt 14065 7513 L
13975 7423 mt 13975 7603 L
15561 7528 mt 15741 7528 L
15651 7438 mt 15651 7618 L
2185 7388 mt 2311 7514 L
2311 7388 mt 2185 7514 L
3860 7373 mt 3986 7499 L
3986 7373 mt 3860 7499 L
5535 7386 mt 5661 7512 L
5661 7386 mt 5535 7512 L
7211 7427 mt 7337 7553 L
7337 7427 mt 7211 7553 L
8886 7418 mt 9012 7544 L
9012 7418 mt 8886 7544 L
10561 7437 mt 10687 7563 L
10687 7437 mt 10561 7563 L
12237 7416 mt 12363 7542 L
12363 7416 mt 12237 7542 L
13912 7450 mt 14038 7576 L
14038 7450 mt 13912 7576 L
15588 7465 mt 15714 7591 L
15714 7465 mt 15588 7591 L
DA
gr

gs 2248 1048 13404 6626 rc
SO
/c12 { 1.000000 0.103448 0.724138 sr} bdef
c12
1676 1 1675 -3 1676 0 1675 1 1675 -1 1676 5 1675 -1 1675 -1 
2248 7651 9 MP stroke
gr

c12
SO
gs 2030 7431 13840 442 rc
0 j
0 -142 -142 0 0 142 142 0 2177 7580 5 MP
DP
0 -142 -142 0 0 142 142 0 3852 7579 5 MP
DP
0 -142 -142 0 0 142 142 0 5527 7578 5 MP
DP
0 -142 -142 0 0 142 142 0 7203 7583 5 MP
DP
0 -142 -142 0 0 142 142 0 8878 7582 5 MP
DP
0 -142 -142 0 0 142 142 0 10553 7583 5 MP
DP
0 -142 -142 0 0 142 142 0 12229 7583 5 MP
DP
0 -142 -142 0 0 142 142 0 13904 7580 5 MP
DP
0 -142 -142 0 0 142 142 0 15580 7581 5 MP
DP
gr

gs 2248 1048 13404 6626 rc
DO
/c13 { 0.000000 0.344828 0.000000 sr} bdef
c13
1676 1 1675 26 1676 32 1675 24 1675 116 1676 -12 1675 119 1675 2 
2248 6983 9 MP stroke
gr

c13
DO
gs 2030 6765 13840 745 rc
SO
0 j
90 119 -90 119 -90 -119 90 -119 2248 7102 5 MP
DP
90 119 -90 119 -90 -119 90 -119 3923 7104 5 MP
DP
90 119 -90 119 -90 -119 90 -119 5598 7223 5 MP
DP
90 119 -90 119 -90 -119 90 -119 7274 7211 5 MP
DP
90 119 -90 119 -90 -119 90 -119 8949 7327 5 MP
DP
90 119 -90 119 -90 -119 90 -119 10624 7351 5 MP
DP
90 119 -90 119 -90 -119 90 -119 12300 7383 5 MP
DP
90 119 -90 119 -90 -119 90 -119 13975 7409 5 MP
DP
90 119 -90 119 -90 -119 90 -119 15651 7410 5 MP
DP
DO
gr

gs 2248 1048 13404 6626 rc
DD
1676 486 1675 -219 1676 411 1675 106 1675 125 1676 325 1675 825 1675 -159 
2248 4434 9 MP stroke
gr

DD
gs 2030 4057 13840 2496 rc
SO
60 W
2248 4434 PD
60 W
3923 4275 PD
60 W
5598 5100 PD
60 W
7274 5425 PD
60 W
8949 5550 PD
60 W
10624 5656 PD
60 W
12300 6067 PD
60 W
13975 5848 PD
60 W
15651 6334 PD
DD
gr

gs 2248 1048 13404 6626 rc
DA
/c14 { 0.517241 0.517241 1.000000 sr} bdef
c14
1676 -93 1675 106 1676 -7 1675 23 1675 -24 1676 102 1675 7 1675 30 
2248 7003 9 MP stroke
gr

c14
DA
gs 2030 6785 13840 674 rc
SO
0 j
-104 179 -104 -179 208 0 2144 7063 4 MP
DP
-104 179 -104 -179 208 0 3819 7093 4 MP
DP
-104 179 -104 -179 208 0 5494 7100 4 MP
DP
-104 179 -104 -179 208 0 7170 7202 4 MP
DP
-104 179 -104 -179 208 0 8845 7178 4 MP
DP
-104 179 -104 -179 208 0 10520 7201 4 MP
DP
-104 179 -104 -179 208 0 12196 7194 4 MP
DP
-104 179 -104 -179 208 0 13871 7300 4 MP
DP
-104 179 -104 -179 208 0 15547 7207 4 MP
DP
DA
gr

gs 2248 1048 13404 6626 rc
SO
/c15 { 0.620690 0.310345 0.275862 sr} bdef
c15
1676 204 1675 95 1676 77 1675 6 1675 258 1676 219 1675 140 1675 89 
2248 4883 9 MP stroke
gr

c15
SO
gs 2030 4665 13840 1525 rc
0 j
-179 104 0 -208 179 104 2129 4883 4 MP
DP
-179 104 0 -208 179 104 3804 4972 4 MP
DP
-179 104 0 -208 179 104 5479 5112 4 MP
DP
-179 104 0 -208 179 104 7155 5331 4 MP
DP
-179 104 0 -208 179 104 8830 5589 4 MP
DP
-179 104 0 -208 179 104 10505 5595 4 MP
DP
-179 104 0 -208 179 104 12181 5672 4 MP
DP
-179 104 0 -208 179 104 13856 5767 4 MP
DP
-179 104 0 -208 179 104 15532 5971 4 MP
DP
gr

gs 2248 1048 13404 6626 rc
DO
/c16 { 0.000000 1.000000 0.758621 sr} bdef
c16
1676 -15 1675 3 1676 70 1675 22 1675 -8 1676 99 1675 57 1675 -76 
2248 7265 9 MP stroke
gr

c16
DO
gs 2030 6971 13840 680 rc
SO
0 j
0 208 -179 -104 179 -104 2188 7369 4 MP
DP
0 208 -179 -104 179 -104 3863 7293 4 MP
DP
0 208 -179 -104 179 -104 5538 7350 4 MP
DP
0 208 -179 -104 179 -104 7214 7449 4 MP
DP
0 208 -179 -104 179 -104 8889 7441 4 MP
DP
0 208 -179 -104 179 -104 10564 7463 4 MP
DP
0 208 -179 -104 179 -104 12240 7533 4 MP
DP
0 208 -179 -104 179 -104 13915 7536 4 MP
DP
0 208 -179 -104 179 -104 15591 7521 4 MP
DP
DO
gr

gs 2248 1048 13404 6626 rc
SO
/c17 { 0.000000 0.517241 0.586207 sr} bdef
c17
1676 -58 1675 263 1676 59 1675 -42 1675 406 1676 168 1675 296 1675 -202 
2248 5701 9 MP stroke
gr

c17
SO
gs 2030 5281 13840 1587 rc
0 j
-51 -39 18 -61 -53 36 -52 -36 18 61 -51 39 64 0 21 62 
22 -62 64 0 2162 5673 11 MP
DP
-51 -39 18 -61 -53 36 -52 -36 18 61 -51 39 64 0 21 62 
22 -62 64 0 3837 5471 11 MP
DP
-51 -39 18 -61 -53 36 -52 -36 18 61 -51 39 64 0 21 62 
22 -62 64 0 5512 5767 11 MP
DP
-51 -39 18 -61 -53 36 -52 -36 18 61 -51 39 64 0 21 62 
22 -62 64 0 7188 5935 11 MP
DP
-51 -39 18 -61 -53 36 -52 -36 18 61 -51 39 64 0 21 62 
22 -62 64 0 8863 6341 11 MP
DP
-51 -39 18 -61 -53 36 -52 -36 18 61 -51 39 64 0 21 62 
22 -62 64 0 10538 6299 11 MP
DP
-51 -39 18 -61 -53 36 -52 -36 18 61 -51 39 64 0 21 62 
22 -62 64 0 12214 6358 11 MP
DP
-51 -39 18 -61 -53 36 -52 -36 18 61 -51 39 64 0 21 62 
22 -62 64 0 13889 6621 11 MP
DP
-51 -39 18 -61 -53 36 -52 -36 18 61 -51 39 64 0 21 62 
22 -62 64 0 15565 6563 11 MP
DP
gr

gs 2248 1048 13404 6626 rc
DO
/c18 { 0.000000 0.000000 0.482759 sr} bdef
c18
1676 441 1675 33 1676 342 1675 -39 1675 173 1676 185 1675 704 1675 -217 
2248 5280 9 MP stroke
gr

c18
DO
gs 2030 4845 13840 2276 rc
SO
0 j
-32 -45 32 -45 -52 0 -25 -45 -25 45 -52 0 32 45 -32 45 
52 0 25 45 25 -45 52 0 2171 5235 13 MP
DP
-32 -45 32 -45 -52 0 -25 -45 -25 45 -52 0 32 45 -32 45 
52 0 25 45 25 -45 52 0 3846 5018 13 MP
DP
-32 -45 32 -45 -52 0 -25 -45 -25 45 -52 0 32 45 -32 45 
52 0 25 45 25 -45 52 0 5521 5722 13 MP
DP
-32 -45 32 -45 -52 0 -25 -45 -25 45 -52 0 32 45 -32 45 
52 0 25 45 25 -45 52 0 7197 5907 13 MP
DP
-32 -45 32 -45 -52 0 -25 -45 -25 45 -52 0 32 45 -32 45 
52 0 25 45 25 -45 52 0 8872 6080 13 MP
DP
-32 -45 32 -45 -52 0 -25 -45 -25 45 -52 0 32 45 -32 45 
52 0 25 45 25 -45 52 0 10547 6041 13 MP
DP
-32 -45 32 -45 -52 0 -25 -45 -25 45 -52 0 32 45 -32 45 
52 0 25 45 25 -45 52 0 12223 6383 13 MP
DP
-32 -45 32 -45 -52 0 -25 -45 -25 45 -52 0 32 45 -32 45 
52 0 25 45 25 -45 52 0 13898 6416 13 MP
DP
-32 -45 32 -45 -52 0 -25 -45 -25 45 -52 0 32 45 -32 45 
52 0 25 45 25 -45 52 0 15574 6857 13 MP
DP
DO
gr

gs 2248 1048 13404 6626 rc
gr

0 sg
%%IncludeResource: font Helvetica
/Helvetica /WindowsLatin1Encoding 480 FMSR

3762  446 mt 
(Evaluations to reach feasible region \(D) s
%%IncludeResource: font Helvetica
/Helvetica /WindowsLatin1Encoding 384 FMSR

11969  686 mt 
(e) s
%%IncludeResource: font Helvetica
/Helvetica /WindowsLatin1Encoding 480 FMSR

12182  446 mt 
( feasible\)) s
6931 8561 mt 
(Elements swapped) s
SO
6 w

end %%Color Dict

eplot
%%EndObject

epage
end

showpage

%%Trailer
%%EOF
