%!PS-Adobe-3.0 EPSF-3.0
%%Creator: cairo 1.14.1 (http://cairographics.org)
%%CreationDate: Mon Jun 20 00:06:41 2016
%%Pages: 1
%%DocumentData: Clean7Bit
%%LanguageLevel: 2
%%BoundingBox: 0 -1 820 382
%%EndComments
%%BeginProlog
save
50 dict begin
/q { gsave } bind def
/Q { grestore } bind def
/cm { 6 array astore concat } bind def
/w { setlinewidth } bind def
/J { setlinecap } bind def
/j { setlinejoin } bind def
/M { setmiterlimit } bind def
/d { setdash } bind def
/m { moveto } bind def
/l { lineto } bind def
/c { curveto } bind def
/h { closepath } bind def
/re { exch dup neg 3 1 roll 5 3 roll moveto 0 rlineto
      0 exch rlineto 0 rlineto closepath } bind def
/S { stroke } bind def
/f { fill } bind def
/f* { eofill } bind def
/n { newpath } bind def
/W { clip } bind def
/W* { eoclip } bind def
/BT { } bind def
/ET { } bind def
/pdfmark where { pop globaldict /?pdfmark /exec load put }
    { globaldict begin /?pdfmark /pop load def /pdfmark
    /cleartomark load def end } ifelse
/BDC { mark 3 1 roll /BDC pdfmark } bind def
/EMC { mark /EMC pdfmark } bind def
/cairo_store_point { /cairo_point_y exch def /cairo_point_x exch def } def
/Tj { show currentpoint cairo_store_point } bind def
/TJ {
  {
    dup
    type /stringtype eq
    { show } { -0.001 mul 0 cairo_font_matrix dtransform rmoveto } ifelse
  } forall
  currentpoint cairo_store_point
} bind def
/cairo_selectfont { cairo_font_matrix aload pop pop pop 0 0 6 array astore
    cairo_font exch selectfont cairo_point_x cairo_point_y moveto } bind def
/Tf { pop /cairo_font exch def /cairo_font_matrix where
      { pop cairo_selectfont } if } bind def
/Td { matrix translate cairo_font_matrix matrix concatmatrix dup
      /cairo_font_matrix exch def dup 4 get exch 5 get cairo_store_point
      /cairo_font where { pop cairo_selectfont } if } bind def
/Tm { 2 copy 8 2 roll 6 array astore /cairo_font_matrix exch def
      cairo_store_point /cairo_font where { pop cairo_selectfont } if } bind def
/g { setgray } bind def
/rg { setrgbcolor } bind def
/d1 { setcachedevice } bind def
%%EndProlog
%%BeginSetup
%%EndSetup
%%Page: 1 1
%%BeginPageSetup
%%PageBoundingBox: 0 -1 820 382
%%EndPageSetup
q 0 -1 820 383 rectclip q
0.627451 g
433.203 148.386 m 431.938 149.749 431.926 149.823 431.926 156.159 c 431.926
 162.557 l 425.586 162.862 l 422.098 163.03 417.801 163.167 416.035 163.167
 c 413.113 163.167 412.699 163.288 411.484 164.503 c 410.211 165.776 410.137
 166.077 410.012 170.425 c 409.875 175.003 l 378.141 175.245 l 376.715 176.667
 l 375.293 178.089 l 375.293 203.55 l 349.836 203.55 l 346.98 206.405 l 
346.98 232.327 l 321.215 232.358 l 319.941 233.483 l 318.664 234.604 l 318.664
 255.651 l 325.277 255.366 l 328.918 255.21 336.594 254.975 342.336 254.839
 c 348.082 254.706 355.539 254.475 358.91 254.323 c 365.035 254.053 l 367.465
 250.733 l 368.805 248.905 370.016 246.694 370.164 245.811 c 370.355 244.651
 370.719 244.136 371.469 243.952 c 372.125 243.792 374.168 241.405 377.051
 237.436 c 379.551 233.987 381.844 231.167 382.145 231.167 c 382.441 231.167
 386.578 235.659 391.332 241.147 c 396.082 246.636 400.328 251.495 400.762
 251.944 c 401.438 252.639 404.391 252.999 420.566 254.358 c 431.027 255.237
 439.707 255.811 439.863 255.632 c 440.016 255.452 444.543 243.596 449.918
 229.288 c 459.695 203.268 l 447.438 147.151 l 440.957 147.081 l 434.477
 147.014 l h
433.203 148.386 m f
450.063 231.417 m 444.844 245.323 440.547 256.749 440.512 256.807 c 440.477
 256.87 431.922 256.19 421.504 255.3 c 411.082 254.409 402.211 253.682 401.785
 253.682 c 401.359 253.682 396.816 248.835 391.582 242.796 c 382.145 231.909
 l 377.793 237.928 l 372.75 244.897 372.539 245.714 375.18 247.983 c 376.316
 248.96 376.738 249.604 376.402 249.839 c 376.063 250.077 377.078 251.819
 379.395 254.96 c 382.902 259.718 l 457.063 259.718 l 458.422 258.354 l 
459.785 256.995 l 459.543 206.136 l h
450.063 231.417 m f
368.91 250.268 m 367.699 251.968 366.395 253.741 366.012 254.21 c 365.367
 255.003 363.852 255.1 345.82 255.546 c 335.098 255.811 324.598 256.147 
322.492 256.288 c 318.664 256.55 l 318.664 259.718 l 381.824 259.718 l 379.875
 257.046 l 376.137 251.928 375.254 250.94 374.629 251.182 c 374.215 251.339
 373.727 250.698 373.191 249.303 c 372.746 248.136 372.098 247.182 371.746
 247.182 c 371.398 247.182 370.121 248.573 368.91 250.268 c h
368.91 250.268 m f
448.66 148.659 m 448.871 149.616 451.363 161.053 454.195 174.073 c 457.027
 187.093 459.426 197.956 459.523 198.21 c 459.621 198.468 459.719 187.03
 459.738 172.796 c 459.777 146.917 l 448.27 146.917 l h
448.66 148.659 m f
Q q
0 380.991 819.719 -381.305 re W n
q
0 381.104 820 -382 re W n
[ 1 0 0 1 0 -0.895721 ] concat
  q
0 g
0.429396 w
0 J
0 j
[] 0.0 d
10 M q 1 0 0 -1 0 382 cm
261.609 0.973 m 261.609 381.418 l S Q
  Q
Q
q
0 381.104 820 -382 re W n
[ 1 0 0 1 0 -0.895721 ] concat
  q
0 g
0.429396 w
0 J
0 j
[] 0.0 d
10 M q 1 0 0 -1 0 382 cm
261.609 0.543 m 260.32 1.832 l S Q
  Q
Q
q
0 381.104 820 -382 re W n
[ 1 0 0 1 0 -0.895721 ] concat
  q
0 g
0.429396 w
0 J
0 j
[] 0.0 d
10 M q 1 0 0 -1 0 382 cm
261.609 0.543 m 262.898 1.832 l S Q
  Q
Q
q
0 381.104 820 -382 re W n
[ 1 0 0 1 0 -0.895721 ] concat
  q
0 g
0.429396 w
0 J
0 j
[] 0.0 d
10 M q 1 0 0 -1 0 382 cm
0 262.871 m 818.859 262.871 l S Q
  Q
Q
q
0 381.104 820 -382 re W n
[ 1 0 0 1 0 -0.895721 ] concat
  q
0 g
0.429396 w
0 J
0 j
[] 0.0 d
10 M q 1 0 0 -1 0 382 cm
819.289 262.871 m 818 261.582 l S Q
  Q
Q
q
0 381.104 820 -382 re W n
[ 1 0 0 1 0 -0.895721 ] concat
  q
0 g
0.429396 w
0 J
0 j
[] 0.0 d
10 M q 1 0 0 -1 0 382 cm
819.289 262.871 m 818 264.16 l S Q
  Q
Q
q
0 381.104 820 -382 re W n
[ 1 0 0 1 0 -0.895721 ] concat
  q
0 g
4.516 114.656 m 4.516 114.934 l 6.219 114.934 l 6.219 114.656 l h
6.676 114.227 m 7.039 114.254 l 7.07 114.086 7.129 113.965 7.215 113.887
 c 7.305 113.805 7.414 113.766 7.547 113.766 c 7.664 113.766 7.766 113.793
 7.852 113.848 c 7.941 113.902 8.012 113.973 8.066 114.063 c 8.125 114.152
 8.172 114.27 8.207 114.422 c 8.246 114.57 8.266 114.727 8.266 114.883 c
 8.266 114.965 l 8.191 114.84 8.086 114.742 7.953 114.668 c 7.82 114.59 
7.68 114.551 7.527 114.551 c 7.273 114.551 7.059 114.645 6.883 114.832 c
 6.711 115.016 6.621 115.262 6.621 115.563 c 6.621 115.871 6.715 116.125
 6.898 116.313 c 7.082 116.504 7.313 116.602 7.59 116.602 c 7.785 116.602
 7.965 116.547 8.133 116.438 c 8.297 116.332 8.422 116.176 8.512 115.977
 c 8.598 115.781 8.641 115.492 8.641 115.109 c 8.641 114.719 8.598 114.41
 8.516 114.18 c 8.43 113.941 8.301 113.766 8.133 113.641 c 7.961 113.52 
7.766 113.461 7.543 113.461 c 7.301 113.461 7.102 113.527 6.949 113.66 c
 6.797 113.793 6.707 113.98 6.676 114.227 c h
8.219 115.578 m 8.219 115.797 8.16 115.973 8.047 116.098 c 7.934 116.219
 7.797 116.281 7.637 116.281 c 7.465 116.281 7.316 116.215 7.191 116.082
 c 7.066 115.941 7.004 115.766 7.004 115.543 c 7.004 115.352 7.063 115.195
 7.184 115.07 c 7.301 114.949 7.449 114.887 7.621 114.887 c 7.797 114.887
 7.938 114.949 8.051 115.07 c 8.164 115.195 8.219 115.363 8.219 115.578 
c h
8.219 115.578 m f
  Q
Q
q
0 381.104 820 -382 re W n
[ 1 0 0 1 0 -0.895721 ] concat
  q
0 g
0.429396 w
0 J
0 j
[] 0.0 d
10 M q 1 0 0 -1 0 382 cm
6.355 262.871 m 6.355 264.16 l S Q
  Q
Q
q
0 381.104 820 -382 re W n
[ 1 0 0 1 0 -0.895721 ] concat
  q
0 g
32.855 114.656 m 32.855 114.934 l 34.559 114.934 l 34.559 114.656 l h
35.539 115.18 m 35.383 115.234 35.266 115.316 35.191 115.422 c 35.113 115.531
 35.078 115.66 35.078 115.805 c 35.078 116.027 35.156 116.219 35.316 116.371
 c 35.48 116.523 35.695 116.602 35.961 116.602 c 36.23 116.602 36.445 116.52
 36.609 116.363 c 36.773 116.207 36.855 116.016 36.855 115.793 c 36.855 
115.648 36.816 115.527 36.742 115.422 c 36.668 115.316 36.559 115.234 36.406
 115.18 c 36.594 115.117 36.734 115.02 36.836 114.883 c 36.934 114.742 36.98
 114.578 36.98 114.395 c 36.98 114.125 36.891 113.906 36.703 113.727 c 36.52
 113.551 36.273 113.461 35.969 113.461 c 35.664 113.461 35.418 113.551 35.234
 113.73 c 35.047 113.91 34.957 114.137 34.957 114.406 c 34.957 114.602 35.004
 114.77 35.105 114.902 c 35.207 115.043 35.352 115.133 35.539 115.18 c h
35.465 115.824 m 35.465 115.672 35.512 115.555 35.605 115.461 c 35.699 
115.371 35.82 115.324 35.969 115.324 c 36.117 115.324 36.234 115.371 36.328
 115.461 c 36.418 115.555 36.465 115.668 36.465 115.801 c 36.465 115.938
 36.418 116.055 36.32 116.148 c 36.227 116.242 36.105 116.289 35.969 116.289
 c 35.82 116.289 35.699 116.246 35.605 116.152 c 35.512 116.063 35.465 115.953
 35.465 115.824 c h
35.344 114.398 m 35.344 114.293 35.371 114.188 35.422 114.086 c 35.473 
113.984 35.551 113.906 35.648 113.852 c 35.75 113.793 35.859 113.766 35.977
 113.766 c 36.152 113.766 36.301 113.824 36.418 113.941 c 36.535 114.059
 36.594 114.207 36.594 114.383 c 36.594 114.566 36.531 114.719 36.41 114.84
 c 36.289 114.957 36.141 115.016 35.961 115.016 c 35.781 115.016 35.637 
114.957 35.52 114.84 c 35.402 114.727 35.344 114.578 35.344 114.398 c h
35.344 114.398 m f
  Q
Q
q
0 381.104 820 -382 re W n
[ 1 0 0 1 0 -0.895721 ] concat
  q
0 g
0.429396 w
0 J
0 j
[] 0.0 d
10 M q 1 0 0 -1 0 382 cm
34.719 262.871 m 34.719 264.16 l S Q
  Q
Q
q
0 381.104 820 -382 re W n
[ 1 0 0 1 0 -0.895721 ] concat
  q
0 g
61.199 114.656 m 61.199 114.934 l 62.898 114.934 l 62.898 114.656 l h
63.324 116.184 m 63.324 116.543 l 65.316 116.543 l 65.316 116.25 l 65.117
 116.047 64.922 115.77 64.73 115.422 c 64.539 115.078 64.391 114.727 64.289
 114.359 c 64.211 114.098 64.164 113.816 64.145 113.512 c 63.754 113.512
 l 63.754 113.754 63.801 114.043 63.895 114.387 c 63.984 114.73 64.117 115.059
 64.289 115.375 c 64.457 115.695 64.637 115.961 64.832 116.184 c h
63.324 116.184 m f
  Q
Q
q
0 381.104 820 -382 re W n
[ 1 0 0 1 0 -0.895721 ] concat
  q
0 g
0.429396 w
0 J
0 j
[] 0.0 d
10 M q 1 0 0 -1 0 382 cm
63.078 262.871 m 63.078 264.16 l S Q
  Q
Q
q
0 381.104 820 -382 re W n
[ 1 0 0 1 0 -0.895721 ] concat
  q
0 g
89.539 114.656 m 89.539 114.934 l 91.238 114.934 l 91.238 114.656 l h
93.594 115.836 m 93.227 115.805 l 93.188 115.953 93.141 116.063 93.082 
116.129 c 92.977 116.234 92.852 116.289 92.703 116.289 c 92.582 116.289 
92.477 116.258 92.391 116.188 c 92.266 116.098 92.172 115.973 92.105 115.805
 c 92.039 115.641 92.004 115.406 92 115.098 c 92.086 115.234 92.195 115.336
 92.328 115.406 c 92.461 115.473 92.598 115.504 92.742 115.504 c 93 115.504
 93.215 115.41 93.391 115.227 c 93.566 115.039 93.656 114.801 93.656 114.512
 c 93.656 114.32 93.613 114.141 93.527 113.977 c 93.445 113.809 93.328 113.684
 93.184 113.594 c 93.039 113.504 92.871 113.461 92.691 113.461 c 92.379 
113.461 92.121 113.578 91.922 113.809 c 91.723 114.039 91.625 114.418 91.625
 114.945 c 91.625 115.543 91.734 115.977 91.949 116.25 c 92.145 116.484 
92.398 116.602 92.723 116.602 c 92.969 116.602 93.172 116.531 93.324 116.395
 c 93.48 116.258 93.57 116.07 93.594 115.836 c h
92.059 114.504 m 92.059 114.375 92.086 114.254 92.141 114.137 c 92.195 
114.016 92.273 113.922 92.371 113.859 c 92.473 113.797 92.574 113.766 92.68
 113.766 c 92.844 113.766 92.98 113.832 93.094 113.965 c 93.207 114.094 
93.266 114.266 93.266 114.488 c 93.266 114.703 93.207 114.871 93.094 114.992
 c 92.98 115.117 92.84 115.18 92.668 115.18 c 92.5 115.18 92.355 115.117
 92.234 114.992 c 92.117 114.871 92.059 114.707 92.059 114.504 c h
92.059 114.504 m f
  Q
Q
q
0 381.104 820 -382 re W n
[ 1 0 0 1 0 -0.895721 ] concat
  q
0 g
0.429396 w
0 J
0 j
[] 0.0 d
10 M q 1 0 0 -1 0 382 cm
91.441 262.871 m 91.441 264.16 l S Q
  Q
Q
q
0 381.104 820 -382 re W n
[ 1 0 0 1 0 -0.895721 ] concat
  q
0 g
118.309 114.656 m 118.309 114.934 l 120.008 114.934 l 120.008 114.656 l
 h
120.41 114.32 m 120.805 114.352 l 120.836 114.156 120.902 114.012 121.008
 113.918 c 121.117 113.816 121.246 113.766 121.398 113.766 c 121.578 113.766
 121.73 113.836 121.859 113.977 c 121.984 114.113 122.047 114.293 122.047
 114.516 c 122.047 114.73 121.988 114.902 121.867 115.027 c 121.746 115.152
 121.59 115.219 121.391 115.219 c 121.27 115.219 121.16 115.188 121.063 
115.133 c 120.965 115.078 120.887 115.008 120.828 114.922 c 120.48 114.969
 l 120.777 116.543 l 122.305 116.543 l 122.305 116.184 l 121.078 116.184
 l 120.91 115.359 l 121.094 115.488 121.289 115.551 121.492 115.551 c 121.762
 115.551 121.988 115.461 122.172 115.273 c 122.355 115.086 122.445 114.848
 122.445 114.551 c 122.445 114.273 122.363 114.035 122.203 113.836 c 122.008
 113.586 121.738 113.461 121.398 113.461 c 121.117 113.461 120.887 113.539
 120.711 113.691 c 120.535 113.852 120.434 114.059 120.41 114.32 c h
120.41 114.32 m f
  Q
Q
q
0 381.104 820 -382 re W n
[ 1 0 0 1 0 -0.895721 ] concat
  q
0 g
0.429396 w
0 J
0 j
[] 0.0 d
10 M q 1 0 0 -1 0 382 cm
119.801 262.871 m 119.801 264.16 l S Q
  Q
Q
q
0 381.104 820 -382 re W n
[ 1 0 0 1 0 -0.895721 ] concat
  q
0 g
146.648 114.656 m 146.648 114.934 l 148.348 114.934 l 148.348 114.656 l
 h
149.957 113.512 m 149.957 114.25 l 148.621 114.25 l 148.621 114.594 l 150.027
 116.586 l 150.336 116.586 l 150.336 114.594 l 150.754 114.594 l 150.754
 114.25 l 150.336 114.25 l 150.336 113.512 l h
149.957 114.594 m 149.957 115.98 l 148.992 114.594 l h
149.957 114.594 m f
  Q
Q
q
0 381.104 820 -382 re W n
[ 1 0 0 1 0 -0.895721 ] concat
  q
0 g
0.429396 w
0 J
0 j
[] 0.0 d
10 M q 1 0 0 -1 0 382 cm
148.164 262.871 m 148.164 264.16 l S Q
  Q
Q
q
0 381.104 820 -382 re W n
[ 1 0 0 1 0 -0.895721 ] concat
  q
0 g
174.988 114.656 m 174.988 114.934 l 176.688 114.934 l 176.688 114.656 l
 h
177.09 114.324 m 177.469 114.371 l 177.512 114.164 177.586 114.008 177.688
 113.91 c 177.793 113.813 177.918 113.766 178.07 113.766 c 178.25 113.766
 178.402 113.828 178.523 113.949 c 178.641 114.074 178.703 114.227 178.703
 114.41 c 178.703 114.586 178.645 114.727 178.535 114.84 c 178.422 114.949
 178.281 115.008 178.105 115.008 c 178.035 115.008 177.945 114.992 177.84
 114.969 c 177.879 115.297 l 177.938 115.297 l 178.098 115.297 178.242 115.34
 178.375 115.422 c 178.504 115.504 178.57 115.629 178.57 115.805 c 178.57
 115.945 178.523 116.063 178.426 116.152 c 178.332 116.246 178.211 116.289
 178.066 116.289 c 177.918 116.289 177.793 116.246 177.695 116.152 c 177.598
 116.063 177.535 115.922 177.508 115.73 c 177.133 115.801 l 177.176 116.055
 177.281 116.25 177.445 116.391 c 177.605 116.531 177.809 116.602 178.055
 116.602 c 178.223 116.602 178.379 116.563 178.516 116.492 c 178.656 116.422
 178.766 116.32 178.84 116.195 c 178.914 116.07 178.949 115.938 178.949 
115.801 c 178.949 115.668 178.918 115.543 178.848 115.438 c 178.777 115.332
 178.672 115.246 178.531 115.18 c 178.715 115.137 178.855 115.047 178.957
 114.918 c 179.055 114.785 179.105 114.617 179.105 114.418 c 179.105 114.148
 179.008 113.922 178.809 113.734 c 178.613 113.551 178.367 113.461 178.07
 113.461 c 177.797 113.461 177.574 113.543 177.398 113.703 c 177.223 113.863
 177.121 114.07 177.09 114.324 c h
177.09 114.324 m f
  Q
Q
q
0 381.104 820 -382 re W n
[ 1 0 0 1 0 -0.895721 ] concat
  q
0 g
0.429396 w
0 J
0 j
[] 0.0 d
10 M q 1 0 0 -1 0 382 cm
176.523 262.871 m 176.523 264.16 l S Q
  Q
Q
q
0 381.104 820 -382 re W n
[ 1 0 0 1 0 -0.895721 ] concat
  q
0 g
203.328 114.656 m 203.328 114.934 l 205.027 114.934 l 205.027 114.656 l
 h
207.41 113.875 m 207.41 113.512 l 205.379 113.512 l 205.379 113.602 205.395
 113.688 205.426 113.773 c 205.48 113.91 205.563 114.047 205.672 114.184
 c 205.785 114.316 205.953 114.473 206.172 114.645 c 206.504 114.922 206.727
 115.141 206.844 115.297 c 206.961 115.461 207.02 115.609 207.02 115.754
 c 207.02 115.906 206.969 116.031 206.863 116.133 c 206.754 116.23 206.617
 116.281 206.445 116.281 c 206.262 116.281 206.117 116.23 206.008 116.125
 c 205.898 116.016 205.844 115.863 205.844 115.672 c 205.453 115.711 l 205.48
 115.996 205.578 116.219 205.75 116.371 c 205.926 116.523 206.16 116.602
 206.453 116.602 c 206.75 116.602 206.98 116.52 207.152 116.355 c 207.324
 116.191 207.41 115.988 207.41 115.746 c 207.41 115.621 207.387 115.5 207.336
 115.379 c 207.281 115.262 207.199 115.137 207.086 115.008 c 206.969 114.875
 206.773 114.695 206.5 114.465 c 206.273 114.277 206.129 114.148 206.066
 114.078 c 206 114.012 205.949 113.941 205.91 113.875 c h
207.41 113.875 m f
  Q
Q
q
0 381.104 820 -382 re W n
[ 1 0 0 1 0 -0.895721 ] concat
  q
0 g
0.429396 w
0 J
0 j
[] 0.0 d
10 M q 1 0 0 -1 0 382 cm
204.887 262.871 m 204.887 264.16 l S Q
  Q
Q
q
0 381.104 820 -382 re W n
[ 1 0 0 1 0 -0.895721 ] concat
  q
0 g
231.668 114.656 m 231.668 114.934 l 233.367 114.934 l 233.367 114.656 l
 h
235.188 113.512 m 234.813 113.512 l 234.813 115.914 l 234.723 115.828 234.605
 115.742 234.461 115.656 c 234.309 115.57 234.176 115.508 234.059 115.465
 c 234.059 115.828 l 234.273 115.926 234.457 116.043 234.613 116.188 c 234.773
 116.328 234.887 116.465 234.949 116.602 c 235.188 116.602 l h
235.188 113.512 m f
  Q
Q
q
0 381.104 820 -382 re W n
[ 1 0 0 1 0 -0.895721 ] concat
  q
0 g
0.429396 w
0 J
0 j
[] 0.0 d
10 M q 1 0 0 -1 0 382 cm
233.25 262.871 m 233.25 264.16 l S Q
  Q
Q
q
0 381.104 820 -382 re W n
[ 1 0 0 1 0 -0.895721 ] concat
  q
0 g
264.258 115.027 m 264.258 115.391 264.297 115.684 264.371 115.902 c 264.445
 116.125 264.555 116.297 264.703 116.418 c 264.852 116.539 265.035 116.602
 265.258 116.602 c 265.426 116.602 265.57 116.566 265.691 116.496 c 265.816
 116.43 265.918 116.336 266.004 116.211 c 266.086 116.082 266.148 115.93
 266.191 115.754 c 266.238 115.574 266.262 115.332 266.262 115.027 c 266.262
 114.668 266.223 114.375 266.148 114.152 c 266.074 113.934 265.965 113.762
 265.816 113.641 c 265.668 113.52 265.484 113.461 265.258 113.461 c 264.965
 113.461 264.73 113.566 264.559 113.777 c 264.359 114.035 264.258 114.453
 264.258 115.027 c h
264.641 115.027 m 264.641 114.523 264.703 114.188 264.82 114.02 c 264.938
 113.852 265.086 113.766 265.258 113.766 c 265.434 113.766 265.582 113.852
 265.699 114.02 c 265.816 114.188 265.879 114.523 265.879 115.027 c 265.879
 115.535 265.816 115.871 265.699 116.039 c 265.582 116.199 265.43 116.281
 265.25 116.281 c 265.082 116.281 264.945 116.211 264.84 116.066 c 264.707
 115.883 264.641 115.535 264.641 115.027 c h
264.641 115.027 m f
  Q
Q
q
0 381.104 820 -382 re W n
[ 1 0 0 1 0 -0.895721 ] concat
  q
0 g
290.582 113.512 m 290.203 113.512 l 290.203 115.914 l 290.113 115.828 289.996
 115.742 289.852 115.656 c 289.703 115.57 289.57 115.508 289.453 115.465
 c 289.453 115.828 l 289.664 115.926 289.848 116.043 290.004 116.188 c 290.168
 116.328 290.277 116.465 290.34 116.602 c 290.582 116.602 l h
290.582 113.512 m f
  Q
Q
q
0 381.104 820 -382 re W n
[ 1 0 0 1 0 -0.895721 ] concat
  q
0 g
0.429396 w
0 J
0 j
[] 0.0 d
10 M q 1 0 0 -1 0 382 cm
289.973 262.871 m 289.973 264.16 l S Q
  Q
Q
q
0 381.104 820 -382 re W n
[ 1 0 0 1 0 -0.895721 ] concat
  q
0 g
319.484 113.875 m 319.484 113.512 l 317.453 113.512 l 317.453 113.602 317.469
 113.688 317.5 113.773 c 317.551 113.91 317.633 114.047 317.746 114.184 
c 317.859 114.316 318.023 114.473 318.242 114.645 c 318.574 114.922 318.801
 115.141 318.918 115.297 c 319.035 115.461 319.094 115.609 319.094 115.754
 c 319.094 115.906 319.039 116.031 318.934 116.133 c 318.828 116.23 318.688
 116.281 318.52 116.281 c 318.336 116.281 318.188 116.23 318.078 116.125
 c 317.973 116.016 317.918 115.863 317.918 115.672 c 317.527 115.711 l 317.551
 115.996 317.648 116.219 317.82 116.371 c 317.996 116.523 318.23 116.602
 318.527 116.602 c 318.82 116.602 319.055 116.52 319.227 116.355 c 319.398
 116.191 319.484 115.988 319.484 115.746 c 319.484 115.621 319.457 115.5
 319.406 115.379 c 319.355 115.262 319.273 115.137 319.156 115.008 c 319.039
 114.875 318.844 114.695 318.574 114.465 c 318.348 114.277 318.203 114.148
 318.141 114.078 c 318.074 114.012 318.02 113.941 317.98 113.875 c h
319.484 113.875 m f
  Q
Q
q
0 381.104 820 -382 re W n
[ 1 0 0 1 0 -0.895721 ] concat
  q
0 g
0.429396 w
0 J
0 j
[] 0.0 d
10 M q 1 0 0 -1 0 382 cm
318.332 262.871 m 318.332 264.16 l S Q
  Q
Q
q
0 381.104 820 -382 re W n
[ 1 0 0 1 0 -0.895721 ] concat
  q
0 g
345.844 114.324 m 346.223 114.371 l 346.266 114.164 346.34 114.008 346.441
 113.91 c 346.543 113.813 346.672 113.766 346.824 113.766 c 347.004 113.766
 347.152 113.828 347.273 113.949 c 347.395 114.074 347.453 114.227 347.453
 114.41 c 347.453 114.586 347.398 114.727 347.289 114.84 c 347.176 114.949
 347.031 115.008 346.859 115.008 c 346.785 115.008 346.699 114.992 346.59
 114.969 c 346.629 115.297 l 346.691 115.297 l 346.852 115.297 346.996 115.34
 347.129 115.422 c 347.258 115.504 347.32 115.629 347.32 115.805 c 347.32
 115.945 347.273 116.063 347.18 116.152 c 347.086 116.246 346.965 116.289
 346.82 116.289 c 346.672 116.289 346.547 116.246 346.449 116.152 c 346.352
 116.063 346.285 115.922 346.262 115.73 c 345.887 115.801 l 345.93 116.055
 346.035 116.25 346.195 116.391 c 346.359 116.531 346.563 116.602 346.805
 116.602 c 346.977 116.602 347.129 116.563 347.27 116.492 c 347.41 116.422
 347.52 116.32 347.594 116.195 c 347.668 116.07 347.703 115.938 347.703 
115.801 c 347.703 115.668 347.668 115.543 347.602 115.438 c 347.531 115.332
 347.426 115.246 347.281 115.18 c 347.465 115.137 347.609 115.047 347.707
 114.918 c 347.809 114.785 347.859 114.617 347.859 114.418 c 347.859 114.148
 347.758 113.922 347.563 113.734 c 347.363 113.551 347.117 113.461 346.824
 113.461 c 346.551 113.461 346.328 113.543 346.148 113.703 c 345.977 113.863
 345.875 114.07 345.844 114.324 c h
345.844 114.324 m f
  Q
Q
q
0 381.104 820 -382 re W n
[ 1 0 0 1 0 -0.895721 ] concat
  q
0 g
0.429396 w
0 J
0 j
[] 0.0 d
10 M q 1 0 0 -1 0 382 cm
346.695 262.871 m 346.695 264.16 l S Q
  Q
Q
q
0 381.104 820 -382 re W n
[ 1 0 0 1 0 -0.895721 ] concat
  q
0 g
375.391 113.512 m 375.391 114.25 l 374.055 114.25 l 374.055 114.594 l 375.461
 116.586 l 375.77 116.586 l 375.77 114.594 l 376.188 114.594 l 376.188 114.25
 l 375.77 114.25 l 375.77 113.512 l h
375.391 114.594 m 375.391 115.98 l 374.426 114.594 l h
375.391 114.594 m f
  Q
Q
q
0 381.104 820 -382 re W n
[ 1 0 0 1 0 -0.895721 ] concat
  q
0 g
0.429396 w
0 J
0 j
[] 0.0 d
10 M q 1 0 0 -1 0 382 cm
375.055 262.871 m 375.055 264.16 l S Q
  Q
Q
q
0 381.104 820 -382 re W n
[ 1 0 0 1 0 -0.895721 ] concat
  q
0 g
402.523 114.32 m 402.918 114.352 l 402.949 114.156 403.016 114.012 403.121
 113.918 c 403.23 113.816 403.359 113.766 403.512 113.766 c 403.691 113.766
 403.844 113.836 403.973 113.977 c 404.098 114.113 404.16 114.293 404.16
 114.516 c 404.16 114.73 404.102 114.902 403.98 115.027 c 403.859 115.152
 403.703 115.219 403.504 115.219 c 403.383 115.219 403.273 115.188 403.176
 115.133 c 403.078 115.078 403 115.008 402.941 114.922 c 402.594 114.969
 l 402.891 116.543 l 404.418 116.543 l 404.418 116.184 l 403.191 116.184
 l 403.023 115.359 l 403.207 115.488 403.402 115.551 403.605 115.551 c 403.875
 115.551 404.102 115.461 404.285 115.273 c 404.469 115.086 404.559 114.848
 404.559 114.551 c 404.559 114.273 404.48 114.035 404.316 113.836 c 404.121
 113.586 403.852 113.461 403.512 113.461 c 403.23 113.461 403 113.539 402.824
 113.691 c 402.648 113.852 402.547 114.059 402.523 114.32 c h
402.523 114.32 m f
  Q
Q
q
0 381.104 820 -382 re W n
[ 1 0 0 1 0 -0.895721 ] concat
  q
0 g
0.429396 w
0 J
0 j
[] 0.0 d
10 M q 1 0 0 -1 0 382 cm
403.414 262.871 m 403.414 264.16 l S Q
  Q
Q
q
0 381.104 820 -382 re W n
[ 1 0 0 1 0 -0.895721 ] concat
  q
0 g
433.262 115.836 m 432.875 115.805 l 432.848 115.953 432.805 116.063 432.746
 116.129 c 432.633 116.234 432.504 116.289 432.359 116.289 c 432.246 116.289
 432.145 116.258 432.059 116.188 c 431.914 116.098 431.816 115.973 431.758
 115.805 c 431.699 115.641 431.656 115.406 431.629 115.098 c 431.742 115.234
 431.859 115.336 431.973 115.406 c 432.117 115.473 432.258 115.504 432.402
 115.504 c 432.66 115.504 432.875 115.41 433.047 115.227 c 433.219 115.039
 433.305 114.801 433.305 114.512 c 433.305 114.32 433.262 114.141 433.176
 113.977 c 433.09 113.809 432.977 113.684 432.832 113.594 c 432.688 113.504
 432.531 113.461 432.359 113.461 c 432.043 113.461 431.785 113.578 431.586
 113.809 c 431.387 114.039 431.285 114.418 431.285 114.945 c 431.285 115.543
 431.387 115.977 431.586 116.25 c 431.785 116.484 432.043 116.602 432.359
 116.602 c 432.617 116.602 432.816 116.531 432.961 116.395 c 433.133 116.258
 433.23 116.07 433.262 115.836 c h
431.715 114.504 m 431.715 114.375 431.742 114.254 431.801 114.137 c 431.859
 114.016 431.93 113.922 432.016 113.859 c 432.129 113.797 432.23 113.766
 432.316 113.766 c 432.488 113.766 432.633 113.832 432.746 113.965 c 432.859
 114.094 432.918 114.266 432.918 114.488 c 432.918 114.703 432.859 114.871
 432.746 114.992 c 432.633 115.117 432.488 115.18 432.316 115.18 c 432.145
 115.18 432 115.117 431.887 114.992 c 431.773 114.871 431.715 114.707 431.715
 114.504 c h
431.715 114.504 m f
  Q
Q
q
0 381.104 820 -382 re W n
[ 1 0 0 1 0 -0.895721 ] concat
  q
0 g
0.429396 w
0 J
0 j
[] 0.0 d
10 M q 1 0 0 -1 0 382 cm
431.758 262.871 m 431.758 264.16 l S Q
  Q
Q
q
0 381.104 820 -382 re W n
[ 1 0 0 1 0 -0.895721 ] concat
  q
0 g
459.668 116.184 m 459.668 116.543 l 461.645 116.543 l 461.645 116.25 l 
461.445 116.047 461.258 115.77 461.086 115.422 c 460.887 115.078 460.727
 114.727 460.613 114.359 c 460.555 114.098 460.512 113.816 460.484 113.512
 c 460.098 113.512 l 460.098 113.754 460.141 114.043 460.227 114.387 c 460.313
 114.73 460.441 115.059 460.613 115.375 c 460.785 115.695 460.973 115.961
 461.172 116.184 c h
459.668 116.184 m f
  Q
Q
q
0 381.104 820 -382 re W n
[ 1 0 0 1 0 -0.895721 ] concat
  q
0 g
0.429396 w
0 J
0 j
[] 0.0 d
10 M q 1 0 0 -1 0 382 cm
460.141 262.871 m 460.141 264.16 l S Q
  Q
Q
q
0 381.104 820 -382 re W n
[ 1 0 0 1 0 -0.895721 ] concat
  q
0 g
488.566 115.18 m 488.395 115.234 488.281 115.316 488.223 115.422 c 488.137
 115.531 488.094 115.66 488.094 115.805 c 488.094 116.027 488.168 116.219
 488.309 116.371 c 488.48 116.523 488.711 116.602 488.996 116.602 c 489.254
 116.602 489.469 116.52 489.641 116.363 c 489.785 116.207 489.855 116.016
 489.855 115.793 c 489.855 115.648 489.828 115.527 489.77 115.422 c 489.684
 115.316 489.57 115.234 489.426 115.18 c 489.598 115.117 489.742 115.02 
489.855 114.883 c 489.941 114.742 489.984 114.578 489.984 114.395 c 489.984
 114.125 489.898 113.906 489.727 113.727 c 489.527 113.551 489.281 113.461
 488.996 113.461 c 488.684 113.461 488.438 113.551 488.266 113.73 c 488.066
 113.91 487.965 114.137 487.965 114.406 c 487.965 114.602 488.023 114.77
 488.137 114.902 c 488.223 115.043 488.367 115.133 488.566 115.18 c h
488.48 115.824 m 488.48 115.672 488.523 115.555 488.609 115.461 c 488.695
 115.371 488.824 115.324 488.996 115.324 c 489.141 115.324 489.254 115.371
 489.34 115.461 c 489.426 115.555 489.469 115.668 489.469 115.801 c 489.469
 115.938 489.426 116.055 489.34 116.148 c 489.227 116.242 489.109 116.289
 488.996 116.289 c 488.824 116.289 488.695 116.246 488.609 116.152 c 488.523
 116.063 488.48 115.953 488.48 115.824 c h
488.352 114.398 m 488.352 114.293 488.383 114.188 488.438 114.086 c 488.496
 113.984 488.566 113.906 488.652 113.852 c 488.77 113.793 488.883 113.766
 488.996 113.766 c 489.168 113.766 489.313 113.824 489.426 113.941 c 489.539
 114.059 489.598 114.207 489.598 114.383 c 489.598 114.566 489.539 114.719
 489.426 114.84 c 489.313 114.957 489.168 115.016 488.996 115.016 c 488.797
 115.016 488.641 114.957 488.523 114.84 c 488.41 114.727 488.352 114.578
 488.352 114.398 c h
488.352 114.398 m f
  Q
Q
q
0 381.104 820 -382 re W n
[ 1 0 0 1 0 -0.895721 ] concat
  q
0 g
0.429396 w
0 J
0 j
[] 0.0 d
10 M q 1 0 0 -1 0 382 cm
488.48 262.871 m 488.48 264.16 l S Q
  Q
Q
q
0 381.104 820 -382 re W n
[ 1 0 0 1 0 -0.895721 ] concat
  q
0 g
516.348 114.227 m 516.734 114.254 l 516.766 114.086 516.82 113.965 516.906
 113.887 c 516.992 113.805 517.109 113.766 517.25 113.766 c 517.367 113.766
 517.465 113.793 517.551 113.848 c 517.637 113.902 517.707 113.973 517.766
 114.063 c 517.824 114.152 517.867 114.27 517.895 114.422 c 517.922 114.57
 517.938 114.727 517.938 114.883 c 517.938 114.965 l 517.879 114.84 517.781
 114.742 517.637 114.668 c 517.523 114.59 517.379 114.551 517.207 114.551
 c 516.949 114.551 516.734 114.645 516.563 114.832 c 516.391 115.016 516.305
 115.262 516.305 115.563 c 516.305 115.871 516.406 116.125 516.605 116.313
 c 516.777 116.504 517.008 116.602 517.293 116.602 c 517.496 116.602 517.668
 116.547 517.809 116.438 c 517.98 116.332 518.109 116.176 518.195 115.977
 c 518.281 115.781 518.324 115.492 518.324 115.109 c 518.324 114.719 518.281
 114.41 518.195 114.18 c 518.109 113.941 517.98 113.766 517.809 113.641 
c 517.637 113.52 517.453 113.461 517.25 113.461 c 516.992 113.461 516.793
 113.527 516.648 113.66 c 516.508 113.793 516.406 113.98 516.348 114.227
 c h
517.895 115.578 m 517.895 115.797 517.836 115.973 517.723 116.098 c 517.609
 116.219 517.48 116.281 517.336 116.281 c 517.164 116.281 517.023 116.215
 516.906 116.082 c 516.766 115.941 516.691 115.766 516.691 115.543 c 516.691
 115.352 516.75 115.195 516.863 115.07 c 516.98 114.949 517.137 114.887 
517.336 114.887 c 517.508 114.887 517.652 114.949 517.766 115.07 c 517.852
 115.195 517.895 115.363 517.895 115.578 c h
517.895 115.578 m f
  Q
Q
q
0 381.104 820 -382 re W n
[ 1 0 0 1 0 -0.895721 ] concat
  q
0 g
0.429396 w
0 J
0 j
[] 0.0 d
10 M q 1 0 0 -1 0 382 cm
516.863 262.871 m 516.863 264.16 l S Q
  Q
Q
q
0 381.104 820 -382 re W n
[ 1 0 0 1 0 -0.895721 ] concat
  q
0 g
544.773 113.512 m 544.391 113.512 l 544.391 115.914 l 544.305 115.828 544.188
 115.742 544.047 115.656 c 543.902 115.57 543.773 115.508 543.66 115.465
 c 543.66 115.828 l 543.859 115.926 544.047 116.043 544.219 116.188 c 544.359
 116.328 544.477 116.465 544.563 116.602 c 544.773 116.602 l h
545.762 115.027 m 545.762 115.391 545.793 115.684 545.848 115.902 c 545.934
 116.125 546.051 116.297 546.191 116.418 c 546.336 116.539 546.52 116.602
 546.75 116.602 c 546.922 116.602 547.066 116.566 547.18 116.496 c 547.293
 116.43 547.395 116.336 547.48 116.211 c 547.566 116.082 547.637 115.93 
547.695 115.754 c 547.723 115.574 547.738 115.332 547.738 115.027 c 547.738
 114.668 547.711 114.375 547.652 114.152 c 547.566 113.934 547.453 113.762
 547.309 113.641 c 547.164 113.52 546.98 113.461 546.75 113.461 c 546.465
 113.461 546.234 113.566 546.063 113.777 c 545.863 114.035 545.762 114.453
 545.762 115.027 c h
546.148 115.027 m 546.148 114.523 546.207 114.188 546.32 114.02 c 546.438
 113.852 546.578 113.766 546.75 113.766 c 546.922 113.766 547.066 113.852
 547.18 114.02 c 547.293 114.188 547.352 114.523 547.352 115.027 c 547.352
 115.535 547.293 115.871 547.18 116.039 c 547.066 116.199 546.922 116.281
 546.75 116.281 c 546.578 116.281 546.438 116.211 546.32 116.066 c 546.207
 115.883 546.148 115.535 546.148 115.027 c h
546.148 115.027 m f
  Q
Q
q
0 381.104 820 -382 re W n
[ 1 0 0 1 0 -0.895721 ] concat
  q
0 g
0.429396 w
0 J
0 j
[] 0.0 d
10 M q 1 0 0 -1 0 382 cm
545.203 262.871 m 545.203 264.16 l S Q
  Q
Q
q
0 381.104 820 -382 re W n
[ 1 0 0 1 0 -0.895721 ] concat
  q
0 g
573.117 113.512 m 572.73 113.512 l 572.73 115.914 l 572.645 115.828 572.527
 115.742 572.387 115.656 c 572.242 115.57 572.113 115.508 572 115.465 c 
572 115.828 l 572.199 115.926 572.387 116.043 572.559 116.188 c 572.699 
116.328 572.816 116.465 572.902 116.602 c 573.117 116.602 l h
575.52 113.512 m 575.133 113.512 l 575.133 115.914 l 575.047 115.828 574.934
 115.742 574.789 115.656 c 574.648 115.57 574.52 115.508 574.402 115.465
 c 574.402 115.828 l 574.605 115.926 574.777 116.043 574.918 116.188 c 575.09
 116.328 575.207 116.465 575.262 116.602 c 575.52 116.602 l h
575.52 113.512 m f
  Q
Q
q
0 381.104 820 -382 re W n
[ 1 0 0 1 0 -0.895721 ] concat
  q
0 g
0.429396 w
0 J
0 j
[] 0.0 d
10 M q 1 0 0 -1 0 382 cm
573.586 262.871 m 573.586 264.16 l S Q
  Q
Q
q
0 381.104 820 -382 re W n
[ 1 0 0 1 0 -0.895721 ] concat
  q
0 g
601.457 113.512 m 601.07 113.512 l 601.07 115.914 l 600.984 115.828 600.867
 115.742 600.727 115.656 c 600.582 115.57 600.453 115.508 600.34 115.465
 c 600.34 115.828 l 600.539 115.926 600.727 116.043 600.898 116.188 c 601.039
 116.328 601.156 116.465 601.242 116.602 c 601.457 116.602 l h
604.418 113.875 m 604.418 113.512 l 602.398 113.512 l 602.398 113.602 602.414
 113.688 602.441 113.773 c 602.5 113.91 602.57 114.047 602.656 114.184 c
 602.773 114.316 602.945 114.473 603.172 114.645 c 603.516 114.922 603.746
 115.141 603.859 115.297 c 603.977 115.461 604.031 115.609 604.031 115.754
 c 604.031 115.906 603.977 116.031 603.859 116.133 c 603.746 116.23 603.602
 116.281 603.43 116.281 c 603.258 116.281 603.117 116.23 603 116.125 c 602.887
 116.016 602.828 115.863 602.828 115.672 c 602.441 115.711 l 602.473 115.996
 602.57 116.219 602.742 116.371 c 602.914 116.523 603.16 116.602 603.473
 116.602 c 603.762 116.602 603.988 116.52 604.16 116.355 c 604.332 116.191
 604.418 115.988 604.418 115.746 c 604.418 115.621 604.391 115.5 604.332
 115.379 c 604.273 115.262 604.188 115.137 604.074 115.008 c 603.961 114.875
 603.773 114.695 603.516 114.465 c 603.289 114.277 603.145 114.148 603.086
 114.078 c 603 114.012 602.945 113.941 602.914 113.875 c h
604.418 113.875 m f
  Q
Q
q
0 381.104 820 -382 re W n
[ 1 0 0 1 0 -0.895721 ] concat
  q
0 g
0.429396 w
0 J
0 j
[] 0.0 d
10 M q 1 0 0 -1 0 382 cm
601.93 262.871 m 601.93 264.16 l S Q
  Q
Q
q
0 381.104 820 -382 re W n
[ 1 0 0 1 0 -0.895721 ] concat
  q
0 g
629.797 113.512 m 629.41 113.512 l 629.41 115.914 l 629.324 115.828 629.207
 115.742 629.066 115.656 c 628.922 115.57 628.793 115.508 628.68 115.465
 c 628.68 115.828 l 628.879 115.926 629.066 116.043 629.238 116.188 c 629.379
 116.328 629.496 116.465 629.582 116.602 c 629.797 116.602 l h
630.785 114.324 m 631.168 114.371 l 631.199 114.164 631.27 114.008 631.383
 113.91 c 631.469 113.813 631.598 113.766 631.77 113.766 c 631.941 113.766
 632.086 113.828 632.199 113.949 c 632.316 114.074 632.371 114.227 632.371
 114.41 c 632.371 114.586 632.316 114.727 632.199 114.84 c 632.113 114.949
 631.973 115.008 631.77 115.008 c 631.715 115.008 631.629 114.992 631.512
 114.969 c 631.555 115.297 l 631.641 115.297 l 631.785 115.297 631.93 115.34
 632.07 115.422 c 632.188 115.504 632.242 115.629 632.242 115.805 c 632.242
 115.945 632.199 116.063 632.113 116.152 c 632.027 116.246 631.898 116.289
 631.727 116.289 c 631.586 116.289 631.469 116.246 631.383 116.152 c 631.27
 116.063 631.211 115.922 631.211 115.73 c 630.828 115.801 l 630.855 116.055
 630.957 116.25 631.125 116.391 c 631.297 116.531 631.5 116.602 631.727 
116.602 c 631.898 116.602 632.059 116.563 632.199 116.492 c 632.344 116.422
 632.457 116.32 632.543 116.195 c 632.602 116.07 632.629 115.938 632.629
 115.801 c 632.629 115.668 632.602 115.543 632.543 115.438 c 632.457 115.332
 632.344 115.246 632.199 115.18 c 632.402 115.137 632.543 115.047 632.629
 114.918 c 632.746 114.785 632.801 114.617 632.801 114.418 c 632.801 114.148
 632.703 113.922 632.5 113.734 c 632.301 113.551 632.059 113.461 631.77 
113.461 c 631.484 113.461 631.254 113.543 631.082 113.703 c 630.914 113.863
 630.813 114.07 630.785 114.324 c h
630.785 114.324 m f
  Q
Q
q
0 381.104 820 -382 re W n
[ 1 0 0 1 0 -0.895721 ] concat
  q
0 g
0.429396 w
0 J
0 j
[] 0.0 d
10 M q 1 0 0 -1 0 382 cm
630.313 262.871 m 630.313 264.16 l S Q
  Q
Q
q
0 381.104 820 -382 re W n
[ 1 0 0 1 0 -0.895721 ] concat
  q
0 g
658.137 113.512 m 657.75 113.512 l 657.75 115.914 l 657.664 115.828 657.551
 115.742 657.406 115.656 c 657.262 115.57 657.133 115.508 657.02 115.465
 c 657.02 115.828 l 657.219 115.926 657.406 116.043 657.578 116.188 c 657.723
 116.328 657.836 116.465 657.922 116.602 c 658.137 116.602 l h
660.324 113.512 m 660.324 114.25 l 658.996 114.25 l 658.996 114.594 l 660.41
 116.586 l 660.711 116.586 l 660.711 114.594 l 661.098 114.594 l 661.098
 114.25 l 660.711 114.25 l 660.711 113.512 l h
660.324 114.594 m 660.324 115.98 l 659.34 114.594 l h
660.324 114.594 m f
  Q
Q
q
0 381.104 820 -382 re W n
[ 1 0 0 1 0 -0.895721 ] concat
  q
0 g
0.429396 w
0 J
0 j
[] 0.0 d
10 M q 1 0 0 -1 0 382 cm
658.652 262.871 m 658.652 264.16 l S Q
  Q
Q
q
0 381.104 820 -382 re W n
[ 1 0 0 1 0 -0.895721 ] concat
  q
0 g
686.477 113.512 m 686.09 113.512 l 686.09 115.914 l 686.004 115.828 685.891
 115.742 685.746 115.656 c 685.602 115.57 685.473 115.508 685.359 115.465
 c 685.359 115.828 l 685.559 115.926 685.746 116.043 685.918 116.188 c 686.063
 116.328 686.176 116.465 686.262 116.602 c 686.477 116.602 l h
687.465 114.32 m 687.852 114.352 l 687.879 114.156 687.949 114.012 688.066
 113.918 c 688.152 113.816 688.281 113.766 688.453 113.766 c 688.625 113.766
 688.781 113.836 688.922 113.977 c 689.039 114.113 689.094 114.293 689.094
 114.516 c 689.094 114.73 689.039 114.902 688.922 115.027 c 688.809 115.152
 688.652 115.219 688.453 115.219 c 688.309 115.219 688.195 115.188 688.109
 115.133 c 688.023 115.078 687.949 115.008 687.895 114.922 c 687.508 114.969
 l 687.809 116.543 l 689.352 116.543 l 689.352 116.184 l 688.109 116.184
 l 687.938 115.359 l 688.137 115.488 688.336 115.551 688.539 115.551 c 688.793
 115.551 689.023 115.461 689.223 115.273 c 689.395 115.086 689.48 114.848
 689.48 114.551 c 689.48 114.273 689.41 114.035 689.266 113.836 c 689.066
 113.586 688.793 113.461 688.453 113.461 c 688.164 113.461 687.938 113.539
 687.766 113.691 c 687.594 113.852 687.492 114.059 687.465 114.32 c h
687.465 114.32 m f
  Q
Q
q
0 381.104 820 -382 re W n
[ 1 0 0 1 0 -0.895721 ] concat
  q
0 g
0.429396 w
0 J
0 j
[] 0.0 d
10 M q 1 0 0 -1 0 382 cm
687.035 262.871 m 687.035 264.16 l S Q
  Q
Q
q
0 381.104 820 -382 re W n
[ 1 0 0 1 0 -0.895721 ] concat
  q
0 g
715.246 113.512 m 714.859 113.512 l 714.859 115.914 l 714.773 115.828 714.66
 115.742 714.516 115.656 c 714.371 115.57 714.242 115.508 714.129 115.465
 c 714.129 115.828 l 714.328 115.926 714.516 116.043 714.688 116.188 c 714.832
 116.328 714.945 116.465 715.031 116.602 c 715.246 116.602 l h
718.164 115.836 m 717.82 115.805 l 717.766 115.953 717.707 116.063 717.648
 116.129 c 717.563 116.234 717.449 116.289 717.309 116.289 c 717.164 116.289
 717.051 116.258 716.965 116.188 c 716.848 116.098 716.762 115.973 716.707
 115.805 c 716.621 115.641 716.578 115.406 716.578 115.098 c 716.664 115.234
 716.777 115.336 716.922 115.406 c 717.035 115.473 717.164 115.504 717.309
 115.504 c 717.563 115.504 717.793 115.41 717.992 115.227 c 718.164 115.039
 718.25 114.801 718.25 114.512 c 718.25 114.32 718.207 114.141 718.121 113.977
 c 718.035 113.809 717.922 113.684 717.777 113.594 c 717.637 113.504 717.465
 113.461 717.266 113.461 c 716.949 113.461 716.691 113.578 716.492 113.809
 c 716.289 114.039 716.191 114.418 716.191 114.945 c 716.191 115.543 716.305
 115.977 716.535 116.25 c 716.734 116.484 716.992 116.602 717.309 116.602
 c 717.563 116.602 717.766 116.531 717.906 116.395 c 718.051 116.258 718.137
 116.07 718.164 115.836 c h
716.664 114.504 m 716.664 114.375 716.676 114.254 716.707 114.137 c 716.762
 114.016 716.848 113.922 716.965 113.859 c 717.051 113.797 717.148 113.766
 717.266 113.766 c 717.438 113.766 717.578 113.832 717.691 113.965 c 717.809
 114.094 717.863 114.266 717.863 114.488 c 717.863 114.703 717.809 114.871
 717.691 114.992 c 717.578 115.117 717.438 115.18 717.266 115.18 c 717.094
 115.18 716.949 115.117 716.836 114.992 c 716.719 114.871 716.664 114.707
 716.664 114.504 c h
716.664 114.504 m f
  Q
Q
q
0 381.104 820 -382 re W n
[ 1 0 0 1 0 -0.895721 ] concat
  q
0 g
0.429396 w
0 J
0 j
[] 0.0 d
10 M q 1 0 0 -1 0 382 cm
715.375 262.871 m 715.375 264.16 l S Q
  Q
Q
q
0 381.104 820 -382 re W n
[ 1 0 0 1 0 -0.895721 ] concat
  q
0 g
743.586 113.512 m 743.199 113.512 l 743.199 115.914 l 743.113 115.828 743
 115.742 742.855 115.656 c 742.711 115.57 742.582 115.508 742.469 115.465
 c 742.469 115.828 l 742.668 115.926 742.855 116.043 743.027 116.188 c 743.172
 116.328 743.285 116.465 743.371 116.602 c 743.586 116.602 l h
744.574 116.184 m 744.574 116.543 l 746.59 116.543 l 746.59 116.25 l 746.391
 116.047 746.191 115.77 745.992 115.422 c 745.789 115.078 745.648 114.727
 745.563 114.359 c 745.477 114.098 745.418 113.816 745.391 113.512 c 745.004
 113.512 l 745.004 113.754 745.059 114.043 745.176 114.387 c 745.262 114.73
 745.391 115.059 745.563 115.375 c 745.734 115.695 745.906 115.961 746.078
 116.184 c h
744.574 116.184 m f
  Q
Q
q
0 381.104 820 -382 re W n
[ 1 0 0 1 0 -0.895721 ] concat
  q
0 g
0.429396 w
0 J
0 j
[] 0.0 d
10 M q 1 0 0 -1 0 382 cm
743.758 262.871 m 743.758 264.16 l S Q
  Q
Q
q
0 381.104 820 -382 re W n
[ 1 0 0 1 0 -0.895721 ] concat
  q
0 g
771.926 113.512 m 771.539 113.512 l 771.539 115.914 l 771.453 115.828 771.34
 115.742 771.195 115.656 c 771.055 115.57 770.926 115.508 770.809 115.465
 c 770.809 115.828 l 771.012 115.926 771.195 116.043 771.367 116.188 c 771.512
 116.328 771.625 116.465 771.711 116.602 c 771.926 116.602 l h
773.473 115.18 m 773.328 115.234 773.215 115.316 773.129 115.422 c 773.043
 115.531 773 115.66 773 115.805 c 773 116.027 773.086 116.219 773.258 116.371
 c 773.43 116.523 773.645 116.602 773.902 116.602 c 774.16 116.602 774.375
 116.52 774.547 116.363 c 774.719 116.207 774.805 116.016 774.805 115.793
 c 774.805 115.648 774.762 115.527 774.676 115.422 c 774.617 115.316 774.504
 115.234 774.332 115.18 c 774.531 115.117 774.676 115.02 774.762 114.883
 c 774.875 114.742 774.934 114.578 774.934 114.395 c 774.934 114.125 774.832
 113.906 774.633 113.727 c 774.461 113.551 774.215 113.461 773.902 113.461
 c 773.613 113.461 773.371 113.551 773.172 113.73 c 773 113.91 772.914 114.137
 772.914 114.406 c 772.914 114.602 772.957 114.77 773.043 114.902 c 773.156
 115.043 773.301 115.133 773.473 115.18 c h
773.43 115.824 m 773.43 115.672 773.473 115.555 773.559 115.461 c 773.645
 115.371 773.758 115.324 773.902 115.324 c 774.043 115.324 774.172 115.371
 774.289 115.461 c 774.375 115.555 774.418 115.668 774.418 115.801 c 774.418
 115.938 774.359 116.055 774.246 116.148 c 774.16 116.242 774.043 116.289
 773.902 116.289 c 773.758 116.289 773.645 116.246 773.559 116.152 c 773.473
 116.063 773.43 115.953 773.43 115.824 c h
773.301 114.398 m 773.301 114.293 773.328 114.188 773.387 114.086 c 773.414
 113.984 773.484 113.906 773.602 113.852 c 773.688 113.793 773.785 113.766
 773.902 113.766 c 774.102 113.766 774.258 113.824 774.375 113.941 c 774.488
 114.059 774.547 114.207 774.547 114.383 c 774.547 114.566 774.488 114.719
 774.375 114.84 c 774.23 114.957 774.074 115.016 773.902 115.016 c 773.73
 115.016 773.586 114.957 773.473 114.84 c 773.355 114.727 773.301 114.578
 773.301 114.398 c h
773.301 114.398 m f
  Q
Q
q
0 381.104 820 -382 re W n
[ 1 0 0 1 0 -0.895721 ] concat
  q
0 g
0.429396 w
0 J
0 j
[] 0.0 d
10 M q 1 0 0 -1 0 382 cm
772.098 262.871 m 772.098 264.16 l S Q
  Q
Q
q
0 381.104 820 -382 re W n
[ 1 0 0 1 0 -0.895721 ] concat
  q
0 g
800.266 113.512 m 799.879 113.512 l 799.879 115.914 l 799.793 115.828 799.68
 115.742 799.535 115.656 c 799.395 115.57 799.266 115.508 799.148 115.465
 c 799.148 115.828 l 799.352 115.926 799.535 116.043 799.707 116.188 c 799.852
 116.328 799.965 116.465 800.051 116.602 c 800.266 116.602 l h
801.297 114.227 m 801.684 114.254 l 801.711 114.086 801.77 113.965 801.855
 113.887 c 801.941 113.805 802.039 113.766 802.156 113.766 c 802.27 113.766
 802.383 113.793 802.5 113.848 c 802.586 113.902 802.656 113.973 802.715
 114.063 c 802.742 114.152 802.785 114.27 802.844 114.422 c 802.871 114.57
 802.887 114.727 802.887 114.883 c 802.887 114.965 l 802.801 114.84 802.699
 114.742 802.586 114.668 c 802.441 114.59 802.297 114.551 802.156 114.551
 c 801.898 114.551 801.684 114.645 801.512 114.832 c 801.34 115.016 801.254
 115.262 801.254 115.563 c 801.254 115.871 801.34 116.125 801.512 116.313
 c 801.711 116.504 801.941 116.602 802.199 116.602 c 802.398 116.602 802.586
 116.547 802.758 116.438 c 802.93 116.332 803.059 116.176 803.145 115.977
 c 803.23 115.781 803.273 115.492 803.273 115.109 c 803.273 114.719 803.23
 114.41 803.145 114.18 c 803.059 113.941 802.93 113.766 802.758 113.641 
c 802.586 113.52 802.383 113.461 802.156 113.461 c 801.926 113.461 801.727
 113.527 801.555 113.66 c 801.41 113.793 801.324 113.98 801.297 114.227 
c h
802.844 115.578 m 802.844 115.797 802.785 115.973 802.672 116.098 c 802.555
 116.219 802.414 116.281 802.242 116.281 c 802.07 116.281 801.926 116.215
 801.813 116.082 c 801.699 115.941 801.641 115.766 801.641 115.543 c 801.641
 115.352 801.699 115.195 801.813 115.07 c 801.926 114.949 802.07 114.887
 802.242 114.887 c 802.414 114.887 802.555 114.949 802.672 115.07 c 802.785
 115.195 802.844 115.363 802.844 115.578 c h
802.844 115.578 m f
  Q
Q
q
0 381.104 820 -382 re W n
[ 1 0 0 1 0 -0.895721 ] concat
  q
0 g
0.429396 w
0 J
0 j
[] 0.0 d
10 M q 1 0 0 -1 0 382 cm
800.48 262.871 m 800.48 264.16 l S Q
  Q
Q
q
0 381.104 820 -382 re W n
[ 1 0 0 1 0 -0.895721 ] concat
  q
0 g
254.426 5.16 m 254.426 5.438 l 256.125 5.438 l 256.125 5.16 l h
257.738 4.016 m 257.738 4.754 l 256.402 4.754 l 256.402 5.098 l 257.805
 7.09 l 258.113 7.09 l 258.113 5.098 l 258.531 5.098 l 258.531 4.754 l 258.113
 4.754 l 258.113 4.016 l h
257.738 5.098 m 257.738 6.484 l 256.77 5.098 l h
257.738 5.098 m f
  Q
Q
q
0 381.104 820 -382 re W n
[ 1 0 0 1 0 -0.895721 ] concat
  q
0 g
0.429396 w
0 J
0 j
[] 0.0 d
10 M q 1 0 0 -1 0 382 cm
260.32 376.313 m 261.609 376.313 l S Q
  Q
Q
q
0 381.104 820 -382 re W n
[ 1 0 0 1 0 -0.895721 ] concat
  q
0 g
254.426 33.5 m 254.426 33.777 l 256.125 33.777 l 256.125 33.5 l h
256.531 33.168 m 256.906 33.215 l 256.949 33.008 257.023 32.852 257.125
 32.754 c 257.23 32.66 257.355 32.609 257.508 32.609 c 257.688 32.609 257.84
 32.672 257.961 32.793 c 258.082 32.918 258.141 33.07 258.141 33.254 c 258.141
 33.43 258.086 33.57 257.973 33.684 c 257.859 33.797 257.719 33.852 257.543
 33.852 c 257.473 33.852 257.383 33.836 257.277 33.813 c 257.316 34.145 
l 257.375 34.145 l 257.535 34.145 257.684 34.184 257.813 34.266 c 257.941
 34.348 258.008 34.477 258.008 34.648 c 258.008 34.789 257.961 34.906 257.867
 34.996 c 257.77 35.09 257.652 35.133 257.504 35.133 c 257.355 35.133 257.234
 35.09 257.137 34.996 c 257.035 34.906 256.973 34.766 256.945 34.578 c 256.574
 34.645 l 256.617 34.898 256.719 35.098 256.883 35.234 c 257.047 35.375 
257.25 35.445 257.492 35.445 c 257.66 35.445 257.816 35.406 257.957 35.336
 c 258.098 35.266 258.203 35.168 258.277 35.039 c 258.352 34.914 258.391
 34.781 258.391 34.645 c 258.391 34.512 258.355 34.391 258.285 34.281 c 
258.219 34.176 258.113 34.09 257.969 34.023 c 258.152 33.98 258.293 33.891
 258.395 33.762 c 258.492 33.629 258.543 33.461 258.543 33.262 c 258.543
 32.992 258.445 32.766 258.246 32.578 c 258.051 32.398 257.805 32.305 257.508
 32.305 c 257.238 32.305 257.012 32.387 256.836 32.547 c 256.66 32.707 256.559
 32.914 256.531 33.168 c h
256.531 33.168 m f
  Q
Q
q
0 381.104 820 -382 re W n
[ 1 0 0 1 0 -0.895721 ] concat
  q
0 g
0.429396 w
0 J
0 j
[] 0.0 d
10 M q 1 0 0 -1 0 382 cm
260.32 347.953 m 261.609 347.953 l S Q
  Q
Q
q
0 381.104 820 -382 re W n
[ 1 0 0 1 0 -0.895721 ] concat
  q
0 g
254.426 61.84 m 254.426 62.117 l 256.125 62.117 l 256.125 61.84 l h
258.508 61.059 m 258.508 60.695 l 256.477 60.695 l 256.477 60.785 256.496
 60.871 256.527 60.957 c 256.578 61.098 256.66 61.23 256.77 61.367 c 256.887
 61.5 257.051 61.656 257.27 61.832 c 257.602 62.109 257.824 62.324 257.941
 62.484 c 258.059 62.645 258.117 62.797 258.117 62.938 c 258.117 63.09 258.066
 63.215 257.961 63.316 c 257.855 63.418 257.715 63.465 257.543 63.465 c 
257.359 63.465 257.215 63.414 257.105 63.309 c 256.996 63.199 256.941 63.047
 256.941 62.855 c 256.551 62.895 l 256.578 63.18 256.676 63.402 256.848 
63.555 c 257.023 63.707 257.258 63.785 257.551 63.785 c 257.848 63.785 258.082
 63.703 258.25 63.539 c 258.422 63.375 258.508 63.172 258.508 62.93 c 258.508
 62.805 258.484 62.684 258.434 62.566 c 258.379 62.445 258.297 62.324 258.184
 62.191 c 258.066 62.059 257.871 61.879 257.598 61.648 c 257.375 61.461 
257.227 61.332 257.164 61.262 c 257.102 61.195 257.047 61.125 257.008 61.059
 c h
258.508 61.059 m f
  Q
Q
q
0 381.104 820 -382 re W n
[ 1 0 0 1 0 -0.895721 ] concat
  q
0 g
0.429396 w
0 J
0 j
[] 0.0 d
10 M q 1 0 0 -1 0 382 cm
260.32 319.594 m 261.609 319.594 l S Q
  Q
Q
q
0 381.104 820 -382 re W n
[ 1 0 0 1 0 -0.895721 ] concat
  q
0 g
254.426 90.609 m 254.426 90.887 l 256.125 90.887 l 256.125 90.609 l h
257.945 89.465 m 257.57 89.465 l 257.57 91.867 l 257.48 91.785 257.363 
91.699 257.219 91.609 c 257.066 91.523 256.934 91.461 256.816 91.422 c 256.816
 91.781 l 257.031 91.879 257.215 92 257.371 92.141 c 257.531 92.281 257.645
 92.418 257.707 92.555 c 257.945 92.555 l h
257.945 89.465 m f
  Q
Q
q
0 381.104 820 -382 re W n
[ 1 0 0 1 0 -0.895721 ] concat
  q
0 g
0.429396 w
0 J
0 j
[] 0.0 d
10 M q 1 0 0 -1 0 382 cm
260.32 291.234 m 261.609 291.234 l S Q
  Q
Q
q
0 381.104 820 -382 re W n
[ 1 0 0 1 0 -0.895721 ] concat
  q
0 g
256.531 121.898 m 256.531 122.262 256.566 122.555 256.641 122.773 c 256.715
 122.996 256.828 123.168 256.973 123.289 c 257.121 123.41 257.309 123.469
 257.531 123.469 c 257.695 123.469 257.84 123.438 257.965 123.367 c 258.086
 123.301 258.191 123.207 258.273 123.078 c 258.355 122.953 258.418 122.801
 258.461 122.625 c 258.508 122.445 258.531 122.203 258.531 121.898 c 258.531
 121.539 258.492 121.246 258.418 121.023 c 258.344 120.801 258.234 120.633
 258.09 120.512 c 257.941 120.391 257.754 120.332 257.531 120.332 c 257.234
 120.332 257.004 120.438 256.832 120.648 c 256.629 120.906 256.531 121.324
 256.531 121.898 c h
256.914 121.898 m 256.914 121.395 256.973 121.059 257.094 120.891 c 257.211
 120.719 257.355 120.637 257.531 120.637 c 257.707 120.637 257.852 120.719
 257.969 120.891 c 258.09 121.059 258.148 121.395 258.148 121.898 c 258.148
 122.406 258.09 122.742 257.969 122.906 c 257.852 123.07 257.703 123.152
 257.523 123.152 c 257.352 123.152 257.215 123.082 257.109 122.938 c 256.977
 122.75 256.914 122.406 256.914 121.898 c h
256.914 121.898 m f
  Q
Q
q
0 381.104 820 -382 re W n
[ 1 0 0 1 0 -0.895721 ] concat
  q
0 g
257.945 146.148 m 257.57 146.148 l 257.57 148.547 l 257.48 148.465 257.363
 148.379 257.219 148.289 c 257.066 148.203 256.934 148.141 256.816 148.102
 c 256.816 148.461 l 257.031 148.559 257.215 148.68 257.371 148.82 c 257.531
 148.961 257.645 149.098 257.707 149.234 c 257.945 149.234 l h
257.945 146.148 m f
  Q
Q
q
0 381.104 820 -382 re W n
[ 1 0 0 1 0 -0.895721 ] concat
  q
0 g
0.429396 w
0 J
0 j
[] 0.0 d
10 M q 1 0 0 -1 0 382 cm
260.32 234.508 m 261.609 234.508 l S Q
  Q
Q
q
0 381.104 820 -382 re W n
[ 1 0 0 1 0 -0.895721 ] concat
  q
0 g
258.508 174.848 m 258.508 174.488 l 256.477 174.488 l 256.477 174.574 256.496
 174.664 256.527 174.75 c 256.578 174.887 256.66 175.023 256.77 175.156 
c 256.887 175.293 257.051 175.445 257.27 175.621 c 257.602 175.898 257.824
 176.117 257.941 176.273 c 258.059 176.434 258.117 176.586 258.117 176.727
 c 258.117 176.879 258.066 177.004 257.961 177.105 c 257.855 177.207 257.715
 177.258 257.543 177.258 c 257.359 177.258 257.215 177.203 257.105 177.098
 c 256.996 176.988 256.941 176.84 256.941 176.648 c 256.551 176.684 l 256.578
 176.973 256.676 177.191 256.848 177.348 c 257.023 177.5 257.258 177.574
 257.551 177.574 c 257.848 177.574 258.082 177.492 258.25 177.328 c 258.422
 177.168 258.508 176.961 258.508 176.719 c 258.508 176.598 258.484 176.477
 258.434 176.355 c 258.379 176.238 258.297 176.113 258.184 175.98 c 258.066
 175.848 257.871 175.668 257.598 175.441 c 257.375 175.25 257.227 175.121
 257.164 175.055 c 257.102 174.984 257.047 174.918 257.008 174.848 c h
258.508 174.848 m f
  Q
Q
q
0 381.104 820 -382 re W n
[ 1 0 0 1 0 -0.895721 ] concat
  q
0 g
0.429396 w
0 J
0 j
[] 0.0 d
10 M q 1 0 0 -1 0 382 cm
260.32 206.148 m 261.609 206.148 l S Q
  Q
Q
q
0 381.104 820 -382 re W n
[ 1 0 0 1 0 -0.895721 ] concat
  q
0 g
256.531 203.637 m 256.906 203.688 l 256.949 203.477 257.023 203.324 257.125
 203.227 c 257.23 203.129 257.355 203.082 257.508 203.082 c 257.688 203.082
 257.84 203.141 257.961 203.266 c 258.082 203.387 258.141 203.543 258.141
 203.723 c 258.141 203.898 258.086 204.043 257.973 204.152 c 257.859 204.266
 257.719 204.32 257.543 204.32 c 257.473 204.32 257.383 204.309 257.277 
204.281 c 257.316 204.613 l 257.375 204.613 l 257.535 204.613 257.684 204.656
 257.813 204.738 c 257.941 204.816 258.008 204.945 258.008 205.121 c 258.008
 205.262 257.961 205.375 257.867 205.469 c 257.77 205.559 257.652 205.605
 257.504 205.605 c 257.355 205.605 257.234 205.559 257.137 205.469 c 257.035
 205.375 256.973 205.234 256.945 205.047 c 256.574 205.117 l 256.617 205.371
 256.719 205.566 256.883 205.703 c 257.047 205.844 257.25 205.914 257.492
 205.914 c 257.66 205.914 257.816 205.879 257.957 205.809 c 258.098 205.734
 258.203 205.637 258.277 205.512 c 258.352 205.383 258.391 205.254 258.391
 205.117 c 258.391 204.98 258.355 204.859 258.285 204.75 c 258.219 204.645
 258.113 204.559 257.969 204.492 c 258.152 204.449 258.293 204.363 258.395
 204.23 c 258.492 204.098 258.543 203.934 258.543 203.734 c 258.543 203.465
 258.445 203.234 258.246 203.051 c 258.051 202.867 257.805 202.773 257.508
 202.773 c 257.238 202.773 257.012 202.855 256.836 203.016 c 256.66 203.176
 256.559 203.383 256.531 203.637 c h
256.531 203.637 m f
  Q
Q
q
0 381.104 820 -382 re W n
[ 1 0 0 1 0 -0.895721 ] concat
  q
0 g
0.429396 w
0 J
0 j
[] 0.0 d
10 M q 1 0 0 -1 0 382 cm
260.32 177.785 m 261.609 177.785 l S Q
  Q
Q
q
0 381.104 820 -382 re W n
[ 1 0 0 1 0 -0.895721 ] concat
  q
0 g
257.738 231.168 m 257.738 231.906 l 256.402 231.906 l 256.402 232.25 l 
257.805 234.242 l 258.113 234.242 l 258.113 232.25 l 258.531 232.25 l 258.531
 231.906 l 258.113 231.906 l 258.113 231.168 l h
257.738 232.25 m 257.738 233.637 l 256.77 232.25 l h
257.738 232.25 m f
  Q
Q
q
0 381.104 820 -382 re W n
[ 1 0 0 1 0 -0.895721 ] concat
  q
0 g
0.429396 w
0 J
0 j
[] 0.0 d
10 M q 1 0 0 -1 0 382 cm
260.32 149.426 m 261.609 149.426 l S Q
  Q
Q
q
0 381.104 820 -382 re W n
[ 1 0 0 1 0 -0.895721 ] concat
  q
0 g
256.531 260.313 m 256.926 260.344 l 256.953 260.152 257.02 260.008 257.125
 259.91 c 257.234 259.813 257.367 259.762 257.52 259.762 c 257.695 259.762
 257.848 259.832 257.977 259.973 c 258.102 260.109 258.168 260.289 258.168
 260.512 c 258.168 260.727 258.105 260.898 257.984 261.023 c 257.867 261.148
 257.707 261.211 257.508 261.211 c 257.391 261.211 257.281 261.184 257.184
 261.125 c 257.082 261.07 257.004 261 256.945 260.914 c 256.598 260.961 
l 256.895 262.539 l 258.422 262.539 l 258.422 262.18 l 257.195 262.18 l 
257.027 261.355 l 257.215 261.48 257.41 261.547 257.613 261.547 c 257.883
 261.547 258.105 261.453 258.289 261.27 c 258.473 261.082 258.566 260.84
 258.566 260.547 c 258.566 260.27 258.484 260.031 258.32 259.828 c 258.125
 259.582 257.859 259.457 257.52 259.457 c 257.234 259.457 257.004 259.531
 256.832 259.688 c 256.652 259.844 256.555 260.055 256.531 260.313 c h
256.531 260.313 m f
  Q
Q
q
0 381.104 820 -382 re W n
[ 1 0 0 1 0 -0.895721 ] concat
  q
0 g
0.429396 w
0 J
0 j
[] 0.0 d
10 M q 1 0 0 -1 0 382 cm
260.32 121.063 m 261.609 121.063 l S Q
  Q
Q
q
0 381.104 820 -382 re W n
[ 1 0 0 1 0 -0.895721 ] concat
  q
0 g
258.484 290.172 m 258.113 290.141 l 258.078 290.289 258.027 290.398 257.969
 290.461 c 257.867 290.57 257.738 290.625 257.59 290.625 c 257.469 290.625
 257.367 290.59 257.277 290.523 c 257.152 290.434 257.059 290.305 256.992
 290.141 c 256.93 289.977 256.891 289.742 256.887 289.434 c 256.977 289.57
 257.086 289.672 257.219 289.742 c 257.348 289.809 257.484 289.84 257.629
 289.84 c 257.887 289.84 258.102 289.746 258.277 289.563 c 258.457 289.375
 258.543 289.137 258.543 288.848 c 258.543 288.656 258.5 288.477 258.414
 288.313 c 258.332 288.145 258.219 288.02 258.07 287.93 c 257.926 287.84
 257.762 287.797 257.578 287.797 c 257.266 287.797 257.008 287.91 256.809
 288.145 c 256.613 288.375 256.512 288.754 256.512 289.281 c 256.512 289.879
 256.621 290.313 256.84 290.586 c 257.031 290.82 257.289 290.934 257.613
 290.934 c 257.859 290.934 258.059 290.867 258.215 290.73 c 258.367 290.59
 258.457 290.406 258.484 290.172 c h
256.945 288.84 m 256.945 288.711 256.973 288.586 257.027 288.469 c 257.082
 288.352 257.16 288.258 257.262 288.195 c 257.359 288.133 257.465 288.102
 257.57 288.102 c 257.73 288.102 257.871 288.168 257.98 288.297 c 258.098
 288.426 258.152 288.602 258.152 288.82 c 258.152 289.035 258.098 289.207
 257.98 289.328 c 257.871 289.453 257.727 289.512 257.555 289.512 c 257.387
 289.512 257.242 289.453 257.121 289.328 c 257.004 289.207 256.945 289.043
 256.945 288.84 c h
256.945 288.84 m f
  Q
Q
q
0 381.104 820 -382 re W n
[ 1 0 0 1 0 -0.895721 ] concat
  q
0 g
0.429396 w
0 J
0 j
[] 0.0 d
10 M q 1 0 0 -1 0 382 cm
260.32 92.703 m 261.609 92.703 l S Q
  Q
Q
q
0 381.104 820 -382 re W n
[ 1 0 0 1 0 -0.895721 ] concat
  q
0 g
256.551 318.859 m 256.551 319.219 l 258.543 319.219 l 258.543 318.926 l
 258.348 318.723 258.152 318.445 257.961 318.098 c 257.77 317.754 257.621
 317.398 257.52 317.035 c 257.441 316.773 257.391 316.492 257.371 316.188
 c 256.98 316.188 l 256.984 316.43 257.031 316.719 257.121 317.063 c 257.215
 317.402 257.348 317.734 257.52 318.051 c 257.688 318.367 257.867 318.637
 258.059 318.859 c h
256.551 318.859 m f
  Q
Q
q
0 381.104 820 -382 re W n
[ 1 0 0 1 0 -0.895721 ] concat
  q
0 g
0.429396 w
0 J
0 j
[] 0.0 d
10 M q 1 0 0 -1 0 382 cm
260.32 64.34 m 261.609 64.34 l S Q
  Q
Q
q
0 381.104 820 -382 re W n
[ 1 0 0 1 0 -0.895721 ] concat
  q
0 g
257.109 346.191 m 256.953 346.25 256.836 346.332 256.758 346.441 c 256.684
 346.547 256.645 346.676 256.645 346.824 c 256.645 347.047 256.727 347.234
 256.887 347.387 c 257.047 347.539 257.262 347.613 257.531 347.613 c 257.801
 347.613 258.016 347.535 258.18 347.379 c 258.344 347.223 258.422 347.031
 258.422 346.809 c 258.422 346.664 258.387 346.543 258.313 346.438 c 258.238
 346.332 258.125 346.25 257.973 346.191 c 258.16 346.133 258.305 346.035
 258.402 345.898 c 258.5 345.758 258.547 345.594 258.547 345.406 c 258.547
 345.145 258.457 344.922 258.273 344.742 c 258.086 344.563 257.844 344.473
 257.539 344.473 c 257.234 344.473 256.988 344.566 256.801 344.746 c 256.617
 344.926 256.527 345.152 256.527 345.422 c 256.527 345.617 256.574 345.785
 256.676 345.918 c 256.777 346.055 256.922 346.148 257.109 346.191 c h
257.031 346.836 m 257.031 346.688 257.078 346.566 257.176 346.477 c 257.27
 346.387 257.391 346.34 257.539 346.34 c 257.684 346.34 257.805 346.387 
257.895 346.477 c 257.988 346.566 258.031 346.68 258.031 346.816 c 258.031
 346.953 257.984 347.07 257.891 347.164 c 257.793 347.258 257.676 347.305
 257.539 347.305 c 257.391 347.305 257.27 347.258 257.176 347.168 c 257.078
 347.074 257.031 346.965 257.031 346.836 c h
256.914 345.414 m 256.914 345.305 256.938 345.203 256.988 345.102 c 257.039
 345 257.117 344.922 257.219 344.867 c 257.32 344.813 257.43 344.781 257.543
 344.781 c 257.723 344.781 257.871 344.84 257.984 344.957 c 258.102 345.074
 258.16 345.223 258.16 345.398 c 258.16 345.582 258.102 345.734 257.98 345.852
 c 257.859 345.973 257.711 346.031 257.531 346.031 c 257.352 346.031 257.203
 345.973 257.09 345.855 c 256.973 345.738 256.914 345.594 256.914 345.414
 c h
256.914 345.414 m f
  Q
Q
q
0 381.104 820 -382 re W n
[ 1 0 0 1 0 -0.895721 ] concat
  q
0 g
0.429396 w
0 J
0 j
[] 0.0 d
10 M q 1 0 0 -1 0 382 cm
260.32 35.98 m 261.609 35.98 l S Q
  Q
Q
q
0 381.104 820 -382 re W n
[ 1 0 0 1 0 -0.895721 ] concat
  q
0 g
256.586 373.578 m 256.945 373.613 l 256.977 373.441 257.035 373.32 257.121
 373.238 c 257.211 373.16 257.324 373.121 257.457 373.121 c 257.57 373.121
 257.672 373.148 257.762 373.203 c 257.848 373.258 257.918 373.328 257.977
 373.418 c 258.031 373.508 258.078 373.629 258.117 373.777 c 258.156 373.926
 258.176 374.082 258.176 374.238 c 258.176 374.316 l 258.098 374.195 257.992
 374.098 257.859 374.023 c 257.73 373.945 257.586 373.906 257.438 373.906
 c 257.18 373.906 256.965 374 256.793 374.188 c 256.617 374.371 256.531 
374.613 256.531 374.914 c 256.531 375.227 256.621 375.48 256.805 375.668
 c 256.988 375.859 257.219 375.953 257.496 375.953 c 257.695 375.953 257.875
 375.902 258.043 375.793 c 258.207 375.688 258.332 375.531 258.418 375.332
 c 258.504 375.133 258.547 374.844 258.547 374.465 c 258.547 374.074 258.508
 373.766 258.422 373.531 c 258.336 373.301 258.211 373.121 258.043 373 c
 257.871 372.875 257.672 372.813 257.449 372.813 c 257.207 372.813 257.012
 372.883 256.859 373.016 c 256.707 373.148 256.617 373.336 256.586 373.578
 c h
258.129 374.934 m 258.129 375.152 258.07 375.324 257.957 375.449 c 257.84
 375.578 257.703 375.641 257.543 375.641 c 257.375 375.641 257.227 375.57
 257.102 375.434 c 256.977 375.297 256.914 375.121 256.914 374.902 c 256.914
 374.707 256.973 374.551 257.094 374.43 c 257.211 374.305 257.355 374.242
 257.531 374.242 c 257.707 374.242 257.848 374.305 257.961 374.43 c 258.07
 374.551 258.129 374.719 258.129 374.934 c h
258.129 374.934 m f
  Q
Q
q
0 381.104 820 -382 re W n
[ 1 0 0 1 0 -0.895721 ] concat
  q
0 g
0.429396 w
0 J
0 j
[] 0.0 d
10 M q 1 0 0 -1 0 382 cm
260.32 7.617 m 261.609 7.617 l S Q
  Q
Q
q
0 381.104 820 -382 re W n
[ 1 0 0 1 0 -0.895721 ] concat
  q
0 g
0.429396 w
1 J
1 j
[] 0.0 d
10 M q 1 0 0 -1 0 382 cm
318.332 121.063 m 460.141 121.063 l S Q
  Q
Q
q
0 381.104 820 -382 re W n
[ 1 0 0 1 0 -0.895721 ] concat
  q
0 g
0.429396 w
1 J
1 j
[] 0.0 d
10 M q 1 0 0 -1 0 382 cm
460.141 234.508 m 460.141 121.063 l S Q
  Q
Q
q
0 381.104 820 -382 re W n
[ 1 0 0 1 0 -0.895721 ] concat
  q
0 g
0.429396 w
1 J
1 j
[] 0.0 d
10 M q 1 0 0 -1 0 382 cm
318.332 121.063 m 318.332 149.426 l S Q
  Q
Q
q
0 381.104 820 -382 re W n
[ 1 0 0 1 0 -0.895721 ] concat
  q
0 g
0.429396 w
1 J
1 j
[] 0.0 d
10 M q 1 0 0 -1 0 382 cm
318.332 149.426 m 346.695 149.426 l S Q
  Q
Q
q
0 381.104 820 -382 re W n
[ 1 0 0 1 0 -0.895721 ] concat
  q
0 g
0.429396 w
1 J
1 j
[] 0.0 d
10 M q 1 0 0 -1 0 382 cm
346.695 149.426 m 346.695 177.785 l S Q
  Q
Q
q
0 381.104 820 -382 re W n
[ 1 0 0 1 0 -0.895721 ] concat
  q
0 g
0.429396 w
1 J
1 j
[] 0.0 d
10 M q 1 0 0 -1 0 382 cm
346.695 177.785 m 375.055 177.785 l S Q
  Q
Q
q
0 381.104 820 -382 re W n
[ 1 0 0 1 0 -0.895721 ] concat
  q
0 g
0.429396 w
1 J
1 j
[] 0.0 d
10 M q 1 0 0 -1 0 382 cm
375.055 177.785 m 375.055 206.148 l S Q
  Q
Q
q
0 381.104 820 -382 re W n
[ 1 0 0 1 0 -0.895721 ] concat
  q
0 g
0.429396 w
1 J
1 j
[] 0.0 d
10 M q 1 0 0 -1 0 382 cm
375.055 206.148 m 409.492 206.477 l S Q
  Q
Q
q
0 381.104 820 -382 re W n
[ 1 0 0 1 0 -0.895721 ] concat
  q
0 g
0.429396 w
1 J
1 j
[] 0.0 d
10 M q 1 0 0 -1 0 382 cm
409.855 218.367 m 409.492 206.477 l S Q
  Q
Q
q
0 381.104 820 -382 re W n
[ 1 0 0 1 0 -0.895721 ] concat
  q
0 g
0.429396 w
1 J
1 j
[] 0.0 d
10 M q 1 0 0 -1 0 382 cm
409.855 218.367 m 431.457 218.73 l S Q
  Q
Q
q
0 381.104 820 -382 re W n
[ 1 0 0 1 0 -0.895721 ] concat
  q
0 g
0.429396 w
1 J
1 j
[] 0.0 d
10 M q 1 0 0 -1 0 382 cm
431.758 234.508 m 431.457 218.73 l S Q
  Q
Q
q
0 381.104 820 -382 re W n
[ 1 0 0 1 0 -0.895721 ] concat
  q
0 g
0.429396 w
1 J
1 j
[] 0.0 d
10 M q 1 0 0 -1 0 382 cm
431.758 234.508 m 460.141 234.508 l S Q
  Q
Q
q
0 381.104 820 -382 re W n
[ 1 0 0 1 0 -0.895721 ] concat
  q
0 g
0.429396 w
1 J
1 j
[] 0.0 d
10 M q 1 0 0 -1 0 382 cm
312.551 125.027 m 365.164 126.469 l S Q
  Q
Q
q
0 381.104 820 -382 re W n
[ 1 0 0 1 0 -0.895721 ] concat
  q
0 g
0.429396 w
1 J
1 j
[] 0.0 d
10 M q 1 0 0 -1 0 382 cm
365.164 126.469 m 382.102 149.895 l S Q
  Q
Q
q
0 381.104 820 -382 re W n
[ 1 0 0 1 0 -0.895721 ] concat
  q
0 g
0.429396 w
1 J
1 j
[] 0.0 d
10 M q 1 0 0 -1 0 382 cm
401.203 127.91 m 382.102 149.895 l S Q
  Q
Q
q
0 381.104 820 -382 re W n
[ 1 0 0 1 0 -0.895721 ] concat
  q
0 g
0.429396 w
1 J
1 j
[] 0.0 d
10 M q 1 0 0 -1 0 382 cm
401.203 127.91 m 440.133 124.664 l S Q
  Q
Q
q
0 381.104 820 -382 re W n
[ 1 0 0 1 0 -0.895721 ] concat
  q
0 g
0.429396 w
1 J
1 j
[] 0.0 d
10 M q 1 0 0 -1 0 382 cm
440.133 124.664 m 460.141 177.785 l S Q
  Q
Q
q
0 381.104 820 -382 re W n
[ 1 0 0 1 0 -0.895721 ] concat
  q
0 g
0.429396 w
1 J
1 j
[] 0.0 d
10 M q 1 0 0 -1 0 382 cm
460.141 177.785 m 446.957 238.188 l S Q
  Q
Q
q
0 381.104 820 -382 re W n
[ 1 0 0 1 0 -0.895721 ] concat
  q
0 g
0.429396 w
1 J
1 j
[] 0.0 d
10 M q 1 0 0 -1 0 382 cm
446.957 238.188 m 396.156 223.055 l S Q
  Q
Q
q
0 381.104 820 -382 re W n
[ 1 0 0 1 0 -0.895721 ] concat
  q
0 g
0.429396 w
1 J
1 j
[] 0.0 d
10 M q 1 0 0 -1 0 382 cm
396.156 223.055 m 353.273 201.43 l S Q
  Q
Q
q
0 381.104 820 -382 re W n
[ 1 0 0 1 0 -0.895721 ] concat
  q
0 g
0.429396 w
1 J
1 j
[] 0.0 d
10 M q 1 0 0 -1 0 382 cm
353.273 201.43 m 316.875 170.078 l S Q
  Q
Q
q
0 381.104 820 -382 re W n
[ 1 0 0 1 0 -0.895721 ] concat
  q
0 g
0.429396 w
1 J
1 j
[] 0.0 d
10 M q 1 0 0 -1 0 382 cm
316.875 170.078 m 312.551 125.027 l S Q
  Q
Q
q
0 381.104 820 -382 re W n
[ 1 0 0 1 0 -0.895721 ] concat
  q
1 0 0 rg
0.429396 w
0 J
1 j
[ 0.429396 1.288189] 0 d
10 M q 1 0 0 -1 0 382 cm
431.758 234.508 m 446.957 238.188 l S Q
  Q
Q
q
0 381.104 820 -382 re W n
[ 1 0 0 1 0 -0.895721 ] concat
  q
0 g
0.429396 w
1 J
1 j
[] 0.0 d
10 M q 1 0 0 -1 0 382 cm
309.305 220.895 m 334.148 192.891 l S Q
  Q
Q
q
0 381.104 820 -382 re W n
[ 1 0 0 1 0 -0.895721 ] concat
  q
0 g
338.137 193.602 m 335.273 188.113 l 333.023 190.105 l h
338.137 193.602 m f*
  Q
Q
q
0 381.104 820 -382 re W n
[ 1 0 0 1 0 -0.895721 ] concat
  q
0 g
0.429396 w
1 J
1 j
[] 0.0 d
10 M q 1 0 0 -1 0 382 cm
391.473 109.168 m 375.383 130.816 l S Q
  Q
Q
q
0 381.104 820 -382 re W n
[ 1 0 0 1 0 -0.895721 ] concat
  q
0 g
371.793 246.363 m 374.176 252.082 l 376.586 250.293 l h
371.793 246.363 m f*
  Q
Q
q
0 381.104 820 -382 re W n
[ 1 0 0 1 0 -0.895721 ] concat
  q
0 0 1 rg
462.289 260.938 m 462.289 259.75 461.344 258.789 460.141 258.789 c 458.938
 258.789 457.996 259.75 457.996 260.938 c 457.996 262.121 458.938 263.086
 460.141 263.086 c 461.344 263.086 462.289 262.121 462.289 260.938 c h
462.289 260.938 m f
  Q
Q
q
0 381.104 820 -382 re W n
[ 1 0 0 1 0 -0.895721 ] concat
  q
0 g
0.429396 w
1 J
1 j
[] 0.0 d
10 M q 1 0 0 -1 0 382 cm
462.289 121.063 m 462.289 122.25 461.344 123.211 460.141 123.211 c 458.938
 123.211 457.996 122.25 457.996 121.063 c 457.996 119.879 458.938 118.914
 460.141 118.914 c 461.344 118.914 462.289 119.879 462.289 121.063 c h
462.289 121.063 m S Q
  Q
Q
q
0 381.104 820 -382 re W n
[ 1 0 0 1 0 -0.895721 ] concat
  q
0 0 1 rg
320.48 232.574 m 320.48 231.391 319.52 230.43 318.332 230.43 c 317.148 
230.43 316.188 231.391 316.188 232.574 c 316.188 233.762 317.148 234.723
 318.332 234.723 c 319.52 234.723 320.48 233.762 320.48 232.574 c h
320.48 232.574 m f
  Q
Q
q
0 381.104 820 -382 re W n
[ 1 0 0 1 0 -0.895721 ] concat
  q
0 g
0.429396 w
1 J
1 j
[] 0.0 d
10 M q 1 0 0 -1 0 382 cm
320.48 149.426 m 320.48 150.609 319.52 151.57 318.332 151.57 c 317.148 
151.57 316.188 150.609 316.188 149.426 c 316.188 148.238 317.148 147.277
 318.332 147.277 c 319.52 147.277 320.48 148.238 320.48 149.426 c h
320.48 149.426 m S Q
  Q
Q
q
0 381.104 820 -382 re W n
[ 1 0 0 1 0 -0.895721 ] concat
  q
0 0 1 rg
348.84 204.215 m 348.84 203.027 347.879 202.066 346.695 202.066 c 345.504
 202.066 344.547 203.027 344.547 204.215 c 344.547 205.398 345.504 206.359
 346.695 206.359 c 347.879 206.359 348.84 205.398 348.84 204.215 c h
348.84 204.215 m f
  Q
Q
q
0 381.104 820 -382 re W n
[ 1 0 0 1 0 -0.895721 ] concat
  q
0 g
0.429396 w
1 J
1 j
[] 0.0 d
10 M q 1 0 0 -1 0 382 cm
348.84 177.785 m 348.84 178.973 347.879 179.934 346.695 179.934 c 345.504
 179.934 344.547 178.973 344.547 177.785 c 344.547 176.602 345.504 175.641
 346.695 175.641 c 347.879 175.641 348.84 176.602 348.84 177.785 c h
348.84 177.785 m S Q
  Q
Q
q
0 381.104 820 -382 re W n
[ 1 0 0 1 0 -0.895721 ] concat
  q
0 0 1 rg
377.203 175.852 m 377.203 174.668 376.242 173.707 375.055 173.707 c 373.867
 173.707 372.91 174.668 372.91 175.852 c 372.91 177.039 373.867 178 375.055
 178 c 376.242 178 377.203 177.039 377.203 175.852 c h
377.203 175.852 m f
  Q
Q
q
0 381.104 820 -382 re W n
[ 1 0 0 1 0 -0.895721 ] concat
  q
0 g
0.429396 w
1 J
1 j
[] 0.0 d
10 M q 1 0 0 -1 0 382 cm
377.203 206.148 m 377.203 207.332 376.242 208.293 375.055 208.293 c 373.867
 208.293 372.91 207.332 372.91 206.148 c 372.91 204.961 373.867 204 375.055
 204 c 376.242 204 377.203 204.961 377.203 206.148 c h
377.203 206.148 m S Q
  Q
Q
q
0 381.104 820 -382 re W n
[ 1 0 0 1 0 -0.895721 ] concat
  q
0 0 1 rg
412 163.633 m 412 162.445 411.039 161.484 409.855 161.484 c 408.668 161.484
 407.707 162.445 407.707 163.633 c 407.707 164.816 408.668 165.777 409.855
 165.777 c 411.039 165.777 412 164.816 412 163.633 c h
412 163.633 m f
  Q
Q
q
0 381.104 820 -382 re W n
[ 1 0 0 1 0 -0.895721 ] concat
  q
0 g
0.429396 w
1 J
1 j
[] 0.0 d
10 M q 1 0 0 -1 0 382 cm
412 218.367 m 412 219.555 411.039 220.516 409.855 220.516 c 408.668 220.516
 407.707 219.555 407.707 218.367 c 407.707 217.184 408.668 216.223 409.855
 216.223 c 411.039 216.223 412 217.184 412 218.367 c h
412 218.367 m S Q
  Q
Q
q
0 381.104 820 -382 re W n
[ 1 0 0 1 0 -0.895721 ] concat
  q
0 0 1 rg
433.906 147.492 m 433.906 146.305 432.961 145.344 431.758 145.344 c 430.598
 145.344 429.609 146.305 429.609 147.492 c 429.609 148.676 430.598 149.637
 431.758 149.637 c 432.961 149.637 433.906 148.676 433.906 147.492 c h
433.906 147.492 m f
  Q
Q
q
0 381.104 820 -382 re W n
[ 1 0 0 1 0 -0.895721 ] concat
  q
0 g
0.429396 w
1 J
1 j
[] 0.0 d
10 M q 1 0 0 -1 0 382 cm
433.906 234.508 m 433.906 235.695 432.961 236.656 431.758 236.656 c 430.598
 236.656 429.609 235.695 429.609 234.508 c 429.609 233.324 430.598 232.363
 431.758 232.363 c 432.961 232.363 433.906 233.324 433.906 234.508 c h
433.906 234.508 m S Q
  Q
Q
q
0 381.104 820 -382 re W n
[ 1 0 0 1 0 -0.895721 ] concat
  q
0.12549 g
392.762 272.832 m 392.762 272.117 392.184 271.543 391.473 271.543 c 390.762
 271.543 390.184 272.117 390.184 272.832 c 390.184 273.539 390.762 274.121
 391.473 274.121 c 392.184 274.121 392.762 273.539 392.762 272.832 c h
392.762 272.832 m f
  Q
Q
q
0 381.104 820 -382 re W n
[ 1 0 0 1 0 -0.895721 ] concat
  q
0 g
0.429396 w
1 J
1 j
[] 0.0 d
10 M q 1 0 0 -1 0 382 cm
392.762 109.168 m 392.762 109.883 392.184 110.457 391.473 110.457 c 390.762
 110.457 390.184 109.883 390.184 109.168 c 390.184 108.461 390.762 107.879
 391.473 107.879 c 392.184 107.879 392.762 108.461 392.762 109.168 c h
392.762 109.168 m S Q
  Q
Q
q
0 381.104 820 -382 re W n
[ 1 0 0 1 0 -0.895721 ] concat
  q
0.12549 g
373.082 246.363 m 373.082 245.652 372.504 245.074 371.793 245.074 c 371.086
 245.074 370.504 245.652 370.504 246.363 c 370.504 247.074 371.086 247.652
 371.793 247.652 c 372.504 247.652 373.082 247.074 373.082 246.363 c h
373.082 246.363 m f
  Q
Q
q
0 381.104 820 -382 re W n
[ 1 0 0 1 0 -0.895721 ] concat
  q
0 g
0.429396 w
1 J
1 j
[] 0.0 d
10 M q 1 0 0 -1 0 382 cm
373.082 135.637 m 373.082 136.348 372.504 136.926 371.793 136.926 c 371.086
 136.926 370.504 136.348 370.504 135.637 c 370.504 134.926 371.086 134.348
 371.793 134.348 c 372.504 134.348 373.082 134.926 373.082 135.637 c h
373.082 135.637 m S Q
  Q
Q
q
0 381.104 820 -382 re W n
[ 1 0 0 1 0 -0.895721 ] concat
  q
0 g
464.691 265.949 m 463.406 270.863 l 464.09 270.863 l 464.82 267.645 l 464.906
 267.305 464.98 266.973 465.035 266.641 c 465.152 267.164 465.223 267.465
 465.25 267.547 c 466.195 270.863 l 466.969 270.863 l 467.656 268.379 l 
467.855 267.762 467.984 267.18 468.043 266.641 c 468.098 266.949 468.184
 267.305 468.301 267.703 c 469.074 270.863 l 469.715 270.863 l 468.387 265.949
 l 467.742 265.949 l 466.711 269.695 l 466.625 270.012 466.566 270.203 466.539
 270.277 c 466.512 270.047 466.469 269.855 466.41 269.695 c 465.379 265.949
 l h
464.691 265.949 m f
  Q
Q
q
0 381.104 820 -382 re W n
[ 1 0 0 1 0 -0.895721 ] concat
  q
0 g
322.465 226.875 m 324.359 231.789 l 325.063 231.789 l 327.07 226.875 l 
326.328 226.875 l 325.758 228.363 l 323.695 228.363 l 323.16 226.875 l h
323.887 228.891 m 325.555 228.891 l 325.039 230.258 l 324.883 230.672 324.766
 231.012 324.691 231.273 c 324.629 230.961 324.543 230.648 324.43 230.336
 c h
323.887 228.891 m f
  Q
Q
q
0 381.104 820 -382 re W n
[ 1 0 0 1 0 -0.895721 ] concat
  q
0 g
354.324 198.531 m 354.324 203.449 l 356.172 203.449 l 356.547 203.449 356.848
 203.402 357.078 203.305 c 357.305 203.207 357.484 203.055 357.609 202.844
 c 357.738 202.637 357.805 202.418 357.805 202.195 c 357.805 201.988 357.746
 201.789 357.633 201.602 c 357.516 201.418 357.344 201.266 357.117 201.148
 c 357.41 201.066 357.641 200.918 357.805 200.707 c 357.965 200.496 358.043
 200.25 358.043 199.961 c 358.043 199.73 357.992 199.516 357.895 199.32 
c 357.797 199.121 357.676 198.969 357.531 198.863 c 357.391 198.754 357.211
 198.672 356.996 198.617 c 356.781 198.563 356.52 198.531 356.207 198.531
 c h
354.977 201.383 m 356.043 201.383 l 356.328 201.383 356.535 201.402 356.66
 201.445 c 356.828 201.492 356.953 201.574 357.035 201.688 c 357.121 201.805
 357.164 201.945 357.164 202.113 c 357.164 202.281 357.125 202.426 357.047
 202.547 c 356.969 202.672 356.855 202.758 356.711 202.805 c 356.566 202.852
 356.316 202.875 355.961 202.875 c 354.977 202.875 l h
354.977 199.117 m 356.207 199.117 l 356.414 199.117 356.563 199.125 356.648
 199.137 c 356.793 199.164 356.918 199.207 357.023 199.27 c 357.121 199.336
 357.203 199.426 357.266 199.547 c 357.332 199.668 357.363 199.805 357.363
 199.961 c 357.363 200.145 357.316 200.305 357.223 200.438 c 357.129 200.574
 357 200.668 356.836 200.723 c 356.672 200.781 356.43 200.809 356.117 200.809
 c 354.977 200.809 l h
354.977 199.117 m f
  Q
Q
q
0 381.104 820 -382 re W n
[ 1 0 0 1 0 -0.895721 ] concat
  q
0 g
385.344 171.488 m 385.992 171.328 l 385.859 170.793 385.613 170.383 385.258
 170.098 c 384.902 169.816 384.473 169.676 383.961 169.676 c 383.43 169.676
 382.996 169.785 382.664 170 c 382.336 170.219 382.086 170.531 381.91 170.941
 c 381.734 171.348 381.648 171.789 381.648 172.258 c 381.648 172.773 381.746
 173.223 381.941 173.602 c 382.137 173.984 382.418 174.273 382.777 174.469
 c 383.137 174.668 383.535 174.77 383.965 174.77 c 384.457 174.77 384.871
 174.645 385.207 174.391 c 385.547 174.145 385.781 173.789 385.91 173.332
 c 385.266 173.188 l 385.156 173.543 384.992 173.805 384.777 173.969 c 384.559
 174.129 384.285 174.211 383.953 174.211 c 383.578 174.211 383.262 174.121
 383.008 173.941 c 382.754 173.758 382.574 173.512 382.473 173.207 c 382.367
 172.902 382.316 172.586 382.316 172.266 c 382.316 171.848 382.379 171.48
 382.504 171.168 c 382.625 170.859 382.816 170.625 383.074 170.473 c 383.332
 170.316 383.609 170.238 383.906 170.238 c 384.27 170.238 384.578 170.344
 384.828 170.555 c 385.082 170.766 385.254 171.078 385.344 171.488 c h
385.344 171.488 m f
  Q
Q
q
0 381.104 820 -382 re W n
[ 1 0 0 1 0 -0.895721 ] concat
  q
0 g
413.18 158.598 m 413.18 163.516 l 414.879 163.516 l 415.258 163.516 415.551
 163.492 415.75 163.453 c 416.031 163.383 416.273 163.266 416.477 163.094
 c 416.734 162.875 416.926 162.594 417.055 162.258 c 417.18 161.918 417.246
 161.527 417.246 161.09 c 417.246 160.711 417.203 160.379 417.117 160.094
 c 417.027 159.805 416.914 159.566 416.781 159.375 c 416.645 159.191 416.496
 159.043 416.336 158.93 c 416.176 158.82 415.977 158.738 415.746 158.684
 c 415.516 158.629 415.254 158.598 414.961 158.598 c h
413.832 159.184 m 414.883 159.184 l 415.207 159.184 415.461 159.215 415.648
 159.273 c 415.832 159.332 415.977 159.418 416.086 159.527 c 416.242 159.68
 416.363 159.887 416.445 160.148 c 416.531 160.41 416.574 160.723 416.574
 161.094 c 416.574 161.609 416.488 162.004 416.32 162.285 c 416.156 162.563
 415.949 162.746 415.707 162.84 c 415.535 162.906 415.254 162.941 414.867
 162.941 c 413.832 162.941 l h
413.832 159.184 m f
  Q
Q
q
0 381.104 820 -382 re W n
[ 1 0 0 1 0 -0.895721 ] concat
  q
0 g
437.254 142.711 m 437.254 147.629 l 440.777 147.629 l 440.777 147.051 l
 437.898 147.051 l 437.898 145.543 l 440.605 145.543 l 440.605 144.965 l
 437.898 144.965 l 437.898 143.297 l 440.902 143.297 l 440.902 142.711 l
 h
437.254 142.711 m f
  Q
Q
q
0 381.104 820 -382 re W n
[ 1 0 0 1 0 -0.895721 ] concat
  q
0 g
300.676 156.023 m 300.676 160.938 l 302.535 160.938 l 302.863 160.938 303.109
 160.922 303.281 160.891 c 303.523 160.852 303.727 160.777 303.887 160.664
 c 304.051 160.555 304.184 160.395 304.281 160.191 c 304.383 159.988 304.434
 159.766 304.434 159.52 c 304.434 159.102 304.301 158.75 304.035 158.457
 c 303.77 158.168 303.285 158.023 302.59 158.023 c 301.328 158.023 l 301.328
 156.023 l h
301.328 158.609 m 302.605 158.609 l 303.023 158.609 303.324 158.684 303.496
 158.84 c 303.676 158.996 303.762 159.215 303.762 159.496 c 303.762 159.703
 303.711 159.879 303.605 160.027 c 303.5 160.176 303.363 160.27 303.191 
160.316 c 303.086 160.348 302.887 160.363 302.59 160.363 c 301.328 160.363
 l h
307.508 156.465 m 307.285 156.273 307.07 156.137 306.863 156.063 c 306.656
 155.98 306.438 155.941 306.199 155.941 c 305.805 155.941 305.504 156.035
 305.293 156.23 c 305.082 156.422 304.98 156.668 304.98 156.965 c 304.98
 157.137 305.02 157.297 305.098 157.441 c 305.18 157.586 305.285 157.703
 305.414 157.793 c 305.539 157.879 305.684 157.945 305.848 157.988 c 305.965
 158.02 306.145 158.051 306.383 158.074 c 306.871 158.133 307.23 158.203
 307.461 158.285 c 307.461 158.445 l 307.461 158.691 307.406 158.863 307.293
 158.961 c 307.137 159.102 306.906 159.172 306.602 159.172 c 306.32 159.172
 306.113 159.121 305.977 159.02 c 305.836 158.918 305.738 158.742 305.68
 158.492 c 305.086 158.574 l 305.141 158.824 305.23 159.027 305.352 159.184
 c 305.477 159.34 305.652 159.461 305.887 159.543 c 306.117 159.625 306.383
 159.664 306.688 159.664 c 306.992 159.664 307.242 159.629 307.43 159.555
 c 307.621 159.484 307.762 159.395 307.852 159.289 c 307.941 159.18 308.004
 159.047 308.039 158.883 c 308.059 158.781 308.07 158.594 308.07 158.324
 c 308.07 157.516 l 308.07 156.957 308.082 156.602 308.109 156.453 c 308.133
 156.305 308.184 156.16 308.258 156.023 c 307.629 156.023 l 307.566 156.148
 307.523 156.297 307.508 156.465 c h
307.461 157.813 m 307.242 157.723 306.914 157.648 306.473 157.586 c 306.223
 157.551 306.047 157.512 305.945 157.465 c 305.844 157.418 305.762 157.355
 305.707 157.27 c 305.652 157.18 305.621 157.082 305.621 156.98 c 305.621
 156.82 305.684 156.688 305.809 156.582 c 305.93 156.473 306.109 156.418
 306.34 156.418 c 306.57 156.418 306.781 156.469 306.961 156.566 c 307.145
 156.668 307.277 156.809 307.363 156.988 c 307.43 157.125 307.461 157.324
 307.461 157.594 c h
309.004 156.023 m 309.004 159.586 l 309.543 159.586 l 309.543 159.051 l
 309.684 159.301 309.813 159.465 309.926 159.543 c 310.043 159.625 310.172
 159.664 310.316 159.664 c 310.516 159.664 310.723 159.598 310.934 159.469
 c 310.723 158.914 l 310.578 159 310.43 159.043 310.281 159.043 c 310.152
 159.043 310.035 159.004 309.93 158.926 c 309.824 158.844 309.75 158.734
 309.707 158.59 c 309.637 158.375 309.602 158.141 309.602 157.887 c 309.602
 156.023 l h
313.73 157.168 m 314.355 157.098 l 314.258 156.73 314.074 156.445 313.809
 156.246 c 313.539 156.043 313.203 155.941 312.793 155.941 c 312.27 155.941
 311.855 156.102 311.547 156.426 c 311.246 156.746 311.094 157.195 311.094
 157.773 c 311.094 158.371 311.246 158.84 311.559 159.172 c 311.867 159.5
 312.266 159.664 312.758 159.664 c 313.23 159.664 313.621 159.504 313.922
 159.18 c 314.223 158.855 314.375 158.398 314.375 157.813 c 314.375 157.656
 l 311.719 157.656 l 311.742 157.258 311.852 156.957 312.051 156.754 c 312.25
 156.543 312.496 156.438 312.793 156.438 c 313.016 156.438 313.207 156.496
 313.359 156.613 c 313.52 156.73 313.641 156.914 313.73 157.168 c h
311.75 158.148 m 313.738 158.148 l 313.711 158.449 313.633 158.672 313.512
 158.824 c 313.32 159.055 313.07 159.172 312.766 159.172 c 312.484 159.172
 312.254 159.078 312.063 158.891 c 311.875 158.703 311.77 158.457 311.75
 158.148 c h
316.43 156.566 m 316.516 156.031 l 316.348 155.992 316.195 155.977 316.063
 155.977 c 315.844 155.977 315.676 156.008 315.555 156.078 c 315.434 156.148
 315.348 156.242 315.297 156.352 c 315.25 156.469 315.223 156.707 315.223
 157.07 c 315.223 159.113 l 314.781 159.113 l 314.781 159.586 l 315.223 
159.586 l 315.223 160.473 l 315.828 160.832 l 315.828 159.586 l 316.43 159.586
 l 316.43 159.113 l 315.828 159.113 l 315.828 157.035 l 315.828 156.863 
315.84 156.75 315.859 156.699 c 315.879 156.652 315.914 156.613 315.961 
156.582 c 316.012 156.551 316.082 156.539 316.168 156.539 c 316.238 156.539
 316.324 156.547 316.43 156.566 c h
316.797 157.809 m 316.797 158.465 316.98 158.949 317.344 159.27 c 317.656
 159.531 318.027 159.664 318.465 159.664 c 318.957 159.664 319.359 159.504
 319.672 159.188 c 319.98 158.867 320.137 158.422 320.137 157.855 c 320.137
 157.398 320.066 157.039 319.93 156.773 c 319.793 156.512 319.594 156.305
 319.328 156.16 c 319.07 156.016 318.781 155.941 318.465 155.941 c 317.973
 155.941 317.57 156.102 317.258 156.422 c 316.949 156.742 316.797 157.203
 316.797 157.809 c h
317.422 157.809 m 317.422 157.352 317.523 157.008 317.719 156.781 c 317.918
 156.555 318.168 156.438 318.465 156.438 c 318.766 156.438 319.016 156.555
 319.219 156.781 c 319.414 157.008 319.516 157.355 319.516 157.824 c 319.516
 158.266 319.414 158.598 319.219 158.828 c 319.016 159.055 318.766 159.172
 318.465 159.172 c 318.168 159.172 317.918 159.059 317.719 158.832 c 317.523
 158.605 317.422 158.266 317.422 157.809 c h
322.863 156.023 m 322.863 160.938 l 326.184 160.938 l 326.184 160.363 l
 323.512 160.363 l 323.512 158.84 l 325.82 158.84 l 325.82 158.254 l 323.512
 158.254 l 323.512 156.023 l h
326.945 156.023 m 326.945 159.586 l 327.488 159.586 l 327.488 159.051 l
 327.629 159.301 327.754 159.465 327.871 159.543 c 327.988 159.625 328.117
 159.664 328.262 159.664 c 328.461 159.664 328.668 159.598 328.879 159.469
 c 328.668 158.914 l 328.523 159 328.375 159.043 328.227 159.043 c 328.098
 159.043 327.98 159.004 327.875 158.926 c 327.77 158.844 327.695 158.734
 327.652 158.59 c 327.582 158.375 327.547 158.141 327.547 157.887 c 327.547
 156.023 l h
329.012 157.809 m 329.012 158.465 329.195 158.949 329.563 159.27 c 329.871
 159.531 330.246 159.664 330.684 159.664 c 331.176 159.664 331.574 159.504
 331.887 159.188 c 332.195 158.867 332.352 158.422 332.352 157.855 c 332.352
 157.398 332.285 157.039 332.148 156.773 c 332.008 156.512 331.805 156.305
 331.547 156.16 c 331.281 156.016 330.996 155.941 330.684 155.941 c 330.188
 155.941 329.785 156.102 329.477 156.422 c 329.168 156.742 329.012 157.203
 329.012 157.809 c h
329.633 157.809 m 329.633 157.352 329.734 157.008 329.934 156.781 c 330.133
 156.555 330.383 156.438 330.684 156.438 c 330.984 156.438 331.23 156.555
 331.43 156.781 c 331.629 157.008 331.73 157.355 331.73 157.824 c 331.73
 158.266 331.629 158.598 331.43 158.828 c 331.23 159.055 330.984 159.172
 330.684 159.172 c 330.383 159.172 330.133 159.059 329.934 158.832 c 329.734
 158.605 329.633 158.266 329.633 157.809 c h
333.063 156.023 m 333.063 159.586 l 333.602 159.586 l 333.602 159.078 l
 333.863 159.469 334.242 159.664 334.734 159.664 c 334.949 159.664 335.148
 159.625 335.328 159.551 c 335.508 159.477 335.641 159.375 335.73 159.25
 c 335.82 159.125 335.883 158.977 335.918 158.801 c 335.941 158.688 335.953
 158.496 335.953 158.219 c 335.953 156.023 l 335.352 156.023 l 335.352 158.191
 l 335.352 158.438 335.324 158.621 335.277 158.746 c 335.23 158.867 335.148
 158.965 335.027 159.035 c 334.91 159.109 334.773 159.145 334.613 159.145
 c 334.352 159.145 334.129 159.063 333.941 158.898 c 333.754 158.734 333.664
 158.422 333.664 157.969 c 333.664 156.023 l h
338.195 156.566 m 338.281 156.031 l 338.113 155.992 337.961 155.977 337.828
 155.977 c 337.605 155.977 337.438 156.008 337.316 156.078 c 337.195 156.148
 337.113 156.242 337.063 156.352 c 337.016 156.469 336.992 156.707 336.992
 157.07 c 336.992 159.113 l 336.547 159.113 l 336.547 159.586 l 336.992 
159.586 l 336.992 160.473 l 337.59 160.832 l 337.59 159.586 l 338.195 159.586
 l 338.195 159.113 l 337.59 159.113 l 337.59 157.035 l 337.59 156.863 337.602
 156.75 337.621 156.699 c 337.641 156.652 337.676 156.613 337.73 156.582
 c 337.777 156.551 337.848 156.539 337.934 156.539 c 338 156.539 338.09 
156.547 338.195 156.566 c h
338.195 156.566 m f
  Q
Q
q
0 381.104 820 -382 re W n
[ 1 0 0 1 0 -0.895721 ] concat
  q
0 g
395.355 273.113 m 395.973 273.168 l 395.996 272.922 396.063 272.719 396.168
 272.563 c 396.277 272.402 396.445 272.273 396.668 272.18 c 396.891 272.082
 397.141 272.031 397.418 272.031 c 397.672 272.031 397.891 272.07 398.082
 272.145 c 398.27 272.219 398.41 272.32 398.5 272.445 c 398.598 272.574 
398.645 272.715 398.645 272.867 c 398.645 273.023 398.598 273.156 398.504
 273.27 c 398.418 273.383 398.27 273.48 398.063 273.563 c 397.934 273.613
 397.645 273.691 397.191 273.801 c 396.738 273.91 396.422 274.012 396.238
 274.105 c 396.008 274.234 395.832 274.387 395.715 274.566 c 395.602 274.746
 395.543 274.949 395.543 275.18 c 395.543 275.426 395.613 275.66 395.754
 275.875 c 395.895 276.094 396.098 276.258 396.371 276.371 c 396.641 276.48
 396.941 276.535 397.273 276.535 c 397.641 276.535 397.961 276.477 398.238
 276.355 c 398.516 276.238 398.73 276.066 398.879 275.836 c 399.027 275.609
 399.109 275.352 399.125 275.063 c 398.5 275.016 l 398.465 275.324 398.352
 275.563 398.156 275.723 c 397.965 275.879 397.68 275.957 397.301 275.957
 c 396.906 275.957 396.621 275.887 396.441 275.742 c 396.262 275.598 396.168
 275.426 396.168 275.219 c 396.168 275.043 396.234 274.898 396.359 274.785
 c 396.484 274.672 396.813 274.559 397.344 274.438 c 397.871 274.313 398.234
 274.207 398.434 274.121 c 398.719 273.992 398.93 273.824 399.066 273.621
 c 399.203 273.418 399.27 273.184 399.27 272.918 c 399.27 272.66 399.195
 272.414 399.047 272.184 c 398.898 271.949 398.684 271.766 398.398 271.637
 c 398.117 271.508 397.805 271.445 397.453 271.445 c 397.008 271.445 396.633
 271.512 396.332 271.641 c 396.031 271.773 395.797 271.969 395.625 272.227
 c 395.453 272.488 395.363 272.781 395.355 273.113 c h
402.52 272.676 m 403.145 272.605 l 403.047 272.238 402.863 271.953 402.598
 271.754 c 402.332 271.551 401.992 271.449 401.582 271.449 c 401.055 271.449
 400.645 271.609 400.34 271.934 c 400.035 272.254 399.883 272.703 399.883
 273.281 c 399.883 273.879 400.039 274.344 400.344 274.68 c 400.652 275.008
 401.055 275.172 401.547 275.172 c 402.02 275.172 402.41 275.012 402.711
 274.688 c 403.012 274.363 403.164 273.906 403.164 273.32 c 403.164 273.16
 l 400.508 273.16 l 400.531 272.766 400.641 272.465 400.836 272.262 c 401.039
 272.051 401.285 271.945 401.582 271.945 c 401.805 271.945 401.992 272.004
 402.152 272.121 c 402.305 272.238 402.43 272.422 402.52 272.676 c h
400.539 273.656 m 402.523 273.656 l 402.5 273.957 402.422 274.18 402.297
 274.328 c 402.105 274.563 401.859 274.68 401.555 274.68 c 401.277 274.68
 401.043 274.586 400.852 274.398 c 400.66 274.211 400.559 273.965 400.539
 273.656 c h
406.227 271.973 m 406.004 271.781 405.789 271.645 405.582 271.57 c 405.375
 271.488 405.152 271.449 404.918 271.449 c 404.523 271.449 404.223 271.543
 404.012 271.738 c 403.801 271.93 403.695 272.176 403.695 272.469 c 403.695
 272.645 403.738 272.805 403.816 272.949 c 403.898 273.094 404 273.211 404.129
 273.301 c 404.258 273.387 404.398 273.449 404.559 273.496 c 404.684 273.527
 404.863 273.559 405.098 273.582 c 405.586 273.641 405.945 273.711 406.18
 273.793 c 406.18 273.953 l 406.18 274.199 406.125 274.371 406.012 274.469
 c 405.855 274.609 405.625 274.68 405.32 274.68 c 405.039 274.68 404.832
 274.629 404.691 274.527 c 404.555 274.426 404.457 274.25 404.395 274 c 
403.805 274.082 l 403.859 274.328 403.949 274.531 404.07 274.691 c 404.195
 274.848 404.371 274.969 404.602 275.051 c 404.836 275.133 405.102 275.172
 405.406 275.172 c 405.711 275.172 405.961 275.137 406.148 275.063 c 406.336
 274.992 406.477 274.902 406.57 274.797 c 406.66 274.688 406.719 274.555
 406.754 274.391 c 406.777 274.285 406.789 274.102 406.789 273.832 c 406.789
 273.023 l 406.789 272.465 406.801 272.109 406.828 271.961 c 406.852 271.813
 406.898 271.668 406.977 271.531 c 406.348 271.531 l 406.285 271.656 406.242
 271.805 406.227 271.973 c h
406.18 273.32 m 405.957 273.23 405.629 273.156 405.191 273.094 c 404.941
 273.059 404.766 273.02 404.664 272.973 c 404.559 272.926 404.48 272.863
 404.422 272.777 c 404.367 272.688 404.34 272.59 404.34 272.488 c 404.34
 272.328 404.402 272.195 404.527 272.09 c 404.648 271.98 404.828 271.926
 405.059 271.926 c 405.289 271.926 405.496 271.977 405.68 272.074 c 405.859
 272.176 405.996 272.316 406.082 272.496 c 406.145 272.633 406.18 272.832
 406.18 273.102 c h
407.719 271.531 m 407.719 275.094 l 408.262 275.094 l 408.262 274.559 l
 408.402 274.805 408.527 274.973 408.645 275.051 c 408.762 275.133 408.891
 275.172 409.035 275.172 c 409.234 275.172 409.441 275.105 409.652 274.977
 c 409.441 274.422 l 409.297 274.508 409.148 274.551 409 274.551 c 408.871
 274.551 408.754 274.512 408.648 274.434 c 408.543 274.352 408.469 274.242
 408.426 274.098 c 408.355 273.883 408.32 273.648 408.32 273.395 c 408.32
 271.531 l h
412.336 272.84 m 412.934 272.758 l 412.863 272.352 412.695 272.031 412.43
 271.797 c 412.164 271.566 411.836 271.449 411.449 271.449 c 410.961 271.449
 410.57 271.609 410.27 271.93 c 409.973 272.25 409.824 272.707 409.824 273.301
 c 409.824 273.688 409.891 274.023 410.02 274.313 c 410.145 274.598 410.34
 274.813 410.602 274.957 c 410.863 275.102 411.145 275.172 411.449 275.172
 c 411.836 275.172 412.156 275.074 412.402 274.879 c 412.648 274.684 412.805
 274.406 412.875 274.047 c 412.289 273.961 l 412.23 274.195 412.129 274.375
 411.988 274.496 c 411.848 274.617 411.68 274.68 411.477 274.68 c 411.172
 274.68 410.922 274.57 410.734 274.352 c 410.547 274.133 410.453 273.789
 410.453 273.316 c 410.453 272.836 410.543 272.488 410.727 272.273 c 410.91
 272.055 411.148 271.945 411.445 271.945 c 411.68 271.945 411.879 272.02
 412.035 272.164 c 412.195 272.309 412.293 272.535 412.336 272.84 c h
413.449 271.531 m 413.449 276.445 l 414.055 276.445 l 414.055 274.684 l
 414.336 275.008 414.691 275.172 415.117 275.172 c 415.383 275.172 415.613
 275.121 415.805 275.016 c 416 274.918 416.141 274.773 416.223 274.586 c
 416.305 274.406 416.348 274.141 416.348 273.793 c 416.348 271.531 l 415.742
 271.531 l 415.742 273.793 l 415.742 274.09 415.676 274.309 415.547 274.449
 c 415.418 274.586 415.234 274.656 414.988 274.656 c 414.813 274.656 414.645
 274.609 414.488 274.516 c 414.332 274.422 414.219 274.293 414.152 274.137
 c 414.086 273.98 414.055 273.762 414.055 273.484 c 414.055 271.531 l h
419.223 271.531 m 419.223 276.445 l 421.07 276.445 l 421.445 276.445 421.746
 276.398 421.977 276.301 c 422.207 276.203 422.383 276.051 422.508 275.84
 c 422.637 275.633 422.703 275.418 422.703 275.191 c 422.703 274.984 422.645
 274.785 422.531 274.602 c 422.414 274.414 422.242 274.262 422.016 274.145
 c 422.309 274.063 422.539 273.914 422.703 273.703 c 422.863 273.492 422.941
 273.246 422.941 272.961 c 422.941 272.727 422.891 272.512 422.793 272.316
 c 422.695 272.117 422.574 271.969 422.43 271.859 c 422.289 271.754 422.109
 271.672 421.895 271.617 c 421.68 271.559 421.418 271.531 421.105 271.531
 c h
419.875 274.383 m 420.941 274.383 l 421.227 274.383 421.434 274.402 421.559
 274.441 c 421.727 274.492 421.852 274.57 421.934 274.688 c 422.02 274.801
 422.063 274.941 422.063 275.113 c 422.063 275.277 422.023 275.422 421.945
 275.547 c 421.867 275.668 421.758 275.754 421.613 275.805 c 421.465 275.848
 421.215 275.871 420.859 275.871 c 419.875 275.871 l h
419.875 272.113 m 421.105 272.113 l 421.313 272.113 421.461 272.121 421.547
 272.137 c 421.691 272.16 421.816 272.207 421.922 272.27 c 422.02 272.332
 422.102 272.422 422.164 272.543 c 422.23 272.664 422.266 272.801 422.266
 272.961 c 422.266 273.145 422.219 273.301 422.121 273.438 c 422.027 273.57
 421.898 273.664 421.734 273.719 c 421.57 273.777 421.328 273.805 421.016
 273.805 c 419.875 273.805 l h
423.531 273.316 m 423.531 273.973 423.715 274.457 424.082 274.777 c 424.391
 275.039 424.762 275.172 425.203 275.172 c 425.695 275.172 426.098 275.012
 426.406 274.695 c 426.719 274.375 426.871 273.93 426.871 273.363 c 426.871
 272.906 426.805 272.547 426.664 272.281 c 426.527 272.02 426.328 271.813
 426.063 271.668 c 425.805 271.523 425.516 271.449 425.203 271.449 c 424.707
 271.449 424.305 271.609 423.996 271.93 c 423.684 272.25 423.531 272.711
 423.531 273.316 c h
424.156 273.316 m 424.156 272.859 424.258 272.516 424.453 272.289 c 424.656
 272.063 424.902 271.945 425.203 271.945 c 425.5 271.945 425.754 272.063
 425.953 272.289 c 426.148 272.516 426.25 272.863 426.25 273.332 c 426.25
 273.773 426.148 274.105 425.953 274.336 c 425.754 274.563 425.5 274.68 
425.203 274.68 c 424.902 274.68 424.656 274.566 424.453 274.34 c 424.258
 274.113 424.156 273.773 424.156 273.316 c h
429.91 271.531 m 429.91 272.055 l 429.625 271.652 429.25 271.449 428.781
 271.449 c 428.574 271.449 428.379 271.488 428.195 271.57 c 428.016 271.652
 427.879 271.754 427.789 271.875 c 427.703 271.996 427.641 272.145 427.602
 272.32 c 427.578 272.445 427.566 272.633 427.566 272.887 c 427.566 275.094
 l 428.172 275.094 l 428.172 273.117 l 428.172 272.801 428.184 272.59 428.207
 272.484 c 428.246 272.324 428.328 272.199 428.453 272.105 c 428.574 272.016
 428.727 271.973 428.902 271.973 c 429.086 271.973 429.25 272.02 429.395
 272.109 c 429.566 272.203 429.684 272.328 429.738 272.488 c 429.824 272.652
 429.867 272.883 429.867 273.188 c 429.867 275.094 l 430.469 275.094 l 430.469
 271.531 l h
431.414 271.531 m 431.414 275.094 l 431.93 275.094 l 431.93 274.586 l 432.188
 274.977 432.574 275.172 433.09 275.172 c 433.289 275.172 433.488 275.133
 433.691 275.059 c 433.863 274.984 433.992 274.883 434.078 274.758 c 434.164
 274.633 434.219 274.484 434.25 274.309 c 434.277 274.195 434.293 274.004
 434.293 273.723 c 434.293 271.531 l 433.691 271.531 l 433.691 273.699 l
 433.691 273.945 433.66 274.129 433.605 274.254 c 433.574 274.375 433.504
 274.473 433.391 274.543 c 433.246 274.617 433.105 274.652 432.961 274.652
 c 432.703 274.652 432.473 274.57 432.273 274.406 c 432.102 274.242 432.016
 273.93 432.016 273.477 c 432.016 271.531 l h
437.512 271.531 m 437.512 271.98 l 437.313 271.625 436.984 271.449 436.523
 271.449 c 436.238 271.449 435.98 271.527 435.75 271.684 c 435.523 271.844
 435.336 272.063 435.191 272.344 c 435.078 272.625 435.023 272.949 435.023
 273.309 c 435.023 273.664 435.078 273.988 435.191 274.277 c 435.309 274.566
 435.48 274.789 435.707 274.945 c 435.938 275.098 436.211 275.172 436.523
 275.172 c 436.727 275.172 436.91 275.129 437.082 275.039 c 437.254 274.949
 437.398 274.832 437.512 274.684 c 437.512 276.445 l 438.113 276.445 l 438.113
 271.531 l h
435.621 273.309 m 435.621 272.852 435.723 272.512 435.922 272.285 c 436.125
 272.059 436.352 271.945 436.609 271.945 c 436.867 271.945 437.082 272.055
 437.254 272.273 c 437.453 272.488 437.555 272.816 437.555 273.262 c 437.555
 273.746 437.453 274.105 437.254 274.336 c 437.082 274.563 436.855 274.68
 436.566 274.68 c 436.309 274.68 436.082 274.566 435.879 274.348 c 435.707
 274.129 435.621 273.781 435.621 273.309 c h
441.375 271.973 m 441.148 271.781 440.934 271.645 440.734 271.57 c 440.531
 271.488 440.305 271.449 440.047 271.449 c 439.672 271.449 439.371 271.543
 439.145 271.738 c 438.941 271.93 438.844 272.176 438.844 272.469 c 438.844
 272.645 438.887 272.805 438.973 272.949 c 439.027 273.094 439.129 273.211
 439.273 273.301 c 439.387 273.387 439.531 273.449 439.703 273.496 c 439.816
 273.527 439.988 273.559 440.219 273.582 c 440.734 273.641 441.105 273.711
 441.332 273.793 c 441.332 273.953 l 441.332 274.199 441.277 274.371 441.16
 274.469 c 440.988 274.609 440.762 274.68 440.477 274.68 c 440.188 274.68
 439.973 274.629 439.832 274.527 c 439.688 274.426 439.586 274.25 439.531
 274 c 438.93 274.082 l 438.984 274.328 439.086 274.531 439.23 274.691 c
 439.344 274.848 439.516 274.969 439.746 275.051 c 439.973 275.133 440.246
 275.172 440.563 275.172 c 440.848 275.172 441.09 275.137 441.289 275.063
 c 441.492 274.992 441.633 274.902 441.719 274.797 c 441.805 274.688 441.863
 274.555 441.891 274.391 c 441.922 274.285 441.934 274.102 441.934 273.832
 c 441.934 273.023 l 441.934 272.465 441.949 272.109 441.977 271.961 c 442.008
 271.813 442.051 271.668 442.105 271.531 c 441.504 271.531 l 441.418 271.656
 441.375 271.805 441.375 271.973 c h
441.332 273.32 m 441.105 273.23 440.777 273.156 440.348 273.094 c 440.09
 273.059 439.902 273.02 439.789 272.973 c 439.703 272.926 439.629 272.863
 439.574 272.777 c 439.516 272.688 439.488 272.59 439.488 272.488 c 439.488
 272.328 439.543 272.195 439.66 272.09 c 439.773 271.98 439.961 271.926 
440.219 271.926 c 440.445 271.926 440.648 271.977 440.82 272.074 c 440.988
 272.176 441.117 272.316 441.203 272.496 c 441.289 272.633 441.332 272.832
 441.332 273.102 c h
442.879 271.531 m 442.879 275.094 l 443.395 275.094 l 443.395 274.559 l
 443.539 274.805 443.668 274.973 443.781 275.051 c 443.895 275.133 444.023
 275.172 444.168 275.172 c 444.367 275.172 444.582 275.105 444.813 274.977
 c 444.598 274.422 l 444.453 274.508 444.297 274.551 444.125 274.551 c 444.012
 274.551 443.895 274.512 443.781 274.434 c 443.668 274.352 443.594 274.242
 443.566 274.098 c 443.508 273.883 443.48 273.648 443.48 273.395 c 443.48
 271.531 l h
445.113 270.156 m 445.07 270.723 l 445.184 270.688 445.297 270.672 445.414
 270.672 c 445.527 270.672 445.629 270.695 445.715 270.738 c 445.801 270.781
 445.871 270.844 445.93 270.926 c 445.957 270.984 446.016 271.137 446.102
 271.375 c 446.129 271.406 446.145 271.457 446.145 271.523 c 444.813 275.094
 l 445.457 275.094 l 446.188 273.031 l 446.301 272.77 446.387 272.496 446.445
 272.207 c 446.531 272.488 446.617 272.758 446.699 273.02 c 447.473 275.094
 l 448.074 275.094 l 446.699 271.469 l 446.559 271.074 446.457 270.805 446.402
 270.66 c 446.285 270.461 446.156 270.316 446.016 270.219 c 445.871 270.125
 445.699 270.078 445.5 270.078 c 445.383 270.078 445.254 270.105 445.113
 270.156 c h
445.113 270.156 m f
  Q
Q
Q Q
showpage
%%Trailer
end restore
%%EOF
