%!PS-Adobe-3.0 EPSF-3.0
%%Creator: MATLAB, The MathWorks, Inc. Version 8.2.0.701 (R2013b). Operating System: Microsoft Windows 8.
%%Title: .\add1.eps
%%CreationDate: 05/17/2016  17:29:17
%%DocumentNeededFonts: Helvetica
%%DocumentProcessColors: Cyan Magenta Yellow Black
%%LanguageLevel: 2
%%Pages: 1
%%BoundingBox:  -304    59   908   786
%%EndComments

%%BeginProlog
% MathWorks dictionary
/MathWorks 160 dict begin
% definition operators
/bdef {bind def} bind def
/ldef {load def} bind def
/xdef {exch def} bdef
/xstore {exch store} bdef
% operator abbreviations
/c  /clip ldef
/cc /concat ldef
/cp /closepath ldef
/gr /grestore ldef
/gs /gsave ldef
/mt /moveto ldef
/np /newpath ldef
/cm /currentmatrix ldef
/sm /setmatrix ldef
/rm /rmoveto ldef
/rl /rlineto ldef
/s {show newpath} bdef
/sc {setcmykcolor} bdef
/sr /setrgbcolor ldef
/sg /setgray ldef
/w /setlinewidth ldef
/j /setlinejoin ldef
/cap /setlinecap ldef
/rc {rectclip} bdef
/rf {rectfill} bdef
% page state control
/pgsv () def
/bpage {/pgsv save def} bdef
/epage {pgsv restore} bdef
/bplot /gsave ldef
/eplot {stroke grestore} bdef
% orientation switch
/portraitMode 0 def /landscapeMode 1 def /rotateMode 2 def
% coordinate system mappings
/dpi2point 0 def
% font control
/FontSize 0 def
/FMS {/FontSize xstore findfont [FontSize 0 0 FontSize neg 0 0]
  makefont setfont} bdef
/ISOLatin1Encoding where {pop /WindowsLatin1Encoding 256 array bdef
ISOLatin1Encoding WindowsLatin1Encoding copy pop
/.notdef/.notdef/quotesinglbase/florin/quotedblbase/ellipsis/dagger
/daggerdbl/circumflex/perthousand/Scaron/guilsinglleft/OE/.notdef/.notdef
/.notdef/.notdef/quoteleft/quoteright/quotedblleft/quotedblright/bullet
/endash/emdash/tilde/trademark/scaron/guilsinglright/oe/.notdef/.notdef
/Ydieresis WindowsLatin1Encoding 128 32 getinterval astore pop}
{/WindowsLatin1Encoding StandardEncoding bdef} ifelse
/reencode {exch dup where {pop load} {pop StandardEncoding} ifelse
  exch dup 3 1 roll findfont dup length dict begin
  { 1 index /FID ne {def}{pop pop} ifelse } forall
  /Encoding exch def currentdict end definefont pop} bdef
/isroman {findfont /CharStrings get /Agrave known} bdef
/FMSR {3 1 roll 1 index dup isroman {reencode} {pop pop} ifelse
  exch FMS} bdef
/csm {1 dpi2point div -1 dpi2point div scale neg translate
 dup landscapeMode eq {pop -90 rotate}
  {rotateMode eq {90 rotate} if} ifelse} bdef
% line types: solid, dotted, dashed, dotdash
/SO { [] 0 setdash } bdef
/DO { [.5 dpi2point mul 4 dpi2point mul] 0 setdash } bdef
/DA { [6 dpi2point mul] 0 setdash } bdef
/DD { [.5 dpi2point mul 4 dpi2point mul 6 dpi2point mul 4
  dpi2point mul] 0 setdash } bdef
% macros for lines and objects
/L {lineto stroke} bdef
/MP {3 1 roll moveto 1 sub {rlineto} repeat} bdef
/AP {{rlineto} repeat} bdef
/PDlw -1 def
/W {/PDlw currentlinewidth def setlinewidth} def
/PP {closepath eofill} bdef
/DP {closepath stroke} bdef
/MR {4 -2 roll moveto dup  0 exch rlineto exch 0 rlineto
  neg 0 exch rlineto closepath} bdef
/FR {MR stroke} bdef
/PR {MR fill} bdef
/L1i {{currentfile picstr readhexstring pop} image} bdef
/tMatrix matrix def
/MakeOval {newpath tMatrix currentmatrix pop translate scale
0 0 1 0 360 arc tMatrix setmatrix} bdef
/FO {MakeOval stroke} bdef
/PO {MakeOval fill} bdef
/PD {currentlinewidth 2 div 0 360 arc fill
   PDlw -1 eq not {PDlw w /PDlw -1 def} if} def
/FA {newpath tMatrix currentmatrix pop translate scale
  0 0 1 5 -2 roll arc tMatrix setmatrix stroke} bdef
/PA {newpath tMatrix currentmatrix pop	translate 0 0 moveto scale
  0 0 1 5 -2 roll arc closepath tMatrix setmatrix fill} bdef
/FAn {newpath tMatrix currentmatrix pop translate scale
  0 0 1 5 -2 roll arcn tMatrix setmatrix stroke} bdef
/PAn {newpath tMatrix currentmatrix pop translate 0 0 moveto scale
  0 0 1 5 -2 roll arcn closepath tMatrix setmatrix fill} bdef
/vradius 0 def /hradius 0 def /lry 0 def
/lrx 0 def /uly 0 def /ulx 0 def /rad 0 def
/MRR {/vradius xdef /hradius xdef /lry xdef /lrx xdef /uly xdef
  /ulx xdef newpath tMatrix currentmatrix pop ulx hradius add uly
  vradius add translate hradius vradius scale 0 0 1 180 270 arc 
  tMatrix setmatrix lrx hradius sub uly vradius add translate
  hradius vradius scale 0 0 1 270 360 arc tMatrix setmatrix
  lrx hradius sub lry vradius sub translate hradius vradius scale
  0 0 1 0 90 arc tMatrix setmatrix ulx hradius add lry vradius sub
  translate hradius vradius scale 0 0 1 90 180 arc tMatrix setmatrix
  closepath} bdef
/FRR {MRR stroke } bdef
/PRR {MRR fill } bdef
/MlrRR {/lry xdef /lrx xdef /uly xdef /ulx xdef /rad lry uly sub 2 div def
  newpath tMatrix currentmatrix pop ulx rad add uly rad add translate
  rad rad scale 0 0 1 90 270 arc tMatrix setmatrix lrx rad sub lry rad
  sub translate rad rad scale 0 0 1 270 90 arc tMatrix setmatrix
  closepath} bdef
/FlrRR {MlrRR stroke } bdef
/PlrRR {MlrRR fill } bdef
/MtbRR {/lry xdef /lrx xdef /uly xdef /ulx xdef /rad lrx ulx sub 2 div def
  newpath tMatrix currentmatrix pop ulx rad add uly rad add translate
  rad rad scale 0 0 1 180 360 arc tMatrix setmatrix lrx rad sub lry rad
  sub translate rad rad scale 0 0 1 0 180 arc tMatrix setmatrix
  closepath} bdef
/FtbRR {MtbRR stroke } bdef
/PtbRR {MtbRR fill } bdef
/stri 6 array def /dtri 6 array def
/smat 6 array def /dmat 6 array def
/tmat1 6 array def /tmat2 6 array def /dif 3 array def
/asub {/ind2 exch def /ind1 exch def dup dup
  ind1 get exch ind2 get sub exch } bdef
/tri_to_matrix {
  2 0 asub 3 1 asub 4 0 asub 5 1 asub
  dup 0 get exch 1 get 7 -1 roll astore } bdef
/compute_transform {
  dmat dtri tri_to_matrix tmat1 invertmatrix 
  smat stri tri_to_matrix tmat2 concatmatrix } bdef
/ds {stri astore pop} bdef
/dt {dtri astore pop} bdef
/db {2 copy /cols xdef /rows xdef mul dup 3 mul string
  currentfile 
  3 index 0 eq {/ASCIIHexDecode filter}
  {/ASCII85Decode filter 3 index 2 eq {/RunLengthDecode filter} if }
  ifelse exch readstring pop
  dup 0 3 index getinterval /rbmap xdef
  dup 2 index dup getinterval /gbmap xdef
  1 index dup 2 mul exch getinterval /bbmap xdef pop pop}bdef
/it {gs np dtri aload pop moveto lineto lineto cp c
  cols rows 8 compute_transform 
  rbmap gbmap bbmap true 3 colorimage gr}bdef
/il {newpath moveto lineto stroke}bdef
currentdict end def
%%EndProlog

%%BeginSetup
MathWorks begin

0 cap

end
%%EndSetup

%%Page: 1 1
%%BeginPageSetup
%%PageBoundingBox:  -304    59   908   786
MathWorks begin
bpage
%%EndPageSetup

%%BeginObject: obj1
bplot

/dpi2point 12 def
portraitMode -5064 9384 csm

 1413   -48 14554  8719 rc
94 dict begin %Colortable dictionary
/c0 { 0.000000 0.000000 0.000000 sr} bdef
/c1 { 1.000000 1.000000 1.000000 sr} bdef
/c2 { 0.900000 0.000000 0.000000 sr} bdef
/c3 { 0.000000 0.820000 0.000000 sr} bdef
/c4 { 0.000000 0.000000 0.800000 sr} bdef
/c5 { 0.910000 0.820000 0.320000 sr} bdef
/c6 { 1.000000 0.260000 0.820000 sr} bdef
/c7 { 0.000000 0.820000 0.820000 sr} bdef
c0
1 j
1 sg
   0    0 17295 8672 rf
6 w
0 6625 13403 0 0 -6625 2248 7673 4 MP
PP
-13403 0 0 6625 13403 0 0 -6625 2248 7673 5 MP stroke
4 w
DO
0 sg
2248 7673 mt 2248 1048 L
2248 1048 mt 2248 1048 L
3923 7673 mt 3923 1048 L
3923 1048 mt 3923 1048 L
5598 7673 mt 5598 1048 L
5598 1048 mt 5598 1048 L
7274 7673 mt 7274 1048 L
7274 1048 mt 7274 1048 L
8949 7673 mt 8949 1048 L
8949 1048 mt 8949 1048 L
10624 7673 mt 10624 1048 L
10624 1048 mt 10624 1048 L
12300 7673 mt 12300 1048 L
12300 1048 mt 12300 1048 L
13975 7673 mt 13975 1048 L
13975 1048 mt 13975 1048 L
15651 7673 mt 15651 1048 L
15651 1048 mt 15651 1048 L
2248 7673 mt 15651 7673 L
15651 7673 mt 15651 7673 L
2248 6016 mt 15651 6016 L
15651 6016 mt 15651 6016 L
2248 4360 mt 15651 4360 L
15651 4360 mt 15651 4360 L
2248 2704 mt 15651 2704 L
15651 2704 mt 15651 2704 L
2248 1048 mt 15651 1048 L
15651 1048 mt 15651 1048 L
SO
6 w
2248 1048 mt 15651 1048 L
2248 7673 mt 15651 7673 L
15651 7673 mt 15651 1048 L
2248 7673 mt 2248 1048 L
2248 7673 mt 15651 7673 L
2248 7673 mt 2248 1048 L
2248 7673 mt 2248 7538 L
2248 1048 mt 2248 1182 L
%%IncludeResource: font Helvetica
/Helvetica /WindowsLatin1Encoding 480 FMSR

1982 8153 mt 
(10) s
3923 7673 mt 3923 7538 L
3923 1048 mt 3923 1182 L
3657 8153 mt 
(20) s
5598 7673 mt 5598 7538 L
5598 1048 mt 5598 1182 L
5332 8153 mt 
(30) s
7274 7673 mt 7274 7538 L
7274 1048 mt 7274 1182 L
7008 8153 mt 
(40) s
8949 7673 mt 8949 7538 L
8949 1048 mt 8949 1182 L
8683 8153 mt 
(50) s
10624 7673 mt 10624 7538 L
10624 1048 mt 10624 1182 L
10358 8153 mt 
(60) s
12300 7673 mt 12300 7538 L
12300 1048 mt 12300 1182 L
12034 8153 mt 
(70) s
13975 7673 mt 13975 7538 L
13975 1048 mt 13975 1182 L
13709 8153 mt 
(80) s
15651 7673 mt 15651 7538 L
15651 1048 mt 15651 1182 L
15385 8153 mt 
(90) s
2248 7673 mt 2382 7673 L
15651 7673 mt 15516 7673 L
1947 7851 mt 
(0) s
2248 6016 mt 2382 6016 L
15651 6016 mt 15516 6016 L
1680 6194 mt 
(50) s
2248 4360 mt 2382 4360 L
15651 4360 mt 15516 4360 L
1413 4538 mt 
(100) s
2248 2704 mt 2382 2704 L
15651 2704 mt 15516 2704 L
1413 2882 mt 
(150) s
2248 1048 mt 2382 1048 L
15651 1048 mt 15516 1048 L
1413 1226 mt 
(200) s
2248 1048 mt 15651 1048 L
2248 7673 mt 15651 7673 L
15651 7673 mt 15651 1048 L
2248 7673 mt 2248 1048 L
gs 2248 1048 13404 6626 rc
36 w
/c8 { 0.000000 0.000000 1.000000 sr} bdef
c8
1676 -59 1675 -43 1676 176 1675 94 1675 -152 1676 108 1675 300 1675 127 
2248 5903 9 MP stroke
gr

36 w
c8
gs 2030 5685 13840 1090 rc
  90   90 2248 5903 FO
  90   90 3923 6030 FO
  90   90 5598 6330 FO
  90   90 7274 6438 FO
  90   90 8949 6286 FO
  90   90 10624 6380 FO
  90   90 12300 6556 FO
  90   90 13975 6513 FO
  90   90 15651 6454 FO
gr

gs 2248 1048 13404 6626 rc
DO
/c9 { 1.000000 0.000000 0.000000 sr} bdef
c9
1676 357 1675 -795 1676 1174 1675 -431 1675 -111 1676 -175 1675 641 1675 749 
2248 3718 9 MP stroke
gr

c9
DO
gs 2030 3500 13840 2284 rc
SO
0 j
104 179 -208 0 104 -179 2248 3837 4 MP
DP
104 179 -208 0 104 -179 3923 4586 4 MP
DP
104 179 -208 0 104 -179 5598 5227 4 MP
DP
104 179 -208 0 104 -179 7274 5052 4 MP
DP
104 179 -208 0 104 -179 8949 4941 4 MP
DP
104 179 -208 0 104 -179 10624 4510 4 MP
DP
104 179 -208 0 104 -179 12300 5684 4 MP
DP
104 179 -208 0 104 -179 13975 4889 4 MP
DP
104 179 -208 0 104 -179 15651 5246 4 MP
DP
DO
gr

gs 2248 1048 13404 6626 rc
DD
/c10 { 0.000000 1.000000 0.000000 sr} bdef
c10
1676 26 1675 -4 1676 16 1675 42 1675 -4 1676 34 1675 1 1675 48 
2248 7150 9 MP stroke
gr

c10
DD
gs 2030 6932 13840 596 rc
SO
2185 7087 mt 2311 7213 L
2311 7087 mt 2185 7213 L
3860 7135 mt 3986 7261 L
3986 7135 mt 3860 7261 L
5535 7136 mt 5661 7262 L
5661 7136 mt 5535 7262 L
7211 7170 mt 7337 7296 L
7337 7170 mt 7211 7296 L
8886 7166 mt 9012 7292 L
9012 7166 mt 8886 7292 L
10561 7208 mt 10687 7334 L
10687 7208 mt 10561 7334 L
12237 7224 mt 12363 7350 L
12363 7224 mt 12237 7350 L
13912 7220 mt 14038 7346 L
14038 7220 mt 13912 7346 L
15588 7246 mt 15714 7372 L
15714 7246 mt 15588 7372 L
DD
gr

gs 2248 1048 13404 6626 rc
DA
/c11 { 0.000000 0.000000 0.172414 sr} bdef
c11
1676 -83 1675 131 1676 -45 1675 -11 1675 76 1676 243 1675 -181 1675 452 
2248 6431 9 MP stroke
gr

c11
DA
gs 2030 6213 13840 1102 rc
SO
2158 6431 mt 2338 6431 L
2248 6341 mt 2248 6521 L
3833 6883 mt 4013 6883 L
3923 6793 mt 3923 6973 L
5508 6702 mt 5688 6702 L
5598 6612 mt 5598 6792 L
7184 6945 mt 7364 6945 L
7274 6855 mt 7274 7035 L
8859 7021 mt 9039 7021 L
8949 6931 mt 8949 7111 L
10534 7010 mt 10714 7010 L
10624 6920 mt 10624 7100 L
12210 6965 mt 12390 6965 L
12300 6875 mt 12300 7055 L
13885 7096 mt 14065 7096 L
13975 7006 mt 13975 7186 L
15561 7013 mt 15741 7013 L
15651 6923 mt 15651 7103 L
2185 6368 mt 2311 6494 L
2311 6368 mt 2185 6494 L
3860 6820 mt 3986 6946 L
3986 6820 mt 3860 6946 L
5535 6639 mt 5661 6765 L
5661 6639 mt 5535 6765 L
7211 6882 mt 7337 7008 L
7337 6882 mt 7211 7008 L
8886 6958 mt 9012 7084 L
9012 6958 mt 8886 7084 L
10561 6947 mt 10687 7073 L
10687 6947 mt 10561 7073 L
12237 6902 mt 12363 7028 L
12363 6902 mt 12237 7028 L
13912 7033 mt 14038 7159 L
14038 7033 mt 13912 7159 L
15588 6950 mt 15714 7076 L
15714 6950 mt 15588 7076 L
DA
gr

gs 2248 1048 13404 6626 rc
SO
/c12 { 1.000000 0.103448 0.724138 sr} bdef
c12
1676 38 1675 22 1676 38 1675 -62 1675 13 1676 15 1675 -44 1675 48 
2248 7205 9 MP stroke
gr

c12
SO
gs 2030 6957 13840 535 rc
0 j
0 -142 -142 0 0 142 142 0 2177 7134 5 MP
DP
0 -142 -142 0 0 142 142 0 3852 7182 5 MP
DP
0 -142 -142 0 0 142 142 0 5527 7138 5 MP
DP
0 -142 -142 0 0 142 142 0 7203 7153 5 MP
DP
0 -142 -142 0 0 142 142 0 8878 7166 5 MP
DP
0 -142 -142 0 0 142 142 0 10553 7104 5 MP
DP
0 -142 -142 0 0 142 142 0 12229 7142 5 MP
DP
0 -142 -142 0 0 142 142 0 13904 7164 5 MP
DP
0 -142 -142 0 0 142 142 0 15580 7202 5 MP
DP
gr

gs 2248 1048 13404 6626 rc
DO
/c13 { 0.000000 0.344828 0.000000 sr} bdef
c13
1676 132 1675 451 1676 -75 1675 84 1675 125 1676 -157 1675 357 1675 152 
2248 5990 9 MP stroke
gr

c13
DO
gs 2030 5772 13840 1506 rc
SO
0 j
90 119 -90 119 -90 -119 90 -119 2248 6109 5 MP
DP
90 119 -90 119 -90 -119 90 -119 3923 6261 5 MP
DP
90 119 -90 119 -90 -119 90 -119 5598 6618 5 MP
DP
90 119 -90 119 -90 -119 90 -119 7274 6461 5 MP
DP
90 119 -90 119 -90 -119 90 -119 8949 6586 5 MP
DP
90 119 -90 119 -90 -119 90 -119 10624 6670 5 MP
DP
90 119 -90 119 -90 -119 90 -119 12300 6595 5 MP
DP
90 119 -90 119 -90 -119 90 -119 13975 7046 5 MP
DP
90 119 -90 119 -90 -119 90 -119 15651 7178 5 MP
DP
DO
gr

gs 2248 1048 13404 6626 rc
DD
1676 -154 1675 -423 1676 189 1675 174 1675 463 1676 869 1675 643 1675 1318 
2248 2651 9 MP stroke
gr

DD
gs 2030 2433 13840 4093 rc
SO
60 W
2248 2651 PD
60 W
3923 3969 PD
60 W
5598 4612 PD
60 W
7274 5481 PD
60 W
8949 5944 PD
60 W
10624 6118 PD
60 W
12300 6307 PD
60 W
13975 5884 PD
60 W
15651 5730 PD
DD
gr

gs 2248 1048 13404 6626 rc
DA
/c14 { 0.517241 0.517241 1.000000 sr} bdef
c14
1676 40 1675 -44 1676 350 1675 -78 1675 21 1676 466 1675 45 1675 -79 
2248 5899 9 MP stroke
gr

c14
DA
gs 2030 5602 13840 1241 rc
SO
0 j
-104 179 -104 -179 208 0 2144 5959 4 MP
DP
-104 179 -104 -179 208 0 3819 5880 4 MP
DP
-104 179 -104 -179 208 0 5494 5925 4 MP
DP
-104 179 -104 -179 208 0 7170 6391 4 MP
DP
-104 179 -104 -179 208 0 8845 6412 4 MP
DP
-104 179 -104 -179 208 0 10520 6334 4 MP
DP
-104 179 -104 -179 208 0 12196 6684 4 MP
DP
-104 179 -104 -179 208 0 13871 6640 4 MP
DP
-104 179 -104 -179 208 0 15547 6680 4 MP
DP
DA
gr

gs 2248 1048 13404 6626 rc
SO
/c15 { 0.620690 0.310345 0.275862 sr} bdef
c15
1676 -2207 1675 477 1676 -279 1675 295 1675 714 1676 62 1675 646 1675 895 
2248 3053 9 MP stroke
gr

c15
SO
gs 2030 2835 13840 3247 rc
0 j
-179 104 0 -208 179 104 2129 3053 4 MP
DP
-179 104 0 -208 179 104 3804 3948 4 MP
DP
-179 104 0 -208 179 104 5479 4594 4 MP
DP
-179 104 0 -208 179 104 7155 4656 4 MP
DP
-179 104 0 -208 179 104 8830 5370 4 MP
DP
-179 104 0 -208 179 104 10505 5665 4 MP
DP
-179 104 0 -208 179 104 12181 5386 4 MP
DP
-179 104 0 -208 179 104 13856 5863 4 MP
DP
-179 104 0 -208 179 104 15532 3656 4 MP
DP
gr

gs 2248 1048 13404 6626 rc
DO
/c16 { 0.000000 1.000000 0.758621 sr} bdef
c16
1676 522 1675 -510 1676 49 1675 451 1675 -418 1676 734 1675 -36 1675 79 
2248 5969 9 MP stroke
gr

c16
DO
gs 2030 5751 13840 1308 rc
SO
0 j
0 208 -179 -104 179 -104 2188 6073 4 MP
DP
0 208 -179 -104 179 -104 3863 6152 4 MP
DP
0 208 -179 -104 179 -104 5538 6116 4 MP
DP
0 208 -179 -104 179 -104 7214 6850 4 MP
DP
0 208 -179 -104 179 -104 8889 6432 4 MP
DP
0 208 -179 -104 179 -104 10564 6883 4 MP
DP
0 208 -179 -104 179 -104 12240 6932 4 MP
DP
0 208 -179 -104 179 -104 13915 6422 4 MP
DP
0 208 -179 -104 179 -104 15591 6944 4 MP
DP
DO
gr

gs 2248 1048 13404 6626 rc
SO
/c17 { 0.000000 0.517241 0.586207 sr} bdef
c17
1676 57 1675 173 1676 406 1675 634 1675 -1268 1676 1949 1675 577 1675 -362 
2248 3902 9 MP stroke
gr

c17
SO
gs 2030 3322 13840 2965 rc
0 j
-51 -39 18 -61 -53 36 -52 -36 18 61 -51 39 64 0 21 62 
22 -62 64 0 2162 3874 11 MP
DP
-51 -39 18 -61 -53 36 -52 -36 18 61 -51 39 64 0 21 62 
22 -62 64 0 3837 3512 11 MP
DP
-51 -39 18 -61 -53 36 -52 -36 18 61 -51 39 64 0 21 62 
22 -62 64 0 5512 4089 11 MP
DP
-51 -39 18 -61 -53 36 -52 -36 18 61 -51 39 64 0 21 62 
22 -62 64 0 7188 6038 11 MP
DP
-51 -39 18 -61 -53 36 -52 -36 18 61 -51 39 64 0 21 62 
22 -62 64 0 8863 4770 11 MP
DP
-51 -39 18 -61 -53 36 -52 -36 18 61 -51 39 64 0 21 62 
22 -62 64 0 10538 5404 11 MP
DP
-51 -39 18 -61 -53 36 -52 -36 18 61 -51 39 64 0 21 62 
22 -62 64 0 12214 5810 11 MP
DP
-51 -39 18 -61 -53 36 -52 -36 18 61 -51 39 64 0 21 62 
22 -62 64 0 13889 5983 11 MP
DP
-51 -39 18 -61 -53 36 -52 -36 18 61 -51 39 64 0 21 62 
22 -62 64 0 15565 6040 11 MP
DP
gr

gs 2248 1048 13404 6626 rc
DO
/c18 { 0.000000 0.000000 0.482759 sr} bdef
c18
1676 226 1675 -411 1676 634 1675 -385 1675 -362 1676 1294 1675 1273 1675 -31 
2248 2750 9 MP stroke
gr

c18
DO
gs 2030 2501 13840 3004 rc
SO
0 j
-32 -45 32 -45 -52 0 -25 -45 -25 45 -52 0 32 45 -32 45 
52 0 25 45 25 -45 52 0 2171 2705 13 MP
DP
-32 -45 32 -45 -52 0 -25 -45 -25 45 -52 0 32 45 -32 45 
52 0 25 45 25 -45 52 0 3846 2674 13 MP
DP
-32 -45 32 -45 -52 0 -25 -45 -25 45 -52 0 32 45 -32 45 
52 0 25 45 25 -45 52 0 5521 3947 13 MP
DP
-32 -45 32 -45 -52 0 -25 -45 -25 45 -52 0 32 45 -32 45 
52 0 25 45 25 -45 52 0 7197 5241 13 MP
DP
-32 -45 32 -45 -52 0 -25 -45 -25 45 -52 0 32 45 -32 45 
52 0 25 45 25 -45 52 0 8872 4879 13 MP
DP
-32 -45 32 -45 -52 0 -25 -45 -25 45 -52 0 32 45 -32 45 
52 0 25 45 25 -45 52 0 10547 4494 13 MP
DP
-32 -45 32 -45 -52 0 -25 -45 -25 45 -52 0 32 45 -32 45 
52 0 25 45 25 -45 52 0 12223 5128 13 MP
DP
-32 -45 32 -45 -52 0 -25 -45 -25 45 -52 0 32 45 -32 45 
52 0 25 45 25 -45 52 0 13898 4717 13 MP
DP
-32 -45 32 -45 -52 0 -25 -45 -25 45 -52 0 32 45 -32 45 
52 0 25 45 25 -45 52 0 15574 4943 13 MP
DP
DO
gr

gs 2248 1048 13404 6626 rc
gr

0 sg
4587  446 mt 
(Generations to reach feasible region \(D) s
%%IncludeResource: font Helvetica
/Helvetica /WindowsLatin1Encoding 384 FMSR

12935  686 mt 
(g) s
%%IncludeResource: font Helvetica
/Helvetica /WindowsLatin1Encoding 480 FMSR

13148  446 mt 
(\)) s
7214 8561 mt 
(Elements added) s
SO
6 w

end %%Color Dict

eplot
%%EndObject

epage
end

showpage

%%Trailer
%%EOF
