%!PS-Adobe-3.0 EPSF-3.0
%%Creator: MATLAB, The MathWorks, Inc. Version 8.2.0.701 (R2013b). Operating System: Microsoft Windows 8.
%%Title: .\add3.eps
%%CreationDate: 05/17/2016  17:29:18
%%DocumentNeededFonts: Helvetica
%%DocumentProcessColors: Cyan Magenta Yellow Black
%%LanguageLevel: 2
%%Pages: 1
%%BoundingBox:  -293    59   908   786
%%EndComments

%%BeginProlog
% MathWorks dictionary
/MathWorks 160 dict begin
% definition operators
/bdef {bind def} bind def
/ldef {load def} bind def
/xdef {exch def} bdef
/xstore {exch store} bdef
% operator abbreviations
/c  /clip ldef
/cc /concat ldef
/cp /closepath ldef
/gr /grestore ldef
/gs /gsave ldef
/mt /moveto ldef
/np /newpath ldef
/cm /currentmatrix ldef
/sm /setmatrix ldef
/rm /rmoveto ldef
/rl /rlineto ldef
/s {show newpath} bdef
/sc {setcmykcolor} bdef
/sr /setrgbcolor ldef
/sg /setgray ldef
/w /setlinewidth ldef
/j /setlinejoin ldef
/cap /setlinecap ldef
/rc {rectclip} bdef
/rf {rectfill} bdef
% page state control
/pgsv () def
/bpage {/pgsv save def} bdef
/epage {pgsv restore} bdef
/bplot /gsave ldef
/eplot {stroke grestore} bdef
% orientation switch
/portraitMode 0 def /landscapeMode 1 def /rotateMode 2 def
% coordinate system mappings
/dpi2point 0 def
% font control
/FontSize 0 def
/FMS {/FontSize xstore findfont [FontSize 0 0 FontSize neg 0 0]
  makefont setfont} bdef
/ISOLatin1Encoding where {pop /WindowsLatin1Encoding 256 array bdef
ISOLatin1Encoding WindowsLatin1Encoding copy pop
/.notdef/.notdef/quotesinglbase/florin/quotedblbase/ellipsis/dagger
/daggerdbl/circumflex/perthousand/Scaron/guilsinglleft/OE/.notdef/.notdef
/.notdef/.notdef/quoteleft/quoteright/quotedblleft/quotedblright/bullet
/endash/emdash/tilde/trademark/scaron/guilsinglright/oe/.notdef/.notdef
/Ydieresis WindowsLatin1Encoding 128 32 getinterval astore pop}
{/WindowsLatin1Encoding StandardEncoding bdef} ifelse
/reencode {exch dup where {pop load} {pop StandardEncoding} ifelse
  exch dup 3 1 roll findfont dup length dict begin
  { 1 index /FID ne {def}{pop pop} ifelse } forall
  /Encoding exch def currentdict end definefont pop} bdef
/isroman {findfont /CharStrings get /Agrave known} bdef
/FMSR {3 1 roll 1 index dup isroman {reencode} {pop pop} ifelse
  exch FMS} bdef
/csm {1 dpi2point div -1 dpi2point div scale neg translate
 dup landscapeMode eq {pop -90 rotate}
  {rotateMode eq {90 rotate} if} ifelse} bdef
% line types: solid, dotted, dashed, dotdash
/SO { [] 0 setdash } bdef
/DO { [.5 dpi2point mul 4 dpi2point mul] 0 setdash } bdef
/DA { [6 dpi2point mul] 0 setdash } bdef
/DD { [.5 dpi2point mul 4 dpi2point mul 6 dpi2point mul 4
  dpi2point mul] 0 setdash } bdef
% macros for lines and objects
/L {lineto stroke} bdef
/MP {3 1 roll moveto 1 sub {rlineto} repeat} bdef
/AP {{rlineto} repeat} bdef
/PDlw -1 def
/W {/PDlw currentlinewidth def setlinewidth} def
/PP {closepath eofill} bdef
/DP {closepath stroke} bdef
/MR {4 -2 roll moveto dup  0 exch rlineto exch 0 rlineto
  neg 0 exch rlineto closepath} bdef
/FR {MR stroke} bdef
/PR {MR fill} bdef
/L1i {{currentfile picstr readhexstring pop} image} bdef
/tMatrix matrix def
/MakeOval {newpath tMatrix currentmatrix pop translate scale
0 0 1 0 360 arc tMatrix setmatrix} bdef
/FO {MakeOval stroke} bdef
/PO {MakeOval fill} bdef
/PD {currentlinewidth 2 div 0 360 arc fill
   PDlw -1 eq not {PDlw w /PDlw -1 def} if} def
/FA {newpath tMatrix currentmatrix pop translate scale
  0 0 1 5 -2 roll arc tMatrix setmatrix stroke} bdef
/PA {newpath tMatrix currentmatrix pop	translate 0 0 moveto scale
  0 0 1 5 -2 roll arc closepath tMatrix setmatrix fill} bdef
/FAn {newpath tMatrix currentmatrix pop translate scale
  0 0 1 5 -2 roll arcn tMatrix setmatrix stroke} bdef
/PAn {newpath tMatrix currentmatrix pop translate 0 0 moveto scale
  0 0 1 5 -2 roll arcn closepath tMatrix setmatrix fill} bdef
/vradius 0 def /hradius 0 def /lry 0 def
/lrx 0 def /uly 0 def /ulx 0 def /rad 0 def
/MRR {/vradius xdef /hradius xdef /lry xdef /lrx xdef /uly xdef
  /ulx xdef newpath tMatrix currentmatrix pop ulx hradius add uly
  vradius add translate hradius vradius scale 0 0 1 180 270 arc 
  tMatrix setmatrix lrx hradius sub uly vradius add translate
  hradius vradius scale 0 0 1 270 360 arc tMatrix setmatrix
  lrx hradius sub lry vradius sub translate hradius vradius scale
  0 0 1 0 90 arc tMatrix setmatrix ulx hradius add lry vradius sub
  translate hradius vradius scale 0 0 1 90 180 arc tMatrix setmatrix
  closepath} bdef
/FRR {MRR stroke } bdef
/PRR {MRR fill } bdef
/MlrRR {/lry xdef /lrx xdef /uly xdef /ulx xdef /rad lry uly sub 2 div def
  newpath tMatrix currentmatrix pop ulx rad add uly rad add translate
  rad rad scale 0 0 1 90 270 arc tMatrix setmatrix lrx rad sub lry rad
  sub translate rad rad scale 0 0 1 270 90 arc tMatrix setmatrix
  closepath} bdef
/FlrRR {MlrRR stroke } bdef
/PlrRR {MlrRR fill } bdef
/MtbRR {/lry xdef /lrx xdef /uly xdef /ulx xdef /rad lrx ulx sub 2 div def
  newpath tMatrix currentmatrix pop ulx rad add uly rad add translate
  rad rad scale 0 0 1 180 360 arc tMatrix setmatrix lrx rad sub lry rad
  sub translate rad rad scale 0 0 1 0 180 arc tMatrix setmatrix
  closepath} bdef
/FtbRR {MtbRR stroke } bdef
/PtbRR {MtbRR fill } bdef
/stri 6 array def /dtri 6 array def
/smat 6 array def /dmat 6 array def
/tmat1 6 array def /tmat2 6 array def /dif 3 array def
/asub {/ind2 exch def /ind1 exch def dup dup
  ind1 get exch ind2 get sub exch } bdef
/tri_to_matrix {
  2 0 asub 3 1 asub 4 0 asub 5 1 asub
  dup 0 get exch 1 get 7 -1 roll astore } bdef
/compute_transform {
  dmat dtri tri_to_matrix tmat1 invertmatrix 
  smat stri tri_to_matrix tmat2 concatmatrix } bdef
/ds {stri astore pop} bdef
/dt {dtri astore pop} bdef
/db {2 copy /cols xdef /rows xdef mul dup 3 mul string
  currentfile 
  3 index 0 eq {/ASCIIHexDecode filter}
  {/ASCII85Decode filter 3 index 2 eq {/RunLengthDecode filter} if }
  ifelse exch readstring pop
  dup 0 3 index getinterval /rbmap xdef
  dup 2 index dup getinterval /gbmap xdef
  1 index dup 2 mul exch getinterval /bbmap xdef pop pop}bdef
/it {gs np dtri aload pop moveto lineto lineto cp c
  cols rows 8 compute_transform 
  rbmap gbmap bbmap true 3 colorimage gr}bdef
/il {newpath moveto lineto stroke}bdef
currentdict end def
%%EndProlog

%%BeginSetup
MathWorks begin

0 cap

end
%%EndSetup

%%Page: 1 1
%%BeginPageSetup
%%PageBoundingBox:  -293    59   908   786
MathWorks begin
bpage
%%EndPageSetup

%%BeginObject: obj1
bplot

/dpi2point 12 def
portraitMode -5064 9384 csm

 1546   -48 14421  8719 rc
94 dict begin %Colortable dictionary
/c0 { 0.000000 0.000000 0.000000 sr} bdef
/c1 { 1.000000 1.000000 1.000000 sr} bdef
/c2 { 0.900000 0.000000 0.000000 sr} bdef
/c3 { 0.000000 0.820000 0.000000 sr} bdef
/c4 { 0.000000 0.000000 0.800000 sr} bdef
/c5 { 0.910000 0.820000 0.320000 sr} bdef
/c6 { 1.000000 0.260000 0.820000 sr} bdef
/c7 { 0.000000 0.820000 0.820000 sr} bdef
c0
1 j
1 sg
   0    0 17295 8672 rf
6 w
0 6625 13403 0 0 -6625 2248 7673 4 MP
PP
-13403 0 0 6625 13403 0 0 -6625 2248 7673 5 MP stroke
4 w
DO
0 sg
2248 7673 mt 2248 1048 L
2248 1048 mt 2248 1048 L
3923 7673 mt 3923 1048 L
3923 1048 mt 3923 1048 L
5598 7673 mt 5598 1048 L
5598 1048 mt 5598 1048 L
7274 7673 mt 7274 1048 L
7274 1048 mt 7274 1048 L
8949 7673 mt 8949 1048 L
8949 1048 mt 8949 1048 L
10624 7673 mt 10624 1048 L
10624 1048 mt 10624 1048 L
12300 7673 mt 12300 1048 L
12300 1048 mt 12300 1048 L
13975 7673 mt 13975 1048 L
13975 1048 mt 13975 1048 L
15651 7673 mt 15651 1048 L
15651 1048 mt 15651 1048 L
2248 7673 mt 15651 7673 L
15651 7673 mt 15651 7673 L
2248 6348 mt 15651 6348 L
15651 6348 mt 15651 6348 L
2248 5023 mt 15651 5023 L
15651 5023 mt 15651 5023 L
2248 3698 mt 15651 3698 L
15651 3698 mt 15651 3698 L
2248 2373 mt 15651 2373 L
15651 2373 mt 15651 2373 L
2248 1048 mt 15651 1048 L
15651 1048 mt 15651 1048 L
SO
6 w
2248 1048 mt 15651 1048 L
2248 7673 mt 15651 7673 L
15651 7673 mt 15651 1048 L
2248 7673 mt 2248 1048 L
2248 7673 mt 15651 7673 L
2248 7673 mt 2248 1048 L
2248 7673 mt 2248 7538 L
2248 1048 mt 2248 1182 L
%%IncludeResource: font Helvetica
/Helvetica /WindowsLatin1Encoding 480 FMSR

1982 8153 mt 
(10) s
3923 7673 mt 3923 7538 L
3923 1048 mt 3923 1182 L
3657 8153 mt 
(20) s
5598 7673 mt 5598 7538 L
5598 1048 mt 5598 1182 L
5332 8153 mt 
(30) s
7274 7673 mt 7274 7538 L
7274 1048 mt 7274 1182 L
7008 8153 mt 
(40) s
8949 7673 mt 8949 7538 L
8949 1048 mt 8949 1182 L
8683 8153 mt 
(50) s
10624 7673 mt 10624 7538 L
10624 1048 mt 10624 1182 L
10358 8153 mt 
(60) s
12300 7673 mt 12300 7538 L
12300 1048 mt 12300 1182 L
12034 8153 mt 
(70) s
13975 7673 mt 13975 7538 L
13975 1048 mt 13975 1182 L
13709 8153 mt 
(80) s
15651 7673 mt 15651 7538 L
15651 1048 mt 15651 1182 L
15385 8153 mt 
(90) s
2248 7673 mt 2382 7673 L
15651 7673 mt 15516 7673 L
1947 7851 mt 
(0) s
2248 6348 mt 2382 6348 L
15651 6348 mt 15516 6348 L
1546 6526 mt 
(0.5) s
2248 5023 mt 2382 5023 L
15651 5023 mt 15516 5023 L
1947 5201 mt 
(1) s
2248 3698 mt 2382 3698 L
15651 3698 mt 15516 3698 L
1546 3876 mt 
(1.5) s
2248 2373 mt 2382 2373 L
15651 2373 mt 15516 2373 L
1947 2551 mt 
(2) s
2248 1048 mt 2382 1048 L
15651 1048 mt 15516 1048 L
1546 1226 mt 
(2.5) s
2248  994 mt 
(x 10) s
%%IncludeResource: font Helvetica
/Helvetica /WindowsLatin1Encoding 320 FMSR

3155  697 mt 
(4) s
2248 1048 mt 15651 1048 L
2248 7673 mt 15651 7673 L
15651 7673 mt 15651 1048 L
2248 7673 mt 2248 1048 L
gs 2248 1048 13404 6626 rc
36 w
/c8 { 0.000000 0.000000 1.000000 sr} bdef
c8
1676 39 1675 -58 1676 77 1675 -28 1675 -20 1676 -6 1675 130 1675 -92 
2248 6631 9 MP stroke
gr

36 w
c8
gs 2030 6321 13840 590 rc
  90   90 2248 6631 FO
  90   90 3923 6539 FO
  90   90 5598 6669 FO
  90   90 7274 6663 FO
  90   90 8949 6643 FO
  90   90 10624 6615 FO
  90   90 12300 6692 FO
  90   90 13975 6634 FO
  90   90 15651 6673 FO
gr

gs 2248 1048 13404 6626 rc
DO
/c9 { 1.000000 0.000000 0.000000 sr} bdef
c9
1676 -89 1675 -364 1676 426 1675 36 1675 -148 1676 47 1675 85 1675 418 
2248 2123 9 MP stroke
gr

c9
DO
gs 2030 1905 13840 1301 rc
SO
0 j
104 179 -208 0 104 -179 2248 2242 4 MP
DP
104 179 -208 0 104 -179 3923 2660 4 MP
DP
104 179 -208 0 104 -179 5598 2745 4 MP
DP
104 179 -208 0 104 -179 7274 2792 4 MP
DP
104 179 -208 0 104 -179 8949 2644 4 MP
DP
104 179 -208 0 104 -179 10624 2680 4 MP
DP
104 179 -208 0 104 -179 12300 3106 4 MP
DP
104 179 -208 0 104 -179 13975 2742 4 MP
DP
104 179 -208 0 104 -179 15651 2653 4 MP
DP
DO
gr

gs 2248 1048 13404 6626 rc
DD
/c10 { 0.000000 1.000000 0.000000 sr} bdef
c10
1676 4 1675 0 1676 -2 1675 3 1675 1 1676 -1 1675 2 1675 -5 
2248 7612 9 MP stroke
gr

c10
DD
gs 2030 7389 13840 444 rc
SO
2185 7549 mt 2311 7675 L
2311 7549 mt 2185 7675 L
3860 7544 mt 3986 7670 L
3986 7544 mt 3860 7670 L
5535 7546 mt 5661 7672 L
5661 7546 mt 5535 7672 L
7211 7545 mt 7337 7671 L
7337 7545 mt 7211 7671 L
8886 7546 mt 9012 7672 L
9012 7546 mt 8886 7672 L
10561 7549 mt 10687 7675 L
10687 7549 mt 10561 7675 L
12237 7547 mt 12363 7673 L
12363 7547 mt 12237 7673 L
13912 7547 mt 14038 7673 L
14038 7547 mt 13912 7673 L
15588 7551 mt 15714 7677 L
15714 7551 mt 15588 7677 L
DD
gr

gs 2248 1048 13404 6626 rc
DA
/c11 { 0.000000 0.000000 0.172414 sr} bdef
c11
1676 -16 1675 20 1676 0 1675 -19 1675 10 1676 37 1675 -41 1675 56 
2248 7403 9 MP stroke
gr

c11
DA
gs 2030 7185 13840 500 rc
SO
2158 7403 mt 2338 7403 L
2248 7313 mt 2248 7493 L
3833 7459 mt 4013 7459 L
3923 7369 mt 3923 7549 L
5508 7418 mt 5688 7418 L
5598 7328 mt 5598 7508 L
7184 7455 mt 7364 7455 L
7274 7365 mt 7274 7545 L
8859 7465 mt 9039 7465 L
8949 7375 mt 8949 7555 L
10534 7446 mt 10714 7446 L
10624 7356 mt 10624 7536 L
12210 7446 mt 12390 7446 L
12300 7356 mt 12300 7536 L
13885 7466 mt 14065 7466 L
13975 7376 mt 13975 7556 L
15561 7450 mt 15741 7450 L
15651 7360 mt 15651 7540 L
2185 7340 mt 2311 7466 L
2311 7340 mt 2185 7466 L
3860 7396 mt 3986 7522 L
3986 7396 mt 3860 7522 L
5535 7355 mt 5661 7481 L
5661 7355 mt 5535 7481 L
7211 7392 mt 7337 7518 L
7337 7392 mt 7211 7518 L
8886 7402 mt 9012 7528 L
9012 7402 mt 8886 7528 L
10561 7383 mt 10687 7509 L
10687 7383 mt 10561 7509 L
12237 7383 mt 12363 7509 L
12363 7383 mt 12237 7509 L
13912 7403 mt 14038 7529 L
14038 7403 mt 13912 7529 L
15588 7387 mt 15714 7513 L
15714 7387 mt 15588 7513 L
DA
gr

gs 2248 1048 13404 6626 rc
SO
/c12 { 1.000000 0.103448 0.724138 sr} bdef
c12
1676 4 1675 0 1676 2 1675 -3 1675 0 1676 2 1675 -3 1675 2 
2248 7652 9 MP stroke
gr

c12
SO
gs 2030 7432 13840 443 rc
0 j
0 -142 -142 0 0 142 142 0 2177 7581 5 MP
DP
0 -142 -142 0 0 142 142 0 3852 7583 5 MP
DP
0 -142 -142 0 0 142 142 0 5527 7580 5 MP
DP
0 -142 -142 0 0 142 142 0 7203 7582 5 MP
DP
0 -142 -142 0 0 142 142 0 8878 7582 5 MP
DP
0 -142 -142 0 0 142 142 0 10553 7579 5 MP
DP
0 -142 -142 0 0 142 142 0 12229 7581 5 MP
DP
0 -142 -142 0 0 142 142 0 13904 7581 5 MP
DP
0 -142 -142 0 0 142 142 0 15580 7585 5 MP
DP
gr

gs 2248 1048 13404 6626 rc
DO
/c13 { 0.000000 0.344828 0.000000 sr} bdef
c13
1676 35 1675 74 1676 15 1675 20 1675 0 1676 -52 1675 6 1675 41 
2248 6956 9 MP stroke
gr

c13
DO
gs 2030 6733 13840 581 rc
SO
0 j
90 119 -90 119 -90 -119 90 -119 2248 7075 5 MP
DP
90 119 -90 119 -90 -119 90 -119 3923 7116 5 MP
DP
90 119 -90 119 -90 -119 90 -119 5598 7122 5 MP
DP
90 119 -90 119 -90 -119 90 -119 7274 7070 5 MP
DP
90 119 -90 119 -90 -119 90 -119 8949 7070 5 MP
DP
90 119 -90 119 -90 -119 90 -119 10624 7090 5 MP
DP
90 119 -90 119 -90 -119 90 -119 12300 7105 5 MP
DP
90 119 -90 119 -90 -119 90 -119 13975 7179 5 MP
DP
90 119 -90 119 -90 -119 90 -119 15651 7214 5 MP
DP
DO
gr

gs 2248 1048 13404 6626 rc
DD
1676 338 1675 -571 1676 199 1675 81 1675 -70 1676 357 1675 279 1675 65 
2248 4034 9 MP stroke
gr

DD
gs 2030 3816 13840 1348 rc
SO
60 W
2248 4034 PD
60 W
3923 4099 PD
60 W
5598 4378 PD
60 W
7274 4735 PD
60 W
8949 4665 PD
60 W
10624 4746 PD
60 W
12300 4945 PD
60 W
13975 4374 PD
60 W
15651 4712 PD
DD
gr

gs 2248 1048 13404 6626 rc
DA
/c14 { 0.517241 0.517241 1.000000 sr} bdef
c14
1676 18 1675 -11 1676 98 1675 -61 1675 -28 1676 109 1675 -77 1675 28 
2248 7014 9 MP stroke
gr

c14
DA
gs 2030 6747 13840 562 rc
SO
0 j
-104 179 -104 -179 208 0 2144 7074 4 MP
DP
-104 179 -104 -179 208 0 3819 7102 4 MP
DP
-104 179 -104 -179 208 0 5494 7025 4 MP
DP
-104 179 -104 -179 208 0 7170 7134 4 MP
DP
-104 179 -104 -179 208 0 8845 7106 4 MP
DP
-104 179 -104 -179 208 0 10520 7045 4 MP
DP
-104 179 -104 -179 208 0 12196 7143 4 MP
DP
-104 179 -104 -179 208 0 13871 7132 4 MP
DP
-104 179 -104 -179 208 0 15547 7150 4 MP
DP
DA
gr

gs 2248 1048 13404 6626 rc
SO
/c15 { 0.620690 0.310345 0.275862 sr} bdef
c15
1676 -911 1675 44 1676 1 1675 -52 1675 283 1676 -207 1675 -82 1675 237 
2248 4813 9 MP stroke
gr

c15
SO
gs 2030 3908 13840 1361 rc
0 j
-179 104 0 -208 179 104 2129 4813 4 MP
DP
-179 104 0 -208 179 104 3804 5050 4 MP
DP
-179 104 0 -208 179 104 5479 4968 4 MP
DP
-179 104 0 -208 179 104 7155 4761 4 MP
DP
-179 104 0 -208 179 104 8830 5044 4 MP
DP
-179 104 0 -208 179 104 10505 4992 4 MP
DP
-179 104 0 -208 179 104 12181 4993 4 MP
DP
-179 104 0 -208 179 104 13856 5037 4 MP
DP
-179 104 0 -208 179 104 15532 4126 4 MP
DP
gr

gs 2248 1048 13404 6626 rc
DO
/c16 { 0.000000 1.000000 0.758621 sr} bdef
c16
1676 136 1675 -143 1676 -3 1675 69 1675 -83 1676 111 1675 10 1675 -35 
2248 7122 9 MP stroke
gr

c16
DO
gs 2030 6830 13840 597 rc
SO
0 j
0 208 -179 -104 179 -104 2188 7226 4 MP
DP
0 208 -179 -104 179 -104 3863 7191 4 MP
DP
0 208 -179 -104 179 -104 5538 7201 4 MP
DP
0 208 -179 -104 179 -104 7214 7312 4 MP
DP
0 208 -179 -104 179 -104 8889 7229 4 MP
DP
0 208 -179 -104 179 -104 10564 7298 4 MP
DP
0 208 -179 -104 179 -104 12240 7295 4 MP
DP
0 208 -179 -104 179 -104 13915 7152 4 MP
DP
0 208 -179 -104 179 -104 15591 7288 4 MP
DP
DO
gr

gs 2248 1048 13404 6626 rc
SO
/c17 { 0.000000 0.517241 0.586207 sr} bdef
c17
1676 116 1675 31 1676 43 1675 191 1675 -361 1676 418 1675 78 1675 -356 
2248 5464 9 MP stroke
gr

c17
SO
gs 2030 4890 13840 953 rc
0 j
-51 -39 18 -61 -53 36 -52 -36 18 61 -51 39 64 0 21 62 
22 -62 64 0 2162 5436 11 MP
DP
-51 -39 18 -61 -53 36 -52 -36 18 61 -51 39 64 0 21 62 
22 -62 64 0 3837 5080 11 MP
DP
-51 -39 18 -61 -53 36 -52 -36 18 61 -51 39 64 0 21 62 
22 -62 64 0 5512 5158 11 MP
DP
-51 -39 18 -61 -53 36 -52 -36 18 61 -51 39 64 0 21 62 
22 -62 64 0 7188 5576 11 MP
DP
-51 -39 18 -61 -53 36 -52 -36 18 61 -51 39 64 0 21 62 
22 -62 64 0 8863 5215 11 MP
DP
-51 -39 18 -61 -53 36 -52 -36 18 61 -51 39 64 0 21 62 
22 -62 64 0 10538 5406 11 MP
DP
-51 -39 18 -61 -53 36 -52 -36 18 61 -51 39 64 0 21 62 
22 -62 64 0 12214 5449 11 MP
DP
-51 -39 18 -61 -53 36 -52 -36 18 61 -51 39 64 0 21 62 
22 -62 64 0 13889 5480 11 MP
DP
-51 -39 18 -61 -53 36 -52 -36 18 61 -51 39 64 0 21 62 
22 -62 64 0 15565 5596 11 MP
DP
gr

gs 2248 1048 13404 6626 rc
DO
/c18 { 0.000000 0.000000 0.482759 sr} bdef
c18
1676 118 1675 -106 1676 245 1675 -327 1675 -130 1676 217 1675 271 1675 -470 
2248 5287 9 MP stroke
gr

c18
DO
gs 2030 4599 13840 925 rc
SO
0 j
-32 -45 32 -45 -52 0 -25 -45 -25 45 -52 0 32 45 -32 45 
52 0 25 45 25 -45 52 0 2171 5242 13 MP
DP
-32 -45 32 -45 -52 0 -25 -45 -25 45 -52 0 32 45 -32 45 
52 0 25 45 25 -45 52 0 3846 4772 13 MP
DP
-32 -45 32 -45 -52 0 -25 -45 -25 45 -52 0 32 45 -32 45 
52 0 25 45 25 -45 52 0 5521 5043 13 MP
DP
-32 -45 32 -45 -52 0 -25 -45 -25 45 -52 0 32 45 -32 45 
52 0 25 45 25 -45 52 0 7197 5260 13 MP
DP
-32 -45 32 -45 -52 0 -25 -45 -25 45 -52 0 32 45 -32 45 
52 0 25 45 25 -45 52 0 8872 5130 13 MP
DP
-32 -45 32 -45 -52 0 -25 -45 -25 45 -52 0 32 45 -32 45 
52 0 25 45 25 -45 52 0 10547 4803 13 MP
DP
-32 -45 32 -45 -52 0 -25 -45 -25 45 -52 0 32 45 -32 45 
52 0 25 45 25 -45 52 0 12223 5048 13 MP
DP
-32 -45 32 -45 -52 0 -25 -45 -25 45 -52 0 32 45 -32 45 
52 0 25 45 25 -45 52 0 13898 4942 13 MP
DP
-32 -45 32 -45 -52 0 -25 -45 -25 45 -52 0 32 45 -32 45 
52 0 25 45 25 -45 52 0 15574 5060 13 MP
DP
DO
gr

gs 2248 1048 13404 6626 rc
gr

0 sg
%%IncludeResource: font Helvetica
/Helvetica /WindowsLatin1Encoding 480 FMSR

3762  446 mt 
(Evaluations to reach feasible region \(D) s
%%IncludeResource: font Helvetica
/Helvetica /WindowsLatin1Encoding 384 FMSR

11969  686 mt 
(e) s
%%IncludeResource: font Helvetica
/Helvetica /WindowsLatin1Encoding 480 FMSR

12182  446 mt 
( feasible\)) s
7214 8561 mt 
(Elements added) s
SO
6 w

end %%Color Dict

eplot
%%EndObject

epage
end

showpage

%%Trailer
%%EOF
