%!PS-Adobe-3.0 EPSF-3.0
%%Creator: MATLAB, The MathWorks, Inc. Version 8.2.0.701 (R2013b). Operating System: Microsoft Windows 8.
%%Title: .\add5.eps
%%CreationDate: 05/17/2016  17:29:19
%%DocumentNeededFonts: Helvetica
%%DocumentProcessColors: Cyan Magenta Yellow Black
%%LanguageLevel: 2
%%Pages: 1
%%BoundingBox:  -283    59   908   786
%%EndComments

%%BeginProlog
% MathWorks dictionary
/MathWorks 160 dict begin
% definition operators
/bdef {bind def} bind def
/ldef {load def} bind def
/xdef {exch def} bdef
/xstore {exch store} bdef
% operator abbreviations
/c  /clip ldef
/cc /concat ldef
/cp /closepath ldef
/gr /grestore ldef
/gs /gsave ldef
/mt /moveto ldef
/np /newpath ldef
/cm /currentmatrix ldef
/sm /setmatrix ldef
/rm /rmoveto ldef
/rl /rlineto ldef
/s {show newpath} bdef
/sc {setcmykcolor} bdef
/sr /setrgbcolor ldef
/sg /setgray ldef
/w /setlinewidth ldef
/j /setlinejoin ldef
/cap /setlinecap ldef
/rc {rectclip} bdef
/rf {rectfill} bdef
% page state control
/pgsv () def
/bpage {/pgsv save def} bdef
/epage {pgsv restore} bdef
/bplot /gsave ldef
/eplot {stroke grestore} bdef
% orientation switch
/portraitMode 0 def /landscapeMode 1 def /rotateMode 2 def
% coordinate system mappings
/dpi2point 0 def
% font control
/FontSize 0 def
/FMS {/FontSize xstore findfont [FontSize 0 0 FontSize neg 0 0]
  makefont setfont} bdef
/ISOLatin1Encoding where {pop /WindowsLatin1Encoding 256 array bdef
ISOLatin1Encoding WindowsLatin1Encoding copy pop
/.notdef/.notdef/quotesinglbase/florin/quotedblbase/ellipsis/dagger
/daggerdbl/circumflex/perthousand/Scaron/guilsinglleft/OE/.notdef/.notdef
/.notdef/.notdef/quoteleft/quoteright/quotedblleft/quotedblright/bullet
/endash/emdash/tilde/trademark/scaron/guilsinglright/oe/.notdef/.notdef
/Ydieresis WindowsLatin1Encoding 128 32 getinterval astore pop}
{/WindowsLatin1Encoding StandardEncoding bdef} ifelse
/reencode {exch dup where {pop load} {pop StandardEncoding} ifelse
  exch dup 3 1 roll findfont dup length dict begin
  { 1 index /FID ne {def}{pop pop} ifelse } forall
  /Encoding exch def currentdict end definefont pop} bdef
/isroman {findfont /CharStrings get /Agrave known} bdef
/FMSR {3 1 roll 1 index dup isroman {reencode} {pop pop} ifelse
  exch FMS} bdef
/csm {1 dpi2point div -1 dpi2point div scale neg translate
 dup landscapeMode eq {pop -90 rotate}
  {rotateMode eq {90 rotate} if} ifelse} bdef
% line types: solid, dotted, dashed, dotdash
/SO { [] 0 setdash } bdef
/DO { [.5 dpi2point mul 4 dpi2point mul] 0 setdash } bdef
/DA { [6 dpi2point mul] 0 setdash } bdef
/DD { [.5 dpi2point mul 4 dpi2point mul 6 dpi2point mul 4
  dpi2point mul] 0 setdash } bdef
% macros for lines and objects
/L {lineto stroke} bdef
/MP {3 1 roll moveto 1 sub {rlineto} repeat} bdef
/AP {{rlineto} repeat} bdef
/PDlw -1 def
/W {/PDlw currentlinewidth def setlinewidth} def
/PP {closepath eofill} bdef
/DP {closepath stroke} bdef
/MR {4 -2 roll moveto dup  0 exch rlineto exch 0 rlineto
  neg 0 exch rlineto closepath} bdef
/FR {MR stroke} bdef
/PR {MR fill} bdef
/L1i {{currentfile picstr readhexstring pop} image} bdef
/tMatrix matrix def
/MakeOval {newpath tMatrix currentmatrix pop translate scale
0 0 1 0 360 arc tMatrix setmatrix} bdef
/FO {MakeOval stroke} bdef
/PO {MakeOval fill} bdef
/PD {currentlinewidth 2 div 0 360 arc fill
   PDlw -1 eq not {PDlw w /PDlw -1 def} if} def
/FA {newpath tMatrix currentmatrix pop translate scale
  0 0 1 5 -2 roll arc tMatrix setmatrix stroke} bdef
/PA {newpath tMatrix currentmatrix pop	translate 0 0 moveto scale
  0 0 1 5 -2 roll arc closepath tMatrix setmatrix fill} bdef
/FAn {newpath tMatrix currentmatrix pop translate scale
  0 0 1 5 -2 roll arcn tMatrix setmatrix stroke} bdef
/PAn {newpath tMatrix currentmatrix pop translate 0 0 moveto scale
  0 0 1 5 -2 roll arcn closepath tMatrix setmatrix fill} bdef
/vradius 0 def /hradius 0 def /lry 0 def
/lrx 0 def /uly 0 def /ulx 0 def /rad 0 def
/MRR {/vradius xdef /hradius xdef /lry xdef /lrx xdef /uly xdef
  /ulx xdef newpath tMatrix currentmatrix pop ulx hradius add uly
  vradius add translate hradius vradius scale 0 0 1 180 270 arc 
  tMatrix setmatrix lrx hradius sub uly vradius add translate
  hradius vradius scale 0 0 1 270 360 arc tMatrix setmatrix
  lrx hradius sub lry vradius sub translate hradius vradius scale
  0 0 1 0 90 arc tMatrix setmatrix ulx hradius add lry vradius sub
  translate hradius vradius scale 0 0 1 90 180 arc tMatrix setmatrix
  closepath} bdef
/FRR {MRR stroke } bdef
/PRR {MRR fill } bdef
/MlrRR {/lry xdef /lrx xdef /uly xdef /ulx xdef /rad lry uly sub 2 div def
  newpath tMatrix currentmatrix pop ulx rad add uly rad add translate
  rad rad scale 0 0 1 90 270 arc tMatrix setmatrix lrx rad sub lry rad
  sub translate rad rad scale 0 0 1 270 90 arc tMatrix setmatrix
  closepath} bdef
/FlrRR {MlrRR stroke } bdef
/PlrRR {MlrRR fill } bdef
/MtbRR {/lry xdef /lrx xdef /uly xdef /ulx xdef /rad lrx ulx sub 2 div def
  newpath tMatrix currentmatrix pop ulx rad add uly rad add translate
  rad rad scale 0 0 1 180 360 arc tMatrix setmatrix lrx rad sub lry rad
  sub translate rad rad scale 0 0 1 0 180 arc tMatrix setmatrix
  closepath} bdef
/FtbRR {MtbRR stroke } bdef
/PtbRR {MtbRR fill } bdef
/stri 6 array def /dtri 6 array def
/smat 6 array def /dmat 6 array def
/tmat1 6 array def /tmat2 6 array def /dif 3 array def
/asub {/ind2 exch def /ind1 exch def dup dup
  ind1 get exch ind2 get sub exch } bdef
/tri_to_matrix {
  2 0 asub 3 1 asub 4 0 asub 5 1 asub
  dup 0 get exch 1 get 7 -1 roll astore } bdef
/compute_transform {
  dmat dtri tri_to_matrix tmat1 invertmatrix 
  smat stri tri_to_matrix tmat2 concatmatrix } bdef
/ds {stri astore pop} bdef
/dt {dtri astore pop} bdef
/db {2 copy /cols xdef /rows xdef mul dup 3 mul string
  currentfile 
  3 index 0 eq {/ASCIIHexDecode filter}
  {/ASCII85Decode filter 3 index 2 eq {/RunLengthDecode filter} if }
  ifelse exch readstring pop
  dup 0 3 index getinterval /rbmap xdef
  dup 2 index dup getinterval /gbmap xdef
  1 index dup 2 mul exch getinterval /bbmap xdef pop pop}bdef
/it {gs np dtri aload pop moveto lineto lineto cp c
  cols rows 8 compute_transform 
  rbmap gbmap bbmap true 3 colorimage gr}bdef
/il {newpath moveto lineto stroke}bdef
currentdict end def
%%EndProlog

%%BeginSetup
MathWorks begin

0 cap

end
%%EndSetup

%%Page: 1 1
%%BeginPageSetup
%%PageBoundingBox:  -283    59   908   786
MathWorks begin
bpage
%%EndPageSetup

%%BeginObject: obj1
bplot

/dpi2point 12 def
portraitMode -5064 9384 csm

 1666   -48 14301  8719 rc
94 dict begin %Colortable dictionary
/c0 { 0.000000 0.000000 0.000000 sr} bdef
/c1 { 1.000000 1.000000 1.000000 sr} bdef
/c2 { 0.900000 0.000000 0.000000 sr} bdef
/c3 { 0.000000 0.820000 0.000000 sr} bdef
/c4 { 0.000000 0.000000 0.800000 sr} bdef
/c5 { 0.910000 0.820000 0.320000 sr} bdef
/c6 { 1.000000 0.260000 0.820000 sr} bdef
/c7 { 0.000000 0.820000 0.820000 sr} bdef
c0
1 j
1 sg
   0    0 17295 8672 rf
6 w
0 6625 13403 0 0 -6625 2248 7673 4 MP
PP
-13403 0 0 6625 13403 0 0 -6625 2248 7673 5 MP stroke
4 w
DO
0 sg
2248 7673 mt 2248 1048 L
2248 1048 mt 2248 1048 L
3923 7673 mt 3923 1048 L
3923 1048 mt 3923 1048 L
5598 7673 mt 5598 1048 L
5598 1048 mt 5598 1048 L
7274 7673 mt 7274 1048 L
7274 1048 mt 7274 1048 L
8949 7673 mt 8949 1048 L
8949 1048 mt 8949 1048 L
10624 7673 mt 10624 1048 L
10624 1048 mt 10624 1048 L
12300 7673 mt 12300 1048 L
12300 1048 mt 12300 1048 L
13975 7673 mt 13975 1048 L
13975 1048 mt 13975 1048 L
15651 7673 mt 15651 1048 L
15651 1048 mt 15651 1048 L
2248 7673 mt 15651 7673 L
15651 7673 mt 15651 7673 L
2248 6016 mt 15651 6016 L
15651 6016 mt 15651 6016 L
2248 4360 mt 15651 4360 L
15651 4360 mt 15651 4360 L
2248 2704 mt 15651 2704 L
15651 2704 mt 15651 2704 L
2248 1048 mt 15651 1048 L
15651 1048 mt 15651 1048 L
SO
6 w
2248 1048 mt 15651 1048 L
2248 7673 mt 15651 7673 L
15651 7673 mt 15651 1048 L
2248 7673 mt 2248 1048 L
2248 7673 mt 15651 7673 L
2248 7673 mt 2248 1048 L
2248 7673 mt 2248 7538 L
2248 1048 mt 2248 1182 L
%%IncludeResource: font Helvetica
/Helvetica /WindowsLatin1Encoding 480 FMSR

1982 8153 mt 
(10) s
3923 7673 mt 3923 7538 L
3923 1048 mt 3923 1182 L
3657 8153 mt 
(20) s
5598 7673 mt 5598 7538 L
5598 1048 mt 5598 1182 L
5332 8153 mt 
(30) s
7274 7673 mt 7274 7538 L
7274 1048 mt 7274 1182 L
7008 8153 mt 
(40) s
8949 7673 mt 8949 7538 L
8949 1048 mt 8949 1182 L
8683 8153 mt 
(50) s
10624 7673 mt 10624 7538 L
10624 1048 mt 10624 1182 L
10358 8153 mt 
(60) s
12300 7673 mt 12300 7538 L
12300 1048 mt 12300 1182 L
12034 8153 mt 
(70) s
13975 7673 mt 13975 7538 L
13975 1048 mt 13975 1182 L
13709 8153 mt 
(80) s
15651 7673 mt 15651 7538 L
15651 1048 mt 15651 1182 L
15385 8153 mt 
(90) s
2248 7673 mt 2382 7673 L
15651 7673 mt 15516 7673 L
1666 7851 mt 
(-6) s
2248 6016 mt 2382 6016 L
15651 6016 mt 15516 6016 L
1666 6194 mt 
(-4) s
2248 4360 mt 2382 4360 L
15651 4360 mt 15516 4360 L
1666 4538 mt 
(-2) s
2248 2704 mt 2382 2704 L
15651 2704 mt 15516 2704 L
1947 2882 mt 
(0) s
2248 1048 mt 2382 1048 L
15651 1048 mt 15516 1048 L
1947 1226 mt 
(2) s
2248 1048 mt 15651 1048 L
2248 7673 mt 15651 7673 L
15651 7673 mt 15651 1048 L
2248 7673 mt 2248 1048 L
gs 2248 1048 13404 6626 rc
36 w
/c8 { 0.000000 0.000000 1.000000 sr} bdef
c8
1676 111 1675 55 1676 83 1675 358 1675 166 1676 580 1675 386 1675 635 
2248 2621 9 MP stroke
gr

36 w
c8
gs 2030 2403 13840 2811 rc
  90   90 2248 2621 FO
  90   90 3923 3256 FO
  90   90 5598 3642 FO
  90   90 7274 4222 FO
  90   90 8949 4388 FO
  90   90 10624 4746 FO
  90   90 12300 4829 FO
  90   90 13975 4884 FO
  90   90 15651 4995 FO
gr

gs 2248 1048 13404 6626 rc
DO
/c9 { 1.000000 0.000000 0.000000 sr} bdef
c9
1676 304 1675 221 1676 497 1675 -111 1675 414 1676 1325 1675 221 1675 1491 
2248 3007 9 MP stroke
gr

c9
DO
gs 2030 2789 13840 4799 rc
SO
0 j
104 179 -208 0 104 -179 2248 3126 4 MP
DP
104 179 -208 0 104 -179 3923 4617 4 MP
DP
104 179 -208 0 104 -179 5598 4838 4 MP
DP
104 179 -208 0 104 -179 7274 6163 4 MP
DP
104 179 -208 0 104 -179 8949 6577 4 MP
DP
104 179 -208 0 104 -179 10624 6466 4 MP
DP
104 179 -208 0 104 -179 12300 6963 4 MP
DP
104 179 -208 0 104 -179 13975 7184 4 MP
DP
104 179 -208 0 104 -179 15651 7488 4 MP
DP
DO
gr

gs 2248 1048 13404 6626 rc
DD
/c10 { 0.000000 1.000000 0.000000 sr} bdef
c10
1676 110 1675 55 1676 -358 1675 165 1675 111 1676 303 1675 -303 1675 0 
2248 3145 9 MP stroke
gr

c10
DD
gs 2030 2624 13840 1016 rc
SO
2185 3082 mt 2311 3208 L
2311 3082 mt 2185 3208 L
3860 3082 mt 3986 3208 L
3986 3082 mt 3860 3208 L
5535 2779 mt 5661 2905 L
5661 2779 mt 5535 2905 L
7211 3082 mt 7337 3208 L
7337 3082 mt 7211 3208 L
8886 3193 mt 9012 3319 L
9012 3193 mt 8886 3319 L
10561 3358 mt 10687 3484 L
10687 3358 mt 10561 3484 L
12237 3000 mt 12363 3126 L
12363 3000 mt 12237 3126 L
13912 3055 mt 14038 3181 L
14038 3055 mt 13912 3181 L
15588 3165 mt 15714 3291 L
15714 3165 mt 15588 3291 L
DD
gr

gs 2248 1048 13404 6626 rc
DA
/c11 { 0.000000 0.000000 0.172414 sr} bdef
c11
1676 110 1675 0 1676 110 1675 83 1675 -55 1676 110 1675 249 1675 -28 
2248 2842 9 MP stroke
gr

c11
DA
gs 2030 2596 13840 1044 rc
SO
2158 2842 mt 2338 2842 L
2248 2752 mt 2248 2932 L
3833 2814 mt 4013 2814 L
3923 2724 mt 3923 2904 L
5508 3063 mt 5688 3063 L
5598 2973 mt 5598 3153 L
7184 3173 mt 7364 3173 L
7274 3083 mt 7274 3263 L
8859 3118 mt 9039 3118 L
8949 3028 mt 8949 3208 L
10534 3201 mt 10714 3201 L
10624 3111 mt 10624 3291 L
12210 3311 mt 12390 3311 L
12300 3221 mt 12300 3401 L
13885 3311 mt 14065 3311 L
13975 3221 mt 13975 3401 L
15561 3421 mt 15741 3421 L
15651 3331 mt 15651 3511 L
2185 2779 mt 2311 2905 L
2311 2779 mt 2185 2905 L
3860 2751 mt 3986 2877 L
3986 2751 mt 3860 2877 L
5535 3000 mt 5661 3126 L
5661 3000 mt 5535 3126 L
7211 3110 mt 7337 3236 L
7337 3110 mt 7211 3236 L
8886 3055 mt 9012 3181 L
9012 3055 mt 8886 3181 L
10561 3138 mt 10687 3264 L
10687 3138 mt 10561 3264 L
12237 3248 mt 12363 3374 L
12363 3248 mt 12237 3374 L
13912 3248 mt 14038 3374 L
14038 3248 mt 13912 3374 L
15588 3358 mt 15714 3484 L
15714 3358 mt 15588 3484 L
DA
gr

gs 2248 1048 13404 6626 rc
SO
/c12 { 1.000000 0.103448 0.724138 sr} bdef
c12
1676 0 1675 0 1676 0 1675 0 1675 0 1676 0 1675 0 1675 0 
2248 2704 9 MP stroke
gr

c12
SO
gs 2030 2486 13840 437 rc
0 j
0 -142 -142 0 0 142 142 0 2177 2633 5 MP
DP
0 -142 -142 0 0 142 142 0 3852 2633 5 MP
DP
0 -142 -142 0 0 142 142 0 5527 2633 5 MP
DP
0 -142 -142 0 0 142 142 0 7203 2633 5 MP
DP
0 -142 -142 0 0 142 142 0 8878 2633 5 MP
DP
0 -142 -142 0 0 142 142 0 10553 2633 5 MP
DP
0 -142 -142 0 0 142 142 0 12229 2633 5 MP
DP
0 -142 -142 0 0 142 142 0 13904 2633 5 MP
DP
0 -142 -142 0 0 142 142 0 15580 2633 5 MP
DP
gr

gs 2248 1048 13404 6626 rc
DO
/c13 { 0.000000 0.344828 0.000000 sr} bdef
c13
1676 359 1675 220 1676 -138 1675 442 1675 -110 1676 -166 1675 138 1675 801 
2248 2869 9 MP stroke
gr

c13
DO
gs 2030 2651 13840 1983 rc
SO
0 j
90 119 -90 119 -90 -119 90 -119 2248 2988 5 MP
DP
90 119 -90 119 -90 -119 90 -119 3923 3789 5 MP
DP
90 119 -90 119 -90 -119 90 -119 5598 3927 5 MP
DP
90 119 -90 119 -90 -119 90 -119 7274 3761 5 MP
DP
90 119 -90 119 -90 -119 90 -119 8949 3651 5 MP
DP
90 119 -90 119 -90 -119 90 -119 10624 4093 5 MP
DP
90 119 -90 119 -90 -119 90 -119 12300 3955 5 MP
DP
90 119 -90 119 -90 -119 90 -119 13975 4175 5 MP
DP
90 119 -90 119 -90 -119 90 -119 15651 4534 5 MP
DP
DO
gr

gs 2248 1048 13404 6626 rc
DD
1676 663 1675 -276 1676 138 1675 248 1675 221 1676 939 1675 165 1675 773 
2248 2428 9 MP stroke
gr

DD
gs 2030 2210 13840 3308 rc
SO
60 W
2248 2428 PD
60 W
3923 3201 PD
60 W
5598 3366 PD
60 W
7274 4305 PD
60 W
8949 4526 PD
60 W
10624 4774 PD
60 W
12300 4912 PD
60 W
13975 4636 PD
60 W
15651 5299 PD
DD
gr

gs 2248 1048 13404 6626 rc
DA
/c14 { 0.517241 0.517241 1.000000 sr} bdef
c14
1676 27 1675 -55 1676 414 1675 -83 1675 0 1676 359 1675 -28 1675 56 
2248 2593 9 MP stroke
gr

c14
DA
gs 2030 2375 13840 1155 rc
SO
0 j
-104 179 -104 -179 208 0 2144 2653 4 MP
DP
-104 179 -104 -179 208 0 3819 2709 4 MP
DP
-104 179 -104 -179 208 0 5494 2681 4 MP
DP
-104 179 -104 -179 208 0 7170 3040 4 MP
DP
-104 179 -104 -179 208 0 8845 3040 4 MP
DP
-104 179 -104 -179 208 0 10520 2957 4 MP
DP
-104 179 -104 -179 208 0 12196 3371 4 MP
DP
-104 179 -104 -179 208 0 13871 3316 4 MP
DP
-104 179 -104 -179 208 0 15547 3343 4 MP
DP
DA
gr

gs 2248 1048 13404 6626 rc
SO
/c15 { 0.620690 0.310345 0.275862 sr} bdef
c15
1676 138 1675 -110 1676 -28 1675 690 1675 -220 1676 276 1675 248 1675 525 
2248 1682 9 MP stroke
gr

c15
SO
gs 2030 1464 13840 1956 rc
0 j
-179 104 0 -208 179 104 2129 1682 4 MP
DP
-179 104 0 -208 179 104 3804 2207 4 MP
DP
-179 104 0 -208 179 104 5479 2455 4 MP
DP
-179 104 0 -208 179 104 7155 2731 4 MP
DP
-179 104 0 -208 179 104 8830 2511 4 MP
DP
-179 104 0 -208 179 104 10505 3201 4 MP
DP
-179 104 0 -208 179 104 12181 3173 4 MP
DP
-179 104 0 -208 179 104 13856 3063 4 MP
DP
-179 104 0 -208 179 104 15532 3201 4 MP
DP
gr

gs 2248 1048 13404 6626 rc
DO
/c16 { 0.000000 1.000000 0.758621 sr} bdef
c16
1676 -138 1675 193 1676 -193 1675 414 1675 -193 1676 27 1675 166 1675 -55 
2248 2676 9 MP stroke
gr

c16
DO
gs 2030 2403 13840 851 rc
SO
0 j
0 208 -179 -104 179 -104 2188 2780 4 MP
DP
0 208 -179 -104 179 -104 3863 2725 4 MP
DP
0 208 -179 -104 179 -104 5538 2891 4 MP
DP
0 208 -179 -104 179 -104 7214 2918 4 MP
DP
0 208 -179 -104 179 -104 8889 2725 4 MP
DP
0 208 -179 -104 179 -104 10564 3139 4 MP
DP
0 208 -179 -104 179 -104 12240 2946 4 MP
DP
0 208 -179 -104 179 -104 13915 3139 4 MP
DP
0 208 -179 -104 179 -104 15591 3001 4 MP
DP
DO
gr

gs 2248 1048 13404 6626 rc
SO
/c17 { 0.000000 0.517241 0.586207 sr} bdef
c17
1676 -55 1675 110 1676 304 1675 -359 1675 497 1676 83 1675 800 1675 -82 
2248 2234 9 MP stroke
gr

c17
SO
gs 2030 1934 13840 1872 rc
0 j
-51 -39 18 -61 -53 36 -52 -36 18 61 -51 39 64 0 21 62 
22 -62 64 0 2162 2206 11 MP
DP
-51 -39 18 -61 -53 36 -52 -36 18 61 -51 39 64 0 21 62 
22 -62 64 0 3837 2124 11 MP
DP
-51 -39 18 -61 -53 36 -52 -36 18 61 -51 39 64 0 21 62 
22 -62 64 0 5512 2924 11 MP
DP
-51 -39 18 -61 -53 36 -52 -36 18 61 -51 39 64 0 21 62 
22 -62 64 0 7188 3007 11 MP
DP
-51 -39 18 -61 -53 36 -52 -36 18 61 -51 39 64 0 21 62 
22 -62 64 0 8863 3504 11 MP
DP
-51 -39 18 -61 -53 36 -52 -36 18 61 -51 39 64 0 21 62 
22 -62 64 0 10538 3145 11 MP
DP
-51 -39 18 -61 -53 36 -52 -36 18 61 -51 39 64 0 21 62 
22 -62 64 0 12214 3449 11 MP
DP
-51 -39 18 -61 -53 36 -52 -36 18 61 -51 39 64 0 21 62 
22 -62 64 0 13889 3559 11 MP
DP
-51 -39 18 -61 -53 36 -52 -36 18 61 -51 39 64 0 21 62 
22 -62 64 0 15565 3504 11 MP
DP
gr

gs 2248 1048 13404 6626 rc
DO
/c18 { 0.000000 0.000000 0.482759 sr} bdef
c18
1676 221 1675 -110 1676 27 1675 28 1675 -111 1676 221 1675 28 1675 193 
2248 2483 9 MP stroke
gr

c18
DO
gs 2030 2265 13840 934 rc
SO
0 j
-32 -45 32 -45 -52 0 -25 -45 -25 45 -52 0 32 45 -32 45 
52 0 25 45 25 -45 52 0 2171 2438 13 MP
DP
-32 -45 32 -45 -52 0 -25 -45 -25 45 -52 0 32 45 -32 45 
52 0 25 45 25 -45 52 0 3846 2631 13 MP
DP
-32 -45 32 -45 -52 0 -25 -45 -25 45 -52 0 32 45 -32 45 
52 0 25 45 25 -45 52 0 5521 2659 13 MP
DP
-32 -45 32 -45 -52 0 -25 -45 -25 45 -52 0 32 45 -32 45 
52 0 25 45 25 -45 52 0 7197 2880 13 MP
DP
-32 -45 32 -45 -52 0 -25 -45 -25 45 -52 0 32 45 -32 45 
52 0 25 45 25 -45 52 0 8872 2769 13 MP
DP
-32 -45 32 -45 -52 0 -25 -45 -25 45 -52 0 32 45 -32 45 
52 0 25 45 25 -45 52 0 10547 2797 13 MP
DP
-32 -45 32 -45 -52 0 -25 -45 -25 45 -52 0 32 45 -32 45 
52 0 25 45 25 -45 52 0 12223 2824 13 MP
DP
-32 -45 32 -45 -52 0 -25 -45 -25 45 -52 0 32 45 -32 45 
52 0 25 45 25 -45 52 0 13898 2714 13 MP
DP
-32 -45 32 -45 -52 0 -25 -45 -25 45 -52 0 32 45 -32 45 
52 0 25 45 25 -45 52 0 15574 2935 13 MP
DP
DO
gr

gs 2248 1048 13404 6626 rc
gr

0 sg
6778  446 mt 
(Solution Quality \(D) s
%%IncludeResource: font Helvetica
/Helvetica /WindowsLatin1Encoding 384 FMSR

10779  686 mt 
(s) s
%%IncludeResource: font Helvetica
/Helvetica /WindowsLatin1Encoding 480 FMSR

10971  446 mt 
(\)) s
7214 8561 mt 
(Elements added) s
SO
6 w

end %%Color Dict

eplot
%%EndObject

epage
end

showpage

%%Trailer
%%EOF
