%!PS-Adobe-3.0 EPSF-3.0
%%Creator: MATLAB, The MathWorks, Inc. Version 8.2.0.701 (R2013b). Operating System: Microsoft Windows 8.
%%Title: .\add7.eps
%%CreationDate: 05/17/2016  17:29:20
%%DocumentNeededFonts: Helvetica
%%DocumentProcessColors: Cyan Magenta Yellow Black
%%LanguageLevel: 2
%%Pages: 1
%%BoundingBox:  -259    59   908   786
%%EndComments

%%BeginProlog
% MathWorks dictionary
/MathWorks 160 dict begin
% definition operators
/bdef {bind def} bind def
/ldef {load def} bind def
/xdef {exch def} bdef
/xstore {exch store} bdef
% operator abbreviations
/c  /clip ldef
/cc /concat ldef
/cp /closepath ldef
/gr /grestore ldef
/gs /gsave ldef
/mt /moveto ldef
/np /newpath ldef
/cm /currentmatrix ldef
/sm /setmatrix ldef
/rm /rmoveto ldef
/rl /rlineto ldef
/s {show newpath} bdef
/sc {setcmykcolor} bdef
/sr /setrgbcolor ldef
/sg /setgray ldef
/w /setlinewidth ldef
/j /setlinejoin ldef
/cap /setlinecap ldef
/rc {rectclip} bdef
/rf {rectfill} bdef
% page state control
/pgsv () def
/bpage {/pgsv save def} bdef
/epage {pgsv restore} bdef
/bplot /gsave ldef
/eplot {stroke grestore} bdef
% orientation switch
/portraitMode 0 def /landscapeMode 1 def /rotateMode 2 def
% coordinate system mappings
/dpi2point 0 def
% font control
/FontSize 0 def
/FMS {/FontSize xstore findfont [FontSize 0 0 FontSize neg 0 0]
  makefont setfont} bdef
/ISOLatin1Encoding where {pop /WindowsLatin1Encoding 256 array bdef
ISOLatin1Encoding WindowsLatin1Encoding copy pop
/.notdef/.notdef/quotesinglbase/florin/quotedblbase/ellipsis/dagger
/daggerdbl/circumflex/perthousand/Scaron/guilsinglleft/OE/.notdef/.notdef
/.notdef/.notdef/quoteleft/quoteright/quotedblleft/quotedblright/bullet
/endash/emdash/tilde/trademark/scaron/guilsinglright/oe/.notdef/.notdef
/Ydieresis WindowsLatin1Encoding 128 32 getinterval astore pop}
{/WindowsLatin1Encoding StandardEncoding bdef} ifelse
/reencode {exch dup where {pop load} {pop StandardEncoding} ifelse
  exch dup 3 1 roll findfont dup length dict begin
  { 1 index /FID ne {def}{pop pop} ifelse } forall
  /Encoding exch def currentdict end definefont pop} bdef
/isroman {findfont /CharStrings get /Agrave known} bdef
/FMSR {3 1 roll 1 index dup isroman {reencode} {pop pop} ifelse
  exch FMS} bdef
/csm {1 dpi2point div -1 dpi2point div scale neg translate
 dup landscapeMode eq {pop -90 rotate}
  {rotateMode eq {90 rotate} if} ifelse} bdef
% line types: solid, dotted, dashed, dotdash
/SO { [] 0 setdash } bdef
/DO { [.5 dpi2point mul 4 dpi2point mul] 0 setdash } bdef
/DA { [6 dpi2point mul] 0 setdash } bdef
/DD { [.5 dpi2point mul 4 dpi2point mul 6 dpi2point mul 4
  dpi2point mul] 0 setdash } bdef
% macros for lines and objects
/L {lineto stroke} bdef
/MP {3 1 roll moveto 1 sub {rlineto} repeat} bdef
/AP {{rlineto} repeat} bdef
/PDlw -1 def
/W {/PDlw currentlinewidth def setlinewidth} def
/PP {closepath eofill} bdef
/DP {closepath stroke} bdef
/MR {4 -2 roll moveto dup  0 exch rlineto exch 0 rlineto
  neg 0 exch rlineto closepath} bdef
/FR {MR stroke} bdef
/PR {MR fill} bdef
/L1i {{currentfile picstr readhexstring pop} image} bdef
/tMatrix matrix def
/MakeOval {newpath tMatrix currentmatrix pop translate scale
0 0 1 0 360 arc tMatrix setmatrix} bdef
/FO {MakeOval stroke} bdef
/PO {MakeOval fill} bdef
/PD {currentlinewidth 2 div 0 360 arc fill
   PDlw -1 eq not {PDlw w /PDlw -1 def} if} def
/FA {newpath tMatrix currentmatrix pop translate scale
  0 0 1 5 -2 roll arc tMatrix setmatrix stroke} bdef
/PA {newpath tMatrix currentmatrix pop	translate 0 0 moveto scale
  0 0 1 5 -2 roll arc closepath tMatrix setmatrix fill} bdef
/FAn {newpath tMatrix currentmatrix pop translate scale
  0 0 1 5 -2 roll arcn tMatrix setmatrix stroke} bdef
/PAn {newpath tMatrix currentmatrix pop translate 0 0 moveto scale
  0 0 1 5 -2 roll arcn closepath tMatrix setmatrix fill} bdef
/vradius 0 def /hradius 0 def /lry 0 def
/lrx 0 def /uly 0 def /ulx 0 def /rad 0 def
/MRR {/vradius xdef /hradius xdef /lry xdef /lrx xdef /uly xdef
  /ulx xdef newpath tMatrix currentmatrix pop ulx hradius add uly
  vradius add translate hradius vradius scale 0 0 1 180 270 arc 
  tMatrix setmatrix lrx hradius sub uly vradius add translate
  hradius vradius scale 0 0 1 270 360 arc tMatrix setmatrix
  lrx hradius sub lry vradius sub translate hradius vradius scale
  0 0 1 0 90 arc tMatrix setmatrix ulx hradius add lry vradius sub
  translate hradius vradius scale 0 0 1 90 180 arc tMatrix setmatrix
  closepath} bdef
/FRR {MRR stroke } bdef
/PRR {MRR fill } bdef
/MlrRR {/lry xdef /lrx xdef /uly xdef /ulx xdef /rad lry uly sub 2 div def
  newpath tMatrix currentmatrix pop ulx rad add uly rad add translate
  rad rad scale 0 0 1 90 270 arc tMatrix setmatrix lrx rad sub lry rad
  sub translate rad rad scale 0 0 1 270 90 arc tMatrix setmatrix
  closepath} bdef
/FlrRR {MlrRR stroke } bdef
/PlrRR {MlrRR fill } bdef
/MtbRR {/lry xdef /lrx xdef /uly xdef /ulx xdef /rad lrx ulx sub 2 div def
  newpath tMatrix currentmatrix pop ulx rad add uly rad add translate
  rad rad scale 0 0 1 180 360 arc tMatrix setmatrix lrx rad sub lry rad
  sub translate rad rad scale 0 0 1 0 180 arc tMatrix setmatrix
  closepath} bdef
/FtbRR {MtbRR stroke } bdef
/PtbRR {MtbRR fill } bdef
/stri 6 array def /dtri 6 array def
/smat 6 array def /dmat 6 array def
/tmat1 6 array def /tmat2 6 array def /dif 3 array def
/asub {/ind2 exch def /ind1 exch def dup dup
  ind1 get exch ind2 get sub exch } bdef
/tri_to_matrix {
  2 0 asub 3 1 asub 4 0 asub 5 1 asub
  dup 0 get exch 1 get 7 -1 roll astore } bdef
/compute_transform {
  dmat dtri tri_to_matrix tmat1 invertmatrix 
  smat stri tri_to_matrix tmat2 concatmatrix } bdef
/ds {stri astore pop} bdef
/dt {dtri astore pop} bdef
/db {2 copy /cols xdef /rows xdef mul dup 3 mul string
  currentfile 
  3 index 0 eq {/ASCIIHexDecode filter}
  {/ASCII85Decode filter 3 index 2 eq {/RunLengthDecode filter} if }
  ifelse exch readstring pop
  dup 0 3 index getinterval /rbmap xdef
  dup 2 index dup getinterval /gbmap xdef
  1 index dup 2 mul exch getinterval /bbmap xdef pop pop}bdef
/it {gs np dtri aload pop moveto lineto lineto cp c
  cols rows 8 compute_transform 
  rbmap gbmap bbmap true 3 colorimage gr}bdef
/il {newpath moveto lineto stroke}bdef
currentdict end def
%%EndProlog

%%BeginSetup
MathWorks begin

0 cap

end
%%EndSetup

%%Page: 1 1
%%BeginPageSetup
%%PageBoundingBox:  -259    59   908   786
MathWorks begin
bpage
%%EndPageSetup

%%BeginObject: obj1
bplot

/dpi2point 12 def
portraitMode -5064 9384 csm

 1947   -48 14020  8719 rc
94 dict begin %Colortable dictionary
/c0 { 0.000000 0.000000 0.000000 sr} bdef
/c1 { 1.000000 1.000000 1.000000 sr} bdef
/c2 { 0.900000 0.000000 0.000000 sr} bdef
/c3 { 0.000000 0.820000 0.000000 sr} bdef
/c4 { 0.000000 0.000000 0.800000 sr} bdef
/c5 { 0.910000 0.820000 0.320000 sr} bdef
/c6 { 1.000000 0.260000 0.820000 sr} bdef
/c7 { 0.000000 0.820000 0.820000 sr} bdef
c0
1 j
1 sg
   0    0 17295 8672 rf
6 w
0 6625 13403 0 0 -6625 2248 7673 4 MP
PP
-13403 0 0 6625 13403 0 0 -6625 2248 7673 5 MP stroke
4 w
DO
0 sg
2248 7673 mt 2248 1048 L
2248 1048 mt 2248 1048 L
3923 7673 mt 3923 1048 L
3923 1048 mt 3923 1048 L
5598 7673 mt 5598 1048 L
5598 1048 mt 5598 1048 L
7274 7673 mt 7274 1048 L
7274 1048 mt 7274 1048 L
8949 7673 mt 8949 1048 L
8949 1048 mt 8949 1048 L
10624 7673 mt 10624 1048 L
10624 1048 mt 10624 1048 L
12300 7673 mt 12300 1048 L
12300 1048 mt 12300 1048 L
13975 7673 mt 13975 1048 L
13975 1048 mt 13975 1048 L
15651 7673 mt 15651 1048 L
15651 1048 mt 15651 1048 L
2248 7673 mt 15651 7673 L
15651 7673 mt 15651 7673 L
2248 6348 mt 15651 6348 L
15651 6348 mt 15651 6348 L
2248 5023 mt 15651 5023 L
15651 5023 mt 15651 5023 L
2248 3698 mt 15651 3698 L
15651 3698 mt 15651 3698 L
2248 2373 mt 15651 2373 L
15651 2373 mt 15651 2373 L
2248 1048 mt 15651 1048 L
15651 1048 mt 15651 1048 L
SO
6 w
2248 1048 mt 15651 1048 L
2248 7673 mt 15651 7673 L
15651 7673 mt 15651 1048 L
2248 7673 mt 2248 1048 L
2248 7673 mt 15651 7673 L
2248 7673 mt 2248 1048 L
2248 7673 mt 2248 7538 L
2248 1048 mt 2248 1182 L
%%IncludeResource: font Helvetica
/Helvetica /WindowsLatin1Encoding 480 FMSR

1982 8153 mt 
(10) s
3923 7673 mt 3923 7538 L
3923 1048 mt 3923 1182 L
3657 8153 mt 
(20) s
5598 7673 mt 5598 7538 L
5598 1048 mt 5598 1182 L
5332 8153 mt 
(30) s
7274 7673 mt 7274 7538 L
7274 1048 mt 7274 1182 L
7008 8153 mt 
(40) s
8949 7673 mt 8949 7538 L
8949 1048 mt 8949 1182 L
8683 8153 mt 
(50) s
10624 7673 mt 10624 7538 L
10624 1048 mt 10624 1182 L
10358 8153 mt 
(60) s
12300 7673 mt 12300 7538 L
12300 1048 mt 12300 1182 L
12034 8153 mt 
(70) s
13975 7673 mt 13975 7538 L
13975 1048 mt 13975 1182 L
13709 8153 mt 
(80) s
15651 7673 mt 15651 7538 L
15651 1048 mt 15651 1182 L
15385 8153 mt 
(90) s
2248 7673 mt 2382 7673 L
15651 7673 mt 15516 7673 L
1947 7851 mt 
(0) s
2248 6348 mt 2382 6348 L
15651 6348 mt 15516 6348 L
1947 6526 mt 
(1) s
2248 5023 mt 2382 5023 L
15651 5023 mt 15516 5023 L
1947 5201 mt 
(2) s
2248 3698 mt 2382 3698 L
15651 3698 mt 15516 3698 L
1947 3876 mt 
(3) s
2248 2373 mt 2382 2373 L
15651 2373 mt 15516 2373 L
1947 2551 mt 
(4) s
2248 1048 mt 2382 1048 L
15651 1048 mt 15516 1048 L
1947 1226 mt 
(5) s
2248  994 mt 
(x 10) s
%%IncludeResource: font Helvetica
/Helvetica /WindowsLatin1Encoding 320 FMSR

3155  697 mt 
(5) s
2248 1048 mt 15651 1048 L
2248 7673 mt 15651 7673 L
15651 7673 mt 15651 1048 L
2248 7673 mt 2248 1048 L
gs 2248 1048 13404 6626 rc
36 w
/c8 { 0.000000 0.000000 1.000000 sr} bdef
c8
1676 -21 1675 68 1676 44 1675 0 1675 63 1676 100 1675 132 1675 159 
2248 4109 9 MP stroke
gr

36 w
c8
gs 2030 3891 13840 1003 rc
  90   90 2248 4109 FO
  90   90 3923 4268 FO
  90   90 5598 4400 FO
  90   90 7274 4500 FO
  90   90 8949 4563 FO
  90   90 10624 4563 FO
  90   90 12300 4607 FO
  90   90 13975 4675 FO
  90   90 15651 4654 FO
gr

gs 2248 1048 13404 6626 rc
DO
/c9 { 1.000000 0.000000 0.000000 sr} bdef
c9
1676 -4 1675 90 1676 147 1675 31 1675 182 1676 78 1675 226 1675 354 
2248 1072 9 MP stroke
gr

c9
DO
gs 2030 854 13840 1545 rc
SO
0 j
104 179 -208 0 104 -179 2248 1191 4 MP
DP
104 179 -208 0 104 -179 3923 1545 4 MP
DP
104 179 -208 0 104 -179 5598 1771 4 MP
DP
104 179 -208 0 104 -179 7274 1849 4 MP
DP
104 179 -208 0 104 -179 8949 2031 4 MP
DP
104 179 -208 0 104 -179 10624 2062 4 MP
DP
104 179 -208 0 104 -179 12300 2209 4 MP
DP
104 179 -208 0 104 -179 13975 2299 4 MP
DP
104 179 -208 0 104 -179 15651 2295 4 MP
DP
DO
gr

gs 2248 1048 13404 6626 rc
DD
/c10 { 0.000000 1.000000 0.000000 sr} bdef
c10
1676 31 1675 -66 1676 33 1675 7 1675 -10 1676 60 1675 40 1675 -8 
2248 6830 9 MP stroke
gr

c10
DD
gs 2030 6604 13840 567 rc
SO
2185 6767 mt 2311 6893 L
2311 6767 mt 2185 6893 L
3860 6759 mt 3986 6885 L
3986 6759 mt 3860 6885 L
5535 6799 mt 5661 6925 L
5661 6799 mt 5535 6925 L
7211 6859 mt 7337 6985 L
7337 6859 mt 7211 6985 L
8886 6849 mt 9012 6975 L
9012 6849 mt 8886 6975 L
10561 6856 mt 10687 6982 L
10687 6856 mt 10561 6982 L
12237 6889 mt 12363 7015 L
12363 6889 mt 12237 7015 L
13912 6823 mt 14038 6949 L
14038 6823 mt 13912 6949 L
15588 6854 mt 15714 6980 L
15714 6854 mt 15588 6980 L
DD
gr

gs 2248 1048 13404 6626 rc
DA
/c11 { 0.000000 0.000000 0.172414 sr} bdef
c11
1676 10 1675 32 1676 -44 1675 19 1675 -6 1676 58 1675 83 1675 -3 
2248 6228 9 MP stroke
gr

c11
DA
gs 2030 6007 13840 591 rc
SO
2158 6228 mt 2338 6228 L
2248 6138 mt 2248 6318 L
3833 6225 mt 4013 6225 L
3923 6135 mt 3923 6315 L
5508 6308 mt 5688 6308 L
5598 6218 mt 5598 6398 L
7184 6366 mt 7364 6366 L
7274 6276 mt 7274 6456 L
8859 6360 mt 9039 6360 L
8949 6270 mt 8949 6450 L
10534 6379 mt 10714 6379 L
10624 6289 mt 10624 6469 L
12210 6335 mt 12390 6335 L
12300 6245 mt 12300 6425 L
13885 6367 mt 14065 6367 L
13975 6277 mt 13975 6457 L
15561 6377 mt 15741 6377 L
15651 6287 mt 15651 6467 L
2185 6165 mt 2311 6291 L
2311 6165 mt 2185 6291 L
3860 6162 mt 3986 6288 L
3986 6162 mt 3860 6288 L
5535 6245 mt 5661 6371 L
5661 6245 mt 5535 6371 L
7211 6303 mt 7337 6429 L
7337 6303 mt 7211 6429 L
8886 6297 mt 9012 6423 L
9012 6297 mt 8886 6423 L
10561 6316 mt 10687 6442 L
10687 6316 mt 10561 6442 L
12237 6272 mt 12363 6398 L
12363 6272 mt 12237 6398 L
13912 6304 mt 14038 6430 L
14038 6304 mt 13912 6430 L
15588 6314 mt 15714 6440 L
15714 6314 mt 15588 6440 L
DA
gr

gs 2248 1048 13404 6626 rc
SO
/c12 { 1.000000 0.103448 0.724138 sr} bdef
c12
1676 3 1675 -9 1676 5 1675 -1 1675 -9 1676 11 1675 3 1675 -6 
2248 7594 9 MP stroke
gr

c12
SO
gs 2030 7370 13840 451 rc
0 j
0 -142 -142 0 0 142 142 0 2177 7523 5 MP
DP
0 -142 -142 0 0 142 142 0 3852 7517 5 MP
DP
0 -142 -142 0 0 142 142 0 5527 7520 5 MP
DP
0 -142 -142 0 0 142 142 0 7203 7531 5 MP
DP
0 -142 -142 0 0 142 142 0 8878 7522 5 MP
DP
0 -142 -142 0 0 142 142 0 10553 7521 5 MP
DP
0 -142 -142 0 0 142 142 0 12229 7526 5 MP
DP
0 -142 -142 0 0 142 142 0 13904 7517 5 MP
DP
0 -142 -142 0 0 142 142 0 15580 7520 5 MP
DP
gr

gs 2248 1048 13404 6626 rc
DO
/c13 { 0.000000 0.344828 0.000000 sr} bdef
c13
1676 -17 1675 15 1676 96 1675 -5 1675 -24 1676 111 1675 98 1675 83 
2248 5795 9 MP stroke
gr

c13
DO
gs 2030 5577 13840 811 rc
SO
0 j
90 119 -90 119 -90 -119 90 -119 2248 5914 5 MP
DP
90 119 -90 119 -90 -119 90 -119 3923 5997 5 MP
DP
90 119 -90 119 -90 -119 90 -119 5598 6095 5 MP
DP
90 119 -90 119 -90 -119 90 -119 7274 6206 5 MP
DP
90 119 -90 119 -90 -119 90 -119 8949 6182 5 MP
DP
90 119 -90 119 -90 -119 90 -119 10624 6177 5 MP
DP
90 119 -90 119 -90 -119 90 -119 12300 6273 5 MP
DP
90 119 -90 119 -90 -119 90 -119 13975 6288 5 MP
DP
90 119 -90 119 -90 -119 90 -119 15651 6271 5 MP
DP
DO
gr

gs 2248 1048 13404 6626 rc
DD
1676 92 1675 52 1676 49 1675 70 1675 10 1676 138 1675 152 1675 246 
2248 4211 9 MP stroke
gr

DD
gs 2030 3993 13840 1246 rc
SO
60 W
2248 4211 PD
60 W
3923 4457 PD
60 W
5598 4609 PD
60 W
7274 4747 PD
60 W
8949 4757 PD
60 W
10624 4827 PD
60 W
12300 4876 PD
60 W
13975 4928 PD
60 W
15651 5020 PD
DD
gr

gs 2248 1048 13404 6626 rc
DA
/c14 { 0.517241 0.517241 1.000000 sr} bdef
c14
1676 13 1675 52 1676 83 1675 -35 1675 28 1676 -13 1675 28 1675 139 
2248 6048 9 MP stroke
gr

c14
DA
gs 2030 5830 13840 732 rc
SO
0 j
-104 179 -104 -179 208 0 2144 6108 4 MP
DP
-104 179 -104 -179 208 0 3819 6247 4 MP
DP
-104 179 -104 -179 208 0 5494 6275 4 MP
DP
-104 179 -104 -179 208 0 7170 6262 4 MP
DP
-104 179 -104 -179 208 0 8845 6290 4 MP
DP
-104 179 -104 -179 208 0 10520 6255 4 MP
DP
-104 179 -104 -179 208 0 12196 6338 4 MP
DP
-104 179 -104 -179 208 0 13871 6390 4 MP
DP
-104 179 -104 -179 208 0 15547 6403 4 MP
DP
DA
gr

gs 2248 1048 13404 6626 rc
SO
/c15 { 0.620690 0.310345 0.275862 sr} bdef
c15
1676 -40 1675 -58 1676 166 1675 -24 1675 21 1676 100 1675 57 1675 169 
2248 4899 9 MP stroke
gr

c15
SO
gs 2030 4681 13840 926 rc
0 j
-179 104 0 -208 179 104 2129 4899 4 MP
DP
-179 104 0 -208 179 104 3804 5068 4 MP
DP
-179 104 0 -208 179 104 5479 5125 4 MP
DP
-179 104 0 -208 179 104 7155 5225 4 MP
DP
-179 104 0 -208 179 104 8830 5246 4 MP
DP
-179 104 0 -208 179 104 10505 5222 4 MP
DP
-179 104 0 -208 179 104 12181 5388 4 MP
DP
-179 104 0 -208 179 104 13856 5330 4 MP
DP
-179 104 0 -208 179 104 15532 5290 4 MP
DP
gr

gs 2248 1048 13404 6626 rc
DO
/c16 { 0.000000 1.000000 0.758621 sr} bdef
c16
1676 -20 1675 53 1676 19 1675 27 1675 -4 1676 18 1675 79 1675 8 
2248 7017 9 MP stroke
gr

c16
DO
gs 2030 6799 13840 637 rc
SO
0 j
0 208 -179 -104 179 -104 2188 7121 4 MP
DP
0 208 -179 -104 179 -104 3863 7129 4 MP
DP
0 208 -179 -104 179 -104 5538 7208 4 MP
DP
0 208 -179 -104 179 -104 7214 7226 4 MP
DP
0 208 -179 -104 179 -104 8889 7222 4 MP
DP
0 208 -179 -104 179 -104 10564 7249 4 MP
DP
0 208 -179 -104 179 -104 12240 7268 4 MP
DP
0 208 -179 -104 179 -104 13915 7321 4 MP
DP
0 208 -179 -104 179 -104 15591 7301 4 MP
DP
DO
gr

gs 2248 1048 13404 6626 rc
SO
/c17 { 0.000000 0.517241 0.586207 sr} bdef
c17
1676 115 1675 -99 1676 74 1675 -2 1675 140 1676 47 1675 168 1675 68 
2248 5760 9 MP stroke
gr

c17
SO
gs 2030 5542 13840 948 rc
0 j
-51 -39 18 -61 -53 36 -52 -36 18 61 -51 39 64 0 21 62 
22 -62 64 0 2162 5732 11 MP
DP
-51 -39 18 -61 -53 36 -52 -36 18 61 -51 39 64 0 21 62 
22 -62 64 0 3837 5800 11 MP
DP
-51 -39 18 -61 -53 36 -52 -36 18 61 -51 39 64 0 21 62 
22 -62 64 0 5512 5968 11 MP
DP
-51 -39 18 -61 -53 36 -52 -36 18 61 -51 39 64 0 21 62 
22 -62 64 0 7188 6015 11 MP
DP
-51 -39 18 -61 -53 36 -52 -36 18 61 -51 39 64 0 21 62 
22 -62 64 0 8863 6155 11 MP
DP
-51 -39 18 -61 -53 36 -52 -36 18 61 -51 39 64 0 21 62 
22 -62 64 0 10538 6153 11 MP
DP
-51 -39 18 -61 -53 36 -52 -36 18 61 -51 39 64 0 21 62 
22 -62 64 0 12214 6227 11 MP
DP
-51 -39 18 -61 -53 36 -52 -36 18 61 -51 39 64 0 21 62 
22 -62 64 0 13889 6128 11 MP
DP
-51 -39 18 -61 -53 36 -52 -36 18 61 -51 39 64 0 21 62 
22 -62 64 0 15565 6243 11 MP
DP
gr

gs 2248 1048 13404 6626 rc
DO
/c18 { 0.000000 0.000000 0.482759 sr} bdef
c18
1676 45 1675 -22 1676 25 1675 63 1675 -17 1676 50 1675 33 1675 63 
2248 6525 9 MP stroke
gr

c18
DO
gs 2030 6307 13840 677 rc
SO
0 j
-32 -45 32 -45 -52 0 -25 -45 -25 45 -52 0 32 45 -32 45 
52 0 25 45 25 -45 52 0 2171 6480 13 MP
DP
-32 -45 32 -45 -52 0 -25 -45 -25 45 -52 0 32 45 -32 45 
52 0 25 45 25 -45 52 0 3846 6543 13 MP
DP
-32 -45 32 -45 -52 0 -25 -45 -25 45 -52 0 32 45 -32 45 
52 0 25 45 25 -45 52 0 5521 6576 13 MP
DP
-32 -45 32 -45 -52 0 -25 -45 -25 45 -52 0 32 45 -32 45 
52 0 25 45 25 -45 52 0 7197 6626 13 MP
DP
-32 -45 32 -45 -52 0 -25 -45 -25 45 -52 0 32 45 -32 45 
52 0 25 45 25 -45 52 0 8872 6609 13 MP
DP
-32 -45 32 -45 -52 0 -25 -45 -25 45 -52 0 32 45 -32 45 
52 0 25 45 25 -45 52 0 10547 6672 13 MP
DP
-32 -45 32 -45 -52 0 -25 -45 -25 45 -52 0 32 45 -32 45 
52 0 25 45 25 -45 52 0 12223 6697 13 MP
DP
-32 -45 32 -45 -52 0 -25 -45 -25 45 -52 0 32 45 -32 45 
52 0 25 45 25 -45 52 0 13898 6675 13 MP
DP
-32 -45 32 -45 -52 0 -25 -45 -25 45 -52 0 32 45 -32 45 
52 0 25 45 25 -45 52 0 15574 6720 13 MP
DP
DO
gr

gs 2248 1048 13404 6626 rc
gr

0 sg
%%IncludeResource: font Helvetica
/Helvetica /WindowsLatin1Encoding 480 FMSR

5211  446 mt 
(Evaluations at end fo runs \(D) s
%%IncludeResource: font Helvetica
/Helvetica /WindowsLatin1Encoding 384 FMSR

11381  686 mt 
(e) s
%%IncludeResource: font Helvetica
/Helvetica /WindowsLatin1Encoding 480 FMSR

11594  446 mt 
( end\)) s
7214 8561 mt 
(Elements added) s
SO
6 w

end %%Color Dict

eplot
%%EndObject

epage
end

showpage

%%Trailer
%%EOF
