%!PS-Adobe-3.0 EPSF-3.0
%%Creator: MATLAB, The MathWorks, Inc. Version 8.2.0.701 (R2013b). Operating System: Microsoft Windows 8.
%%Title: .\add8.eps
%%CreationDate: 05/17/2016  17:29:21
%%DocumentNeededFonts: Helvetica
%%DocumentProcessColors: Cyan Magenta Yellow Black
%%LanguageLevel: 2
%%Pages: 1
%%BoundingBox:  -359    59   884   786
%%EndComments

%%BeginProlog
% MathWorks dictionary
/MathWorks 160 dict begin
% definition operators
/bdef {bind def} bind def
/ldef {load def} bind def
/xdef {exch def} bdef
/xstore {exch store} bdef
% operator abbreviations
/c  /clip ldef
/cc /concat ldef
/cp /closepath ldef
/gr /grestore ldef
/gs /gsave ldef
/mt /moveto ldef
/np /newpath ldef
/cm /currentmatrix ldef
/sm /setmatrix ldef
/rm /rmoveto ldef
/rl /rlineto ldef
/s {show newpath} bdef
/sc {setcmykcolor} bdef
/sr /setrgbcolor ldef
/sg /setgray ldef
/w /setlinewidth ldef
/j /setlinejoin ldef
/cap /setlinecap ldef
/rc {rectclip} bdef
/rf {rectfill} bdef
% page state control
/pgsv () def
/bpage {/pgsv save def} bdef
/epage {pgsv restore} bdef
/bplot /gsave ldef
/eplot {stroke grestore} bdef
% orientation switch
/portraitMode 0 def /landscapeMode 1 def /rotateMode 2 def
% coordinate system mappings
/dpi2point 0 def
% font control
/FontSize 0 def
/FMS {/FontSize xstore findfont [FontSize 0 0 FontSize neg 0 0]
  makefont setfont} bdef
/ISOLatin1Encoding where {pop /WindowsLatin1Encoding 256 array bdef
ISOLatin1Encoding WindowsLatin1Encoding copy pop
/.notdef/.notdef/quotesinglbase/florin/quotedblbase/ellipsis/dagger
/daggerdbl/circumflex/perthousand/Scaron/guilsinglleft/OE/.notdef/.notdef
/.notdef/.notdef/quoteleft/quoteright/quotedblleft/quotedblright/bullet
/endash/emdash/tilde/trademark/scaron/guilsinglright/oe/.notdef/.notdef
/Ydieresis WindowsLatin1Encoding 128 32 getinterval astore pop}
{/WindowsLatin1Encoding StandardEncoding bdef} ifelse
/reencode {exch dup where {pop load} {pop StandardEncoding} ifelse
  exch dup 3 1 roll findfont dup length dict begin
  { 1 index /FID ne {def}{pop pop} ifelse } forall
  /Encoding exch def currentdict end definefont pop} bdef
/isroman {findfont /CharStrings get /Agrave known} bdef
/FMSR {3 1 roll 1 index dup isroman {reencode} {pop pop} ifelse
  exch FMS} bdef
/csm {1 dpi2point div -1 dpi2point div scale neg translate
 dup landscapeMode eq {pop -90 rotate}
  {rotateMode eq {90 rotate} if} ifelse} bdef
% line types: solid, dotted, dashed, dotdash
/SO { [] 0 setdash } bdef
/DO { [.5 dpi2point mul 4 dpi2point mul] 0 setdash } bdef
/DA { [6 dpi2point mul] 0 setdash } bdef
/DD { [.5 dpi2point mul 4 dpi2point mul 6 dpi2point mul 4
  dpi2point mul] 0 setdash } bdef
% macros for lines and objects
/L {lineto stroke} bdef
/MP {3 1 roll moveto 1 sub {rlineto} repeat} bdef
/AP {{rlineto} repeat} bdef
/PDlw -1 def
/W {/PDlw currentlinewidth def setlinewidth} def
/PP {closepath eofill} bdef
/DP {closepath stroke} bdef
/MR {4 -2 roll moveto dup  0 exch rlineto exch 0 rlineto
  neg 0 exch rlineto closepath} bdef
/FR {MR stroke} bdef
/PR {MR fill} bdef
/L1i {{currentfile picstr readhexstring pop} image} bdef
/tMatrix matrix def
/MakeOval {newpath tMatrix currentmatrix pop translate scale
0 0 1 0 360 arc tMatrix setmatrix} bdef
/FO {MakeOval stroke} bdef
/PO {MakeOval fill} bdef
/PD {currentlinewidth 2 div 0 360 arc fill
   PDlw -1 eq not {PDlw w /PDlw -1 def} if} def
/FA {newpath tMatrix currentmatrix pop translate scale
  0 0 1 5 -2 roll arc tMatrix setmatrix stroke} bdef
/PA {newpath tMatrix currentmatrix pop	translate 0 0 moveto scale
  0 0 1 5 -2 roll arc closepath tMatrix setmatrix fill} bdef
/FAn {newpath tMatrix currentmatrix pop translate scale
  0 0 1 5 -2 roll arcn tMatrix setmatrix stroke} bdef
/PAn {newpath tMatrix currentmatrix pop translate 0 0 moveto scale
  0 0 1 5 -2 roll arcn closepath tMatrix setmatrix fill} bdef
/vradius 0 def /hradius 0 def /lry 0 def
/lrx 0 def /uly 0 def /ulx 0 def /rad 0 def
/MRR {/vradius xdef /hradius xdef /lry xdef /lrx xdef /uly xdef
  /ulx xdef newpath tMatrix currentmatrix pop ulx hradius add uly
  vradius add translate hradius vradius scale 0 0 1 180 270 arc 
  tMatrix setmatrix lrx hradius sub uly vradius add translate
  hradius vradius scale 0 0 1 270 360 arc tMatrix setmatrix
  lrx hradius sub lry vradius sub translate hradius vradius scale
  0 0 1 0 90 arc tMatrix setmatrix ulx hradius add lry vradius sub
  translate hradius vradius scale 0 0 1 90 180 arc tMatrix setmatrix
  closepath} bdef
/FRR {MRR stroke } bdef
/PRR {MRR fill } bdef
/MlrRR {/lry xdef /lrx xdef /uly xdef /ulx xdef /rad lry uly sub 2 div def
  newpath tMatrix currentmatrix pop ulx rad add uly rad add translate
  rad rad scale 0 0 1 90 270 arc tMatrix setmatrix lrx rad sub lry rad
  sub translate rad rad scale 0 0 1 270 90 arc tMatrix setmatrix
  closepath} bdef
/FlrRR {MlrRR stroke } bdef
/PlrRR {MlrRR fill } bdef
/MtbRR {/lry xdef /lrx xdef /uly xdef /ulx xdef /rad lrx ulx sub 2 div def
  newpath tMatrix currentmatrix pop ulx rad add uly rad add translate
  rad rad scale 0 0 1 180 360 arc tMatrix setmatrix lrx rad sub lry rad
  sub translate rad rad scale 0 0 1 0 180 arc tMatrix setmatrix
  closepath} bdef
/FtbRR {MtbRR stroke } bdef
/PtbRR {MtbRR fill } bdef
/stri 6 array def /dtri 6 array def
/smat 6 array def /dmat 6 array def
/tmat1 6 array def /tmat2 6 array def /dif 3 array def
/asub {/ind2 exch def /ind1 exch def dup dup
  ind1 get exch ind2 get sub exch } bdef
/tri_to_matrix {
  2 0 asub 3 1 asub 4 0 asub 5 1 asub
  dup 0 get exch 1 get 7 -1 roll astore } bdef
/compute_transform {
  dmat dtri tri_to_matrix tmat1 invertmatrix 
  smat stri tri_to_matrix tmat2 concatmatrix } bdef
/ds {stri astore pop} bdef
/dt {dtri astore pop} bdef
/db {2 copy /cols xdef /rows xdef mul dup 3 mul string
  currentfile 
  3 index 0 eq {/ASCIIHexDecode filter}
  {/ASCII85Decode filter 3 index 2 eq {/RunLengthDecode filter} if }
  ifelse exch readstring pop
  dup 0 3 index getinterval /rbmap xdef
  dup 2 index dup getinterval /gbmap xdef
  1 index dup 2 mul exch getinterval /bbmap xdef pop pop}bdef
/it {gs np dtri aload pop moveto lineto lineto cp c
  cols rows 8 compute_transform 
  rbmap gbmap bbmap true 3 colorimage gr}bdef
/il {newpath moveto lineto stroke}bdef
currentdict end def
%%EndProlog

%%BeginSetup
MathWorks begin

0 cap

end
%%EndSetup

%%Page: 1 1
%%BeginPageSetup
%%PageBoundingBox:  -359    59   884   786
MathWorks begin
bpage
%%EndPageSetup

%%BeginObject: obj1
bplot

/dpi2point 12 def
portraitMode -5064 9384 csm

  746   -48 14932  8719 rc
94 dict begin %Colortable dictionary
/c0 { 0.000000 0.000000 0.000000 sr} bdef
/c1 { 1.000000 1.000000 1.000000 sr} bdef
/c2 { 0.900000 0.000000 0.000000 sr} bdef
/c3 { 0.000000 0.820000 0.000000 sr} bdef
/c4 { 0.000000 0.000000 0.800000 sr} bdef
/c5 { 0.910000 0.820000 0.320000 sr} bdef
/c6 { 1.000000 0.260000 0.820000 sr} bdef
/c7 { 0.000000 0.820000 0.820000 sr} bdef
c0
1 j
1 sg
   0    0 17295 8672 rf
6 w
0 6844 11046 0 0 -6844 2248 7673 4 MP
PP
-11046 0 0 6844 11046 0 0 -6844 2248 7673 5 MP stroke
4 w
DO
0 sg
3628 7673 mt 3628  829 L
3628  829 mt 3628  829 L
6390 7673 mt 6390  829 L
6390  829 mt 6390  829 L
9151 7673 mt 9151  829 L
9151  829 mt 9151  829 L
11913 7673 mt 11913  829 L
11913  829 mt 11913  829 L
2248 7673 mt 13294 7673 L
13294 7673 mt 13294 7673 L
2248 6532 mt 13294 6532 L
13294 6532 mt 13294 6532 L
2248 5391 mt 13294 5391 L
13294 5391 mt 13294 5391 L
2248 4251 mt 13294 4251 L
13294 4251 mt 13294 4251 L
2248 3111 mt 13294 3111 L
13294 3111 mt 13294 3111 L
2248 1970 mt 13294 1970 L
13294 1970 mt 13294 1970 L
2248  829 mt 13294  829 L
13294  829 mt 13294  829 L
SO
6 w
2248  829 mt 13294  829 L
2248 7673 mt 13294 7673 L
13294 7673 mt 13294  829 L
2248 7673 mt 2248  829 L
2248 7673 mt 13294 7673 L
2248 7673 mt 2248  829 L
3628 7673 mt 3628 7562 L
3628  829 mt 3628  940 L
%%IncludeResource: font Helvetica
/Helvetica /WindowsLatin1Encoding 480 FMSR

3362 8153 mt 
(20) s
6390 7673 mt 6390 7562 L
6390  829 mt 6390  940 L
6124 8153 mt 
(40) s
9151 7673 mt 9151 7562 L
9151  829 mt 9151  940 L
8885 8153 mt 
(60) s
11913 7673 mt 11913 7562 L
11913  829 mt 11913  940 L
11647 8153 mt 
(80) s
2248 7673 mt 2358 7673 L
13294 7673 mt 13183 7673 L
1013 7851 mt 
(3.017) s
2248 6532 mt 2358 6532 L
13294 6532 mt 13183 6532 L
 746 6710 mt 
(3.0175) s
2248 5391 mt 2358 5391 L
13294 5391 mt 13183 5391 L
1013 5569 mt 
(3.018) s
2248 4251 mt 2358 4251 L
13294 4251 mt 13183 4251 L
 746 4429 mt 
(3.0185) s
2248 3111 mt 2358 3111 L
13294 3111 mt 13183 3111 L
1013 3289 mt 
(3.019) s
2248 1970 mt 2358 1970 L
13294 1970 mt 13183 1970 L
 746 2148 mt 
(3.0195) s
2248  829 mt 2358  829 L
13294  829 mt 13183  829 L
1279 1007 mt 
(3.02) s
2248  775 mt 
(x 10) s
%%IncludeResource: font Helvetica
/Helvetica /WindowsLatin1Encoding 320 FMSR

3155  478 mt 
(-11) s
2248  829 mt 13294  829 L
2248 7673 mt 13294 7673 L
13294 7673 mt 13294  829 L
2248 7673 mt 2248  829 L
gs 2248 830 11047 6844 rc
36 w
/c8 { 0.000000 0.000000 1.000000 sr} bdef
c8
1381 0 1381 0 1381 0 1380 0 1381 0 1381 0 1381 0 1380 0 
2248 1150 9 MP stroke
gr

36 w
c8
gs 2030 932 11483 437 rc
  90   90 2248 1150 FO
  90   90 3628 1150 FO
  90   90 5009 1150 FO
  90   90 6390 1150 FO
  90   90 7771 1150 FO
  90   90 9151 1150 FO
  90   90 10532 1150 FO
  90   90 11913 1150 FO
  90   90 13294 1150 FO
gr

gs 2248 830 11047 6844 rc
DO
/c9 { 1.000000 0.000000 0.000000 sr} bdef
c9
1381 0 1381 0 1381 0 1380 0 1381 0 1381 0 1381 0 1380 0 
2248 1150 9 MP stroke
gr

c9
DO
gs 2030 932 11483 437 rc
SO
0 j
104 179 -208 0 104 -179 2248 1269 4 MP
DP
104 179 -208 0 104 -179 3628 1269 4 MP
DP
104 179 -208 0 104 -179 5009 1269 4 MP
DP
104 179 -208 0 104 -179 6390 1269 4 MP
DP
104 179 -208 0 104 -179 7771 1269 4 MP
DP
104 179 -208 0 104 -179 9151 1269 4 MP
DP
104 179 -208 0 104 -179 10532 1269 4 MP
DP
104 179 -208 0 104 -179 11913 1269 4 MP
DP
104 179 -208 0 104 -179 13294 1269 4 MP
DP
DO
gr

gs 2248 830 11047 6844 rc
DD
/c10 { 0.000000 1.000000 0.000000 sr} bdef
c10
1381 0 1381 0 1381 -4317 1380 4317 1381 0 1381 0 1381 0 1380 0 
2248 1150 9 MP stroke
gr

c10
DD
gs 2030 932 11483 4754 rc
SO
2185 1087 mt 2311 1213 L
2311 1087 mt 2185 1213 L
3565 1087 mt 3691 1213 L
3691 1087 mt 3565 1213 L
4946 1087 mt 5072 1213 L
5072 1087 mt 4946 1213 L
6327 1087 mt 6453 1213 L
6453 1087 mt 6327 1213 L
7708 1087 mt 7834 1213 L
7834 1087 mt 7708 1213 L
9088 5404 mt 9214 5530 L
9214 5404 mt 9088 5530 L
10469 1087 mt 10595 1213 L
10595 1087 mt 10469 1213 L
11850 1087 mt 11976 1213 L
11976 1087 mt 11850 1213 L
13231 1087 mt 13357 1213 L
13357 1087 mt 13231 1213 L
DD
gr

gs 2248 830 11047 6844 rc
DA
/c11 { 0.000000 0.000000 0.172414 sr} bdef
c11
1381 0 1381 0 1381 0 1380 0 1381 0 1381 0 1381 0 1380 0 
2248 1150 9 MP stroke
gr

c11
DA
gs 2030 932 11483 437 rc
SO
2158 1150 mt 2338 1150 L
2248 1060 mt 2248 1240 L
3538 1150 mt 3718 1150 L
3628 1060 mt 3628 1240 L
4919 1150 mt 5099 1150 L
5009 1060 mt 5009 1240 L
6300 1150 mt 6480 1150 L
6390 1060 mt 6390 1240 L
7681 1150 mt 7861 1150 L
7771 1060 mt 7771 1240 L
9061 1150 mt 9241 1150 L
9151 1060 mt 9151 1240 L
10442 1150 mt 10622 1150 L
10532 1060 mt 10532 1240 L
11823 1150 mt 12003 1150 L
11913 1060 mt 11913 1240 L
13204 1150 mt 13384 1150 L
13294 1060 mt 13294 1240 L
2185 1087 mt 2311 1213 L
2311 1087 mt 2185 1213 L
3565 1087 mt 3691 1213 L
3691 1087 mt 3565 1213 L
4946 1087 mt 5072 1213 L
5072 1087 mt 4946 1213 L
6327 1087 mt 6453 1213 L
6453 1087 mt 6327 1213 L
7708 1087 mt 7834 1213 L
7834 1087 mt 7708 1213 L
9088 1087 mt 9214 1213 L
9214 1087 mt 9088 1213 L
10469 1087 mt 10595 1213 L
10595 1087 mt 10469 1213 L
11850 1087 mt 11976 1213 L
11976 1087 mt 11850 1213 L
13231 1087 mt 13357 1213 L
13357 1087 mt 13231 1213 L
DA
gr

gs 2248 830 11047 6844 rc
SO
/c12 { 1.000000 0.103448 0.724138 sr} bdef
c12
1381 -4317 1381 0 1381 0 1380 4317 1381 -4317 1381 4317 1381 0 1380 0 
2248 1150 9 MP stroke
gr

c12
SO
gs 2030 932 11483 4754 rc
0 j
0 -142 -142 0 0 142 142 0 2177 1079 5 MP
DP
0 -142 -142 0 0 142 142 0 3557 1079 5 MP
DP
0 -142 -142 0 0 142 142 0 4938 1079 5 MP
DP
0 -142 -142 0 0 142 142 0 6319 5396 5 MP
DP
0 -142 -142 0 0 142 142 0 7700 1079 5 MP
DP
0 -142 -142 0 0 142 142 0 9080 5396 5 MP
DP
0 -142 -142 0 0 142 142 0 10461 5396 5 MP
DP
0 -142 -142 0 0 142 142 0 11842 5396 5 MP
DP
0 -142 -142 0 0 142 142 0 13223 1079 5 MP
DP
gr

gs 2248 830 11047 6844 rc
DO
/c13 { 0.000000 0.344828 0.000000 sr} bdef
c13
1381 0 1381 0 1381 0 1380 0 1381 0 1381 0 1381 0 1380 0 
2248 1150 9 MP stroke
gr

c13
DO
gs 2030 932 11483 437 rc
SO
0 j
90 119 -90 119 -90 -119 90 -119 2248 1269 5 MP
DP
90 119 -90 119 -90 -119 90 -119 3628 1269 5 MP
DP
90 119 -90 119 -90 -119 90 -119 5009 1269 5 MP
DP
90 119 -90 119 -90 -119 90 -119 6390 1269 5 MP
DP
90 119 -90 119 -90 -119 90 -119 7771 1269 5 MP
DP
90 119 -90 119 -90 -119 90 -119 9151 1269 5 MP
DP
90 119 -90 119 -90 -119 90 -119 10532 1269 5 MP
DP
90 119 -90 119 -90 -119 90 -119 11913 1269 5 MP
DP
90 119 -90 119 -90 -119 90 -119 13294 1269 5 MP
DP
DO
gr

gs 2248 830 11047 6844 rc
DD
1381 0 1381 0 1381 0 1380 0 1381 0 1381 0 1381 0 1380 0 
2248 1150 9 MP stroke
gr

DD
gs 2030 932 11483 437 rc
SO
60 W
2248 1150 PD
60 W
3628 1150 PD
60 W
5009 1150 PD
60 W
6390 1150 PD
60 W
7771 1150 PD
60 W
9151 1150 PD
60 W
10532 1150 PD
60 W
11913 1150 PD
60 W
13294 1150 PD
DD
gr

gs 2248 830 11047 6844 rc
DA
/c14 { 0.517241 0.517241 1.000000 sr} bdef
c14
1381 0 1381 0 1381 0 1380 0 1381 0 1381 0 1381 0 1380 0 
2248 1150 9 MP stroke
gr

c14
DA
gs 2030 932 11483 437 rc
SO
0 j
-104 179 -104 -179 208 0 2144 1210 4 MP
DP
-104 179 -104 -179 208 0 3524 1210 4 MP
DP
-104 179 -104 -179 208 0 4905 1210 4 MP
DP
-104 179 -104 -179 208 0 6286 1210 4 MP
DP
-104 179 -104 -179 208 0 7667 1210 4 MP
DP
-104 179 -104 -179 208 0 9047 1210 4 MP
DP
-104 179 -104 -179 208 0 10428 1210 4 MP
DP
-104 179 -104 -179 208 0 11809 1210 4 MP
DP
-104 179 -104 -179 208 0 13190 1210 4 MP
DP
DA
gr

gs 2248 830 11047 6844 rc
SO
/c15 { 0.620690 0.310345 0.275862 sr} bdef
c15
1381 0 1381 0 1381 0 1380 0 1381 0 1381 0 1381 0 1380 0 
2248 1150 9 MP stroke
gr

c15
SO
gs 2030 932 11483 437 rc
0 j
-179 104 0 -208 179 104 2129 1150 4 MP
DP
-179 104 0 -208 179 104 3509 1150 4 MP
DP
-179 104 0 -208 179 104 4890 1150 4 MP
DP
-179 104 0 -208 179 104 6271 1150 4 MP
DP
-179 104 0 -208 179 104 7652 1150 4 MP
DP
-179 104 0 -208 179 104 9032 1150 4 MP
DP
-179 104 0 -208 179 104 10413 1150 4 MP
DP
-179 104 0 -208 179 104 11794 1150 4 MP
DP
-179 104 0 -208 179 104 13175 1150 4 MP
DP
gr

gs 2248 830 11047 6844 rc
DO
/c16 { 0.000000 1.000000 0.758621 sr} bdef
c16
1381 4317 1381 0 1381 0 1380 0 1381 0 1381 0 1381 0 1380 0 
2248 1150 9 MP stroke
gr

c16
DO
gs 2030 932 11483 4754 rc
SO
0 j
0 208 -179 -104 179 -104 2188 1254 4 MP
DP
0 208 -179 -104 179 -104 3568 1254 4 MP
DP
0 208 -179 -104 179 -104 4949 1254 4 MP
DP
0 208 -179 -104 179 -104 6330 1254 4 MP
DP
0 208 -179 -104 179 -104 7711 1254 4 MP
DP
0 208 -179 -104 179 -104 9091 1254 4 MP
DP
0 208 -179 -104 179 -104 10472 1254 4 MP
DP
0 208 -179 -104 179 -104 11853 1254 4 MP
DP
0 208 -179 -104 179 -104 13234 5571 4 MP
DP
DO
gr

gs 2248 830 11047 6844 rc
SO
/c17 { 0.000000 0.517241 0.586207 sr} bdef
c17
1381 0 1381 0 1381 0 1380 0 1381 0 1381 0 1381 0 1380 0 
2248 1150 9 MP stroke
gr

c17
SO
gs 2030 932 11483 437 rc
0 j
-51 -39 18 -61 -53 36 -52 -36 18 61 -51 39 64 0 21 62 
22 -62 64 0 2162 1122 11 MP
DP
-51 -39 18 -61 -53 36 -52 -36 18 61 -51 39 64 0 21 62 
22 -62 64 0 3542 1122 11 MP
DP
-51 -39 18 -61 -53 36 -52 -36 18 61 -51 39 64 0 21 62 
22 -62 64 0 4923 1122 11 MP
DP
-51 -39 18 -61 -53 36 -52 -36 18 61 -51 39 64 0 21 62 
22 -62 64 0 6304 1122 11 MP
DP
-51 -39 18 -61 -53 36 -52 -36 18 61 -51 39 64 0 21 62 
22 -62 64 0 7685 1122 11 MP
DP
-51 -39 18 -61 -53 36 -52 -36 18 61 -51 39 64 0 21 62 
22 -62 64 0 9065 1122 11 MP
DP
-51 -39 18 -61 -53 36 -52 -36 18 61 -51 39 64 0 21 62 
22 -62 64 0 10446 1122 11 MP
DP
-51 -39 18 -61 -53 36 -52 -36 18 61 -51 39 64 0 21 62 
22 -62 64 0 11827 1122 11 MP
DP
-51 -39 18 -61 -53 36 -52 -36 18 61 -51 39 64 0 21 62 
22 -62 64 0 13208 1122 11 MP
DP
gr

gs 2248 830 11047 6844 rc
DO
/c18 { 0.000000 0.000000 0.482759 sr} bdef
c18
1381 0 1381 0 1381 0 1380 0 1381 0 1381 0 1381 0 1380 0 
2248 1150 9 MP stroke
gr

c18
DO
gs 2030 932 11483 437 rc
SO
0 j
-32 -45 32 -45 -52 0 -25 -45 -25 45 -52 0 32 45 -32 45 
52 0 25 45 25 -45 52 0 2171 1105 13 MP
DP
-32 -45 32 -45 -52 0 -25 -45 -25 45 -52 0 32 45 -32 45 
52 0 25 45 25 -45 52 0 3551 1105 13 MP
DP
-32 -45 32 -45 -52 0 -25 -45 -25 45 -52 0 32 45 -32 45 
52 0 25 45 25 -45 52 0 4932 1105 13 MP
DP
-32 -45 32 -45 -52 0 -25 -45 -25 45 -52 0 32 45 -32 45 
52 0 25 45 25 -45 52 0 6313 1105 13 MP
DP
-32 -45 32 -45 -52 0 -25 -45 -25 45 -52 0 32 45 -32 45 
52 0 25 45 25 -45 52 0 7694 1105 13 MP
DP
-32 -45 32 -45 -52 0 -25 -45 -25 45 -52 0 32 45 -32 45 
52 0 25 45 25 -45 52 0 9074 1105 13 MP
DP
-32 -45 32 -45 -52 0 -25 -45 -25 45 -52 0 32 45 -32 45 
52 0 25 45 25 -45 52 0 10455 1105 13 MP
DP
-32 -45 32 -45 -52 0 -25 -45 -25 45 -52 0 32 45 -32 45 
52 0 25 45 25 -45 52 0 11836 1105 13 MP
DP
-32 -45 32 -45 -52 0 -25 -45 -25 45 -52 0 32 45 -32 45 
52 0 25 45 25 -45 52 0 13217 1105 13 MP
DP
DO
gr

gs 2248 830 11047 6844 rc
gr

0 sg
%%IncludeResource: font Helvetica
/Helvetica /WindowsLatin1Encoding 480 FMSR

5299  446 mt 
(Wilcoxon rank sum test) s
6036 8561 mt 
(Elements added) s
%%IncludeResource: font Helvetica
/Helvetica /WindowsLatin1Encoding 120 FMSR

2231 7716 mt 
( ) s
13278  872 mt 
( ) s
SO
6 w
1 sg
0 6786 2213 0 0 -6786 13415 7616 4 MP
PP
-2213 0 0 6786 2213 0 0 -6786 13415 7616 5 MP stroke
4 w
DO
SO
6 w
0 sg
13415  830 mt 15628  830 L
13415 7616 mt 15628 7616 L
15628 7616 mt 15628  830 L
13415 7616 mt 13415  830 L
13415 7616 mt 15628 7616 L
13415 7616 mt 13415  830 L
13415  830 mt 15628  830 L
13415 7616 mt 15628 7616 L
15628 7616 mt 15628  830 L
13415 7616 mt 13415  830 L
%%IncludeResource: font Helvetica
/Helvetica /WindowsLatin1Encoding 480 FMSR

13877 1301 mt 
(scpnrh4) s
gs 13415 830 2214 6787 rc
36 w
c8
355 0 13486 1131 2 MP stroke
gs 13445 913 437 437 rc
  90   90 13663 1131 FO
gr

gr

36 w
c8
0 sg
13877 1863 mt 
(scpnrg3) s
gs 13415 830 2214 6787 rc
DO
c9
355 0 13486 1693 2 MP stroke
SO
gs 13445 1475 437 437 rc
0 j
104 179 -208 0 104 -179 13663 1812 4 MP
DP
gr

gr

c9
0 sg
13877 2425 mt 
(scpnrf2) s
gs 13415 830 2214 6787 rc
DD
c10
355 0 13486 2255 2 MP stroke
SO
gs 13445 2037 437 437 rc
13600 2192 mt 13726 2318 L
13726 2192 mt 13600 2318 L
gr

gr

c10
0 sg
13877 2987 mt 
(scpnre1) s
gs 13415 830 2214 6787 rc
DA
c11
355 0 13486 2817 2 MP stroke
SO
gs 13445 2599 437 437 rc
13573 2817 mt 13753 2817 L
13663 2727 mt 13663 2907 L
13600 2754 mt 13726 2880 L
13726 2754 mt 13600 2880 L
gr

gr

c11
0 sg
13877 3549 mt 
(scpe1) s
gs 13415 830 2214 6787 rc
c12
355 0 13486 3379 2 MP stroke
gs 13445 3161 437 437 rc
0 j
0 -142 -142 0 0 142 142 0 13592 3308 5 MP
DP
gr

gr

c12
0 sg
13877 4111 mt 
(scpd2) s
gs 13415 830 2214 6787 rc
DO
c13
355 0 13486 3941 2 MP stroke
SO
gs 13445 3723 437 437 rc
0 j
90 119 -90 119 -90 -119 90 -119 13663 4060 5 MP
DP
gr

gr

c13
0 sg
13877 4674 mt 
(scpc3) s
gs 13415 830 2214 6787 rc
DD
c13
355 0 13486 4504 2 MP stroke
SO
gs 13445 4286 437 437 rc
60 W
13663 4504 PD
gr

gr

c13
0 sg
13877 5236 mt 
(scpb4) s
gs 13415 830 2214 6787 rc
DA
c14
355 0 13486 5066 2 MP stroke
SO
gs 13445 4848 437 437 rc
0 j
-104 179 -104 -179 208 0 13559 5126 4 MP
DP
gr

gr

c14
0 sg
13877 5798 mt 
(scpa5) s
gs 13415 830 2214 6787 rc
c15
355 0 13486 5628 2 MP stroke
gs 13445 5410 437 437 rc
0 j
-179 104 0 -208 179 104 13544 5628 4 MP
DP
gr

gr

c15
0 sg
13877 6360 mt 
(scp63) s
gs 13415 830 2214 6787 rc
DO
c16
355 0 13486 6190 2 MP stroke
SO
gs 13445 5972 437 437 rc
0 j
0 208 -179 -104 179 -104 13603 6294 4 MP
DP
gr

gr

c16
0 sg
13877 6922 mt 
(scp52) s
gs 13415 830 2214 6787 rc
c17
355 0 13486 6752 2 MP stroke
gs 13445 6534 437 437 rc
0 j
-51 -39 18 -61 -53 36 -52 -36 18 61 -51 39 64 0 21 62 
22 -62 64 0 13577 6724 11 MP
DP
gr

gr

c17
0 sg
13877 7484 mt 
(scp41) s
gs 13415 830 2214 6787 rc
DO
c18
355 0 13486 7314 2 MP stroke
SO
gs 13445 7096 437 437 rc
0 j
-32 -45 32 -45 -52 0 -25 -45 -25 45 -52 0 32 45 -32 45 
52 0 25 45 25 -45 52 0 13586 7269 13 MP
DP
gr

6 w
gr

6 w
c18

end %%Color Dict

eplot
%%EndObject

epage
end

showpage

%%Trailer
%%EOF
