%!PS-Adobe-3.0 EPSF-3.0
%%Creator: MATLAB, The MathWorks, Inc. Version 8.2.0.701 (R2013b). Operating System: Microsoft Windows 8.
%%Title: .\edit8.eps
%%CreationDate: 05/17/2016  20:09:14
%%DocumentNeededFonts: Helvetica
%%DocumentProcessColors: Cyan Magenta Yellow Black
%%LanguageLevel: 2
%%Pages: 1
%%BoundingBox:  -259    59   884   786
%%EndComments

%%BeginProlog
% MathWorks dictionary
/MathWorks 160 dict begin
% definition operators
/bdef {bind def} bind def
/ldef {load def} bind def
/xdef {exch def} bdef
/xstore {exch store} bdef
% operator abbreviations
/c  /clip ldef
/cc /concat ldef
/cp /closepath ldef
/gr /grestore ldef
/gs /gsave ldef
/mt /moveto ldef
/np /newpath ldef
/cm /currentmatrix ldef
/sm /setmatrix ldef
/rm /rmoveto ldef
/rl /rlineto ldef
/s {show newpath} bdef
/sc {setcmykcolor} bdef
/sr /setrgbcolor ldef
/sg /setgray ldef
/w /setlinewidth ldef
/j /setlinejoin ldef
/cap /setlinecap ldef
/rc {rectclip} bdef
/rf {rectfill} bdef
% page state control
/pgsv () def
/bpage {/pgsv save def} bdef
/epage {pgsv restore} bdef
/bplot /gsave ldef
/eplot {stroke grestore} bdef
% orientation switch
/portraitMode 0 def /landscapeMode 1 def /rotateMode 2 def
% coordinate system mappings
/dpi2point 0 def
% font control
/FontSize 0 def
/FMS {/FontSize xstore findfont [FontSize 0 0 FontSize neg 0 0]
  makefont setfont} bdef
/ISOLatin1Encoding where {pop /WindowsLatin1Encoding 256 array bdef
ISOLatin1Encoding WindowsLatin1Encoding copy pop
/.notdef/.notdef/quotesinglbase/florin/quotedblbase/ellipsis/dagger
/daggerdbl/circumflex/perthousand/Scaron/guilsinglleft/OE/.notdef/.notdef
/.notdef/.notdef/quoteleft/quoteright/quotedblleft/quotedblright/bullet
/endash/emdash/tilde/trademark/scaron/guilsinglright/oe/.notdef/.notdef
/Ydieresis WindowsLatin1Encoding 128 32 getinterval astore pop}
{/WindowsLatin1Encoding StandardEncoding bdef} ifelse
/reencode {exch dup where {pop load} {pop StandardEncoding} ifelse
  exch dup 3 1 roll findfont dup length dict begin
  { 1 index /FID ne {def}{pop pop} ifelse } forall
  /Encoding exch def currentdict end definefont pop} bdef
/isroman {findfont /CharStrings get /Agrave known} bdef
/FMSR {3 1 roll 1 index dup isroman {reencode} {pop pop} ifelse
  exch FMS} bdef
/csm {1 dpi2point div -1 dpi2point div scale neg translate
 dup landscapeMode eq {pop -90 rotate}
  {rotateMode eq {90 rotate} if} ifelse} bdef
% line types: solid, dotted, dashed, dotdash
/SO { [] 0 setdash } bdef
/DO { [.5 dpi2point mul 4 dpi2point mul] 0 setdash } bdef
/DA { [6 dpi2point mul] 0 setdash } bdef
/DD { [.5 dpi2point mul 4 dpi2point mul 6 dpi2point mul 4
  dpi2point mul] 0 setdash } bdef
% macros for lines and objects
/L {lineto stroke} bdef
/MP {3 1 roll moveto 1 sub {rlineto} repeat} bdef
/AP {{rlineto} repeat} bdef
/PDlw -1 def
/W {/PDlw currentlinewidth def setlinewidth} def
/PP {closepath eofill} bdef
/DP {closepath stroke} bdef
/MR {4 -2 roll moveto dup  0 exch rlineto exch 0 rlineto
  neg 0 exch rlineto closepath} bdef
/FR {MR stroke} bdef
/PR {MR fill} bdef
/L1i {{currentfile picstr readhexstring pop} image} bdef
/tMatrix matrix def
/MakeOval {newpath tMatrix currentmatrix pop translate scale
0 0 1 0 360 arc tMatrix setmatrix} bdef
/FO {MakeOval stroke} bdef
/PO {MakeOval fill} bdef
/PD {currentlinewidth 2 div 0 360 arc fill
   PDlw -1 eq not {PDlw w /PDlw -1 def} if} def
/FA {newpath tMatrix currentmatrix pop translate scale
  0 0 1 5 -2 roll arc tMatrix setmatrix stroke} bdef
/PA {newpath tMatrix currentmatrix pop	translate 0 0 moveto scale
  0 0 1 5 -2 roll arc closepath tMatrix setmatrix fill} bdef
/FAn {newpath tMatrix currentmatrix pop translate scale
  0 0 1 5 -2 roll arcn tMatrix setmatrix stroke} bdef
/PAn {newpath tMatrix currentmatrix pop translate 0 0 moveto scale
  0 0 1 5 -2 roll arcn closepath tMatrix setmatrix fill} bdef
/vradius 0 def /hradius 0 def /lry 0 def
/lrx 0 def /uly 0 def /ulx 0 def /rad 0 def
/MRR {/vradius xdef /hradius xdef /lry xdef /lrx xdef /uly xdef
  /ulx xdef newpath tMatrix currentmatrix pop ulx hradius add uly
  vradius add translate hradius vradius scale 0 0 1 180 270 arc 
  tMatrix setmatrix lrx hradius sub uly vradius add translate
  hradius vradius scale 0 0 1 270 360 arc tMatrix setmatrix
  lrx hradius sub lry vradius sub translate hradius vradius scale
  0 0 1 0 90 arc tMatrix setmatrix ulx hradius add lry vradius sub
  translate hradius vradius scale 0 0 1 90 180 arc tMatrix setmatrix
  closepath} bdef
/FRR {MRR stroke } bdef
/PRR {MRR fill } bdef
/MlrRR {/lry xdef /lrx xdef /uly xdef /ulx xdef /rad lry uly sub 2 div def
  newpath tMatrix currentmatrix pop ulx rad add uly rad add translate
  rad rad scale 0 0 1 90 270 arc tMatrix setmatrix lrx rad sub lry rad
  sub translate rad rad scale 0 0 1 270 90 arc tMatrix setmatrix
  closepath} bdef
/FlrRR {MlrRR stroke } bdef
/PlrRR {MlrRR fill } bdef
/MtbRR {/lry xdef /lrx xdef /uly xdef /ulx xdef /rad lrx ulx sub 2 div def
  newpath tMatrix currentmatrix pop ulx rad add uly rad add translate
  rad rad scale 0 0 1 180 360 arc tMatrix setmatrix lrx rad sub lry rad
  sub translate rad rad scale 0 0 1 0 180 arc tMatrix setmatrix
  closepath} bdef
/FtbRR {MtbRR stroke } bdef
/PtbRR {MtbRR fill } bdef
/stri 6 array def /dtri 6 array def
/smat 6 array def /dmat 6 array def
/tmat1 6 array def /tmat2 6 array def /dif 3 array def
/asub {/ind2 exch def /ind1 exch def dup dup
  ind1 get exch ind2 get sub exch } bdef
/tri_to_matrix {
  2 0 asub 3 1 asub 4 0 asub 5 1 asub
  dup 0 get exch 1 get 7 -1 roll astore } bdef
/compute_transform {
  dmat dtri tri_to_matrix tmat1 invertmatrix 
  smat stri tri_to_matrix tmat2 concatmatrix } bdef
/ds {stri astore pop} bdef
/dt {dtri astore pop} bdef
/db {2 copy /cols xdef /rows xdef mul dup 3 mul string
  currentfile 
  3 index 0 eq {/ASCIIHexDecode filter}
  {/ASCII85Decode filter 3 index 2 eq {/RunLengthDecode filter} if }
  ifelse exch readstring pop
  dup 0 3 index getinterval /rbmap xdef
  dup 2 index dup getinterval /gbmap xdef
  1 index dup 2 mul exch getinterval /bbmap xdef pop pop}bdef
/it {gs np dtri aload pop moveto lineto lineto cp c
  cols rows 8 compute_transform 
  rbmap gbmap bbmap true 3 colorimage gr}bdef
/il {newpath moveto lineto stroke}bdef
currentdict end def
%%EndProlog

%%BeginSetup
MathWorks begin

0 cap

end
%%EndSetup

%%Page: 1 1
%%BeginPageSetup
%%PageBoundingBox:  -259    59   884   786
MathWorks begin
bpage
%%EndPageSetup

%%BeginObject: obj1
bplot

/dpi2point 12 def
portraitMode -5064 9384 csm

 1947   -48 13731  8719 rc
94 dict begin %Colortable dictionary
/c0 { 0.000000 0.000000 0.000000 sr} bdef
/c1 { 1.000000 1.000000 1.000000 sr} bdef
/c2 { 0.900000 0.000000 0.000000 sr} bdef
/c3 { 0.000000 0.820000 0.000000 sr} bdef
/c4 { 0.000000 0.000000 0.800000 sr} bdef
/c5 { 0.910000 0.820000 0.320000 sr} bdef
/c6 { 1.000000 0.260000 0.820000 sr} bdef
/c7 { 0.000000 0.820000 0.820000 sr} bdef
c0
1 j
1 sg
   0    0 17295 8672 rf
6 w
0 6843 11045 0 0 -6843 2248 7673 4 MP
PP
-11045 0 0 6843 11045 0 0 -6843 2248 7673 5 MP stroke
4 w
DO
0 sg
2248 7673 mt 2248  830 L
2248  830 mt 2248  830 L
3826 7673 mt 3826  830 L
3826  830 mt 3826  830 L
5404 7673 mt 5404  830 L
5404  830 mt 5404  830 L
6982 7673 mt 6982  830 L
6982  830 mt 6982  830 L
8560 7673 mt 8560  830 L
8560  830 mt 8560  830 L
10138 7673 mt 10138  830 L
10138  830 mt 10138  830 L
11716 7673 mt 11716  830 L
11716  830 mt 11716  830 L
13294 7673 mt 13294  830 L
13294  830 mt 13294  830 L
2248 7673 mt 13294 7673 L
13294 7673 mt 13294 7673 L
2248 5962 mt 13294 5962 L
13294 5962 mt 13294 5962 L
2248 4251 mt 13294 4251 L
13294 4251 mt 13294 4251 L
2248 2540 mt 13294 2540 L
13294 2540 mt 13294 2540 L
2248  830 mt 13294  830 L
13294  830 mt 13294  830 L
SO
6 w
2248  830 mt 13293  830 L
2248 7673 mt 13293 7673 L
13293 7673 mt 13293  830 L
2248 7673 mt 2248  830 L
2248 7673 mt 13293 7673 L
2248 7673 mt 2248  830 L
2248 7673 mt 2248 7562 L
2248  830 mt 2248  940 L
%%IncludeResource: font Helvetica
/Helvetica /WindowsLatin1Encoding 480 FMSR

1982 8153 mt 
(10) s
3826 7673 mt 3826 7562 L
3826  830 mt 3826  940 L
3560 8153 mt 
(20) s
5404 7673 mt 5404 7562 L
5404  830 mt 5404  940 L
5138 8153 mt 
(30) s
6982 7673 mt 6982 7562 L
6982  830 mt 6982  940 L
6716 8153 mt 
(40) s
8560 7673 mt 8560 7562 L
8560  830 mt 8560  940 L
8294 8153 mt 
(50) s
10138 7673 mt 10138 7562 L
10138  830 mt 10138  940 L
9872 8153 mt 
(60) s
11716 7673 mt 11716 7562 L
11716  830 mt 11716  940 L
11450 8153 mt 
(70) s
13294 7673 mt 13294 7562 L
13294  830 mt 13294  940 L
13028 8153 mt 
(80) s
2248 7673 mt 2358 7673 L
13294 7673 mt 13183 7673 L
1947 7851 mt 
(0) s
2248 5962 mt 2358 5962 L
13294 5962 mt 13183 5962 L
1947 6140 mt 
(2) s
2248 4251 mt 2358 4251 L
13294 4251 mt 13183 4251 L
1947 4429 mt 
(4) s
2248 2540 mt 2358 2540 L
13294 2540 mt 13183 2540 L
1947 2718 mt 
(6) s
2248  830 mt 2358  830 L
13294  830 mt 13183  830 L
1947 1008 mt 
(8) s
2248  776 mt 
(x 10) s
%%IncludeResource: font Helvetica
/Helvetica /WindowsLatin1Encoding 320 FMSR

3155  479 mt 
(-3) s
2248  830 mt 13293  830 L
2248 7673 mt 13293 7673 L
13293 7673 mt 13293  830 L
2248 7673 mt 2248  830 L
gs 2248 830 11047 6844 rc
36 w
/c8 { 0.000000 0.000000 1.000000 sr} bdef
c8
1578 0 1577 0 1578 0 1579 0 1577 0 1578 0 1578 0 2248 7672 8 MP stroke
gr

36 w
c8
gs 2030 7454 11482 437 rc
  90   90 2248 7672 FO
  90   90 3826 7672 FO
  90   90 5404 7672 FO
  90   90 6981 7672 FO
  90   90 8560 7672 FO
  90   90 10138 7672 FO
  90   90 11715 7672 FO
  90   90 13293 7672 FO
gr

gs 2248 830 11047 6844 rc
DO
/c9 { 1.000000 0.000000 0.000000 sr} bdef
c9
1578 0 1577 0 1578 0 1579 0 1577 0 1578 0 1578 0 2248 7672 8 MP stroke
gr

c9
DO
gs 2030 7454 11482 437 rc
SO
0 j
104 179 -208 0 104 -179 2248 7791 4 MP
DP
104 179 -208 0 104 -179 3826 7791 4 MP
DP
104 179 -208 0 104 -179 5404 7791 4 MP
DP
104 179 -208 0 104 -179 6981 7791 4 MP
DP
104 179 -208 0 104 -179 8560 7791 4 MP
DP
104 179 -208 0 104 -179 10138 7791 4 MP
DP
104 179 -208 0 104 -179 11715 7791 4 MP
DP
104 179 -208 0 104 -179 13293 7791 4 MP
DP
DO
gr

gs 2248 830 11047 6844 rc
DD
/c10 { 0.000000 1.000000 0.000000 sr} bdef
c10
1578 0 1577 0 1578 0 1579 0 1577 0 1578 0 1578 0 2248 7672 8 MP stroke
gr

c10
DD
gs 2030 7454 11482 437 rc
SO
2185 7609 mt 2311 7735 L
2311 7609 mt 2185 7735 L
3763 7609 mt 3889 7735 L
3889 7609 mt 3763 7735 L
5341 7609 mt 5467 7735 L
5467 7609 mt 5341 7735 L
6918 7609 mt 7044 7735 L
7044 7609 mt 6918 7735 L
8497 7609 mt 8623 7735 L
8623 7609 mt 8497 7735 L
10075 7609 mt 10201 7735 L
10201 7609 mt 10075 7735 L
11652 7609 mt 11778 7735 L
11778 7609 mt 11652 7735 L
13230 7609 mt 13356 7735 L
13356 7609 mt 13230 7735 L
DD
gr

gs 2248 830 11047 6844 rc
DA
/c11 { 0.000000 0.000000 0.172414 sr} bdef
c11
1578 0 1577 0 1578 0 1579 0 1577 0 1578 0 1578 0 2248 7672 8 MP stroke
gr

c11
DA
gs 2030 7454 11482 437 rc
SO
2158 7672 mt 2338 7672 L
2248 7582 mt 2248 7762 L
3736 7672 mt 3916 7672 L
3826 7582 mt 3826 7762 L
5314 7672 mt 5494 7672 L
5404 7582 mt 5404 7762 L
6891 7672 mt 7071 7672 L
6981 7582 mt 6981 7762 L
8470 7672 mt 8650 7672 L
8560 7582 mt 8560 7762 L
10048 7672 mt 10228 7672 L
10138 7582 mt 10138 7762 L
11625 7672 mt 11805 7672 L
11715 7582 mt 11715 7762 L
13203 7672 mt 13383 7672 L
13293 7582 mt 13293 7762 L
2185 7609 mt 2311 7735 L
2311 7609 mt 2185 7735 L
3763 7609 mt 3889 7735 L
3889 7609 mt 3763 7735 L
5341 7609 mt 5467 7735 L
5467 7609 mt 5341 7735 L
6918 7609 mt 7044 7735 L
7044 7609 mt 6918 7735 L
8497 7609 mt 8623 7735 L
8623 7609 mt 8497 7735 L
10075 7609 mt 10201 7735 L
10201 7609 mt 10075 7735 L
11652 7609 mt 11778 7735 L
11778 7609 mt 11652 7735 L
13230 7609 mt 13356 7735 L
13356 7609 mt 13230 7735 L
DA
gr

gs 2248 830 11047 6844 rc
SO
/c12 { 1.000000 0.103448 0.724138 sr} bdef
c12
1578 -234 1577 86 1578 3692 1579 1547 1577 -781 1578 -4547 1578 6 2248 7661 8 MP stroke
gr

c12
SO
gs 2030 2121 11482 5765 rc
0 j
0 -142 -142 0 0 142 142 0 2177 7590 5 MP
DP
0 -142 -142 0 0 142 142 0 3755 7596 5 MP
DP
0 -142 -142 0 0 142 142 0 5333 3049 5 MP
DP
0 -142 -142 0 0 142 142 0 6910 2268 5 MP
DP
0 -142 -142 0 0 142 142 0 8489 3815 5 MP
DP
0 -142 -142 0 0 142 142 0 10067 7507 5 MP
DP
0 -142 -142 0 0 142 142 0 11644 7593 5 MP
DP
0 -142 -142 0 0 142 142 0 13222 7359 5 MP
DP
gr

gs 2248 830 11047 6844 rc
DO
/c13 { 0.000000 0.344828 0.000000 sr} bdef
c13
1578 0 1577 0 1578 0 1579 0 1577 0 1578 0 1578 0 2248 7672 8 MP stroke
gr

c13
DO
gs 2030 7454 11482 437 rc
SO
0 j
90 119 -90 119 -90 -119 90 -119 2248 7791 5 MP
DP
90 119 -90 119 -90 -119 90 -119 3826 7791 5 MP
DP
90 119 -90 119 -90 -119 90 -119 5404 7791 5 MP
DP
90 119 -90 119 -90 -119 90 -119 6981 7791 5 MP
DP
90 119 -90 119 -90 -119 90 -119 8560 7791 5 MP
DP
90 119 -90 119 -90 -119 90 -119 10138 7791 5 MP
DP
90 119 -90 119 -90 -119 90 -119 11715 7791 5 MP
DP
90 119 -90 119 -90 -119 90 -119 13293 7791 5 MP
DP
DO
gr

gs 2248 830 11047 6844 rc
DD
1578 0 1577 0 1578 0 1579 0 1577 0 1578 0 1578 0 2248 7672 8 MP stroke
gr

DD
gs 2030 7454 11482 437 rc
SO
60 W
2248 7672 PD
60 W
3826 7672 PD
60 W
5404 7672 PD
60 W
6981 7672 PD
60 W
8560 7672 PD
60 W
10138 7672 PD
60 W
11715 7672 PD
60 W
13293 7672 PD
DD
gr

gs 2248 830 11047 6844 rc
DA
/c14 { 0.517241 0.517241 1.000000 sr} bdef
c14
1578 0 1577 0 1578 0 1579 0 1577 0 1578 0 1578 0 2248 7672 8 MP stroke
gr

c14
DA
gs 2030 7454 11482 437 rc
SO
0 j
-104 179 -104 -179 208 0 2144 7732 4 MP
DP
-104 179 -104 -179 208 0 3722 7732 4 MP
DP
-104 179 -104 -179 208 0 5300 7732 4 MP
DP
-104 179 -104 -179 208 0 6877 7732 4 MP
DP
-104 179 -104 -179 208 0 8456 7732 4 MP
DP
-104 179 -104 -179 208 0 10034 7732 4 MP
DP
-104 179 -104 -179 208 0 11611 7732 4 MP
DP
-104 179 -104 -179 208 0 13189 7732 4 MP
DP
DA
gr

gs 2248 830 11047 6844 rc
SO
/c15 { 0.620690 0.310345 0.275862 sr} bdef
c15
1578 0 1577 0 1578 0 1579 0 1577 0 1578 0 1578 0 2248 7672 8 MP stroke
gr

c15
SO
gs 2030 7454 11482 437 rc
0 j
-179 104 0 -208 179 104 2129 7672 4 MP
DP
-179 104 0 -208 179 104 3707 7672 4 MP
DP
-179 104 0 -208 179 104 5285 7672 4 MP
DP
-179 104 0 -208 179 104 6862 7672 4 MP
DP
-179 104 0 -208 179 104 8441 7672 4 MP
DP
-179 104 0 -208 179 104 10019 7672 4 MP
DP
-179 104 0 -208 179 104 11596 7672 4 MP
DP
-179 104 0 -208 179 104 13174 7672 4 MP
DP
gr

gs 2248 830 11047 6844 rc
DO
/c16 { 0.000000 1.000000 0.758621 sr} bdef
c16
1578 0 1577 0 1578 0 1579 0 1577 0 1578 0 1578 0 2248 7672 8 MP stroke
gr

c16
DO
gs 2030 7454 11482 437 rc
SO
0 j
0 208 -179 -104 179 -104 2188 7776 4 MP
DP
0 208 -179 -104 179 -104 3766 7776 4 MP
DP
0 208 -179 -104 179 -104 5344 7776 4 MP
DP
0 208 -179 -104 179 -104 6921 7776 4 MP
DP
0 208 -179 -104 179 -104 8500 7776 4 MP
DP
0 208 -179 -104 179 -104 10078 7776 4 MP
DP
0 208 -179 -104 179 -104 11655 7776 4 MP
DP
0 208 -179 -104 179 -104 13233 7776 4 MP
DP
DO
gr

gs 2248 830 11047 6844 rc
SO
/c17 { 0.000000 0.517241 0.586207 sr} bdef
c17
1578 0 1577 0 1578 0 1579 0 1577 0 1578 0 1578 0 2248 7672 8 MP stroke
gr

c17
SO
gs 2030 7454 11482 437 rc
0 j
-51 -39 18 -61 -53 36 -52 -36 18 61 -51 39 64 0 21 62 
22 -62 64 0 2162 7644 11 MP
DP
-51 -39 18 -61 -53 36 -52 -36 18 61 -51 39 64 0 21 62 
22 -62 64 0 3740 7644 11 MP
DP
-51 -39 18 -61 -53 36 -52 -36 18 61 -51 39 64 0 21 62 
22 -62 64 0 5318 7644 11 MP
DP
-51 -39 18 -61 -53 36 -52 -36 18 61 -51 39 64 0 21 62 
22 -62 64 0 6895 7644 11 MP
DP
-51 -39 18 -61 -53 36 -52 -36 18 61 -51 39 64 0 21 62 
22 -62 64 0 8474 7644 11 MP
DP
-51 -39 18 -61 -53 36 -52 -36 18 61 -51 39 64 0 21 62 
22 -62 64 0 10052 7644 11 MP
DP
-51 -39 18 -61 -53 36 -52 -36 18 61 -51 39 64 0 21 62 
22 -62 64 0 11629 7644 11 MP
DP
-51 -39 18 -61 -53 36 -52 -36 18 61 -51 39 64 0 21 62 
22 -62 64 0 13207 7644 11 MP
DP
gr

gs 2248 830 11047 6844 rc
DO
/c18 { 0.000000 0.000000 0.482759 sr} bdef
c18
1578 0 1577 0 1578 0 1579 0 1577 0 1578 0 1578 0 2248 7672 8 MP stroke
gr

c18
DO
gs 2030 7454 11482 437 rc
SO
0 j
-32 -45 32 -45 -52 0 -25 -45 -25 45 -52 0 32 45 -32 45 
52 0 25 45 25 -45 52 0 2171 7627 13 MP
DP
-32 -45 32 -45 -52 0 -25 -45 -25 45 -52 0 32 45 -32 45 
52 0 25 45 25 -45 52 0 3749 7627 13 MP
DP
-32 -45 32 -45 -52 0 -25 -45 -25 45 -52 0 32 45 -32 45 
52 0 25 45 25 -45 52 0 5327 7627 13 MP
DP
-32 -45 32 -45 -52 0 -25 -45 -25 45 -52 0 32 45 -32 45 
52 0 25 45 25 -45 52 0 6904 7627 13 MP
DP
-32 -45 32 -45 -52 0 -25 -45 -25 45 -52 0 32 45 -32 45 
52 0 25 45 25 -45 52 0 8483 7627 13 MP
DP
-32 -45 32 -45 -52 0 -25 -45 -25 45 -52 0 32 45 -32 45 
52 0 25 45 25 -45 52 0 10061 7627 13 MP
DP
-32 -45 32 -45 -52 0 -25 -45 -25 45 -52 0 32 45 -32 45 
52 0 25 45 25 -45 52 0 11638 7627 13 MP
DP
-32 -45 32 -45 -52 0 -25 -45 -25 45 -52 0 32 45 -32 45 
52 0 25 45 25 -45 52 0 13216 7627 13 MP
DP
DO
gr

gs 2248 830 11047 6844 rc
gr

0 sg
%%IncludeResource: font Helvetica
/Helvetica /WindowsLatin1Encoding 480 FMSR

5299  446 mt 
(Wilcoxon rank sum test) s
5753 8561 mt 
(Elements swapped) s
%%IncludeResource: font Helvetica
/Helvetica /WindowsLatin1Encoding 120 FMSR

2231 7716 mt 
( ) s
13278  872 mt 
( ) s
SO
6 w
1 sg
0 6786 2213 0 0 -6786 13415 7616 4 MP
PP
-2213 0 0 6786 2213 0 0 -6786 13415 7616 5 MP stroke
4 w
DO
SO
6 w
0 sg
13415  830 mt 15628  830 L
13415 7616 mt 15628 7616 L
15628 7616 mt 15628  830 L
13415 7616 mt 13415  830 L
13415 7616 mt 15628 7616 L
13415 7616 mt 13415  830 L
13415  830 mt 15628  830 L
13415 7616 mt 15628 7616 L
15628 7616 mt 15628  830 L
13415 7616 mt 13415  830 L
%%IncludeResource: font Helvetica
/Helvetica /WindowsLatin1Encoding 480 FMSR

13877 1301 mt 
(scpnrh4) s
gs 13415 830 2214 6787 rc
36 w
c8
355 0 13486 1131 2 MP stroke
gs 13445 913 437 437 rc
  90   90 13663 1131 FO
gr

gr

36 w
c8
0 sg
13877 1863 mt 
(scpnrg3) s
gs 13415 830 2214 6787 rc
DO
c9
355 0 13486 1693 2 MP stroke
SO
gs 13445 1475 437 437 rc
0 j
104 179 -208 0 104 -179 13663 1812 4 MP
DP
gr

gr

c9
0 sg
13877 2425 mt 
(scpnrf2) s
gs 13415 830 2214 6787 rc
DD
c10
355 0 13486 2255 2 MP stroke
SO
gs 13445 2037 437 437 rc
13600 2192 mt 13726 2318 L
13726 2192 mt 13600 2318 L
gr

gr

c10
0 sg
13877 2987 mt 
(scpnre1) s
gs 13415 830 2214 6787 rc
DA
c11
355 0 13486 2817 2 MP stroke
SO
gs 13445 2599 437 437 rc
13573 2817 mt 13753 2817 L
13663 2727 mt 13663 2907 L
13600 2754 mt 13726 2880 L
13726 2754 mt 13600 2880 L
gr

gr

c11
0 sg
13877 3549 mt 
(scpe1) s
gs 13415 830 2214 6787 rc
c12
355 0 13486 3379 2 MP stroke
gs 13445 3161 437 437 rc
0 j
0 -142 -142 0 0 142 142 0 13592 3308 5 MP
DP
gr

gr

c12
0 sg
13877 4111 mt 
(scpd2) s
gs 13415 830 2214 6787 rc
DO
c13
355 0 13486 3941 2 MP stroke
SO
gs 13445 3723 437 437 rc
0 j
90 119 -90 119 -90 -119 90 -119 13663 4060 5 MP
DP
gr

gr

c13
0 sg
13877 4674 mt 
(scpc3) s
gs 13415 830 2214 6787 rc
DD
c13
355 0 13486 4504 2 MP stroke
SO
gs 13445 4286 437 437 rc
60 W
13663 4504 PD
gr

gr

c13
0 sg
13877 5236 mt 
(scpb4) s
gs 13415 830 2214 6787 rc
DA
c14
355 0 13486 5066 2 MP stroke
SO
gs 13445 4848 437 437 rc
0 j
-104 179 -104 -179 208 0 13559 5126 4 MP
DP
gr

gr

c14
0 sg
13877 5798 mt 
(scpa5) s
gs 13415 830 2214 6787 rc
c15
355 0 13486 5628 2 MP stroke
gs 13445 5410 437 437 rc
0 j
-179 104 0 -208 179 104 13544 5628 4 MP
DP
gr

gr

c15
0 sg
13877 6360 mt 
(scp63) s
gs 13415 830 2214 6787 rc
DO
c16
355 0 13486 6190 2 MP stroke
SO
gs 13445 5972 437 437 rc
0 j
0 208 -179 -104 179 -104 13603 6294 4 MP
DP
gr

gr

c16
0 sg
13877 6922 mt 
(scp52) s
gs 13415 830 2214 6787 rc
c17
355 0 13486 6752 2 MP stroke
gs 13445 6534 437 437 rc
0 j
-51 -39 18 -61 -53 36 -52 -36 18 61 -51 39 64 0 21 62 
22 -62 64 0 13577 6724 11 MP
DP
gr

gr

c17
0 sg
13877 7484 mt 
(scp41) s
gs 13415 830 2214 6787 rc
DO
c18
355 0 13486 7314 2 MP stroke
SO
gs 13445 7096 437 437 rc
0 j
-32 -45 32 -45 -52 0 -25 -45 -25 45 -52 0 32 45 -32 45 
52 0 25 45 25 -45 52 0 13586 7269 13 MP
DP
gr

6 w
gr

6 w
c18

end %%Color Dict

eplot
%%EndObject

epage
end

showpage

%%Trailer
%%EOF
