%!PS-Adobe-3.0 EPSF-3.0
%%Creator: MATLAB, The MathWorks, Inc. Version 8.2.0.701 (R2013b). Operating System: Microsoft Windows 8.
%%Title: .\edit3.eps
%%CreationDate: 05/17/2016  20:09:10
%%DocumentNeededFonts: Helvetica
%%DocumentProcessColors: Cyan Magenta Yellow Black
%%LanguageLevel: 2
%%Pages: 1
%%BoundingBox:  -293    59   908   786
%%EndComments

%%BeginProlog
% MathWorks dictionary
/MathWorks 160 dict begin
% definition operators
/bdef {bind def} bind def
/ldef {load def} bind def
/xdef {exch def} bdef
/xstore {exch store} bdef
% operator abbreviations
/c  /clip ldef
/cc /concat ldef
/cp /closepath ldef
/gr /grestore ldef
/gs /gsave ldef
/mt /moveto ldef
/np /newpath ldef
/cm /currentmatrix ldef
/sm /setmatrix ldef
/rm /rmoveto ldef
/rl /rlineto ldef
/s {show newpath} bdef
/sc {setcmykcolor} bdef
/sr /setrgbcolor ldef
/sg /setgray ldef
/w /setlinewidth ldef
/j /setlinejoin ldef
/cap /setlinecap ldef
/rc {rectclip} bdef
/rf {rectfill} bdef
% page state control
/pgsv () def
/bpage {/pgsv save def} bdef
/epage {pgsv restore} bdef
/bplot /gsave ldef
/eplot {stroke grestore} bdef
% orientation switch
/portraitMode 0 def /landscapeMode 1 def /rotateMode 2 def
% coordinate system mappings
/dpi2point 0 def
% font control
/FontSize 0 def
/FMS {/FontSize xstore findfont [FontSize 0 0 FontSize neg 0 0]
  makefont setfont} bdef
/ISOLatin1Encoding where {pop /WindowsLatin1Encoding 256 array bdef
ISOLatin1Encoding WindowsLatin1Encoding copy pop
/.notdef/.notdef/quotesinglbase/florin/quotedblbase/ellipsis/dagger
/daggerdbl/circumflex/perthousand/Scaron/guilsinglleft/OE/.notdef/.notdef
/.notdef/.notdef/quoteleft/quoteright/quotedblleft/quotedblright/bullet
/endash/emdash/tilde/trademark/scaron/guilsinglright/oe/.notdef/.notdef
/Ydieresis WindowsLatin1Encoding 128 32 getinterval astore pop}
{/WindowsLatin1Encoding StandardEncoding bdef} ifelse
/reencode {exch dup where {pop load} {pop StandardEncoding} ifelse
  exch dup 3 1 roll findfont dup length dict begin
  { 1 index /FID ne {def}{pop pop} ifelse } forall
  /Encoding exch def currentdict end definefont pop} bdef
/isroman {findfont /CharStrings get /Agrave known} bdef
/FMSR {3 1 roll 1 index dup isroman {reencode} {pop pop} ifelse
  exch FMS} bdef
/csm {1 dpi2point div -1 dpi2point div scale neg translate
 dup landscapeMode eq {pop -90 rotate}
  {rotateMode eq {90 rotate} if} ifelse} bdef
% line types: solid, dotted, dashed, dotdash
/SO { [] 0 setdash } bdef
/DO { [.5 dpi2point mul 4 dpi2point mul] 0 setdash } bdef
/DA { [6 dpi2point mul] 0 setdash } bdef
/DD { [.5 dpi2point mul 4 dpi2point mul 6 dpi2point mul 4
  dpi2point mul] 0 setdash } bdef
% macros for lines and objects
/L {lineto stroke} bdef
/MP {3 1 roll moveto 1 sub {rlineto} repeat} bdef
/AP {{rlineto} repeat} bdef
/PDlw -1 def
/W {/PDlw currentlinewidth def setlinewidth} def
/PP {closepath eofill} bdef
/DP {closepath stroke} bdef
/MR {4 -2 roll moveto dup  0 exch rlineto exch 0 rlineto
  neg 0 exch rlineto closepath} bdef
/FR {MR stroke} bdef
/PR {MR fill} bdef
/L1i {{currentfile picstr readhexstring pop} image} bdef
/tMatrix matrix def
/MakeOval {newpath tMatrix currentmatrix pop translate scale
0 0 1 0 360 arc tMatrix setmatrix} bdef
/FO {MakeOval stroke} bdef
/PO {MakeOval fill} bdef
/PD {currentlinewidth 2 div 0 360 arc fill
   PDlw -1 eq not {PDlw w /PDlw -1 def} if} def
/FA {newpath tMatrix currentmatrix pop translate scale
  0 0 1 5 -2 roll arc tMatrix setmatrix stroke} bdef
/PA {newpath tMatrix currentmatrix pop	translate 0 0 moveto scale
  0 0 1 5 -2 roll arc closepath tMatrix setmatrix fill} bdef
/FAn {newpath tMatrix currentmatrix pop translate scale
  0 0 1 5 -2 roll arcn tMatrix setmatrix stroke} bdef
/PAn {newpath tMatrix currentmatrix pop translate 0 0 moveto scale
  0 0 1 5 -2 roll arcn closepath tMatrix setmatrix fill} bdef
/vradius 0 def /hradius 0 def /lry 0 def
/lrx 0 def /uly 0 def /ulx 0 def /rad 0 def
/MRR {/vradius xdef /hradius xdef /lry xdef /lrx xdef /uly xdef
  /ulx xdef newpath tMatrix currentmatrix pop ulx hradius add uly
  vradius add translate hradius vradius scale 0 0 1 180 270 arc 
  tMatrix setmatrix lrx hradius sub uly vradius add translate
  hradius vradius scale 0 0 1 270 360 arc tMatrix setmatrix
  lrx hradius sub lry vradius sub translate hradius vradius scale
  0 0 1 0 90 arc tMatrix setmatrix ulx hradius add lry vradius sub
  translate hradius vradius scale 0 0 1 90 180 arc tMatrix setmatrix
  closepath} bdef
/FRR {MRR stroke } bdef
/PRR {MRR fill } bdef
/MlrRR {/lry xdef /lrx xdef /uly xdef /ulx xdef /rad lry uly sub 2 div def
  newpath tMatrix currentmatrix pop ulx rad add uly rad add translate
  rad rad scale 0 0 1 90 270 arc tMatrix setmatrix lrx rad sub lry rad
  sub translate rad rad scale 0 0 1 270 90 arc tMatrix setmatrix
  closepath} bdef
/FlrRR {MlrRR stroke } bdef
/PlrRR {MlrRR fill } bdef
/MtbRR {/lry xdef /lrx xdef /uly xdef /ulx xdef /rad lrx ulx sub 2 div def
  newpath tMatrix currentmatrix pop ulx rad add uly rad add translate
  rad rad scale 0 0 1 180 360 arc tMatrix setmatrix lrx rad sub lry rad
  sub translate rad rad scale 0 0 1 0 180 arc tMatrix setmatrix
  closepath} bdef
/FtbRR {MtbRR stroke } bdef
/PtbRR {MtbRR fill } bdef
/stri 6 array def /dtri 6 array def
/smat 6 array def /dmat 6 array def
/tmat1 6 array def /tmat2 6 array def /dif 3 array def
/asub {/ind2 exch def /ind1 exch def dup dup
  ind1 get exch ind2 get sub exch } bdef
/tri_to_matrix {
  2 0 asub 3 1 asub 4 0 asub 5 1 asub
  dup 0 get exch 1 get 7 -1 roll astore } bdef
/compute_transform {
  dmat dtri tri_to_matrix tmat1 invertmatrix 
  smat stri tri_to_matrix tmat2 concatmatrix } bdef
/ds {stri astore pop} bdef
/dt {dtri astore pop} bdef
/db {2 copy /cols xdef /rows xdef mul dup 3 mul string
  currentfile 
  3 index 0 eq {/ASCIIHexDecode filter}
  {/ASCII85Decode filter 3 index 2 eq {/RunLengthDecode filter} if }
  ifelse exch readstring pop
  dup 0 3 index getinterval /rbmap xdef
  dup 2 index dup getinterval /gbmap xdef
  1 index dup 2 mul exch getinterval /bbmap xdef pop pop}bdef
/it {gs np dtri aload pop moveto lineto lineto cp c
  cols rows 8 compute_transform 
  rbmap gbmap bbmap true 3 colorimage gr}bdef
/il {newpath moveto lineto stroke}bdef
currentdict end def
%%EndProlog

%%BeginSetup
MathWorks begin

0 cap

end
%%EndSetup

%%Page: 1 1
%%BeginPageSetup
%%PageBoundingBox:  -293    59   908   786
MathWorks begin
bpage
%%EndPageSetup

%%BeginObject: obj1
bplot

/dpi2point 12 def
portraitMode -5064 9384 csm

 1546   -48 14421  8719 rc
94 dict begin %Colortable dictionary
/c0 { 0.000000 0.000000 0.000000 sr} bdef
/c1 { 1.000000 1.000000 1.000000 sr} bdef
/c2 { 0.900000 0.000000 0.000000 sr} bdef
/c3 { 0.000000 0.820000 0.000000 sr} bdef
/c4 { 0.000000 0.000000 0.800000 sr} bdef
/c5 { 0.910000 0.820000 0.320000 sr} bdef
/c6 { 1.000000 0.260000 0.820000 sr} bdef
/c7 { 0.000000 0.820000 0.820000 sr} bdef
c0
1 j
1 sg
   0    0 17295 8672 rf
6 w
0 6626 13404 0 0 -6626 2247 7673 4 MP
PP
-13404 0 0 6626 13404 0 0 -6626 2247 7673 5 MP stroke
4 w
DO
0 sg
2247 7673 mt 2247 1048 L
2247 1048 mt 2247 1048 L
4162 7673 mt 4162 1048 L
4162 1048 mt 4162 1048 L
6077 7673 mt 6077 1048 L
6077 1048 mt 6077 1048 L
7992 7673 mt 7992 1048 L
7992 1048 mt 7992 1048 L
9906 7673 mt 9906 1048 L
9906 1048 mt 9906 1048 L
11821 7673 mt 11821 1048 L
11821 1048 mt 11821 1048 L
13736 7673 mt 13736 1048 L
13736 1048 mt 13736 1048 L
15651 7673 mt 15651 1048 L
15651 1048 mt 15651 1048 L
2247 7673 mt 15651 7673 L
15651 7673 mt 15651 7673 L
2247 6568 mt 15651 6568 L
15651 6568 mt 15651 6568 L
2247 5464 mt 15651 5464 L
15651 5464 mt 15651 5464 L
2247 4360 mt 15651 4360 L
15651 4360 mt 15651 4360 L
2247 3256 mt 15651 3256 L
15651 3256 mt 15651 3256 L
2247 2152 mt 15651 2152 L
15651 2152 mt 15651 2152 L
2247 1048 mt 15651 1048 L
15651 1048 mt 15651 1048 L
SO
6 w
2247 1047 mt 15651 1047 L
2247 7673 mt 15651 7673 L
15651 7673 mt 15651 1047 L
2247 7673 mt 2247 1047 L
2247 7673 mt 15651 7673 L
2247 7673 mt 2247 1047 L
2247 7673 mt 2247 7538 L
2247 1048 mt 2247 1182 L
%%IncludeResource: font Helvetica
/Helvetica /WindowsLatin1Encoding 480 FMSR

1981 8153 mt 
(10) s
4162 7673 mt 4162 7538 L
4162 1048 mt 4162 1182 L
3896 8153 mt 
(20) s
6077 7673 mt 6077 7538 L
6077 1048 mt 6077 1182 L
5811 8153 mt 
(30) s
7992 7673 mt 7992 7538 L
7992 1048 mt 7992 1182 L
7726 8153 mt 
(40) s
9906 7673 mt 9906 7538 L
9906 1048 mt 9906 1182 L
9640 8153 mt 
(50) s
11821 7673 mt 11821 7538 L
11821 1048 mt 11821 1182 L
11555 8153 mt 
(60) s
13736 7673 mt 13736 7538 L
13736 1048 mt 13736 1182 L
13470 8153 mt 
(70) s
15651 7673 mt 15651 7538 L
15651 1048 mt 15651 1182 L
15385 8153 mt 
(80) s
2247 7673 mt 2382 7673 L
15651 7673 mt 15516 7673 L
1947 7851 mt 
(0) s
2247 6568 mt 2382 6568 L
15651 6568 mt 15516 6568 L
1546 6746 mt 
(0.5) s
2247 5464 mt 2382 5464 L
15651 5464 mt 15516 5464 L
1947 5642 mt 
(1) s
2247 4360 mt 2382 4360 L
15651 4360 mt 15516 4360 L
1546 4538 mt 
(1.5) s
2247 3256 mt 2382 3256 L
15651 3256 mt 15516 3256 L
1947 3434 mt 
(2) s
2247 2152 mt 2382 2152 L
15651 2152 mt 15516 2152 L
1546 2330 mt 
(2.5) s
2247 1048 mt 2382 1048 L
15651 1048 mt 15516 1048 L
1947 1226 mt 
(3) s
2247  994 mt 
(x 10) s
%%IncludeResource: font Helvetica
/Helvetica /WindowsLatin1Encoding 320 FMSR

3154  697 mt 
(4) s
2247 1047 mt 15651 1047 L
2247 7673 mt 15651 7673 L
15651 7673 mt 15651 1047 L
2247 7673 mt 2247 1047 L
gs 2248 1048 13404 6626 rc
36 w
/c8 { 0.000000 0.000000 1.000000 sr} bdef
c8
1915 54 1915 166 1915 138 1914 73 1915 163 1915 112 1914 301 2248 6469 8 MP stroke
gr

36 w
c8
gs 2030 6251 13840 1444 rc
  90   90 4162 6770 FO
  90   90 6077 6882 FO
  90   90 7992 7045 FO
  90   90 9906 7118 FO
  90   90 11821 7256 FO
  90   90 13736 7422 FO
  90   90 15651 7476 FO
gr

gs 2248 1048 13404 6626 rc
DO
/c9 { 1.000000 0.000000 0.000000 sr} bdef
c9
1915 -421 1915 1431 1915 261 1914 1251 1915 531 1915 -127 1914 1134 2248 2067 8 MP stroke
gr

c9
DO
gs 2030 1849 13840 4918 rc
SO
0 j
104 179 -208 0 104 -179 4162 3320 4 MP
DP
104 179 -208 0 104 -179 6077 3193 4 MP
DP
104 179 -208 0 104 -179 7992 3724 4 MP
DP
104 179 -208 0 104 -179 9906 4975 4 MP
DP
104 179 -208 0 104 -179 11821 5236 4 MP
DP
104 179 -208 0 104 -179 13736 6667 4 MP
DP
104 179 -208 0 104 -179 15651 6246 4 MP
DP
DO
gr

gs 2248 1048 13404 6626 rc
DD
/c10 { 0.000000 1.000000 0.000000 sr} bdef
c10
1915 16 1915 2 1915 9 1914 2 1915 3 1915 11 1914 5 2248 7616 8 MP stroke
gr

c10
DD
gs 2030 7398 13840 485 rc
SO
4099 7558 mt 4225 7684 L
4225 7558 mt 4099 7684 L
6014 7569 mt 6140 7695 L
6140 7569 mt 6014 7695 L
7929 7572 mt 8055 7698 L
8055 7572 mt 7929 7698 L
9843 7574 mt 9969 7700 L
9969 7574 mt 9843 7700 L
11758 7583 mt 11884 7709 L
11884 7583 mt 11758 7709 L
13673 7585 mt 13799 7711 L
13799 7585 mt 13673 7711 L
15588 7601 mt 15714 7727 L
15714 7601 mt 15588 7727 L
DD
gr

gs 2248 1048 13404 6626 rc
DA
/c11 { 0.000000 0.000000 0.172414 sr} bdef
c11
1915 11 1915 18 1915 39 1914 45 1915 -13 1915 61 1914 30 2248 7436 8 MP stroke
gr

c11
DA
gs 2030 7218 13840 628 rc
SO
4072 7466 mt 4252 7466 L
4162 7376 mt 4162 7556 L
5987 7527 mt 6167 7527 L
6077 7437 mt 6077 7617 L
7902 7514 mt 8082 7514 L
7992 7424 mt 7992 7604 L
9816 7559 mt 9996 7559 L
9906 7469 mt 9906 7649 L
11731 7598 mt 11911 7598 L
11821 7508 mt 11821 7688 L
13646 7616 mt 13826 7616 L
13736 7526 mt 13736 7706 L
15561 7627 mt 15741 7627 L
15651 7537 mt 15651 7717 L
4099 7403 mt 4225 7529 L
4225 7403 mt 4099 7529 L
6014 7464 mt 6140 7590 L
6140 7464 mt 6014 7590 L
7929 7451 mt 8055 7577 L
8055 7451 mt 7929 7577 L
9843 7496 mt 9969 7622 L
9969 7496 mt 9843 7622 L
11758 7535 mt 11884 7661 L
11884 7535 mt 11758 7661 L
13673 7553 mt 13799 7679 L
13799 7553 mt 13673 7679 L
15588 7564 mt 15714 7690 L
15714 7564 mt 15588 7690 L
DA
gr

gs 2248 1048 13404 6626 rc
SO
/c12 { 1.000000 0.103448 0.724138 sr} bdef
c12
1915 -6 1915 9 1915 3 1914 -1 1915 0 1915 3 1914 6 2248 7649 8 MP stroke
gr

c12
SO
gs 2030 7431 13840 457 rc
0 j
0 -142 -142 0 0 142 142 0 4091 7584 5 MP
DP
0 -142 -142 0 0 142 142 0 6006 7587 5 MP
DP
0 -142 -142 0 0 142 142 0 7921 7587 5 MP
DP
0 -142 -142 0 0 142 142 0 9835 7586 5 MP
DP
0 -142 -142 0 0 142 142 0 11750 7589 5 MP
DP
0 -142 -142 0 0 142 142 0 13665 7598 5 MP
DP
0 -142 -142 0 0 142 142 0 15580 7592 5 MP
DP
gr

gs 2248 1048 13404 6626 rc
DO
/c13 { 0.000000 0.344828 0.000000 sr} bdef
c13
1915 170 1915 66 1915 93 1914 90 1915 32 1915 110 1914 139 2248 6883 8 MP stroke
gr

c13
DO
gs 2030 6665 13840 1137 rc
SO
0 j
90 119 -90 119 -90 -119 90 -119 4162 7141 5 MP
DP
90 119 -90 119 -90 -119 90 -119 6077 7251 5 MP
DP
90 119 -90 119 -90 -119 90 -119 7992 7283 5 MP
DP
90 119 -90 119 -90 -119 90 -119 9906 7373 5 MP
DP
90 119 -90 119 -90 -119 90 -119 11821 7466 5 MP
DP
90 119 -90 119 -90 -119 90 -119 13736 7532 5 MP
DP
90 119 -90 119 -90 -119 90 -119 15651 7702 5 MP
DP
DO
gr

gs 2248 1048 13404 6626 rc
DD
1915 -32 1915 424 1915 1035 1914 -115 1915 1035 1915 132 1914 97 2248 4261 8 MP stroke
gr

DD
gs 2030 4043 13840 3045 rc
SO
60 W
4162 4358 PD
60 W
6077 4490 PD
60 W
7992 5525 PD
60 W
9906 5410 PD
60 W
11821 6445 PD
60 W
13736 6869 PD
60 W
15651 6837 PD
DD
gr

gs 2248 1048 13404 6626 rc
DA
/c14 { 0.517241 0.517241 1.000000 sr} bdef
c14
1915 163 1915 -34 1915 52 1914 50 1915 127 1915 76 1914 183 2248 6942 8 MP stroke
gr

c14
DA
gs 2030 6724 13840 1054 rc
SO
0 j
-104 179 -104 -179 208 0 4058 7185 4 MP
DP
-104 179 -104 -179 208 0 5973 7261 4 MP
DP
-104 179 -104 -179 208 0 7888 7388 4 MP
DP
-104 179 -104 -179 208 0 9802 7438 4 MP
DP
-104 179 -104 -179 208 0 11717 7490 4 MP
DP
-104 179 -104 -179 208 0 13632 7456 4 MP
DP
-104 179 -104 -179 208 0 15547 7619 4 MP
DP
DA
gr

gs 2248 1048 13404 6626 rc
SO
/c15 { 0.620690 0.310345 0.275862 sr} bdef
c15
1915 668 1915 212 1915 359 1914 76 1915 472 1915 347 1914 531 2248 4422 8 MP stroke
gr

c15
SO
gs 2030 4204 13840 3102 rc
0 j
-179 104 0 -208 179 104 4043 4953 4 MP
DP
-179 104 0 -208 179 104 5958 5300 4 MP
DP
-179 104 0 -208 179 104 7873 5772 4 MP
DP
-179 104 0 -208 179 104 9787 5848 4 MP
DP
-179 104 0 -208 179 104 11702 6207 4 MP
DP
-179 104 0 -208 179 104 13617 6419 4 MP
DP
-179 104 0 -208 179 104 15532 7087 4 MP
DP
gr

gs 2248 1048 13404 6626 rc
DO
/c16 { 0.000000 1.000000 0.758621 sr} bdef
c16
1915 -54 1915 84 1915 49 1914 72 1915 88 1915 63 1914 45 2248 7105 8 MP stroke
gr

c16
DO
gs 2030 6887 13840 838 rc
SO
0 j
0 208 -179 -104 179 -104 4102 7254 4 MP
DP
0 208 -179 -104 179 -104 6017 7317 4 MP
DP
0 208 -179 -104 179 -104 7932 7405 4 MP
DP
0 208 -179 -104 179 -104 9846 7477 4 MP
DP
0 208 -179 -104 179 -104 11761 7526 4 MP
DP
0 208 -179 -104 179 -104 13676 7610 4 MP
DP
0 208 -179 -104 179 -104 15591 7556 4 MP
DP
DO
gr

gs 2248 1048 13404 6626 rc
SO
/c17 { 0.000000 0.517241 0.586207 sr} bdef
c17
1915 499 1915 -38 1915 435 1914 223 1915 268 1915 287 1914 406 2248 4977 8 MP stroke
gr

c17
SO
gs 2030 4759 13840 2517 rc
0 j
-51 -39 18 -61 -53 36 -52 -36 18 61 -51 39 64 0 21 62 
22 -62 64 0 4076 5355 11 MP
DP
-51 -39 18 -61 -53 36 -52 -36 18 61 -51 39 64 0 21 62 
22 -62 64 0 5991 5642 11 MP
DP
-51 -39 18 -61 -53 36 -52 -36 18 61 -51 39 64 0 21 62 
22 -62 64 0 7906 5910 11 MP
DP
-51 -39 18 -61 -53 36 -52 -36 18 61 -51 39 64 0 21 62 
22 -62 64 0 9820 6133 11 MP
DP
-51 -39 18 -61 -53 36 -52 -36 18 61 -51 39 64 0 21 62 
22 -62 64 0 11735 6568 11 MP
DP
-51 -39 18 -61 -53 36 -52 -36 18 61 -51 39 64 0 21 62 
22 -62 64 0 13650 6530 11 MP
DP
-51 -39 18 -61 -53 36 -52 -36 18 61 -51 39 64 0 21 62 
22 -62 64 0 15565 7029 11 MP
DP
gr

gs 2248 1048 13404 6626 rc
DO
/c18 { 0.000000 0.000000 0.482759 sr} bdef
c18
1915 732 1915 -269 1915 426 1914 137 1915 427 1915 446 1914 377 2248 4561 8 MP stroke
gr

c18
DO
gs 2030 4343 13840 2713 rc
SO
0 j
-32 -45 32 -45 -52 0 -25 -45 -25 45 -52 0 32 45 -32 45 
52 0 25 45 25 -45 52 0 4085 4893 13 MP
DP
-32 -45 32 -45 -52 0 -25 -45 -25 45 -52 0 32 45 -32 45 
52 0 25 45 25 -45 52 0 6000 5339 13 MP
DP
-32 -45 32 -45 -52 0 -25 -45 -25 45 -52 0 32 45 -32 45 
52 0 25 45 25 -45 52 0 7915 5766 13 MP
DP
-32 -45 32 -45 -52 0 -25 -45 -25 45 -52 0 32 45 -32 45 
52 0 25 45 25 -45 52 0 9829 5903 13 MP
DP
-32 -45 32 -45 -52 0 -25 -45 -25 45 -52 0 32 45 -32 45 
52 0 25 45 25 -45 52 0 11744 6329 13 MP
DP
-32 -45 32 -45 -52 0 -25 -45 -25 45 -52 0 32 45 -32 45 
52 0 25 45 25 -45 52 0 13659 6060 13 MP
DP
-32 -45 32 -45 -52 0 -25 -45 -25 45 -52 0 32 45 -32 45 
52 0 25 45 25 -45 52 0 15574 6792 13 MP
DP
DO
gr

gs 2248 1048 13404 6626 rc
gr

0 sg
%%IncludeResource: font Helvetica
/Helvetica /WindowsLatin1Encoding 480 FMSR

3762  446 mt 
(Evaluations to reach feasible region \(D) s
%%IncludeResource: font Helvetica
/Helvetica /WindowsLatin1Encoding 384 FMSR

11969  686 mt 
(e) s
%%IncludeResource: font Helvetica
/Helvetica /WindowsLatin1Encoding 480 FMSR

12182  446 mt 
( feasible\)) s
6931 8561 mt 
(Elements swapped) s
SO
6 w

end %%Color Dict

eplot
%%EndObject

epage
end

showpage

%%Trailer
%%EOF
