%!PS-Adobe-3.0 EPSF-3.0
%%Creator: MATLAB, The MathWorks, Inc. Version 8.2.0.701 (R2013b). Operating System: Microsoft Windows 8.
%%Title: .\edit2.eps
%%CreationDate: 05/17/2016  20:09:10
%%DocumentNeededFonts: Helvetica
%%DocumentProcessColors: Cyan Magenta Yellow Black
%%LanguageLevel: 2
%%Pages: 1
%%BoundingBox:  -293    59   908   786
%%EndComments

%%BeginProlog
% MathWorks dictionary
/MathWorks 160 dict begin
% definition operators
/bdef {bind def} bind def
/ldef {load def} bind def
/xdef {exch def} bdef
/xstore {exch store} bdef
% operator abbreviations
/c  /clip ldef
/cc /concat ldef
/cp /closepath ldef
/gr /grestore ldef
/gs /gsave ldef
/mt /moveto ldef
/np /newpath ldef
/cm /currentmatrix ldef
/sm /setmatrix ldef
/rm /rmoveto ldef
/rl /rlineto ldef
/s {show newpath} bdef
/sc {setcmykcolor} bdef
/sr /setrgbcolor ldef
/sg /setgray ldef
/w /setlinewidth ldef
/j /setlinejoin ldef
/cap /setlinecap ldef
/rc {rectclip} bdef
/rf {rectfill} bdef
% page state control
/pgsv () def
/bpage {/pgsv save def} bdef
/epage {pgsv restore} bdef
/bplot /gsave ldef
/eplot {stroke grestore} bdef
% orientation switch
/portraitMode 0 def /landscapeMode 1 def /rotateMode 2 def
% coordinate system mappings
/dpi2point 0 def
% font control
/FontSize 0 def
/FMS {/FontSize xstore findfont [FontSize 0 0 FontSize neg 0 0]
  makefont setfont} bdef
/ISOLatin1Encoding where {pop /WindowsLatin1Encoding 256 array bdef
ISOLatin1Encoding WindowsLatin1Encoding copy pop
/.notdef/.notdef/quotesinglbase/florin/quotedblbase/ellipsis/dagger
/daggerdbl/circumflex/perthousand/Scaron/guilsinglleft/OE/.notdef/.notdef
/.notdef/.notdef/quoteleft/quoteright/quotedblleft/quotedblright/bullet
/endash/emdash/tilde/trademark/scaron/guilsinglright/oe/.notdef/.notdef
/Ydieresis WindowsLatin1Encoding 128 32 getinterval astore pop}
{/WindowsLatin1Encoding StandardEncoding bdef} ifelse
/reencode {exch dup where {pop load} {pop StandardEncoding} ifelse
  exch dup 3 1 roll findfont dup length dict begin
  { 1 index /FID ne {def}{pop pop} ifelse } forall
  /Encoding exch def currentdict end definefont pop} bdef
/isroman {findfont /CharStrings get /Agrave known} bdef
/FMSR {3 1 roll 1 index dup isroman {reencode} {pop pop} ifelse
  exch FMS} bdef
/csm {1 dpi2point div -1 dpi2point div scale neg translate
 dup landscapeMode eq {pop -90 rotate}
  {rotateMode eq {90 rotate} if} ifelse} bdef
% line types: solid, dotted, dashed, dotdash
/SO { [] 0 setdash } bdef
/DO { [.5 dpi2point mul 4 dpi2point mul] 0 setdash } bdef
/DA { [6 dpi2point mul] 0 setdash } bdef
/DD { [.5 dpi2point mul 4 dpi2point mul 6 dpi2point mul 4
  dpi2point mul] 0 setdash } bdef
% macros for lines and objects
/L {lineto stroke} bdef
/MP {3 1 roll moveto 1 sub {rlineto} repeat} bdef
/AP {{rlineto} repeat} bdef
/PDlw -1 def
/W {/PDlw currentlinewidth def setlinewidth} def
/PP {closepath eofill} bdef
/DP {closepath stroke} bdef
/MR {4 -2 roll moveto dup  0 exch rlineto exch 0 rlineto
  neg 0 exch rlineto closepath} bdef
/FR {MR stroke} bdef
/PR {MR fill} bdef
/L1i {{currentfile picstr readhexstring pop} image} bdef
/tMatrix matrix def
/MakeOval {newpath tMatrix currentmatrix pop translate scale
0 0 1 0 360 arc tMatrix setmatrix} bdef
/FO {MakeOval stroke} bdef
/PO {MakeOval fill} bdef
/PD {currentlinewidth 2 div 0 360 arc fill
   PDlw -1 eq not {PDlw w /PDlw -1 def} if} def
/FA {newpath tMatrix currentmatrix pop translate scale
  0 0 1 5 -2 roll arc tMatrix setmatrix stroke} bdef
/PA {newpath tMatrix currentmatrix pop	translate 0 0 moveto scale
  0 0 1 5 -2 roll arc closepath tMatrix setmatrix fill} bdef
/FAn {newpath tMatrix currentmatrix pop translate scale
  0 0 1 5 -2 roll arcn tMatrix setmatrix stroke} bdef
/PAn {newpath tMatrix currentmatrix pop translate 0 0 moveto scale
  0 0 1 5 -2 roll arcn closepath tMatrix setmatrix fill} bdef
/vradius 0 def /hradius 0 def /lry 0 def
/lrx 0 def /uly 0 def /ulx 0 def /rad 0 def
/MRR {/vradius xdef /hradius xdef /lry xdef /lrx xdef /uly xdef
  /ulx xdef newpath tMatrix currentmatrix pop ulx hradius add uly
  vradius add translate hradius vradius scale 0 0 1 180 270 arc 
  tMatrix setmatrix lrx hradius sub uly vradius add translate
  hradius vradius scale 0 0 1 270 360 arc tMatrix setmatrix
  lrx hradius sub lry vradius sub translate hradius vradius scale
  0 0 1 0 90 arc tMatrix setmatrix ulx hradius add lry vradius sub
  translate hradius vradius scale 0 0 1 90 180 arc tMatrix setmatrix
  closepath} bdef
/FRR {MRR stroke } bdef
/PRR {MRR fill } bdef
/MlrRR {/lry xdef /lrx xdef /uly xdef /ulx xdef /rad lry uly sub 2 div def
  newpath tMatrix currentmatrix pop ulx rad add uly rad add translate
  rad rad scale 0 0 1 90 270 arc tMatrix setmatrix lrx rad sub lry rad
  sub translate rad rad scale 0 0 1 270 90 arc tMatrix setmatrix
  closepath} bdef
/FlrRR {MlrRR stroke } bdef
/PlrRR {MlrRR fill } bdef
/MtbRR {/lry xdef /lrx xdef /uly xdef /ulx xdef /rad lrx ulx sub 2 div def
  newpath tMatrix currentmatrix pop ulx rad add uly rad add translate
  rad rad scale 0 0 1 180 360 arc tMatrix setmatrix lrx rad sub lry rad
  sub translate rad rad scale 0 0 1 0 180 arc tMatrix setmatrix
  closepath} bdef
/FtbRR {MtbRR stroke } bdef
/PtbRR {MtbRR fill } bdef
/stri 6 array def /dtri 6 array def
/smat 6 array def /dmat 6 array def
/tmat1 6 array def /tmat2 6 array def /dif 3 array def
/asub {/ind2 exch def /ind1 exch def dup dup
  ind1 get exch ind2 get sub exch } bdef
/tri_to_matrix {
  2 0 asub 3 1 asub 4 0 asub 5 1 asub
  dup 0 get exch 1 get 7 -1 roll astore } bdef
/compute_transform {
  dmat dtri tri_to_matrix tmat1 invertmatrix 
  smat stri tri_to_matrix tmat2 concatmatrix } bdef
/ds {stri astore pop} bdef
/dt {dtri astore pop} bdef
/db {2 copy /cols xdef /rows xdef mul dup 3 mul string
  currentfile 
  3 index 0 eq {/ASCIIHexDecode filter}
  {/ASCII85Decode filter 3 index 2 eq {/RunLengthDecode filter} if }
  ifelse exch readstring pop
  dup 0 3 index getinterval /rbmap xdef
  dup 2 index dup getinterval /gbmap xdef
  1 index dup 2 mul exch getinterval /bbmap xdef pop pop}bdef
/it {gs np dtri aload pop moveto lineto lineto cp c
  cols rows 8 compute_transform 
  rbmap gbmap bbmap true 3 colorimage gr}bdef
/il {newpath moveto lineto stroke}bdef
currentdict end def
%%EndProlog

%%BeginSetup
MathWorks begin

0 cap

end
%%EndSetup

%%Page: 1 1
%%BeginPageSetup
%%PageBoundingBox:  -293    59   908   786
MathWorks begin
bpage
%%EndPageSetup

%%BeginObject: obj1
bplot

/dpi2point 12 def
portraitMode -5064 9384 csm

 1546   -48 14421  8719 rc
94 dict begin %Colortable dictionary
/c0 { 0.000000 0.000000 0.000000 sr} bdef
/c1 { 1.000000 1.000000 1.000000 sr} bdef
/c2 { 0.900000 0.000000 0.000000 sr} bdef
/c3 { 0.000000 0.820000 0.000000 sr} bdef
/c4 { 0.000000 0.000000 0.800000 sr} bdef
/c5 { 0.910000 0.820000 0.320000 sr} bdef
/c6 { 1.000000 0.260000 0.820000 sr} bdef
/c7 { 0.000000 0.820000 0.820000 sr} bdef
c0
1 j
1 sg
   0    0 17295 8672 rf
6 w
0 6843 13403 0 0 -6843 2248 7673 4 MP
PP
-13403 0 0 6843 13403 0 0 -6843 2248 7673 5 MP stroke
4 w
DO
0 sg
2248 7673 mt 2248  830 L
2248  830 mt 2248  830 L
4162 7673 mt 4162  830 L
4162  830 mt 4162  830 L
6077 7673 mt 6077  830 L
6077  830 mt 6077  830 L
7992 7673 mt 7992  830 L
7992  830 mt 7992  830 L
9906 7673 mt 9906  830 L
9906  830 mt 9906  830 L
11821 7673 mt 11821  830 L
11821  830 mt 11821  830 L
13736 7673 mt 13736  830 L
13736  830 mt 13736  830 L
15651 7673 mt 15651  830 L
15651  830 mt 15651  830 L
2248 7673 mt 15651 7673 L
15651 7673 mt 15651 7673 L
2248 6304 mt 15651 6304 L
15651 6304 mt 15651 6304 L
2248 4935 mt 15651 4935 L
15651 4935 mt 15651 4935 L
2248 3567 mt 15651 3567 L
15651 3567 mt 15651 3567 L
2248 2198 mt 15651 2198 L
15651 2198 mt 15651 2198 L
2248  830 mt 15651  830 L
15651  830 mt 15651  830 L
SO
6 w
2248  830 mt 15651  830 L
2248 7673 mt 15651 7673 L
15651 7673 mt 15651  830 L
2248 7673 mt 2248  830 L
2248 7673 mt 15651 7673 L
2248 7673 mt 2248  830 L
2248 7673 mt 2248 7538 L
2248  830 mt 2248  964 L
%%IncludeResource: font Helvetica
/Helvetica /WindowsLatin1Encoding 480 FMSR

1982 8153 mt 
(10) s
4162 7673 mt 4162 7538 L
4162  830 mt 4162  964 L
3896 8153 mt 
(20) s
6077 7673 mt 6077 7538 L
6077  830 mt 6077  964 L
5811 8153 mt 
(30) s
7992 7673 mt 7992 7538 L
7992  830 mt 7992  964 L
7726 8153 mt 
(40) s
9906 7673 mt 9906 7538 L
9906  830 mt 9906  964 L
9640 8153 mt 
(50) s
11821 7673 mt 11821 7538 L
11821  830 mt 11821  964 L
11555 8153 mt 
(60) s
13736 7673 mt 13736 7538 L
13736  830 mt 13736  964 L
13470 8153 mt 
(70) s
15651 7673 mt 15651 7538 L
15651  830 mt 15651  964 L
15385 8153 mt 
(80) s
2248 7673 mt 2382 7673 L
15651 7673 mt 15516 7673 L
1947 7851 mt 
(0) s
2248 6304 mt 2382 6304 L
15651 6304 mt 15516 6304 L
1546 6482 mt 
(0.2) s
2248 4935 mt 2382 4935 L
15651 4935 mt 15516 4935 L
1546 5113 mt 
(0.4) s
2248 3567 mt 2382 3567 L
15651 3567 mt 15516 3567 L
1546 3745 mt 
(0.6) s
2248 2198 mt 2382 2198 L
15651 2198 mt 15516 2198 L
1546 2376 mt 
(0.8) s
2248  830 mt 2382  830 L
15651  830 mt 15516  830 L
1947 1008 mt 
(1) s
2248  830 mt 15651  830 L
2248 7673 mt 15651 7673 L
15651 7673 mt 15651  830 L
2248 7673 mt 2248  830 L
gs 2248 830 13404 6844 rc
36 w
/c8 { 0.000000 0.000000 1.000000 sr} bdef
c8
1915 -1503 1915 -780 1915 -221 1914 28 1915 -34 1915 0 1914 0 2248 7672 8 MP stroke
gr

36 w
c8
gs 2030 4944 13840 2947 rc
  90   90 2248 7672 FO
  90   90 4162 7672 FO
  90   90 6077 7672 FO
  90   90 7992 7638 FO
  90   90 9906 7666 FO
  90   90 11821 7445 FO
  90   90 13736 6665 FO
  90   90 15651 5162 FO
gr

gs 2248 830 13404 6844 rc
DO
/c9 { 1.000000 0.000000 0.000000 sr} bdef
c9
1915 5478 1915 -6191 1915 116 1914 -203 1915 0 1915 0 1914 0 2248 7672 8 MP stroke
gr

c9
DO
gs 2030 1176 13840 6715 rc
SO
0 j
104 179 -208 0 104 -179 2248 7791 4 MP
DP
104 179 -208 0 104 -179 4162 7791 4 MP
DP
104 179 -208 0 104 -179 6077 7791 4 MP
DP
104 179 -208 0 104 -179 7992 7791 4 MP
DP
104 179 -208 0 104 -179 9906 7588 4 MP
DP
104 179 -208 0 104 -179 11821 7704 4 MP
DP
104 179 -208 0 104 -179 13736 1513 4 MP
DP
104 179 -208 0 104 -179 15651 6991 4 MP
DP
DO
gr

gs 2248 830 13404 6844 rc
DD
/c10 { 0.000000 1.000000 0.000000 sr} bdef
c10
1915 -2002 1915 2 1915 -3 1914 1 1915 -1 1915 0 1914 0 2248 7672 8 MP stroke
gr

c10
DD
gs 2030 5451 13840 2440 rc
SO
2185 7609 mt 2311 7735 L
2311 7609 mt 2185 7735 L
4099 7609 mt 4225 7735 L
4225 7609 mt 4099 7735 L
6014 7609 mt 6140 7735 L
6140 7609 mt 6014 7735 L
7929 7608 mt 8055 7734 L
8055 7608 mt 7929 7734 L
9843 7609 mt 9969 7735 L
9969 7609 mt 9843 7735 L
11758 7606 mt 11884 7732 L
11884 7606 mt 11758 7732 L
13673 7608 mt 13799 7734 L
13799 7608 mt 13673 7734 L
15588 5606 mt 15714 5732 L
15714 5606 mt 15588 5732 L
DD
gr

gs 2248 830 13404 6844 rc
DA
/c11 { 0.000000 0.000000 0.172414 sr} bdef
c11
1915 1689 1915 -812 1915 -1215 1914 -3 1915 0 1915 0 1914 0 2248 7672 8 MP stroke
gr

c11
DA
gs 2030 5424 13840 2467 rc
SO
2158 7672 mt 2338 7672 L
2248 7582 mt 2248 7762 L
4072 7672 mt 4252 7672 L
4162 7582 mt 4162 7762 L
5987 7672 mt 6167 7672 L
6077 7582 mt 6077 7762 L
7902 7672 mt 8082 7672 L
7992 7582 mt 7992 7762 L
9816 7669 mt 9996 7669 L
9906 7579 mt 9906 7759 L
11731 6454 mt 11911 6454 L
11821 6364 mt 11821 6544 L
13646 5642 mt 13826 5642 L
13736 5552 mt 13736 5732 L
15561 7331 mt 15741 7331 L
15651 7241 mt 15651 7421 L
2185 7609 mt 2311 7735 L
2311 7609 mt 2185 7735 L
4099 7609 mt 4225 7735 L
4225 7609 mt 4099 7735 L
6014 7609 mt 6140 7735 L
6140 7609 mt 6014 7735 L
7929 7609 mt 8055 7735 L
8055 7609 mt 7929 7735 L
9843 7606 mt 9969 7732 L
9969 7606 mt 9843 7732 L
11758 6391 mt 11884 6517 L
11884 6391 mt 11758 6517 L
13673 5579 mt 13799 5705 L
13799 5579 mt 13673 5705 L
15588 7268 mt 15714 7394 L
15714 7268 mt 15588 7394 L
DA
gr

gs 2248 830 13404 6844 rc
SO
/c12 { 1.000000 0.103448 0.724138 sr} bdef
c12
1915 6143 1915 -6352 1915 9 1914 1 1915 23 1915 -35 1914 -4 2248 7672 8 MP stroke
gr

c12
SO
gs 2030 1096 13840 6795 rc
0 j
0 -142 -142 0 0 142 142 0 2177 7601 5 MP
DP
0 -142 -142 0 0 142 142 0 4091 7597 5 MP
DP
0 -142 -142 0 0 142 142 0 6006 7562 5 MP
DP
0 -142 -142 0 0 142 142 0 7921 7585 5 MP
DP
0 -142 -142 0 0 142 142 0 9835 7586 5 MP
DP
0 -142 -142 0 0 142 142 0 11750 7595 5 MP
DP
0 -142 -142 0 0 142 142 0 13665 1243 5 MP
DP
0 -142 -142 0 0 142 142 0 15580 7386 5 MP
DP
gr

gs 2248 830 13404 6844 rc
DO
/c13 { 0.000000 0.344828 0.000000 sr} bdef
c13
1915 -5396 1915 54 1915 -64 1914 0 1915 0 1915 0 1914 0 2248 7672 8 MP stroke
gr

c13
DO
gs 2030 2048 13840 5843 rc
SO
0 j
90 119 -90 119 -90 -119 90 -119 2248 7791 5 MP
DP
90 119 -90 119 -90 -119 90 -119 4162 7791 5 MP
DP
90 119 -90 119 -90 -119 90 -119 6077 7791 5 MP
DP
90 119 -90 119 -90 -119 90 -119 7992 7791 5 MP
DP
90 119 -90 119 -90 -119 90 -119 9906 7791 5 MP
DP
90 119 -90 119 -90 -119 90 -119 11821 7727 5 MP
DP
90 119 -90 119 -90 -119 90 -119 13736 7781 5 MP
DP
90 119 -90 119 -90 -119 90 -119 15651 2385 5 MP
DP
DO
gr

gs 2248 830 13404 6844 rc
DD
1915 1603 1915 -2681 1915 -3234 1914 820 1915 -824 1915 0 1914 0 2248 7672 8 MP stroke
gr

DD
gs 2030 1535 13840 6356 rc
SO
60 W
2248 7672 PD
60 W
4162 7672 PD
60 W
6077 7672 PD
60 W
7992 6848 PD
60 W
9906 7668 PD
60 W
11821 4434 PD
60 W
13736 1753 PD
60 W
15651 3356 PD
DD
gr

gs 2248 830 13404 6844 rc
DA
/c14 { 0.517241 0.517241 1.000000 sr} bdef
c14
1915 -6257 1915 153 1915 -65 1914 581 1915 -730 1915 3 1914 -3 2248 7672 8 MP stroke
gr

c14
DA
gs 2030 1136 13840 6755 rc
SO
0 j
-104 179 -104 -179 208 0 2144 7732 4 MP
DP
-104 179 -104 -179 208 0 4058 7729 4 MP
DP
-104 179 -104 -179 208 0 5973 7732 4 MP
DP
-104 179 -104 -179 208 0 7888 7002 4 MP
DP
-104 179 -104 -179 208 0 9802 7583 4 MP
DP
-104 179 -104 -179 208 0 11717 7518 4 MP
DP
-104 179 -104 -179 208 0 13632 7671 4 MP
DP
-104 179 -104 -179 208 0 15547 1414 4 MP
DP
DA
gr

gs 2248 830 13404 6844 rc
SO
/c15 { 0.620690 0.310345 0.275862 sr} bdef
c15
1915 -5231 1915 -30 1915 -216 1914 -33 1915 12 1915 -25 1914 0 2248 7672 8 MP stroke
gr

c15
SO
gs 2030 1931 13840 5960 rc
0 j
-179 104 0 -208 179 104 2129 7672 4 MP
DP
-179 104 0 -208 179 104 4043 7672 4 MP
DP
-179 104 0 -208 179 104 5958 7647 4 MP
DP
-179 104 0 -208 179 104 7873 7659 4 MP
DP
-179 104 0 -208 179 104 9787 7626 4 MP
DP
-179 104 0 -208 179 104 11702 7410 4 MP
DP
-179 104 0 -208 179 104 13617 7380 4 MP
DP
-179 104 0 -208 179 104 15532 2149 4 MP
DP
gr

gs 2248 830 13404 6844 rc
DO
/c16 { 0.000000 1.000000 0.758621 sr} bdef
c16
1915 2502 1915 -993 1915 -1547 1914 -40 1915 -12 1915 0 1914 0 2248 7672 8 MP stroke
gr

c16
DO
gs 2030 4862 13840 3029 rc
SO
0 j
0 208 -179 -104 179 -104 2188 7776 4 MP
DP
0 208 -179 -104 179 -104 4102 7776 4 MP
DP
0 208 -179 -104 179 -104 6017 7776 4 MP
DP
0 208 -179 -104 179 -104 7932 7764 4 MP
DP
0 208 -179 -104 179 -104 9846 7724 4 MP
DP
0 208 -179 -104 179 -104 11761 6177 4 MP
DP
0 208 -179 -104 179 -104 13676 5184 4 MP
DP
0 208 -179 -104 179 -104 15591 7686 4 MP
DP
DO
gr

gs 2248 830 13404 6844 rc
SO
/c17 { 0.000000 0.517241 0.586207 sr} bdef
c17
1915 -3536 1915 1834 1915 -2945 1914 11 1915 -114 1915 -5 1914 -1 2248 7672 8 MP stroke
gr

c17
SO
gs 2030 2698 13840 5193 rc
0 j
-51 -39 18 -61 -53 36 -52 -36 18 61 -51 39 64 0 21 62 
22 -62 64 0 2162 7644 11 MP
DP
-51 -39 18 -61 -53 36 -52 -36 18 61 -51 39 64 0 21 62 
22 -62 64 0 4076 7643 11 MP
DP
-51 -39 18 -61 -53 36 -52 -36 18 61 -51 39 64 0 21 62 
22 -62 64 0 5991 7638 11 MP
DP
-51 -39 18 -61 -53 36 -52 -36 18 61 -51 39 64 0 21 62 
22 -62 64 0 7906 7524 11 MP
DP
-51 -39 18 -61 -53 36 -52 -36 18 61 -51 39 64 0 21 62 
22 -62 64 0 9820 7535 11 MP
DP
-51 -39 18 -61 -53 36 -52 -36 18 61 -51 39 64 0 21 62 
22 -62 64 0 11735 4590 11 MP
DP
-51 -39 18 -61 -53 36 -52 -36 18 61 -51 39 64 0 21 62 
22 -62 64 0 13650 6424 11 MP
DP
-51 -39 18 -61 -53 36 -52 -36 18 61 -51 39 64 0 21 62 
22 -62 64 0 15565 2888 11 MP
DP
gr

gs 2248 830 13404 6844 rc
DO
/c18 { 0.000000 0.000000 0.482759 sr} bdef
c18
1915 -5493 1915 2375 1915 -2273 1914 -43 1915 -90 1915 0 1914 0 2248 7672 8 MP stroke
gr

c18
DO
gs 2030 1930 13840 5961 rc
SO
0 j
-32 -45 32 -45 -52 0 -25 -45 -25 45 -52 0 32 45 -32 45 
52 0 25 45 25 -45 52 0 2171 7627 13 MP
DP
-32 -45 32 -45 -52 0 -25 -45 -25 45 -52 0 32 45 -32 45 
52 0 25 45 25 -45 52 0 4085 7627 13 MP
DP
-32 -45 32 -45 -52 0 -25 -45 -25 45 -52 0 32 45 -32 45 
52 0 25 45 25 -45 52 0 6000 7627 13 MP
DP
-32 -45 32 -45 -52 0 -25 -45 -25 45 -52 0 32 45 -32 45 
52 0 25 45 25 -45 52 0 7915 7537 13 MP
DP
-32 -45 32 -45 -52 0 -25 -45 -25 45 -52 0 32 45 -32 45 
52 0 25 45 25 -45 52 0 9829 7494 13 MP
DP
-32 -45 32 -45 -52 0 -25 -45 -25 45 -52 0 32 45 -32 45 
52 0 25 45 25 -45 52 0 11744 5221 13 MP
DP
-32 -45 32 -45 -52 0 -25 -45 -25 45 -52 0 32 45 -32 45 
52 0 25 45 25 -45 52 0 13659 7596 13 MP
DP
-32 -45 32 -45 -52 0 -25 -45 -25 45 -52 0 32 45 -32 45 
52 0 25 45 25 -45 52 0 15574 2103 13 MP
DP
DO
gr

gs 2248 830 13404 6844 rc
gr

0 sg
6478  446 mt 
(Wilcoxon rank sum test) s
6931 8561 mt 
(Elements swapped) s
SO
6 w

end %%Color Dict

eplot
%%EndObject

epage
end

showpage

%%Trailer
%%EOF
