%!PS-Adobe-3.0 EPSF-3.0
%%Creator: MATLAB, The MathWorks, Inc. Version 8.2.0.701 (R2013b). Operating System: Microsoft Windows 8.
%%Title: .\edit5.eps
%%CreationDate: 05/17/2016  20:09:11
%%DocumentNeededFonts: Helvetica
%%DocumentProcessColors: Cyan Magenta Yellow Black
%%LanguageLevel: 2
%%Pages: 1
%%BoundingBox:  -305    59   908   786
%%EndComments

%%BeginProlog
% MathWorks dictionary
/MathWorks 160 dict begin
% definition operators
/bdef {bind def} bind def
/ldef {load def} bind def
/xdef {exch def} bdef
/xstore {exch store} bdef
% operator abbreviations
/c  /clip ldef
/cc /concat ldef
/cp /closepath ldef
/gr /grestore ldef
/gs /gsave ldef
/mt /moveto ldef
/np /newpath ldef
/cm /currentmatrix ldef
/sm /setmatrix ldef
/rm /rmoveto ldef
/rl /rlineto ldef
/s {show newpath} bdef
/sc {setcmykcolor} bdef
/sr /setrgbcolor ldef
/sg /setgray ldef
/w /setlinewidth ldef
/j /setlinejoin ldef
/cap /setlinecap ldef
/rc {rectclip} bdef
/rf {rectfill} bdef
% page state control
/pgsv () def
/bpage {/pgsv save def} bdef
/epage {pgsv restore} bdef
/bplot /gsave ldef
/eplot {stroke grestore} bdef
% orientation switch
/portraitMode 0 def /landscapeMode 1 def /rotateMode 2 def
% coordinate system mappings
/dpi2point 0 def
% font control
/FontSize 0 def
/FMS {/FontSize xstore findfont [FontSize 0 0 FontSize neg 0 0]
  makefont setfont} bdef
/ISOLatin1Encoding where {pop /WindowsLatin1Encoding 256 array bdef
ISOLatin1Encoding WindowsLatin1Encoding copy pop
/.notdef/.notdef/quotesinglbase/florin/quotedblbase/ellipsis/dagger
/daggerdbl/circumflex/perthousand/Scaron/guilsinglleft/OE/.notdef/.notdef
/.notdef/.notdef/quoteleft/quoteright/quotedblleft/quotedblright/bullet
/endash/emdash/tilde/trademark/scaron/guilsinglright/oe/.notdef/.notdef
/Ydieresis WindowsLatin1Encoding 128 32 getinterval astore pop}
{/WindowsLatin1Encoding StandardEncoding bdef} ifelse
/reencode {exch dup where {pop load} {pop StandardEncoding} ifelse
  exch dup 3 1 roll findfont dup length dict begin
  { 1 index /FID ne {def}{pop pop} ifelse } forall
  /Encoding exch def currentdict end definefont pop} bdef
/isroman {findfont /CharStrings get /Agrave known} bdef
/FMSR {3 1 roll 1 index dup isroman {reencode} {pop pop} ifelse
  exch FMS} bdef
/csm {1 dpi2point div -1 dpi2point div scale neg translate
 dup landscapeMode eq {pop -90 rotate}
  {rotateMode eq {90 rotate} if} ifelse} bdef
% line types: solid, dotted, dashed, dotdash
/SO { [] 0 setdash } bdef
/DO { [.5 dpi2point mul 4 dpi2point mul] 0 setdash } bdef
/DA { [6 dpi2point mul] 0 setdash } bdef
/DD { [.5 dpi2point mul 4 dpi2point mul 6 dpi2point mul 4
  dpi2point mul] 0 setdash } bdef
% macros for lines and objects
/L {lineto stroke} bdef
/MP {3 1 roll moveto 1 sub {rlineto} repeat} bdef
/AP {{rlineto} repeat} bdef
/PDlw -1 def
/W {/PDlw currentlinewidth def setlinewidth} def
/PP {closepath eofill} bdef
/DP {closepath stroke} bdef
/MR {4 -2 roll moveto dup  0 exch rlineto exch 0 rlineto
  neg 0 exch rlineto closepath} bdef
/FR {MR stroke} bdef
/PR {MR fill} bdef
/L1i {{currentfile picstr readhexstring pop} image} bdef
/tMatrix matrix def
/MakeOval {newpath tMatrix currentmatrix pop translate scale
0 0 1 0 360 arc tMatrix setmatrix} bdef
/FO {MakeOval stroke} bdef
/PO {MakeOval fill} bdef
/PD {currentlinewidth 2 div 0 360 arc fill
   PDlw -1 eq not {PDlw w /PDlw -1 def} if} def
/FA {newpath tMatrix currentmatrix pop translate scale
  0 0 1 5 -2 roll arc tMatrix setmatrix stroke} bdef
/PA {newpath tMatrix currentmatrix pop	translate 0 0 moveto scale
  0 0 1 5 -2 roll arc closepath tMatrix setmatrix fill} bdef
/FAn {newpath tMatrix currentmatrix pop translate scale
  0 0 1 5 -2 roll arcn tMatrix setmatrix stroke} bdef
/PAn {newpath tMatrix currentmatrix pop translate 0 0 moveto scale
  0 0 1 5 -2 roll arcn closepath tMatrix setmatrix fill} bdef
/vradius 0 def /hradius 0 def /lry 0 def
/lrx 0 def /uly 0 def /ulx 0 def /rad 0 def
/MRR {/vradius xdef /hradius xdef /lry xdef /lrx xdef /uly xdef
  /ulx xdef newpath tMatrix currentmatrix pop ulx hradius add uly
  vradius add translate hradius vradius scale 0 0 1 180 270 arc 
  tMatrix setmatrix lrx hradius sub uly vradius add translate
  hradius vradius scale 0 0 1 270 360 arc tMatrix setmatrix
  lrx hradius sub lry vradius sub translate hradius vradius scale
  0 0 1 0 90 arc tMatrix setmatrix ulx hradius add lry vradius sub
  translate hradius vradius scale 0 0 1 90 180 arc tMatrix setmatrix
  closepath} bdef
/FRR {MRR stroke } bdef
/PRR {MRR fill } bdef
/MlrRR {/lry xdef /lrx xdef /uly xdef /ulx xdef /rad lry uly sub 2 div def
  newpath tMatrix currentmatrix pop ulx rad add uly rad add translate
  rad rad scale 0 0 1 90 270 arc tMatrix setmatrix lrx rad sub lry rad
  sub translate rad rad scale 0 0 1 270 90 arc tMatrix setmatrix
  closepath} bdef
/FlrRR {MlrRR stroke } bdef
/PlrRR {MlrRR fill } bdef
/MtbRR {/lry xdef /lrx xdef /uly xdef /ulx xdef /rad lrx ulx sub 2 div def
  newpath tMatrix currentmatrix pop ulx rad add uly rad add translate
  rad rad scale 0 0 1 180 360 arc tMatrix setmatrix lrx rad sub lry rad
  sub translate rad rad scale 0 0 1 0 180 arc tMatrix setmatrix
  closepath} bdef
/FtbRR {MtbRR stroke } bdef
/PtbRR {MtbRR fill } bdef
/stri 6 array def /dtri 6 array def
/smat 6 array def /dmat 6 array def
/tmat1 6 array def /tmat2 6 array def /dif 3 array def
/asub {/ind2 exch def /ind1 exch def dup dup
  ind1 get exch ind2 get sub exch } bdef
/tri_to_matrix {
  2 0 asub 3 1 asub 4 0 asub 5 1 asub
  dup 0 get exch 1 get 7 -1 roll astore } bdef
/compute_transform {
  dmat dtri tri_to_matrix tmat1 invertmatrix 
  smat stri tri_to_matrix tmat2 concatmatrix } bdef
/ds {stri astore pop} bdef
/dt {dtri astore pop} bdef
/db {2 copy /cols xdef /rows xdef mul dup 3 mul string
  currentfile 
  3 index 0 eq {/ASCIIHexDecode filter}
  {/ASCII85Decode filter 3 index 2 eq {/RunLengthDecode filter} if }
  ifelse exch readstring pop
  dup 0 3 index getinterval /rbmap xdef
  dup 2 index dup getinterval /gbmap xdef
  1 index dup 2 mul exch getinterval /bbmap xdef pop pop}bdef
/it {gs np dtri aload pop moveto lineto lineto cp c
  cols rows 8 compute_transform 
  rbmap gbmap bbmap true 3 colorimage gr}bdef
/il {newpath moveto lineto stroke}bdef
currentdict end def
%%EndProlog

%%BeginSetup
MathWorks begin

0 cap

end
%%EndSetup

%%Page: 1 1
%%BeginPageSetup
%%PageBoundingBox:  -305    59   908   786
MathWorks begin
bpage
%%EndPageSetup

%%BeginObject: obj1
bplot

/dpi2point 12 def
portraitMode -5064 9384 csm

 1399   -48 14568  8719 rc
94 dict begin %Colortable dictionary
/c0 { 0.000000 0.000000 0.000000 sr} bdef
/c1 { 1.000000 1.000000 1.000000 sr} bdef
/c2 { 0.900000 0.000000 0.000000 sr} bdef
/c3 { 0.000000 0.820000 0.000000 sr} bdef
/c4 { 0.000000 0.000000 0.800000 sr} bdef
/c5 { 0.910000 0.820000 0.320000 sr} bdef
/c6 { 1.000000 0.260000 0.820000 sr} bdef
/c7 { 0.000000 0.820000 0.820000 sr} bdef
c0
1 j
1 sg
   0    0 17295 8672 rf
6 w
0 6625 13403 0 0 -6625 2248 7673 4 MP
PP
-13403 0 0 6625 13403 0 0 -6625 2248 7673 5 MP stroke
4 w
DO
0 sg
2248 7673 mt 2248 1048 L
2248 1048 mt 2248 1048 L
4162 7673 mt 4162 1048 L
4162 1048 mt 4162 1048 L
6077 7673 mt 6077 1048 L
6077 1048 mt 6077 1048 L
7992 7673 mt 7992 1048 L
7992 1048 mt 7992 1048 L
9906 7673 mt 9906 1048 L
9906 1048 mt 9906 1048 L
11821 7673 mt 11821 1048 L
11821 1048 mt 11821 1048 L
13736 7673 mt 13736 1048 L
13736 1048 mt 13736 1048 L
15651 7673 mt 15651 1048 L
15651 1048 mt 15651 1048 L
2248 7673 mt 15651 7673 L
15651 7673 mt 15651 7673 L
2248 6348 mt 15651 6348 L
15651 6348 mt 15651 6348 L
2248 5023 mt 15651 5023 L
15651 5023 mt 15651 5023 L
2248 3698 mt 15651 3698 L
15651 3698 mt 15651 3698 L
2248 2373 mt 15651 2373 L
15651 2373 mt 15651 2373 L
2248 1048 mt 15651 1048 L
15651 1048 mt 15651 1048 L
SO
6 w
2248 1048 mt 15651 1048 L
2248 7673 mt 15651 7673 L
15651 7673 mt 15651 1048 L
2248 7673 mt 2248 1048 L
2248 7673 mt 15651 7673 L
2248 7673 mt 2248 1048 L
2248 7673 mt 2248 7538 L
2248 1048 mt 2248 1182 L
%%IncludeResource: font Helvetica
/Helvetica /WindowsLatin1Encoding 480 FMSR

1982 8153 mt 
(10) s
4162 7673 mt 4162 7538 L
4162 1048 mt 4162 1182 L
3896 8153 mt 
(20) s
6077 7673 mt 6077 7538 L
6077 1048 mt 6077 1182 L
5811 8153 mt 
(30) s
7992 7673 mt 7992 7538 L
7992 1048 mt 7992 1182 L
7726 8153 mt 
(40) s
9906 7673 mt 9906 7538 L
9906 1048 mt 9906 1182 L
9640 8153 mt 
(50) s
11821 7673 mt 11821 7538 L
11821 1048 mt 11821 1182 L
11555 8153 mt 
(60) s
13736 7673 mt 13736 7538 L
13736 1048 mt 13736 1182 L
13470 8153 mt 
(70) s
15651 7673 mt 15651 7538 L
15651 1048 mt 15651 1182 L
15385 8153 mt 
(80) s
2248 7673 mt 2382 7673 L
15651 7673 mt 15516 7673 L
1399 7851 mt 
(-20) s
2248 6348 mt 2382 6348 L
15651 6348 mt 15516 6348 L
1399 6526 mt 
(-15) s
2248 5023 mt 2382 5023 L
15651 5023 mt 15516 5023 L
1399 5201 mt 
(-10) s
2248 3698 mt 2382 3698 L
15651 3698 mt 15516 3698 L
1666 3876 mt 
(-5) s
2248 2373 mt 2382 2373 L
15651 2373 mt 15516 2373 L
1947 2551 mt 
(0) s
2248 1048 mt 2382 1048 L
15651 1048 mt 15516 1048 L
1947 1226 mt 
(5) s
2248 1048 mt 15651 1048 L
2248 7673 mt 15651 7673 L
15651 7673 mt 15651 1048 L
2248 7673 mt 2248 1048 L
gs 2248 1048 13404 6626 rc
36 w
/c8 { 0.000000 0.000000 1.000000 sr} bdef
c8
1915 -36 1915 71 1915 9 1914 132 1915 106 1915 575 1914 945 2248 2973 8 MP stroke
gr

36 w
c8
gs 2030 2755 13840 2275 rc
  90   90 2248 2973 FO
  90   90 4162 3918 FO
  90   90 6077 4493 FO
  90   90 7992 4599 FO
  90   90 9906 4731 FO
  90   90 11821 4740 FO
  90   90 13736 4811 FO
  90   90 15651 4775 FO
gr

gs 2248 1048 13404 6626 rc
DO
/c9 { 1.000000 0.000000 0.000000 sr} bdef
c9
1915 -97 1915 124 1915 79 1914 539 1915 627 1915 1219 1914 1687 2248 3044 8 MP stroke
gr

c9
DO
gs 2030 2826 13840 4712 rc
SO
0 j
104 179 -208 0 104 -179 2248 3163 4 MP
DP
104 179 -208 0 104 -179 4162 4850 4 MP
DP
104 179 -208 0 104 -179 6077 6069 4 MP
DP
104 179 -208 0 104 -179 7992 6696 4 MP
DP
104 179 -208 0 104 -179 9906 7235 4 MP
DP
104 179 -208 0 104 -179 11821 7314 4 MP
DP
104 179 -208 0 104 -179 13736 7438 4 MP
DP
104 179 -208 0 104 -179 15651 7341 4 MP
DP
DO
gr

gs 2248 1048 13404 6626 rc
DD
/c10 { 0.000000 1.000000 0.000000 sr} bdef
c10
1915 17 1915 -44 1915 97 1914 -123 1915 35 1915 -26 1914 229 2248 2629 8 MP stroke
gr

c10
DD
gs 2030 2411 13840 675 rc
SO
2185 2566 mt 2311 2692 L
2311 2566 mt 2185 2692 L
4099 2795 mt 4225 2921 L
4225 2795 mt 4099 2921 L
6014 2769 mt 6140 2895 L
6140 2769 mt 6014 2895 L
7929 2804 mt 8055 2930 L
8055 2804 mt 7929 2930 L
9843 2681 mt 9969 2807 L
9969 2681 mt 9843 2807 L
11758 2778 mt 11884 2904 L
11884 2778 mt 11758 2904 L
13673 2734 mt 13799 2860 L
13799 2734 mt 13673 2860 L
15588 2751 mt 15714 2877 L
15714 2751 mt 15588 2877 L
DD
gr

gs 2248 1048 13404 6626 rc
DA
/c11 { 0.000000 0.000000 0.172414 sr} bdef
c11
1915 9 1915 18 1915 -45 1914 -9 1915 53 1915 98 1914 318 2248 2646 8 MP stroke
gr

c11
DA
gs 2030 2428 13840 906 rc
SO
2158 2646 mt 2338 2646 L
2248 2556 mt 2248 2736 L
4072 2964 mt 4252 2964 L
4162 2874 mt 4162 3054 L
5987 3062 mt 6167 3062 L
6077 2972 mt 6077 3152 L
7902 3115 mt 8082 3115 L
7992 3025 mt 7992 3205 L
9816 3106 mt 9996 3106 L
9906 3016 mt 9906 3196 L
11731 3061 mt 11911 3061 L
11821 2971 mt 11821 3151 L
13646 3079 mt 13826 3079 L
13736 2989 mt 13736 3169 L
15561 3088 mt 15741 3088 L
15651 2998 mt 15651 3178 L
2185 2583 mt 2311 2709 L
2311 2583 mt 2185 2709 L
4099 2901 mt 4225 3027 L
4225 2901 mt 4099 3027 L
6014 2999 mt 6140 3125 L
6140 2999 mt 6014 3125 L
7929 3052 mt 8055 3178 L
8055 3052 mt 7929 3178 L
9843 3043 mt 9969 3169 L
9969 3043 mt 9843 3169 L
11758 2998 mt 11884 3124 L
11884 2998 mt 11758 3124 L
13673 3016 mt 13799 3142 L
13799 3016 mt 13673 3142 L
15588 3025 mt 15714 3151 L
15714 3025 mt 15588 3151 L
DA
gr

gs 2248 1048 13404 6626 rc
SO
/c12 { 1.000000 0.103448 0.724138 sr} bdef
c12
1915 0 1915 44 1915 -44 1914 0 1915 -18 1915 36 1914 -18 2248 2408 8 MP stroke
gr

c12
SO
gs 2030 2146 13840 499 rc
0 j
0 -142 -142 0 0 142 142 0 2177 2337 5 MP
DP
0 -142 -142 0 0 142 142 0 4091 2319 5 MP
DP
0 -142 -142 0 0 142 142 0 6006 2355 5 MP
DP
0 -142 -142 0 0 142 142 0 7921 2337 5 MP
DP
0 -142 -142 0 0 142 142 0 9835 2337 5 MP
DP
0 -142 -142 0 0 142 142 0 11750 2293 5 MP
DP
0 -142 -142 0 0 142 142 0 13665 2337 5 MP
DP
0 -142 -142 0 0 142 142 0 15580 2337 5 MP
DP
gr

gs 2248 1048 13404 6626 rc
DO
/c13 { 0.000000 0.344828 0.000000 sr} bdef
c13
1915 44 1915 -26 1915 -35 1914 -18 1915 168 1915 106 1914 477 2248 2549 8 MP stroke
gr

c13
DO
gs 2030 2331 13840 1188 rc
SO
0 j
90 119 -90 119 -90 -119 90 -119 2248 2668 5 MP
DP
90 119 -90 119 -90 -119 90 -119 4162 3145 5 MP
DP
90 119 -90 119 -90 -119 90 -119 6077 3251 5 MP
DP
90 119 -90 119 -90 -119 90 -119 7992 3419 5 MP
DP
90 119 -90 119 -90 -119 90 -119 9906 3401 5 MP
DP
90 119 -90 119 -90 -119 90 -119 11821 3366 5 MP
DP
90 119 -90 119 -90 -119 90 -119 13736 3340 5 MP
DP
90 119 -90 119 -90 -119 90 -119 15651 3384 5 MP
DP
DO
gr

gs 2248 1048 13404 6626 rc
DD
1915 97 1915 -150 1915 185 1914 -70 1915 353 1915 371 1914 954 2248 2452 8 MP stroke
gr

DD
gs 2030 2234 13840 2230 rc
SO
60 W
2248 2452 PD
60 W
4162 3406 PD
60 W
6077 3777 PD
60 W
7992 4130 PD
60 W
9906 4060 PD
60 W
11821 4245 PD
60 W
13736 4095 PD
60 W
15651 4192 PD
DD
gr

gs 2248 1048 13404 6626 rc
DA
/c14 { 0.517241 0.517241 1.000000 sr} bdef
c14
1915 35 1915 0 1915 -44 1914 88 1915 -27 1915 115 1914 407 2248 2487 8 MP stroke
gr

c14
DA
gs 2030 2269 13840 1020 rc
SO
0 j
-104 179 -104 -179 208 0 2144 2547 4 MP
DP
-104 179 -104 -179 208 0 4058 2954 4 MP
DP
-104 179 -104 -179 208 0 5973 3069 4 MP
DP
-104 179 -104 -179 208 0 7888 3042 4 MP
DP
-104 179 -104 -179 208 0 9802 3130 4 MP
DP
-104 179 -104 -179 208 0 11717 3086 4 MP
DP
-104 179 -104 -179 208 0 13632 3086 4 MP
DP
-104 179 -104 -179 208 0 15547 3121 4 MP
DP
DA
gr

gs 2248 1048 13404 6626 rc
SO
/c15 { 0.620690 0.310345 0.275862 sr} bdef
c15
1915 89 1915 70 1915 9 1914 62 1915 0 1915 336 1914 724 2248 2302 8 MP stroke
gr

c15
SO
gs 2030 2084 13840 1727 rc
0 j
-179 104 0 -208 179 104 2129 2302 4 MP
DP
-179 104 0 -208 179 104 4043 3026 4 MP
DP
-179 104 0 -208 179 104 5958 3362 4 MP
DP
-179 104 0 -208 179 104 7873 3362 4 MP
DP
-179 104 0 -208 179 104 9787 3424 4 MP
DP
-179 104 0 -208 179 104 11702 3433 4 MP
DP
-179 104 0 -208 179 104 13617 3503 4 MP
DP
-179 104 0 -208 179 104 15532 3592 4 MP
DP
gr

gs 2248 1048 13404 6626 rc
DO
/c16 { 0.000000 1.000000 0.758621 sr} bdef
c16
1915 -26 1915 -27 1915 -27 1914 89 1915 -9 1915 18 1914 70 2248 2417 8 MP stroke
gr

c16
DO
gs 2030 2199 13840 605 rc
SO
0 j
0 208 -179 -104 179 -104 2188 2521 4 MP
DP
0 208 -179 -104 179 -104 4102 2591 4 MP
DP
0 208 -179 -104 179 -104 6017 2609 4 MP
DP
0 208 -179 -104 179 -104 7932 2600 4 MP
DP
0 208 -179 -104 179 -104 9846 2689 4 MP
DP
0 208 -179 -104 179 -104 11761 2662 4 MP
DP
0 208 -179 -104 179 -104 13676 2635 4 MP
DP
0 208 -179 -104 179 -104 15591 2609 4 MP
DP
DO
gr

gs 2248 1048 13404 6626 rc
SO
/c17 { 0.000000 0.517241 0.586207 sr} bdef
c17
1915 -45 1915 177 1915 -115 1914 62 1915 80 1915 26 1914 168 2248 2664 8 MP stroke
gr

c17
SO
gs 2030 2446 13840 835 rc
0 j
-51 -39 18 -61 -53 36 -52 -36 18 61 -51 39 64 0 21 62 
22 -62 64 0 2162 2636 11 MP
DP
-51 -39 18 -61 -53 36 -52 -36 18 61 -51 39 64 0 21 62 
22 -62 64 0 4076 2804 11 MP
DP
-51 -39 18 -61 -53 36 -52 -36 18 61 -51 39 64 0 21 62 
22 -62 64 0 5991 2830 11 MP
DP
-51 -39 18 -61 -53 36 -52 -36 18 61 -51 39 64 0 21 62 
22 -62 64 0 7906 2910 11 MP
DP
-51 -39 18 -61 -53 36 -52 -36 18 61 -51 39 64 0 21 62 
22 -62 64 0 9820 2972 11 MP
DP
-51 -39 18 -61 -53 36 -52 -36 18 61 -51 39 64 0 21 62 
22 -62 64 0 11735 2857 11 MP
DP
-51 -39 18 -61 -53 36 -52 -36 18 61 -51 39 64 0 21 62 
22 -62 64 0 13650 3034 11 MP
DP
-51 -39 18 -61 -53 36 -52 -36 18 61 -51 39 64 0 21 62 
22 -62 64 0 15565 2989 11 MP
DP
gr

gs 2248 1048 13404 6626 rc
DO
/c18 { 0.000000 0.000000 0.482759 sr} bdef
c18
1915 62 1915 -71 1915 79 1914 53 1915 -114 1915 167 1914 195 2248 2284 8 MP stroke
gr

c18
DO
gs 2030 2066 13840 817 rc
SO
0 j
-32 -45 32 -45 -52 0 -25 -45 -25 45 -52 0 32 45 -32 45 
52 0 25 45 25 -45 52 0 2171 2239 13 MP
DP
-32 -45 32 -45 -52 0 -25 -45 -25 45 -52 0 32 45 -32 45 
52 0 25 45 25 -45 52 0 4085 2434 13 MP
DP
-32 -45 32 -45 -52 0 -25 -45 -25 45 -52 0 32 45 -32 45 
52 0 25 45 25 -45 52 0 6000 2601 13 MP
DP
-32 -45 32 -45 -52 0 -25 -45 -25 45 -52 0 32 45 -32 45 
52 0 25 45 25 -45 52 0 7915 2487 13 MP
DP
-32 -45 32 -45 -52 0 -25 -45 -25 45 -52 0 32 45 -32 45 
52 0 25 45 25 -45 52 0 9829 2540 13 MP
DP
-32 -45 32 -45 -52 0 -25 -45 -25 45 -52 0 32 45 -32 45 
52 0 25 45 25 -45 52 0 11744 2619 13 MP
DP
-32 -45 32 -45 -52 0 -25 -45 -25 45 -52 0 32 45 -32 45 
52 0 25 45 25 -45 52 0 13659 2548 13 MP
DP
-32 -45 32 -45 -52 0 -25 -45 -25 45 -52 0 32 45 -32 45 
52 0 25 45 25 -45 52 0 15574 2610 13 MP
DP
DO
gr

gs 2248 1048 13404 6626 rc
gr

0 sg
6778  446 mt 
(Solution Quality \(D) s
%%IncludeResource: font Helvetica
/Helvetica /WindowsLatin1Encoding 384 FMSR

10779  686 mt 
(s) s
%%IncludeResource: font Helvetica
/Helvetica /WindowsLatin1Encoding 480 FMSR

10971  446 mt 
(\)) s
6931 8561 mt 
(Elements swapped) s
SO
6 w

end %%Color Dict

eplot
%%EndObject

epage
end

showpage

%%Trailer
%%EOF
