%!PS-Adobe-3.0 EPSF-3.0
%%Creator: MATLAB, The MathWorks, Inc. Version 8.2.0.701 (R2013b). Operating System: Microsoft Windows 8.
%%Title: .\edit1.eps
%%CreationDate: 05/17/2016  20:09:09
%%DocumentNeededFonts: Helvetica
%%DocumentProcessColors: Cyan Magenta Yellow Black
%%LanguageLevel: 2
%%Pages: 1
%%BoundingBox:  -305    59   908   786
%%EndComments

%%BeginProlog
% MathWorks dictionary
/MathWorks 160 dict begin
% definition operators
/bdef {bind def} bind def
/ldef {load def} bind def
/xdef {exch def} bdef
/xstore {exch store} bdef
% operator abbreviations
/c  /clip ldef
/cc /concat ldef
/cp /closepath ldef
/gr /grestore ldef
/gs /gsave ldef
/mt /moveto ldef
/np /newpath ldef
/cm /currentmatrix ldef
/sm /setmatrix ldef
/rm /rmoveto ldef
/rl /rlineto ldef
/s {show newpath} bdef
/sc {setcmykcolor} bdef
/sr /setrgbcolor ldef
/sg /setgray ldef
/w /setlinewidth ldef
/j /setlinejoin ldef
/cap /setlinecap ldef
/rc {rectclip} bdef
/rf {rectfill} bdef
% page state control
/pgsv () def
/bpage {/pgsv save def} bdef
/epage {pgsv restore} bdef
/bplot /gsave ldef
/eplot {stroke grestore} bdef
% orientation switch
/portraitMode 0 def /landscapeMode 1 def /rotateMode 2 def
% coordinate system mappings
/dpi2point 0 def
% font control
/FontSize 0 def
/FMS {/FontSize xstore findfont [FontSize 0 0 FontSize neg 0 0]
  makefont setfont} bdef
/ISOLatin1Encoding where {pop /WindowsLatin1Encoding 256 array bdef
ISOLatin1Encoding WindowsLatin1Encoding copy pop
/.notdef/.notdef/quotesinglbase/florin/quotedblbase/ellipsis/dagger
/daggerdbl/circumflex/perthousand/Scaron/guilsinglleft/OE/.notdef/.notdef
/.notdef/.notdef/quoteleft/quoteright/quotedblleft/quotedblright/bullet
/endash/emdash/tilde/trademark/scaron/guilsinglright/oe/.notdef/.notdef
/Ydieresis WindowsLatin1Encoding 128 32 getinterval astore pop}
{/WindowsLatin1Encoding StandardEncoding bdef} ifelse
/reencode {exch dup where {pop load} {pop StandardEncoding} ifelse
  exch dup 3 1 roll findfont dup length dict begin
  { 1 index /FID ne {def}{pop pop} ifelse } forall
  /Encoding exch def currentdict end definefont pop} bdef
/isroman {findfont /CharStrings get /Agrave known} bdef
/FMSR {3 1 roll 1 index dup isroman {reencode} {pop pop} ifelse
  exch FMS} bdef
/csm {1 dpi2point div -1 dpi2point div scale neg translate
 dup landscapeMode eq {pop -90 rotate}
  {rotateMode eq {90 rotate} if} ifelse} bdef
% line types: solid, dotted, dashed, dotdash
/SO { [] 0 setdash } bdef
/DO { [.5 dpi2point mul 4 dpi2point mul] 0 setdash } bdef
/DA { [6 dpi2point mul] 0 setdash } bdef
/DD { [.5 dpi2point mul 4 dpi2point mul 6 dpi2point mul 4
  dpi2point mul] 0 setdash } bdef
% macros for lines and objects
/L {lineto stroke} bdef
/MP {3 1 roll moveto 1 sub {rlineto} repeat} bdef
/AP {{rlineto} repeat} bdef
/PDlw -1 def
/W {/PDlw currentlinewidth def setlinewidth} def
/PP {closepath eofill} bdef
/DP {closepath stroke} bdef
/MR {4 -2 roll moveto dup  0 exch rlineto exch 0 rlineto
  neg 0 exch rlineto closepath} bdef
/FR {MR stroke} bdef
/PR {MR fill} bdef
/L1i {{currentfile picstr readhexstring pop} image} bdef
/tMatrix matrix def
/MakeOval {newpath tMatrix currentmatrix pop translate scale
0 0 1 0 360 arc tMatrix setmatrix} bdef
/FO {MakeOval stroke} bdef
/PO {MakeOval fill} bdef
/PD {currentlinewidth 2 div 0 360 arc fill
   PDlw -1 eq not {PDlw w /PDlw -1 def} if} def
/FA {newpath tMatrix currentmatrix pop translate scale
  0 0 1 5 -2 roll arc tMatrix setmatrix stroke} bdef
/PA {newpath tMatrix currentmatrix pop	translate 0 0 moveto scale
  0 0 1 5 -2 roll arc closepath tMatrix setmatrix fill} bdef
/FAn {newpath tMatrix currentmatrix pop translate scale
  0 0 1 5 -2 roll arcn tMatrix setmatrix stroke} bdef
/PAn {newpath tMatrix currentmatrix pop translate 0 0 moveto scale
  0 0 1 5 -2 roll arcn closepath tMatrix setmatrix fill} bdef
/vradius 0 def /hradius 0 def /lry 0 def
/lrx 0 def /uly 0 def /ulx 0 def /rad 0 def
/MRR {/vradius xdef /hradius xdef /lry xdef /lrx xdef /uly xdef
  /ulx xdef newpath tMatrix currentmatrix pop ulx hradius add uly
  vradius add translate hradius vradius scale 0 0 1 180 270 arc 
  tMatrix setmatrix lrx hradius sub uly vradius add translate
  hradius vradius scale 0 0 1 270 360 arc tMatrix setmatrix
  lrx hradius sub lry vradius sub translate hradius vradius scale
  0 0 1 0 90 arc tMatrix setmatrix ulx hradius add lry vradius sub
  translate hradius vradius scale 0 0 1 90 180 arc tMatrix setmatrix
  closepath} bdef
/FRR {MRR stroke } bdef
/PRR {MRR fill } bdef
/MlrRR {/lry xdef /lrx xdef /uly xdef /ulx xdef /rad lry uly sub 2 div def
  newpath tMatrix currentmatrix pop ulx rad add uly rad add translate
  rad rad scale 0 0 1 90 270 arc tMatrix setmatrix lrx rad sub lry rad
  sub translate rad rad scale 0 0 1 270 90 arc tMatrix setmatrix
  closepath} bdef
/FlrRR {MlrRR stroke } bdef
/PlrRR {MlrRR fill } bdef
/MtbRR {/lry xdef /lrx xdef /uly xdef /ulx xdef /rad lrx ulx sub 2 div def
  newpath tMatrix currentmatrix pop ulx rad add uly rad add translate
  rad rad scale 0 0 1 180 360 arc tMatrix setmatrix lrx rad sub lry rad
  sub translate rad rad scale 0 0 1 0 180 arc tMatrix setmatrix
  closepath} bdef
/FtbRR {MtbRR stroke } bdef
/PtbRR {MtbRR fill } bdef
/stri 6 array def /dtri 6 array def
/smat 6 array def /dmat 6 array def
/tmat1 6 array def /tmat2 6 array def /dif 3 array def
/asub {/ind2 exch def /ind1 exch def dup dup
  ind1 get exch ind2 get sub exch } bdef
/tri_to_matrix {
  2 0 asub 3 1 asub 4 0 asub 5 1 asub
  dup 0 get exch 1 get 7 -1 roll astore } bdef
/compute_transform {
  dmat dtri tri_to_matrix tmat1 invertmatrix 
  smat stri tri_to_matrix tmat2 concatmatrix } bdef
/ds {stri astore pop} bdef
/dt {dtri astore pop} bdef
/db {2 copy /cols xdef /rows xdef mul dup 3 mul string
  currentfile 
  3 index 0 eq {/ASCIIHexDecode filter}
  {/ASCII85Decode filter 3 index 2 eq {/RunLengthDecode filter} if }
  ifelse exch readstring pop
  dup 0 3 index getinterval /rbmap xdef
  dup 2 index dup getinterval /gbmap xdef
  1 index dup 2 mul exch getinterval /bbmap xdef pop pop}bdef
/it {gs np dtri aload pop moveto lineto lineto cp c
  cols rows 8 compute_transform 
  rbmap gbmap bbmap true 3 colorimage gr}bdef
/il {newpath moveto lineto stroke}bdef
currentdict end def
%%EndProlog

%%BeginSetup
MathWorks begin

0 cap

end
%%EndSetup

%%Page: 1 1
%%BeginPageSetup
%%PageBoundingBox:  -305    59   908   786
MathWorks begin
bpage
%%EndPageSetup

%%BeginObject: obj1
bplot

/dpi2point 12 def
portraitMode -5064 9384 csm

 1399   -48 14568  8719 rc
94 dict begin %Colortable dictionary
/c0 { 0.000000 0.000000 0.000000 sr} bdef
/c1 { 1.000000 1.000000 1.000000 sr} bdef
/c2 { 0.900000 0.000000 0.000000 sr} bdef
/c3 { 0.000000 0.820000 0.000000 sr} bdef
/c4 { 0.000000 0.000000 0.800000 sr} bdef
/c5 { 0.910000 0.820000 0.320000 sr} bdef
/c6 { 1.000000 0.260000 0.820000 sr} bdef
/c7 { 0.000000 0.820000 0.820000 sr} bdef
c0
1 j
1 sg
   0    0 17295 8672 rf
6 w
0 6625 13403 0 0 -6625 2248 7673 4 MP
PP
-13403 0 0 6625 13403 0 0 -6625 2248 7673 5 MP stroke
4 w
DO
0 sg
2248 7673 mt 2248 1048 L
2248 1048 mt 2248 1048 L
4162 7673 mt 4162 1048 L
4162 1048 mt 4162 1048 L
6077 7673 mt 6077 1048 L
6077 1048 mt 6077 1048 L
7992 7673 mt 7992 1048 L
7992 1048 mt 7992 1048 L
9906 7673 mt 9906 1048 L
9906 1048 mt 9906 1048 L
11821 7673 mt 11821 1048 L
11821 1048 mt 11821 1048 L
13736 7673 mt 13736 1048 L
13736 1048 mt 13736 1048 L
15651 7673 mt 15651 1048 L
15651 1048 mt 15651 1048 L
2248 7673 mt 15651 7673 L
15651 7673 mt 15651 7673 L
2248 6016 mt 15651 6016 L
15651 6016 mt 15651 6016 L
2248 4360 mt 15651 4360 L
15651 4360 mt 15651 4360 L
2248 2704 mt 15651 2704 L
15651 2704 mt 15651 2704 L
2248 1048 mt 15651 1048 L
15651 1048 mt 15651 1048 L
SO
6 w
2248 1048 mt 15651 1048 L
2248 7673 mt 15651 7673 L
15651 7673 mt 15651 1048 L
2248 7673 mt 2248 1048 L
2248 7673 mt 15651 7673 L
2248 7673 mt 2248 1048 L
2248 7673 mt 2248 7538 L
2248 1048 mt 2248 1182 L
%%IncludeResource: font Helvetica
/Helvetica /WindowsLatin1Encoding 480 FMSR

1982 8153 mt 
(10) s
4162 7673 mt 4162 7538 L
4162 1048 mt 4162 1182 L
3896 8153 mt 
(20) s
6077 7673 mt 6077 7538 L
6077 1048 mt 6077 1182 L
5811 8153 mt 
(30) s
7992 7673 mt 7992 7538 L
7992 1048 mt 7992 1182 L
7726 8153 mt 
(40) s
9906 7673 mt 9906 7538 L
9906 1048 mt 9906 1182 L
9640 8153 mt 
(50) s
11821 7673 mt 11821 7538 L
11821 1048 mt 11821 1182 L
11555 8153 mt 
(60) s
13736 7673 mt 13736 7538 L
13736 1048 mt 13736 1182 L
13470 8153 mt 
(70) s
15651 7673 mt 15651 7538 L
15651 1048 mt 15651 1182 L
15385 8153 mt 
(80) s
2248 7673 mt 2382 7673 L
15651 7673 mt 15516 7673 L
1399 7851 mt 
(-50) s
2248 6016 mt 2382 6016 L
15651 6016 mt 15516 6016 L
1947 6194 mt 
(0) s
2248 4360 mt 2382 4360 L
15651 4360 mt 15516 4360 L
1680 4538 mt 
(50) s
2248 2704 mt 2382 2704 L
15651 2704 mt 15516 2704 L
1413 2882 mt 
(100) s
2248 1048 mt 2382 1048 L
15651 1048 mt 15516 1048 L
1413 1226 mt 
(150) s
2248 1048 mt 15651 1048 L
2248 7673 mt 15651 7673 L
15651 7673 mt 15651 1048 L
2248 7673 mt 2248 1048 L
gs 2248 1048 13404 6626 rc
36 w
/c8 { 0.000000 0.000000 1.000000 sr} bdef
c8
1915 7 1915 224 1915 189 1914 21 1915 462 1915 201 1914 659 2248 4036 8 MP stroke
gr

36 w
c8
gs 2030 3818 13840 2200 rc
  90   90 2248 4036 FO
  90   90 4162 4695 FO
  90   90 6077 4896 FO
  90   90 7992 5358 FO
  90   90 9906 5379 FO
  90   90 11821 5568 FO
  90   90 13736 5792 FO
  90   90 15651 5799 FO
gr

gs 2248 1048 13404 6626 rc
DO
/c9 { 1.000000 0.000000 0.000000 sr} bdef
c9
1915 -1087 1915 1546 1915 -376 1914 1598 1915 251 1915 -324 1914 1650 2248 1850 8 MP stroke
gr

c9
DO
gs 2030 1632 13840 4782 rc
SO
0 j
104 179 -208 0 104 -179 2248 1969 4 MP
DP
104 179 -208 0 104 -179 4162 3619 4 MP
DP
104 179 -208 0 104 -179 6077 3295 4 MP
DP
104 179 -208 0 104 -179 7992 3546 4 MP
DP
104 179 -208 0 104 -179 9906 5144 4 MP
DP
104 179 -208 0 104 -179 11821 4768 4 MP
DP
104 179 -208 0 104 -179 13736 6314 4 MP
DP
104 179 -208 0 104 -179 15651 5227 4 MP
DP
DO
gr

gs 2248 1048 13404 6626 rc
DD
/c10 { 0.000000 1.000000 0.000000 sr} bdef
c10
1915 114 1915 17 1915 23 1914 5 1915 46 1915 74 1914 103 2248 5582 8 MP stroke
gr

c10
DD
gs 2030 5364 13840 819 rc
SO
2185 5519 mt 2311 5645 L
2311 5519 mt 2185 5645 L
4099 5622 mt 4225 5748 L
4225 5622 mt 4099 5748 L
6014 5696 mt 6140 5822 L
6140 5696 mt 6014 5822 L
7929 5742 mt 8055 5868 L
8055 5742 mt 7929 5868 L
9843 5747 mt 9969 5873 L
9969 5747 mt 9843 5873 L
11758 5770 mt 11884 5896 L
11884 5770 mt 11758 5896 L
13673 5787 mt 13799 5913 L
13799 5787 mt 13673 5913 L
15588 5901 mt 15714 6027 L
15714 5901 mt 15588 6027 L
DD
gr

gs 2248 1048 13404 6626 rc
DA
/c11 { 0.000000 0.000000 0.172414 sr} bdef
c11
1915 11 1915 -16 1915 197 1914 191 1915 -97 1915 332 1914 84 2248 5177 8 MP stroke
gr

c11
DA
gs 2030 4959 13840 1144 rc
SO
2158 5177 mt 2338 5177 L
2248 5087 mt 2248 5267 L
4072 5261 mt 4252 5261 L
4162 5171 mt 4162 5351 L
5987 5593 mt 6167 5593 L
6077 5503 mt 6077 5683 L
7902 5496 mt 8082 5496 L
7992 5406 mt 7992 5586 L
9816 5687 mt 9996 5687 L
9906 5597 mt 9906 5777 L
11731 5884 mt 11911 5884 L
11821 5794 mt 11821 5974 L
13646 5868 mt 13826 5868 L
13736 5778 mt 13736 5958 L
15561 5879 mt 15741 5879 L
15651 5789 mt 15651 5969 L
2185 5114 mt 2311 5240 L
2311 5114 mt 2185 5240 L
4099 5198 mt 4225 5324 L
4225 5198 mt 4099 5324 L
6014 5530 mt 6140 5656 L
6140 5530 mt 6014 5656 L
7929 5433 mt 8055 5559 L
8055 5433 mt 7929 5559 L
9843 5624 mt 9969 5750 L
9969 5624 mt 9843 5750 L
11758 5821 mt 11884 5947 L
11884 5821 mt 11758 5947 L
13673 5805 mt 13799 5931 L
13799 5805 mt 13673 5931 L
15588 5816 mt 15714 5942 L
15714 5816 mt 15588 5942 L
DA
gr

gs 2248 1048 13404 6626 rc
SO
/c12 { 1.000000 0.103448 0.724138 sr} bdef
c12
1915 -136 1915 192 1915 4 1914 -28 1915 -14 1915 42 1914 166 2248 5675 8 MP stroke
gr

c12
SO
gs 2030 5457 13840 799 rc
0 j
0 -142 -142 0 0 142 142 0 2177 5604 5 MP
DP
0 -142 -142 0 0 142 142 0 4091 5770 5 MP
DP
0 -142 -142 0 0 142 142 0 6006 5812 5 MP
DP
0 -142 -142 0 0 142 142 0 7921 5798 5 MP
DP
0 -142 -142 0 0 142 142 0 9835 5770 5 MP
DP
0 -142 -142 0 0 142 142 0 11750 5774 5 MP
DP
0 -142 -142 0 0 142 142 0 13665 5966 5 MP
DP
0 -142 -142 0 0 142 142 0 15580 5830 5 MP
DP
gr

gs 2248 1048 13404 6626 rc
DO
/c13 { 0.000000 0.344828 0.000000 sr} bdef
c13
1915 543 1915 34 1915 333 1914 120 1915 41 1915 70 1914 744 2248 4214 8 MP stroke
gr

c13
DO
gs 2030 3996 13840 2322 rc
SO
0 j
90 119 -90 119 -90 -119 90 -119 2248 4333 5 MP
DP
90 119 -90 119 -90 -119 90 -119 4162 5077 5 MP
DP
90 119 -90 119 -90 -119 90 -119 6077 5147 5 MP
DP
90 119 -90 119 -90 -119 90 -119 7992 5188 5 MP
DP
90 119 -90 119 -90 -119 90 -119 9906 5308 5 MP
DP
90 119 -90 119 -90 -119 90 -119 11821 5641 5 MP
DP
90 119 -90 119 -90 -119 90 -119 13736 5675 5 MP
DP
90 119 -90 119 -90 -119 90 -119 15651 6218 5 MP
DP
DO
gr

gs 2248 1048 13404 6626 rc
DD
1915 -423 1915 204 1915 1823 1914 -1027 1915 1908 1915 -119 1914 -49 2248 3404 8 MP stroke
gr

DD
gs 2030 3018 13840 3345 rc
SO
60 W
2248 3404 PD
60 W
4162 3355 PD
60 W
6077 3236 PD
60 W
7992 5144 PD
60 W
9906 4117 PD
60 W
11821 5940 PD
60 W
13736 6144 PD
60 W
15651 5721 PD
DD
gr

gs 2248 1048 13404 6626 rc
DA
/c14 { 0.517241 0.517241 1.000000 sr} bdef
c14
1915 574 1915 -339 1915 46 1914 62 1915 467 1915 -110 1914 1059 2248 4225 8 MP stroke
gr

c14
DA
gs 2030 4007 13840 2196 rc
SO
0 j
-104 179 -104 -179 208 0 2144 4285 4 MP
DP
-104 179 -104 -179 208 0 4058 5344 4 MP
DP
-104 179 -104 -179 208 0 5973 5234 4 MP
DP
-104 179 -104 -179 208 0 7888 5701 4 MP
DP
-104 179 -104 -179 208 0 9802 5763 4 MP
DP
-104 179 -104 -179 208 0 11717 5809 4 MP
DP
-104 179 -104 -179 208 0 13632 5470 4 MP
DP
-104 179 -104 -179 208 0 15547 6044 4 MP
DP
DA
gr

gs 2248 1048 13404 6626 rc
SO
/c15 { 0.620690 0.310345 0.275862 sr} bdef
c15
1915 1052 1915 8 1915 337 1914 -116 1915 688 1915 642 1914 1302 2248 2073 8 MP stroke
gr

c15
SO
gs 2030 1855 13840 4350 rc
0 j
-179 104 0 -208 179 104 2129 2073 4 MP
DP
-179 104 0 -208 179 104 4043 3375 4 MP
DP
-179 104 0 -208 179 104 5958 4017 4 MP
DP
-179 104 0 -208 179 104 7873 4705 4 MP
DP
-179 104 0 -208 179 104 9787 4589 4 MP
DP
-179 104 0 -208 179 104 11702 4926 4 MP
DP
-179 104 0 -208 179 104 13617 4934 4 MP
DP
-179 104 0 -208 179 104 15532 5986 4 MP
DP
gr

gs 2248 1048 13404 6626 rc
DO
/c16 { 0.000000 1.000000 0.758621 sr} bdef
c16
1915 -345 1915 106 1915 194 1914 215 1915 304 1915 196 1914 31 2248 4763 8 MP stroke
gr

c16
DO
gs 2030 4545 13840 1483 rc
SO
0 j
0 208 -179 -104 179 -104 2188 4867 4 MP
DP
0 208 -179 -104 179 -104 4102 4898 4 MP
DP
0 208 -179 -104 179 -104 6017 5094 4 MP
DP
0 208 -179 -104 179 -104 7932 5398 4 MP
DP
0 208 -179 -104 179 -104 9846 5613 4 MP
DP
0 208 -179 -104 179 -104 11761 5807 4 MP
DP
0 208 -179 -104 179 -104 13676 5913 4 MP
DP
0 208 -179 -104 179 -104 15591 5568 4 MP
DP
DO
gr

gs 2248 1048 13404 6626 rc
SO
/c17 { 0.000000 0.517241 0.586207 sr} bdef
c17
1915 861 1915 -484 1915 754 1914 153 1915 207 1915 228 1914 1474 2248 2533 8 MP stroke
gr

c17
SO
gs 2030 2315 13840 3630 rc
0 j
-51 -39 18 -61 -53 36 -52 -36 18 61 -51 39 64 0 21 62 
22 -62 64 0 2162 2505 11 MP
DP
-51 -39 18 -61 -53 36 -52 -36 18 61 -51 39 64 0 21 62 
22 -62 64 0 4076 3979 11 MP
DP
-51 -39 18 -61 -53 36 -52 -36 18 61 -51 39 64 0 21 62 
22 -62 64 0 5991 4207 11 MP
DP
-51 -39 18 -61 -53 36 -52 -36 18 61 -51 39 64 0 21 62 
22 -62 64 0 7906 4414 11 MP
DP
-51 -39 18 -61 -53 36 -52 -36 18 61 -51 39 64 0 21 62 
22 -62 64 0 9820 4567 11 MP
DP
-51 -39 18 -61 -53 36 -52 -36 18 61 -51 39 64 0 21 62 
22 -62 64 0 11735 5321 11 MP
DP
-51 -39 18 -61 -53 36 -52 -36 18 61 -51 39 64 0 21 62 
22 -62 64 0 13650 4837 11 MP
DP
-51 -39 18 -61 -53 36 -52 -36 18 61 -51 39 64 0 21 62 
22 -62 64 0 15565 5698 11 MP
DP
gr

gs 2248 1048 13404 6626 rc
DO
/c18 { 0.000000 0.000000 0.482759 sr} bdef
c18
1915 1950 1915 -1389 1915 827 1914 78 1915 1107 1915 497 1914 1367 2248 1554 8 MP stroke
gr

c18
DO
gs 2030 1336 13840 4874 rc
SO
0 j
-32 -45 32 -45 -52 0 -25 -45 -25 45 -52 0 32 45 -32 45 
52 0 25 45 25 -45 52 0 2171 1509 13 MP
DP
-32 -45 32 -45 -52 0 -25 -45 -25 45 -52 0 32 45 -32 45 
52 0 25 45 25 -45 52 0 4085 2876 13 MP
DP
-32 -45 32 -45 -52 0 -25 -45 -25 45 -52 0 32 45 -32 45 
52 0 25 45 25 -45 52 0 6000 3373 13 MP
DP
-32 -45 32 -45 -52 0 -25 -45 -25 45 -52 0 32 45 -32 45 
52 0 25 45 25 -45 52 0 7915 4480 13 MP
DP
-32 -45 32 -45 -52 0 -25 -45 -25 45 -52 0 32 45 -32 45 
52 0 25 45 25 -45 52 0 9829 4558 13 MP
DP
-32 -45 32 -45 -52 0 -25 -45 -25 45 -52 0 32 45 -32 45 
52 0 25 45 25 -45 52 0 11744 5385 13 MP
DP
-32 -45 32 -45 -52 0 -25 -45 -25 45 -52 0 32 45 -32 45 
52 0 25 45 25 -45 52 0 13659 3996 13 MP
DP
-32 -45 32 -45 -52 0 -25 -45 -25 45 -52 0 32 45 -32 45 
52 0 25 45 25 -45 52 0 15574 5946 13 MP
DP
DO
gr

gs 2248 1048 13404 6626 rc
gr

0 sg
4587  446 mt 
(Generations to reach feasible region \(D) s
%%IncludeResource: font Helvetica
/Helvetica /WindowsLatin1Encoding 384 FMSR

12935  686 mt 
(g) s
%%IncludeResource: font Helvetica
/Helvetica /WindowsLatin1Encoding 480 FMSR

13148  446 mt 
(\)) s
6931 8561 mt 
(Elements swapped) s
SO
6 w

end %%Color Dict

eplot
%%EndObject

epage
end

showpage

%%Trailer
%%EOF
