%!PS-Adobe-3.0 EPSF-3.0
%%Creator: MATLAB, The MathWorks, Inc. Version 8.2.0.701 (R2013b). Operating System: Microsoft Windows 8.
%%Title: .\edit7.eps
%%CreationDate: 05/17/2016  20:09:13
%%DocumentNeededFonts: Helvetica
%%DocumentProcessColors: Cyan Magenta Yellow Black
%%LanguageLevel: 2
%%Pages: 1
%%BoundingBox:  -259    59   908   786
%%EndComments

%%BeginProlog
% MathWorks dictionary
/MathWorks 160 dict begin
% definition operators
/bdef {bind def} bind def
/ldef {load def} bind def
/xdef {exch def} bdef
/xstore {exch store} bdef
% operator abbreviations
/c  /clip ldef
/cc /concat ldef
/cp /closepath ldef
/gr /grestore ldef
/gs /gsave ldef
/mt /moveto ldef
/np /newpath ldef
/cm /currentmatrix ldef
/sm /setmatrix ldef
/rm /rmoveto ldef
/rl /rlineto ldef
/s {show newpath} bdef
/sc {setcmykcolor} bdef
/sr /setrgbcolor ldef
/sg /setgray ldef
/w /setlinewidth ldef
/j /setlinejoin ldef
/cap /setlinecap ldef
/rc {rectclip} bdef
/rf {rectfill} bdef
% page state control
/pgsv () def
/bpage {/pgsv save def} bdef
/epage {pgsv restore} bdef
/bplot /gsave ldef
/eplot {stroke grestore} bdef
% orientation switch
/portraitMode 0 def /landscapeMode 1 def /rotateMode 2 def
% coordinate system mappings
/dpi2point 0 def
% font control
/FontSize 0 def
/FMS {/FontSize xstore findfont [FontSize 0 0 FontSize neg 0 0]
  makefont setfont} bdef
/ISOLatin1Encoding where {pop /WindowsLatin1Encoding 256 array bdef
ISOLatin1Encoding WindowsLatin1Encoding copy pop
/.notdef/.notdef/quotesinglbase/florin/quotedblbase/ellipsis/dagger
/daggerdbl/circumflex/perthousand/Scaron/guilsinglleft/OE/.notdef/.notdef
/.notdef/.notdef/quoteleft/quoteright/quotedblleft/quotedblright/bullet
/endash/emdash/tilde/trademark/scaron/guilsinglright/oe/.notdef/.notdef
/Ydieresis WindowsLatin1Encoding 128 32 getinterval astore pop}
{/WindowsLatin1Encoding StandardEncoding bdef} ifelse
/reencode {exch dup where {pop load} {pop StandardEncoding} ifelse
  exch dup 3 1 roll findfont dup length dict begin
  { 1 index /FID ne {def}{pop pop} ifelse } forall
  /Encoding exch def currentdict end definefont pop} bdef
/isroman {findfont /CharStrings get /Agrave known} bdef
/FMSR {3 1 roll 1 index dup isroman {reencode} {pop pop} ifelse
  exch FMS} bdef
/csm {1 dpi2point div -1 dpi2point div scale neg translate
 dup landscapeMode eq {pop -90 rotate}
  {rotateMode eq {90 rotate} if} ifelse} bdef
% line types: solid, dotted, dashed, dotdash
/SO { [] 0 setdash } bdef
/DO { [.5 dpi2point mul 4 dpi2point mul] 0 setdash } bdef
/DA { [6 dpi2point mul] 0 setdash } bdef
/DD { [.5 dpi2point mul 4 dpi2point mul 6 dpi2point mul 4
  dpi2point mul] 0 setdash } bdef
% macros for lines and objects
/L {lineto stroke} bdef
/MP {3 1 roll moveto 1 sub {rlineto} repeat} bdef
/AP {{rlineto} repeat} bdef
/PDlw -1 def
/W {/PDlw currentlinewidth def setlinewidth} def
/PP {closepath eofill} bdef
/DP {closepath stroke} bdef
/MR {4 -2 roll moveto dup  0 exch rlineto exch 0 rlineto
  neg 0 exch rlineto closepath} bdef
/FR {MR stroke} bdef
/PR {MR fill} bdef
/L1i {{currentfile picstr readhexstring pop} image} bdef
/tMatrix matrix def
/MakeOval {newpath tMatrix currentmatrix pop translate scale
0 0 1 0 360 arc tMatrix setmatrix} bdef
/FO {MakeOval stroke} bdef
/PO {MakeOval fill} bdef
/PD {currentlinewidth 2 div 0 360 arc fill
   PDlw -1 eq not {PDlw w /PDlw -1 def} if} def
/FA {newpath tMatrix currentmatrix pop translate scale
  0 0 1 5 -2 roll arc tMatrix setmatrix stroke} bdef
/PA {newpath tMatrix currentmatrix pop	translate 0 0 moveto scale
  0 0 1 5 -2 roll arc closepath tMatrix setmatrix fill} bdef
/FAn {newpath tMatrix currentmatrix pop translate scale
  0 0 1 5 -2 roll arcn tMatrix setmatrix stroke} bdef
/PAn {newpath tMatrix currentmatrix pop translate 0 0 moveto scale
  0 0 1 5 -2 roll arcn closepath tMatrix setmatrix fill} bdef
/vradius 0 def /hradius 0 def /lry 0 def
/lrx 0 def /uly 0 def /ulx 0 def /rad 0 def
/MRR {/vradius xdef /hradius xdef /lry xdef /lrx xdef /uly xdef
  /ulx xdef newpath tMatrix currentmatrix pop ulx hradius add uly
  vradius add translate hradius vradius scale 0 0 1 180 270 arc 
  tMatrix setmatrix lrx hradius sub uly vradius add translate
  hradius vradius scale 0 0 1 270 360 arc tMatrix setmatrix
  lrx hradius sub lry vradius sub translate hradius vradius scale
  0 0 1 0 90 arc tMatrix setmatrix ulx hradius add lry vradius sub
  translate hradius vradius scale 0 0 1 90 180 arc tMatrix setmatrix
  closepath} bdef
/FRR {MRR stroke } bdef
/PRR {MRR fill } bdef
/MlrRR {/lry xdef /lrx xdef /uly xdef /ulx xdef /rad lry uly sub 2 div def
  newpath tMatrix currentmatrix pop ulx rad add uly rad add translate
  rad rad scale 0 0 1 90 270 arc tMatrix setmatrix lrx rad sub lry rad
  sub translate rad rad scale 0 0 1 270 90 arc tMatrix setmatrix
  closepath} bdef
/FlrRR {MlrRR stroke } bdef
/PlrRR {MlrRR fill } bdef
/MtbRR {/lry xdef /lrx xdef /uly xdef /ulx xdef /rad lrx ulx sub 2 div def
  newpath tMatrix currentmatrix pop ulx rad add uly rad add translate
  rad rad scale 0 0 1 180 360 arc tMatrix setmatrix lrx rad sub lry rad
  sub translate rad rad scale 0 0 1 0 180 arc tMatrix setmatrix
  closepath} bdef
/FtbRR {MtbRR stroke } bdef
/PtbRR {MtbRR fill } bdef
/stri 6 array def /dtri 6 array def
/smat 6 array def /dmat 6 array def
/tmat1 6 array def /tmat2 6 array def /dif 3 array def
/asub {/ind2 exch def /ind1 exch def dup dup
  ind1 get exch ind2 get sub exch } bdef
/tri_to_matrix {
  2 0 asub 3 1 asub 4 0 asub 5 1 asub
  dup 0 get exch 1 get 7 -1 roll astore } bdef
/compute_transform {
  dmat dtri tri_to_matrix tmat1 invertmatrix 
  smat stri tri_to_matrix tmat2 concatmatrix } bdef
/ds {stri astore pop} bdef
/dt {dtri astore pop} bdef
/db {2 copy /cols xdef /rows xdef mul dup 3 mul string
  currentfile 
  3 index 0 eq {/ASCIIHexDecode filter}
  {/ASCII85Decode filter 3 index 2 eq {/RunLengthDecode filter} if }
  ifelse exch readstring pop
  dup 0 3 index getinterval /rbmap xdef
  dup 2 index dup getinterval /gbmap xdef
  1 index dup 2 mul exch getinterval /bbmap xdef pop pop}bdef
/it {gs np dtri aload pop moveto lineto lineto cp c
  cols rows 8 compute_transform 
  rbmap gbmap bbmap true 3 colorimage gr}bdef
/il {newpath moveto lineto stroke}bdef
currentdict end def
%%EndProlog

%%BeginSetup
MathWorks begin

0 cap

end
%%EndSetup

%%Page: 1 1
%%BeginPageSetup
%%PageBoundingBox:  -259    59   908   786
MathWorks begin
bpage
%%EndPageSetup

%%BeginObject: obj1
bplot

/dpi2point 12 def
portraitMode -5064 9384 csm

 1947   -48 14020  8719 rc
94 dict begin %Colortable dictionary
/c0 { 0.000000 0.000000 0.000000 sr} bdef
/c1 { 1.000000 1.000000 1.000000 sr} bdef
/c2 { 0.900000 0.000000 0.000000 sr} bdef
/c3 { 0.000000 0.820000 0.000000 sr} bdef
/c4 { 0.000000 0.000000 0.800000 sr} bdef
/c5 { 0.910000 0.820000 0.320000 sr} bdef
/c6 { 1.000000 0.260000 0.820000 sr} bdef
/c7 { 0.000000 0.820000 0.820000 sr} bdef
c0
1 j
1 sg
   0    0 17295 8672 rf
6 w
0 6625 13403 0 0 -6625 2248 7673 4 MP
PP
-13403 0 0 6625 13403 0 0 -6625 2248 7673 5 MP stroke
4 w
DO
0 sg
2248 7673 mt 2248 1048 L
2248 1048 mt 2248 1048 L
4162 7673 mt 4162 1048 L
4162 1048 mt 4162 1048 L
6077 7673 mt 6077 1048 L
6077 1048 mt 6077 1048 L
7992 7673 mt 7992 1048 L
7992 1048 mt 7992 1048 L
9906 7673 mt 9906 1048 L
9906 1048 mt 9906 1048 L
11821 7673 mt 11821 1048 L
11821 1048 mt 11821 1048 L
13736 7673 mt 13736 1048 L
13736 1048 mt 13736 1048 L
15651 7673 mt 15651 1048 L
15651 1048 mt 15651 1048 L
2248 7673 mt 15651 7673 L
15651 7673 mt 15651 7673 L
2248 6568 mt 15651 6568 L
15651 6568 mt 15651 6568 L
2248 5464 mt 15651 5464 L
15651 5464 mt 15651 5464 L
2248 4360 mt 15651 4360 L
15651 4360 mt 15651 4360 L
2248 3256 mt 15651 3256 L
15651 3256 mt 15651 3256 L
2248 2152 mt 15651 2152 L
15651 2152 mt 15651 2152 L
2248 1048 mt 15651 1048 L
15651 1048 mt 15651 1048 L
SO
6 w
2248 1048 mt 15651 1048 L
2248 7673 mt 15651 7673 L
15651 7673 mt 15651 1048 L
2248 7673 mt 2248 1048 L
2248 7673 mt 15651 7673 L
2248 7673 mt 2248 1048 L
2248 7673 mt 2248 7538 L
2248 1048 mt 2248 1182 L
%%IncludeResource: font Helvetica
/Helvetica /WindowsLatin1Encoding 480 FMSR

1982 8153 mt 
(10) s
4162 7673 mt 4162 7538 L
4162 1048 mt 4162 1182 L
3896 8153 mt 
(20) s
6077 7673 mt 6077 7538 L
6077 1048 mt 6077 1182 L
5811 8153 mt 
(30) s
7992 7673 mt 7992 7538 L
7992 1048 mt 7992 1182 L
7726 8153 mt 
(40) s
9906 7673 mt 9906 7538 L
9906 1048 mt 9906 1182 L
9640 8153 mt 
(50) s
11821 7673 mt 11821 7538 L
11821 1048 mt 11821 1182 L
11555 8153 mt 
(60) s
13736 7673 mt 13736 7538 L
13736 1048 mt 13736 1182 L
13470 8153 mt 
(70) s
15651 7673 mt 15651 7538 L
15651 1048 mt 15651 1182 L
15385 8153 mt 
(80) s
2248 7673 mt 2382 7673 L
15651 7673 mt 15516 7673 L
1947 7851 mt 
(0) s
2248 6568 mt 2382 6568 L
15651 6568 mt 15516 6568 L
1947 6746 mt 
(1) s
2248 5464 mt 2382 5464 L
15651 5464 mt 15516 5464 L
1947 5642 mt 
(2) s
2248 4360 mt 2382 4360 L
15651 4360 mt 15516 4360 L
1947 4538 mt 
(3) s
2248 3256 mt 2382 3256 L
15651 3256 mt 15516 3256 L
1947 3434 mt 
(4) s
2248 2152 mt 2382 2152 L
15651 2152 mt 15516 2152 L
1947 2330 mt 
(5) s
2248 1048 mt 2382 1048 L
15651 1048 mt 15516 1048 L
1947 1226 mt 
(6) s
2248  994 mt 
(x 10) s
%%IncludeResource: font Helvetica
/Helvetica /WindowsLatin1Encoding 320 FMSR

3155  697 mt 
(5) s
2248 1048 mt 15651 1048 L
2248 7673 mt 15651 7673 L
15651 7673 mt 15651 1048 L
2248 7673 mt 2248 1048 L
gs 2248 1048 13404 6626 rc
36 w
/c8 { 0.000000 0.000000 1.000000 sr} bdef
c8
1915 127 1915 3 1915 177 1914 214 1915 258 1915 394 1914 480 2248 4431 8 MP stroke
gr

36 w
c8
gs 2030 4213 13840 2090 rc
  90   90 2248 4431 FO
  90   90 4162 4911 FO
  90   90 6077 5305 FO
  90   90 7992 5563 FO
  90   90 9906 5777 FO
  90   90 11821 5954 FO
  90   90 13736 5957 FO
  90   90 15651 6084 FO
gr

gs 2248 1048 13404 6626 rc
DO
/c9 { 1.000000 0.000000 0.000000 sr} bdef
c9
1915 171 1915 383 1915 231 1914 504 1915 474 1915 813 1914 904 2248 1199 8 MP stroke
gr

c9
DO
gs 2030 981 13840 3917 rc
SO
0 j
104 179 -208 0 104 -179 2248 1318 4 MP
DP
104 179 -208 0 104 -179 4162 2222 4 MP
DP
104 179 -208 0 104 -179 6077 3035 4 MP
DP
104 179 -208 0 104 -179 7992 3509 4 MP
DP
104 179 -208 0 104 -179 9906 4013 4 MP
DP
104 179 -208 0 104 -179 11821 4244 4 MP
DP
104 179 -208 0 104 -179 13736 4627 4 MP
DP
104 179 -208 0 104 -179 15651 4798 4 MP
DP
DO
gr

gs 2248 1048 13404 6626 rc
DD
/c10 { 0.000000 1.000000 0.000000 sr} bdef
c10
1915 -28 1915 22 1915 32 1914 27 1915 20 1915 107 1914 68 2248 6933 8 MP stroke
gr

c10
DD
gs 2030 6715 13840 713 rc
SO
2185 6870 mt 2311 6996 L
2311 6870 mt 2185 6996 L
4099 6938 mt 4225 7064 L
4225 6938 mt 4099 7064 L
6014 7045 mt 6140 7171 L
6140 7045 mt 6014 7171 L
7929 7065 mt 8055 7191 L
8055 7065 mt 7929 7191 L
9843 7092 mt 9969 7218 L
9969 7092 mt 9843 7218 L
11758 7124 mt 11884 7250 L
11884 7124 mt 11758 7250 L
13673 7146 mt 13799 7272 L
13799 7146 mt 13673 7272 L
15588 7118 mt 15714 7244 L
15714 7118 mt 15588 7244 L
DD
gr

gs 2248 1048 13404 6626 rc
DA
/c11 { 0.000000 0.000000 0.172414 sr} bdef
c11
1915 -30 1915 47 1915 16 1914 35 1915 110 1915 133 1914 170 2248 6427 8 MP stroke
gr

c11
DA
gs 2030 6209 13840 948 rc
SO
2158 6427 mt 2338 6427 L
2248 6337 mt 2248 6517 L
4072 6597 mt 4252 6597 L
4162 6507 mt 4162 6687 L
5987 6730 mt 6167 6730 L
6077 6640 mt 6077 6820 L
7902 6840 mt 8082 6840 L
7992 6750 mt 7992 6930 L
9816 6875 mt 9996 6875 L
9906 6785 mt 9906 6965 L
11731 6891 mt 11911 6891 L
11821 6801 mt 11821 6981 L
13646 6938 mt 13826 6938 L
13736 6848 mt 13736 7028 L
15561 6908 mt 15741 6908 L
15651 6818 mt 15651 6998 L
2185 6364 mt 2311 6490 L
2311 6364 mt 2185 6490 L
4099 6534 mt 4225 6660 L
4225 6534 mt 4099 6660 L
6014 6667 mt 6140 6793 L
6140 6667 mt 6014 6793 L
7929 6777 mt 8055 6903 L
8055 6777 mt 7929 6903 L
9843 6812 mt 9969 6938 L
9969 6812 mt 9843 6938 L
11758 6828 mt 11884 6954 L
11884 6828 mt 11758 6954 L
13673 6875 mt 13799 7001 L
13799 6875 mt 13673 7001 L
15588 6845 mt 15714 6971 L
15714 6845 mt 15588 6971 L
DA
gr

gs 2248 1048 13404 6626 rc
SO
/c12 { 1.000000 0.103448 0.724138 sr} bdef
c12
1915 7 1915 -4 1915 -17 1914 2 1915 -5 1915 34 1914 -1 2248 7610 8 MP stroke
gr

c12
SO
gs 2030 7391 13840 471 rc
0 j
0 -142 -142 0 0 142 142 0 2177 7539 5 MP
DP
0 -142 -142 0 0 142 142 0 4091 7538 5 MP
DP
0 -142 -142 0 0 142 142 0 6006 7572 5 MP
DP
0 -142 -142 0 0 142 142 0 7921 7567 5 MP
DP
0 -142 -142 0 0 142 142 0 9835 7569 5 MP
DP
0 -142 -142 0 0 142 142 0 11750 7552 5 MP
DP
0 -142 -142 0 0 142 142 0 13665 7548 5 MP
DP
0 -142 -142 0 0 142 142 0 15580 7555 5 MP
DP
gr

gs 2248 1048 13404 6626 rc
DO
/c13 { 0.000000 0.344828 0.000000 sr} bdef
c13
1915 3 1915 -19 1915 81 1914 115 1915 94 1915 247 1914 358 2248 5759 8 MP stroke
gr

c13
DO
gs 2030 5541 13840 1332 rc
SO
0 j
90 119 -90 119 -90 -119 90 -119 2248 5878 5 MP
DP
90 119 -90 119 -90 -119 90 -119 4162 6236 5 MP
DP
90 119 -90 119 -90 -119 90 -119 6077 6483 5 MP
DP
90 119 -90 119 -90 -119 90 -119 7992 6577 5 MP
DP
90 119 -90 119 -90 -119 90 -119 9906 6692 5 MP
DP
90 119 -90 119 -90 -119 90 -119 11821 6773 5 MP
DP
90 119 -90 119 -90 -119 90 -119 13736 6754 5 MP
DP
90 119 -90 119 -90 -119 90 -119 15651 6757 5 MP
DP
DO
gr

gs 2248 1048 13404 6626 rc
DD
1915 165 1915 3 1915 200 1914 215 1915 317 1915 300 1914 613 2248 4125 8 MP stroke
gr

DD
gs 2030 3907 13840 2250 rc
SO
60 W
2248 4125 PD
60 W
4162 4738 PD
60 W
6077 5038 PD
60 W
7992 5355 PD
60 W
9906 5570 PD
60 W
11821 5770 PD
60 W
13736 5773 PD
60 W
15651 5938 PD
DD
gr

gs 2248 1048 13404 6626 rc
DA
/c14 { 0.517241 0.517241 1.000000 sr} bdef
c14
1915 63 1915 -39 1915 82 1914 43 1915 97 1915 208 1914 269 2248 6131 8 MP stroke
gr

c14
DA
gs 2030 5913 13840 1160 rc
SO
0 j
-104 179 -104 -179 208 0 2144 6191 4 MP
DP
-104 179 -104 -179 208 0 4058 6460 4 MP
DP
-104 179 -104 -179 208 0 5973 6668 4 MP
DP
-104 179 -104 -179 208 0 7888 6765 4 MP
DP
-104 179 -104 -179 208 0 9802 6808 4 MP
DP
-104 179 -104 -179 208 0 11717 6890 4 MP
DP
-104 179 -104 -179 208 0 13632 6851 4 MP
DP
-104 179 -104 -179 208 0 15547 6914 4 MP
DP
DA
gr

gs 2248 1048 13404 6626 rc
SO
/c15 { 0.620690 0.310345 0.275862 sr} bdef
c15
1915 101 1915 98 1915 116 1914 126 1915 197 1915 350 1914 584 2248 4784 8 MP stroke
gr

c15
SO
gs 2030 4566 13840 2009 rc
0 j
-179 104 0 -208 179 104 2129 4784 4 MP
DP
-179 104 0 -208 179 104 4043 5368 4 MP
DP
-179 104 0 -208 179 104 5958 5718 4 MP
DP
-179 104 0 -208 179 104 7873 5915 4 MP
DP
-179 104 0 -208 179 104 9787 6041 4 MP
DP
-179 104 0 -208 179 104 11702 6157 4 MP
DP
-179 104 0 -208 179 104 13617 6255 4 MP
DP
-179 104 0 -208 179 104 15532 6356 4 MP
DP
gr

gs 2248 1048 13404 6626 rc
DO
/c16 { 0.000000 1.000000 0.758621 sr} bdef
c16
1915 15 1915 -23 1915 3 1914 36 1915 64 1915 76 1914 126 2248 7037 8 MP stroke
gr

c16
DO
gs 2030 6819 13840 742 rc
SO
0 j
0 208 -179 -104 179 -104 2188 7141 4 MP
DP
0 208 -179 -104 179 -104 4102 7267 4 MP
DP
0 208 -179 -104 179 -104 6017 7343 4 MP
DP
0 208 -179 -104 179 -104 7932 7407 4 MP
DP
0 208 -179 -104 179 -104 9846 7443 4 MP
DP
0 208 -179 -104 179 -104 11761 7446 4 MP
DP
0 208 -179 -104 179 -104 13676 7423 4 MP
DP
0 208 -179 -104 179 -104 15591 7438 4 MP
DP
DO
gr

gs 2248 1048 13404 6626 rc
SO
/c17 { 0.000000 0.517241 0.586207 sr} bdef
c17
1915 -41 1915 113 1915 75 1914 46 1915 126 1915 147 1914 401 2248 5805 8 MP stroke
gr

c17
SO
gs 2030 5587 13840 1345 rc
0 j
-51 -39 18 -61 -53 36 -52 -36 18 61 -51 39 64 0 21 62 
22 -62 64 0 2162 5777 11 MP
DP
-51 -39 18 -61 -53 36 -52 -36 18 61 -51 39 64 0 21 62 
22 -62 64 0 4076 6178 11 MP
DP
-51 -39 18 -61 -53 36 -52 -36 18 61 -51 39 64 0 21 62 
22 -62 64 0 5991 6325 11 MP
DP
-51 -39 18 -61 -53 36 -52 -36 18 61 -51 39 64 0 21 62 
22 -62 64 0 7906 6451 11 MP
DP
-51 -39 18 -61 -53 36 -52 -36 18 61 -51 39 64 0 21 62 
22 -62 64 0 9820 6497 11 MP
DP
-51 -39 18 -61 -53 36 -52 -36 18 61 -51 39 64 0 21 62 
22 -62 64 0 11735 6572 11 MP
DP
-51 -39 18 -61 -53 36 -52 -36 18 61 -51 39 64 0 21 62 
22 -62 64 0 13650 6685 11 MP
DP
-51 -39 18 -61 -53 36 -52 -36 18 61 -51 39 64 0 21 62 
22 -62 64 0 15565 6644 11 MP
DP
gr

gs 2248 1048 13404 6626 rc
DO
/c18 { 0.000000 0.000000 0.482759 sr} bdef
c18
1915 51 1915 6 1915 -28 1914 114 1915 75 1915 237 1914 240 2248 6355 8 MP stroke
gr

c18
DO
gs 2030 6137 13840 1132 rc
SO
0 j
-32 -45 32 -45 -52 0 -25 -45 -25 45 -52 0 32 45 -32 45 
52 0 25 45 25 -45 52 0 2171 6310 13 MP
DP
-32 -45 32 -45 -52 0 -25 -45 -25 45 -52 0 32 45 -32 45 
52 0 25 45 25 -45 52 0 4085 6550 13 MP
DP
-32 -45 32 -45 -52 0 -25 -45 -25 45 -52 0 32 45 -32 45 
52 0 25 45 25 -45 52 0 6000 6787 13 MP
DP
-32 -45 32 -45 -52 0 -25 -45 -25 45 -52 0 32 45 -32 45 
52 0 25 45 25 -45 52 0 7915 6862 13 MP
DP
-32 -45 32 -45 -52 0 -25 -45 -25 45 -52 0 32 45 -32 45 
52 0 25 45 25 -45 52 0 9829 6976 13 MP
DP
-32 -45 32 -45 -52 0 -25 -45 -25 45 -52 0 32 45 -32 45 
52 0 25 45 25 -45 52 0 11744 6948 13 MP
DP
-32 -45 32 -45 -52 0 -25 -45 -25 45 -52 0 32 45 -32 45 
52 0 25 45 25 -45 52 0 13659 6954 13 MP
DP
-32 -45 32 -45 -52 0 -25 -45 -25 45 -52 0 32 45 -32 45 
52 0 25 45 25 -45 52 0 15574 7005 13 MP
DP
DO
gr

gs 2248 1048 13404 6626 rc
gr

0 sg
%%IncludeResource: font Helvetica
/Helvetica /WindowsLatin1Encoding 480 FMSR

5211  446 mt 
(Evaluations at end fo runs \(D) s
%%IncludeResource: font Helvetica
/Helvetica /WindowsLatin1Encoding 384 FMSR

11381  686 mt 
(e) s
%%IncludeResource: font Helvetica
/Helvetica /WindowsLatin1Encoding 480 FMSR

11594  446 mt 
( end\)) s
6931 8561 mt 
(Elements swapped) s
SO
6 w

end %%Color Dict

eplot
%%EndObject

epage
end

showpage

%%Trailer
%%EOF
