%!PS-Adobe-3.0 EPSF-3.0
%%Creator: MATLAB, The MathWorks, Inc. Version 8.2.0.701 (R2013b). Operating System: Microsoft Windows 8.
%%Title: C:\Users\Ayush\Desktop\Thesis\Ch1images\popmodkp\pop7504.eps
%%CreationDate: 06/17/2016  15:56:57
%%DocumentNeededFonts: Helvetica
%%DocumentProcessColors: Cyan Magenta Yellow Black
%%LanguageLevel: 2
%%Pages: 1
%%BoundingBox:  -422    59  1019   782
%%EndComments

%%BeginProlog
% MathWorks dictionary
/MathWorks 160 dict begin
% definition operators
/bdef {bind def} bind def
/ldef {load def} bind def
/xdef {exch def} bdef
/xstore {exch store} bdef
% operator abbreviations
/c  /clip ldef
/cc /concat ldef
/cp /closepath ldef
/gr /grestore ldef
/gs /gsave ldef
/mt /moveto ldef
/np /newpath ldef
/cm /currentmatrix ldef
/sm /setmatrix ldef
/rm /rmoveto ldef
/rl /rlineto ldef
/s {show newpath} bdef
/sc {setcmykcolor} bdef
/sr /setrgbcolor ldef
/sg /setgray ldef
/w /setlinewidth ldef
/j /setlinejoin ldef
/cap /setlinecap ldef
/rc {rectclip} bdef
/rf {rectfill} bdef
% page state control
/pgsv () def
/bpage {/pgsv save def} bdef
/epage {pgsv restore} bdef
/bplot /gsave ldef
/eplot {stroke grestore} bdef
% orientation switch
/portraitMode 0 def /landscapeMode 1 def /rotateMode 2 def
% coordinate system mappings
/dpi2point 0 def
% font control
/FontSize 0 def
/FMS {/FontSize xstore findfont [FontSize 0 0 FontSize neg 0 0]
  makefont setfont} bdef
/ISOLatin1Encoding where {pop /WindowsLatin1Encoding 256 array bdef
ISOLatin1Encoding WindowsLatin1Encoding copy pop
/.notdef/.notdef/quotesinglbase/florin/quotedblbase/ellipsis/dagger
/daggerdbl/circumflex/perthousand/Scaron/guilsinglleft/OE/.notdef/.notdef
/.notdef/.notdef/quoteleft/quoteright/quotedblleft/quotedblright/bullet
/endash/emdash/tilde/trademark/scaron/guilsinglright/oe/.notdef/.notdef
/Ydieresis WindowsLatin1Encoding 128 32 getinterval astore pop}
{/WindowsLatin1Encoding StandardEncoding bdef} ifelse
/reencode {exch dup where {pop load} {pop StandardEncoding} ifelse
  exch dup 3 1 roll findfont dup length dict begin
  { 1 index /FID ne {def}{pop pop} ifelse } forall
  /Encoding exch def currentdict end definefont pop} bdef
/isroman {findfont /CharStrings get /Agrave known} bdef
/FMSR {3 1 roll 1 index dup isroman {reencode} {pop pop} ifelse
  exch FMS} bdef
/csm {1 dpi2point div -1 dpi2point div scale neg translate
 dup landscapeMode eq {pop -90 rotate}
  {rotateMode eq {90 rotate} if} ifelse} bdef
% line types: solid, dotted, dashed, dotdash
/SO { [] 0 setdash } bdef
/DO { [.5 dpi2point mul 4 dpi2point mul] 0 setdash } bdef
/DA { [6 dpi2point mul] 0 setdash } bdef
/DD { [.5 dpi2point mul 4 dpi2point mul 6 dpi2point mul 4
  dpi2point mul] 0 setdash } bdef
% macros for lines and objects
/L {lineto stroke} bdef
/MP {3 1 roll moveto 1 sub {rlineto} repeat} bdef
/AP {{rlineto} repeat} bdef
/PDlw -1 def
/W {/PDlw currentlinewidth def setlinewidth} def
/PP {closepath eofill} bdef
/DP {closepath stroke} bdef
/MR {4 -2 roll moveto dup  0 exch rlineto exch 0 rlineto
  neg 0 exch rlineto closepath} bdef
/FR {MR stroke} bdef
/PR {MR fill} bdef
/L1i {{currentfile picstr readhexstring pop} image} bdef
/tMatrix matrix def
/MakeOval {newpath tMatrix currentmatrix pop translate scale
0 0 1 0 360 arc tMatrix setmatrix} bdef
/FO {MakeOval stroke} bdef
/PO {MakeOval fill} bdef
/PD {currentlinewidth 2 div 0 360 arc fill
   PDlw -1 eq not {PDlw w /PDlw -1 def} if} def
/FA {newpath tMatrix currentmatrix pop translate scale
  0 0 1 5 -2 roll arc tMatrix setmatrix stroke} bdef
/PA {newpath tMatrix currentmatrix pop	translate 0 0 moveto scale
  0 0 1 5 -2 roll arc closepath tMatrix setmatrix fill} bdef
/FAn {newpath tMatrix currentmatrix pop translate scale
  0 0 1 5 -2 roll arcn tMatrix setmatrix stroke} bdef
/PAn {newpath tMatrix currentmatrix pop translate 0 0 moveto scale
  0 0 1 5 -2 roll arcn closepath tMatrix setmatrix fill} bdef
/vradius 0 def /hradius 0 def /lry 0 def
/lrx 0 def /uly 0 def /ulx 0 def /rad 0 def
/MRR {/vradius xdef /hradius xdef /lry xdef /lrx xdef /uly xdef
  /ulx xdef newpath tMatrix currentmatrix pop ulx hradius add uly
  vradius add translate hradius vradius scale 0 0 1 180 270 arc 
  tMatrix setmatrix lrx hradius sub uly vradius add translate
  hradius vradius scale 0 0 1 270 360 arc tMatrix setmatrix
  lrx hradius sub lry vradius sub translate hradius vradius scale
  0 0 1 0 90 arc tMatrix setmatrix ulx hradius add lry vradius sub
  translate hradius vradius scale 0 0 1 90 180 arc tMatrix setmatrix
  closepath} bdef
/FRR {MRR stroke } bdef
/PRR {MRR fill } bdef
/MlrRR {/lry xdef /lrx xdef /uly xdef /ulx xdef /rad lry uly sub 2 div def
  newpath tMatrix currentmatrix pop ulx rad add uly rad add translate
  rad rad scale 0 0 1 90 270 arc tMatrix setmatrix lrx rad sub lry rad
  sub translate rad rad scale 0 0 1 270 90 arc tMatrix setmatrix
  closepath} bdef
/FlrRR {MlrRR stroke } bdef
/PlrRR {MlrRR fill } bdef
/MtbRR {/lry xdef /lrx xdef /uly xdef /ulx xdef /rad lrx ulx sub 2 div def
  newpath tMatrix currentmatrix pop ulx rad add uly rad add translate
  rad rad scale 0 0 1 180 360 arc tMatrix setmatrix lrx rad sub lry rad
  sub translate rad rad scale 0 0 1 0 180 arc tMatrix setmatrix
  closepath} bdef
/FtbRR {MtbRR stroke } bdef
/PtbRR {MtbRR fill } bdef
/stri 6 array def /dtri 6 array def
/smat 6 array def /dmat 6 array def
/tmat1 6 array def /tmat2 6 array def /dif 3 array def
/asub {/ind2 exch def /ind1 exch def dup dup
  ind1 get exch ind2 get sub exch } bdef
/tri_to_matrix {
  2 0 asub 3 1 asub 4 0 asub 5 1 asub
  dup 0 get exch 1 get 7 -1 roll astore } bdef
/compute_transform {
  dmat dtri tri_to_matrix tmat1 invertmatrix 
  smat stri tri_to_matrix tmat2 concatmatrix } bdef
/ds {stri astore pop} bdef
/dt {dtri astore pop} bdef
/db {2 copy /cols xdef /rows xdef mul dup 3 mul string
  currentfile 
  3 index 0 eq {/ASCIIHexDecode filter}
  {/ASCII85Decode filter 3 index 2 eq {/RunLengthDecode filter} if }
  ifelse exch readstring pop
  dup 0 3 index getinterval /rbmap xdef
  dup 2 index dup getinterval /gbmap xdef
  1 index dup 2 mul exch getinterval /bbmap xdef pop pop}bdef
/it {gs np dtri aload pop moveto lineto lineto cp c
  cols rows 8 compute_transform 
  rbmap gbmap bbmap true 3 colorimage gr}bdef
/il {newpath moveto lineto stroke}bdef
currentdict end def
%%EndProlog

%%BeginSetup
MathWorks begin

0 cap

end
%%EndSetup

%%Page: 1 1
%%BeginPageSetup
%%PageBoundingBox:  -422    59  1019   782
MathWorks begin
bpage
%%EndPageSetup

%%BeginObject: obj1
bplot

/dpi2point 12 def
portraitMode -5064 9384 csm

    0     0 17294  8671 rc
88 dict begin %Colortable dictionary
/c0 { 0.000000 0.000000 0.000000 sr} bdef
/c1 { 1.000000 1.000000 1.000000 sr} bdef
/c2 { 0.900000 0.000000 0.000000 sr} bdef
/c3 { 0.000000 0.820000 0.000000 sr} bdef
/c4 { 0.000000 0.000000 0.800000 sr} bdef
/c5 { 0.910000 0.820000 0.320000 sr} bdef
/c6 { 1.000000 0.260000 0.820000 sr} bdef
/c7 { 0.000000 0.820000 0.820000 sr} bdef
c0
1 j
1 sg
   0    0 17295 8672 rf
6 w
0 6795 13403 0 0 -6795 2248 7445 4 MP
PP
-13403 0 0 6795 13403 0 0 -6795 2248 7445 5 MP stroke
4 w
DO
SO
6 w
0 sg
2248 7445 mt 15651 7445 L
2248 7445 mt 2248  650 L
2248 7445 mt 2248 7310 L
%%IncludeResource: font Helvetica
/Helvetica /WindowsLatin1Encoding 600 FMSR

2082 8037 mt 
(0) s
4928 7445 mt 4928 7310 L
4428 8037 mt 
(500) s
7609 7445 mt 7609 7310 L
6942 8037 mt 
(1000) s
10289 7445 mt 10289 7310 L
9622 8037 mt 
(1500) s
12970 7445 mt 12970 7310 L
12303 8037 mt 
(2000) s
15651 7445 mt 15651 7310 L
14984 8037 mt 
(2500) s
2248 7445 mt 2382 7445 L
1880 7668 mt 
(0) s
2248 5935 mt 2382 5935 L
 879 6158 mt 
(1000) s
2248 4425 mt 2382 4425 L
 879 4648 mt 
(2000) s
2248 2915 mt 2382 2915 L
 879 3138 mt 
(3000) s
2248 1405 mt 2382 1405 L
 879 1628 mt 
(4000) s
gs 2248 650 13404 6796 rc
/c8 { 1.000000 0.800000 0.800000 sr} bdef
c8
6 -2 5 -10 5 0 6 -6 5 5 6 -8 5 8 5 -10 
6 -12 5 1 5 -1 6 -8 5 -2 5 -5 6 1 5 -13 
6 0 5 7 5 -2 6 -4 5 -2 5 1 6 -7 5 -3 
5 -13 6 -10 5 -4 5 3 6 -8 5 -12 6 -7 5 5 
5 -4 6 -14 5 0 5 -2 6 -9 5 6 5 -7 6 -11 
5 -3 6 -9 5 -8 5 -4 6 -3 5 -3 5 8 6 1 
5 -15 5 -11 6 1 5 5 6 0 5 5 5 -5 6 0 
5 -9 5 2 6 -11 5 -6 5 -9 6 -4 5 1 5 15 
6 -13 5 -4 6 -1 5 -15 5 -13 6 -2 5 -3 5 -17 
6 -2 5 -2 5 -9 6 -9 5 -3 6 -8 5 -1 5 -3 
6 -4 5 -10 5 2 6 -5 5 -20 5 -10 6 -3 5 -10 
6 -12 5 -4 5 0 6 -13 5 -6 5 -7 6 -4 5 -14 
5 -6 6 -15 5 -4 2253 7444 100 MP
6 5 5 -1 5 5 6 -3 5 -10 5 -14 6 -8 5 -4 
6 -6 5 -7 5 -5 6 -1 5 11 5 -7 6 -1 5 -7 
5 1 6 -3 5 -12 5 3 6 -6 5 -2 6 -12 5 -11 
5 -8 6 0 5 0 5 8 6 -1 5 -5 5 4 6 -9 
5 -2 6 -10 5 -2 5 -3 6 7 5 9 5 -4 6 -14 
5 -8 5 -12 6 0 5 -2 6 2 5 -10 5 -8 6 4 
5 -5 5 7 6 -2 5 1 5 -8 6 1 5 -1 5 -4 
6 -5 5 13 6 -4 5 -7 5 -10 6 -9 5 -11 5 -12 
6 3 5 -2 5 -3 6 -10 5 -9 6 2 5 3 5 -7 
6 -10 5 -13 5 -1 6 -14 5 2 5 -1 6 18 5 3 
6 -3 5 -15 5 -3 6 1 5 -2 5 -8 6 2 5 2 
5 -7 6 -7 5 -12 5 -8 6 4 5 -13 6 -5 5 11 
5 -2 6 -19 5 -9 5 3 100 AP
6 -6 5 -9 5 0 6 -2 5 -4 5 2 6 -6 5 -11 
5 -6 6 -8 5 7 5 -8 6 2 5 -1 6 -3 5 3 
5 -6 6 2 5 3 5 -2 6 -5 5 14 5 -6 6 -3 
5 14 6 3 5 -4 5 -16 6 0 5 -6 5 -11 6 14 
5 -3 5 -3 6 0 5 -3 6 -4 5 12 5 -7 6 -9 
5 -7 5 -7 6 -1 5 -8 5 -7 6 -10 5 -3 5 0 
6 -6 5 8 6 -14 5 6 5 -9 6 3 5 0 5 1 
6 -4 5 -3 5 -8 6 -3 5 -17 6 1 5 2 5 -6 
6 -13 5 6 5 1 6 -5 5 -3 5 -1 6 -7 5 5 
6 -9 5 -7 5 2 6 4 5 8 5 5 6 3 5 -6 
5 3 6 -6 5 8 5 -6 6 2 5 0 6 3 5 -8 
5 -6 6 1 5 -9 5 -2 6 -15 5 2 5 4 6 12 
5 1 6 0 5 -8 5 -7 100 AP
5 -1 6 -15 5 4 5 2 6 -2 5 -3 6 0 5 4 
5 -9 6 5 5 1 5 3 6 0 5 -2 5 -12 6 2 
5 -2 6 2 5 -9 5 -4 6 2 5 -6 5 -7 6 -1 
5 2 5 -2 6 3 5 0 5 11 6 -5 5 -13 6 -5 
5 -5 5 -7 6 1 5 -2 5 12 6 3 5 -11 5 -8 
6 1 5 5 6 -2 5 -10 5 -8 6 2 5 -2 5 -9 
6 5 5 -3 5 -8 6 1 5 -2 6 -1 5 4 5 -10 
6 -1 5 -5 5 -10 6 -9 5 1 5 -5 6 -7 5 -5 
5 -12 6 -5 5 -2 6 -5 5 1 5 -5 6 -14 5 8 
5 0 6 -3 5 3 5 -5 6 -12 5 -7 6 12 5 4 
5 -4 6 1 5 -7 5 -5 6 8 5 4 5 -10 6 -5 
5 -3 6 -7 5 -6 5 -9 6 -2 5 6 5 -10 6 3 
5 -9 5 3 6 -1 5 2 100 AP
5 -6 6 -5 5 -10 5 7 6 0 5 0 5 0 6 -7 
5 -1 6 -6 5 -3 5 -5 6 -13 5 12 5 2 6 1 
5 0 5 -4 6 3 5 7 5 -8 6 7 5 0 6 2 
5 2 5 -12 6 -10 5 0 5 -8 6 -2 5 -2 5 -3 
6 -3 5 -5 6 -8 5 1 5 -3 6 0 5 -6 5 1 
6 -1 5 -6 5 -3 6 -9 5 0 6 -4 5 3 5 -3 
6 -12 5 0 5 -4 6 -5 5 -5 5 -7 6 -10 5 -11 
5 -2 6 -2 5 3 6 8 5 -8 5 -1 6 -6 5 3 
5 4 6 7 5 -5 5 -7 6 8 5 2 6 2 5 -7 
5 0 6 0 5 -11 5 -16 6 -2 5 -7 5 5 6 -6 
5 -3 6 1 5 -4 5 -6 6 -10 5 -2 5 -2 6 12 
5 -7 5 -4 6 -7 5 -9 5 -1 6 -9 5 8 6 2 
5 1 5 -2 6 -5 5 -14 100 AP
5 -6 6 -3 5 -10 5 -12 6 -4 5 3 5 2 6 -6 
5 -5 5 1 6 2 5 11 5 -7 6 2 5 9 6 -13 
5 -1 5 8 6 1 5 -5 5 -6 6 5 5 -6 5 -3 
6 -7 5 -1 6 -7 5 -5 5 -8 6 -1 5 3 5 0 
6 -1 5 -1 5 4 6 -6 5 0 6 0 5 -1 5 7 
6 8 5 -8 5 1 6 -8 5 -10 5 2 6 -1 5 -8 
5 7 6 5 5 0 6 -1 5 -6 5 0 6 -3 5 -1 
5 -1 6 -3 5 4 5 -11 6 -12 5 -1 6 -1 5 -7 
5 -6 6 -7 5 -3 5 3 6 0 5 -1 5 -3 6 -10 
5 -1 6 0 5 0 5 1 6 -8 5 1 5 -10 6 -7 
5 -5 5 -14 6 -3 5 -5 5 1 6 0 5 9 6 -5 
5 -7 5 7 6 5 5 -6 5 2 6 -9 5 9 5 9 
6 -4 5 -6 6 -4 5 -10 100 AP
5 2 5 -7 6 4 5 -7 5 -5 6 -4 5 -5 6 -6 
5 -17 5 -3 6 -11 5 -2 5 -6 6 -9 5 3 5 6 
6 -3 5 -4 6 -2 5 -5 5 -7 6 -1 5 1 5 -1 
6 -5 5 -11 5 -5 6 -21 5 0 5 -7 6 3 5 -1 
6 -12 5 -4 5 -5 6 1 5 3 5 -3 6 -7 5 -6 
5 -7 6 -6 5 -2 6 -6 5 -6 5 -1 6 -4 5 -9 
5 -4 6 2 5 -2 5 -8 6 1 5 -2 6 -10 5 -8 
5 -2 6 -5 5 1 5 -4 6 3 5 4 5 1 6 -5 
5 -10 5 1 6 -5 5 3 6 -2 5 -9 5 -6 6 -2 
5 -4 5 3 6 6 5 8 5 -10 6 -6 5 -3 6 -3 
5 1 5 3 6 9 5 -2 5 -5 6 -4 5 -8 5 -7 
6 -8 5 -3 6 -16 5 1 5 3 6 3 5 -2 5 -4 
6 -4 5 -1 5 -3 6 1 100 AP
5 -2 5 1 6 2 5 -2 5 1 6 1 5 -5 5 -9 
6 -9 5 0 6 -17 5 -5 5 -2 6 0 5 -9 5 2 
6 -2 5 3 5 4 6 0 5 -2 5 1 6 -15 5 -1 
6 5 5 -9 5 4 6 2 5 -8 5 -7 6 -8 5 -6 
5 8 6 -6 5 -2 6 5 5 6 5 -14 6 -10 5 -2 
5 -5 6 0 5 -20 5 -6 6 -2 5 -4 6 -1 5 1 
5 0 6 -3 5 -10 5 -4 6 11 5 -4 5 -5 6 -6 
5 2 5 3 6 2 5 -7 6 6 5 -4 5 2 6 -1 
5 -3 5 0 6 2 5 -16 5 -2 6 -8 5 -6 6 -4 
5 -2 5 4 6 -3 5 2 5 16 6 -2 5 -4 5 -4 
6 -2 5 -3 6 -2 5 -8 5 4 6 1 5 -9 5 -4 
6 3 5 -2 5 -11 6 0 5 6 5 2 6 -1 5 -4 
6 -2 5 -8 5 -7 6 -13 100 AP
6 -2 5 -5 6 0 5 -8 5 0 6 -8 5 3 5 -14 
6 -4 5 -3 5 3 6 4 5 3 5 -1 6 5 5 -3 
6 -3 5 -1 5 -1 6 -5 5 -3 5 -4 6 1 5 -3 
5 -10 6 -6 5 9 6 5 5 -3 5 -1 6 -3 5 -7 
5 -9 6 -3 5 -1 5 4 6 0 5 1 6 -5 5 0 
5 -13 6 -1 5 -5 5 9 6 1 5 2 5 3 6 -1 
5 0 5 -3 6 -8 5 -5 6 -9 5 7 5 -5 6 -8 
5 -5 5 -4 6 1 5 -3 5 -1 6 0 5 2 6 -9 
5 -6 5 -2 6 -2 5 1 5 2 6 21 5 0 5 -4 
6 3 5 6 6 -6 5 7 5 0 6 22 5 2 5 1 
6 1 5 -10 5 -9 6 3 5 2 5 6 6 -2 5 -6 
6 3 5 -3 5 9 6 -7 5 1 5 -5 6 -19 5 0 
5 0 6 2 5 9 6 -10 100 AP
6 -9 5 0 5 5 6 0 5 -1 5 -5 6 0 5 -5 
6 -7 5 -9 5 -9 6 -2 5 -4 5 0 6 6 5 -2 
5 -1 6 5 5 -12 6 -10 5 6 5 4 6 -6 5 -11 
5 3 6 -3 5 8 5 -8 6 5 5 -6 5 10 6 -9 
5 3 6 -3 5 -4 5 -3 6 3 5 -1 5 -18 6 -3 
5 -4 5 -3 6 -8 5 -2 6 -2 5 0 5 -13 6 -3 
5 1 5 -3 6 -8 5 1 5 -5 6 3 5 4 6 -1 
5 0 5 -4 6 -1 5 -5 5 -3 6 -6 5 -1 5 -5 
6 -1 5 -1 6 -11 5 -8 5 -6 6 0 5 -9 5 -3 
6 -4 5 -6 5 0 6 1 5 -8 5 4 6 7 5 -5 
6 -4 5 -6 5 -2 6 -11 5 0 5 -5 6 -7 5 -7 
5 2 6 -4 5 -3 6 0 5 -11 5 -9 6 -7 5 -14 
5 2 6 -9 5 -2 5 -1 100 AP
6 1 5 -3 5 8 6 -1 5 -4 5 0 6 -14 5 -17 
5 -10 6 -9 5 -2 6 1 5 -1 5 -2 6 5 5 0 
5 2 6 -2 5 1 5 -7 6 -2 5 3 5 5 6 -2 
5 -2 6 10 5 0 5 -1 6 -7 5 -3 5 2 6 -3 
5 0 5 -6 6 0 5 -8 6 0 5 -1 5 4 6 0 
5 -5 5 -3 6 2 5 -7 5 -2 6 -1 5 5 6 3 
5 -11 5 6 6 1 5 -5 5 -8 6 -12 5 -4 5 -4 
6 0 5 -17 5 -11 6 4 5 1 6 0 5 2 5 2 
6 -9 5 1 5 2 6 3 5 -1 5 -1 6 1 5 0 
6 -14 5 -6 5 -10 6 1 5 -9 5 9 6 2 5 -3 
5 -10 6 -7 5 -1 6 -9 5 4 5 7 6 -1 5 -4 
5 -2 6 -11 5 3 5 -4 6 -1 5 -5 5 -2 6 2 
5 -3 6 1 5 -3 5 -3 100 AP
5 -2 6 6 5 4 6 -8 5 -14 5 -5 6 -1 5 1 
5 1 6 -5 5 1 5 10 6 -1 5 7 5 -2 6 -4 
5 0 6 -8 5 -7 5 1 6 -5 5 5 5 -4 6 -8 
5 0 5 2 6 4 5 0 6 -6 5 -6 5 -2 6 -1 
5 -8 5 -2 6 1 5 -5 5 0 6 -1 5 -2 6 1 
5 -9 5 0 6 -5 5 -8 5 -4 6 -3 5 -12 5 1 
6 -3 5 -4 5 3 6 0 5 -4 6 -1 5 -2 5 -2 
6 -2 5 1 5 -7 6 -5 5 0 5 4 6 3 5 -1 
6 1 5 0 5 8 6 -3 5 4 5 3 6 0 5 10 
5 -2 6 -8 5 -4 6 -6 5 2 5 -3 6 -5 5 -11 
5 2 6 3 5 2 5 3 6 7 5 -4 5 3 6 1 
5 -3 6 -3 5 -10 5 -5 6 11 5 -17 5 0 6 -5 
5 1 5 -3 6 -2 5 5 100 AP
5 -3 6 -13 5 0 5 -6 6 -9 5 3 5 -3 6 6 
5 -6 6 -11 5 -4 5 -8 6 -10 5 -1 5 2 6 0 
5 -2 5 3 6 2 5 -2 6 -6 5 -8 5 7 6 0 
5 11 5 0 6 -1 5 -9 5 -2 6 3 5 -4 5 3 
6 -5 5 -12 6 -6 5 -3 5 -9 6 -8 5 -6 5 -3 
6 1 5 2 5 1 6 -5 5 3 6 -7 5 -10 5 2 
6 -5 5 2 5 3 6 -4 5 -9 5 5 6 3 5 6 
6 -5 5 -6 5 7 6 2 5 1 5 -14 6 5 5 4 
5 -1 6 -4 5 -6 6 4 5 -1 5 0 6 3 5 -6 
5 -3 6 0 5 -2 5 -6 6 6 5 0 5 14 6 -1 
5 -16 6 -2 5 -5 5 -1 6 3 5 -6 5 -2 6 -1 
5 3 5 -1 6 4 5 -4 6 -7 5 -5 5 -4 6 -13 
5 1 5 1 6 -3 5 -12 100 AP
5 -3 6 -3 5 -4 5 2 6 7 5 -2 5 0 6 3 
5 -6 5 -2 6 0 5 2 6 -2 5 -3 5 -6 6 -2 
5 -1 5 1 6 1 5 3 5 -7 6 3 5 4 5 -4 
6 -4 5 -2 6 -7 5 -2 5 0 6 -5 5 -3 5 -2 
6 -5 5 -2 5 -2 6 2 5 -5 6 9 5 2 5 -6 
6 -2 5 -6 5 7 6 -3 5 2 5 -2 6 0 5 -11 
6 -1 5 -14 5 -8 6 -1 5 3 5 -3 6 -2 5 6 
5 2 6 -4 5 -3 5 5 6 -6 5 -1 6 -7 5 -6 
5 -1 6 -13 5 -9 5 -4 6 0 5 -3 5 0 6 -4 
5 -1 6 -3 5 0 5 2 6 2 5 -3 5 -16 6 2 
5 8 5 -12 6 -11 5 -3 6 -2 5 -4 5 5 6 3 
5 0 5 5 6 -2 5 -5 5 4 6 6 5 10 5 -3 
6 4 5 4 6 -12 5 3 100 AP
5 3 5 2 6 0 5 -3 6 -5 5 -7 5 1 6 -12 
5 -3 5 4 6 -1 5 2 5 -1 6 6 5 5 5 -1 
6 -3 5 -10 6 1 5 13 5 -2 6 -10 5 -5 5 2 
6 -1 5 12 5 5 6 -6 5 1 6 -1 5 -6 5 -4 
6 2 5 4 5 0 6 -1 5 2 5 1 6 -2 5 -1 
6 -9 5 0 5 2 6 0 5 -5 5 -1 6 -7 5 -9 
5 0 6 -3 5 3 5 11 6 -2 5 -6 6 -1 5 0 
5 3 6 2 5 -1 5 -3 6 -4 5 2 5 -7 6 -12 
5 0 6 0 5 -8 5 -2 6 4 5 -6 5 0 6 -1 
5 -1 5 -8 6 2 5 2 6 6 5 -2 5 -8 6 0 
5 3 5 -6 6 5 5 -5 5 -3 6 -1 5 4 5 -10 
6 6 5 3 6 2 5 -7 5 -2 6 1 5 3 5 -4 
6 4 5 -2 5 -7 6 -9 100 AP
5 -3 5 -3 6 -3 5 -5 5 2 6 -6 5 -2 5 0 
6 -2 5 -7 6 -5 5 0 5 3 6 -3 5 -4 5 2 
6 1 5 -2 5 3 6 0 5 -2 6 0 5 -13 5 -5 
6 4 5 -2 5 -3 6 -6 5 -3 5 1 6 -6 5 3 
5 1 6 8 5 -9 6 3 5 -6 5 0 6 0 5 4 
5 -2 6 4 5 -2 5 -5 6 -5 5 4 6 -10 5 3 
5 -7 6 -3 5 -3 5 -4 6 0 5 -1 5 -4 6 -4 
5 -2 6 -17 5 0 5 -1 6 0 5 -2 5 -4 6 -3 
5 -1 5 -1 6 2 5 2 6 -21 5 -1 5 -2 6 -3 
5 2 5 3 6 3 5 -2 5 -2 6 -11 5 0 5 1 
6 1 5 -5 6 -2 5 -3 5 6 6 -2 5 -3 5 -2 
6 -1 5 -9 5 -11 6 -3 5 -7 6 -3 5 -1 5 6 
6 -1 5 -1 5 -13 6 -2 100 AP
6 1 5 -2 6 -8 5 -2 5 -2 6 -2 5 -1 5 6 
6 10 5 -1 5 -3 6 -1 5 -9 6 -2 5 6 5 -1 
6 -8 5 -5 5 3 6 1 5 6 5 0 6 -3 5 -1 
5 -13 6 0 5 -7 6 2 5 1 5 -1 6 8 5 2 
5 -10 6 4 5 0 5 2 6 10 5 -1 6 6 5 6 
5 -9 6 2 5 -9 5 -2 6 4 5 -1 5 -6 6 0 
5 -8 6 -1 5 -9 5 2 6 1 5 0 5 -4 6 -1 
5 -16 5 -2 6 0 5 5 5 0 6 -9 5 -22 6 -3 
5 2 5 -3 6 -5 5 -7 5 -22 6 -4 5 2 5 6 
6 -1 5 0 6 7 5 -1 5 5 6 -3 5 -3 5 -2 
6 -2 5 2 5 -4 6 -5 5 -1 6 0 5 6 5 -4 
6 -3 5 -7 5 -1 6 0 5 -4 5 -2 6 -14 5 -2 
5 1 6 -3 5 -11 6 6 100 AP
6 0 5 4 5 -5 6 1 5 -19 6 4 5 -6 5 4 
6 -3 5 -5 5 0 6 1 5 1 5 6 6 -8 5 -3 
5 3 6 9 5 0 6 -1 5 -5 5 -1 6 -12 5 -5 
5 -13 6 3 5 0 5 -5 6 -3 5 -13 6 -2 5 -4 
5 -2 6 -13 5 4 5 0 6 0 5 -2 5 -3 6 -1 
5 8 6 -4 5 0 5 1 6 4 5 4 5 -10 6 -14 
5 1 5 -4 6 -2 5 9 5 -5 6 -12 5 -1 6 -6 
5 1 5 0 6 -6 5 -6 5 7 6 -4 5 -7 5 -7 
6 -2 5 4 6 2 5 -2 5 -2 6 0 5 -3 5 6 
6 0 5 -1 5 -8 6 -1 5 -8 6 -5 5 -2 5 6 
6 -5 5 -2 5 -8 6 -5 5 -3 5 -5 6 -3 5 -4 
5 5 6 -2 5 -3 6 -1 5 -2 5 -4 6 4 5 -3 
5 8 6 -1 5 -16 5 -1 100 AP
6 -8 5 0 5 5 6 -5 5 -18 5 1 6 -4 5 -7 
5 -5 6 1 5 3 6 5 5 -7 5 7 6 0 5 -1 
5 -3 6 0 5 5 5 1 6 -3 5 -8 6 -1 5 -2 
5 -1 6 -1 5 0 5 -3 6 2 5 -5 5 0 6 -19 
5 0 6 -5 5 -9 5 -2 6 0 5 0 5 -9 6 0 
5 -10 5 -7 6 -1 5 3 5 -3 6 -1 5 3 6 0 
5 -3 5 -1 6 1 5 -16 5 1 6 -2 5 -3 5 -4 
6 -3 5 -4 6 2 5 0 5 0 6 1 5 -3 5 -2 
6 3 5 -7 5 -2 6 -3 5 -7 6 -3 5 -7 5 -11 
6 1 5 3 5 6 6 -2 5 -1 5 7 6 -11 5 -1 
5 -9 6 -2 5 -1 6 -7 5 0 5 5 6 -1 5 -17 
5 -1 6 1 5 2 5 -11 6 -6 5 11 6 5 5 -10 
5 -2 6 -15 5 -12 5 -4 100 AP
5 5 6 7 5 6 6 8 5 4 5 -2 6 5 5 4 
5 -6 6 -3 5 -2 5 0 6 1 5 15 6 -6 5 -7 
5 -4 6 -1 5 2 5 -1 6 11 5 -3 5 -1 6 4 
5 0 5 -2 6 -11 5 11 6 -3 5 -5 5 -1 6 -5 
5 -5 5 -2 6 9 5 -7 5 -1 6 4 5 -7 6 4 
5 0 5 -12 6 -3 5 -13 5 -4 6 3 5 3 5 -5 
6 -5 5 -3 6 -3 5 -9 5 1 6 -5 5 -1 5 -8 
6 3 5 -11 5 0 6 -5 5 -4 5 0 6 -13 5 0 
6 -3 5 -6 5 -2 6 -6 5 3 5 -5 6 23 5 -3 
5 3 6 -6 5 1 6 -2 5 -2 5 -7 6 7 5 0 
5 -1 6 1 5 -2 5 -1 6 2 5 -11 6 1 5 0 
5 -6 6 -2 5 -8 5 -4 6 -14 5 0 5 -3 6 1 
5 5 5 -6 6 -5 5 -3 100 AP
5 -2 6 1 5 5 5 -3 6 -1 5 5 6 2 5 8 
5 1 6 -7 5 13 5 -11 6 7 5 2 5 -3 6 -2 
5 0 5 1 6 -8 5 3 6 -10 5 0 5 5 6 0 
5 -15 5 6 6 4 5 -1 5 -3 6 1 5 10 6 -10 
5 -7 5 -2 6 -1 5 4 5 5 6 0 5 -14 5 -1 
6 1 5 -1 6 6 5 2 5 6 6 6 5 -6 5 4 
6 -3 5 -2 5 -4 6 -2 5 -17 5 -7 6 -4 5 -2 
6 -8 5 -3 5 -18 6 -10 5 0 5 -5 6 -2 5 -5 
5 -8 6 -7 5 -2 6 -2 5 7 5 2 6 0 5 -1 
5 0 6 -1 5 -6 5 3 6 -20 5 -2 6 -7 5 -2 
5 -5 6 -6 5 -1 5 7 6 -3 5 -5 5 7 6 -1 
5 0 5 -1 6 2 5 -5 6 1 5 0 5 -11 6 -1 
5 -7 5 0 6 -3 5 -3 100 AP
5 -9 6 0 5 -2 5 0 6 -4 5 3 5 -9 6 9 
5 0 5 0 6 -3 5 -5 6 -12 5 -19 5 -5 6 -5 
5 1 5 3 6 -2 5 -4 5 2 6 -8 5 -1 6 8 
5 -2 5 0 6 -5 5 -1 5 -7 6 -13 5 0 5 2 
6 1 5 1 6 -1 5 -6 5 1 6 8 5 -1 5 1 
6 -1 5 -4 5 0 6 -10 5 -7 5 5 6 -4 5 2 
6 -6 5 -10 5 14 6 0 5 -10 5 -6 6 -2 5 1 
5 -1 6 1 5 -4 6 0 5 -12 5 1 6 -12 5 -3 
5 0 6 -8 5 -1 5 1 6 -2 5 -1 6 1 5 -5 
5 1 6 -2 5 2 5 -11 6 -3 5 0 5 0 6 -1 
5 0 5 -4 6 -6 5 -3 6 -7 5 0 5 1 6 1 
5 1 5 -3 6 8 5 1 5 0 6 -5 5 -1 6 -6 
5 -8 5 -8 6 -2 5 -3 100 AP
5 -9 5 -5 6 -1 5 5 6 -1 5 3 5 -3 6 -4 
5 19 5 0 6 -7 5 -3 5 0 6 1 5 -5 6 3 
5 -17 5 -1 6 3 5 1 5 -1 6 1 5 -2 5 -8 
6 1 5 -6 5 3 6 1 5 -2 6 0 5 -5 5 1 
6 -4 5 0 5 -4 6 -1 5 0 5 1 6 -1 5 -8 
6 -2 5 -8 5 1 6 -4 5 -1 5 1 6 -1 5 -13 
5 0 6 -4 5 -3 6 -4 5 -1 5 0 6 3 5 -1 
5 -6 6 -7 5 2 5 -5 6 -1 5 2 5 -10 6 -1 
5 -4 6 0 5 -7 5 -1 6 3 5 1 5 0 6 0 
5 0 5 0 6 -4 5 1 6 -6 5 -11 5 4 6 4 
5 1 5 2 6 0 5 -7 5 4 6 -2 5 -2 6 -5 
5 -4 5 4 6 -3 5 -11 5 -13 6 0 5 0 5 -2 
6 -6 5 -6 5 3 6 1 100 AP
5 1 5 0 6 0 5 1 5 -16 6 1 5 0 6 -10 
5 3 5 0 6 0 5 0 5 -1 6 2 5 -1 5 4 
6 3 5 -10 5 -3 6 -4 5 9 6 0 5 0 5 -1 
6 -3 5 -9 5 -4 6 -4 5 -15 5 0 6 -1 5 5 
6 3 5 1 5 -10 6 6 5 -14 5 -13 6 0 5 -2 
5 -2 6 0 5 0 6 1 5 3 5 10 6 -3 5 1 
5 0 6 -1 5 0 5 1 6 -23 5 -2 5 -9 6 -1 
5 -1 6 -3 5 0 5 -3 6 -2 5 3 5 -2 6 -13 
5 -2 5 -1 6 -18 5 -1 6 5 5 -5 5 2 6 -8 
5 7 5 -3 6 -13 5 1 5 -4 6 -7 5 0 6 1 
5 0 5 -1 6 -5 5 -5 5 1 6 6 5 1 5 1 
6 -1 5 -1 5 -3 6 0 5 -11 6 1 5 -4 5 0 
6 4 5 2 5 -3 6 -4 100 AP
6 0 5 0 6 0 5 0 5 0 6 0 5 0 5 0 
6 0 5 0 5 -2 6 -1 5 -15 6 -1 5 0 5 0 
6 10 5 -14 5 -5 6 -10 5 4 5 0 6 2 5 -1 
6 1 5 6 5 10 6 9 5 -5 5 -1 6 -2 5 -1 
5 3 6 -9 5 -1 6 -1 5 -10 5 -11 6 -10 5 -1 
5 1 6 2 5 -1 5 -7 6 -1 5 -5 5 1 6 -12 
5 -4 6 -1 5 -2 5 -2 6 -1 5 -12 5 8 6 -4 
5 -2 5 -1 6 -2 5 -6 6 -4 5 -1 5 2 6 4 
5 -1 5 0 6 -3 5 -2 5 0 6 -4 5 0 6 -3 
5 6 5 -13 6 -5 5 1 5 1 6 -2 5 -5 5 -2 
6 3 5 -8 5 7 6 -2 5 2 6 1 5 1 5 -4 
6 -4 5 -3 5 -8 6 -2 5 5 5 -3 6 -1 5 3 
6 -1 5 -15 5 -3 6 -2 100 AP
-5 0 -5 22 -6 -2 -5 3 -6 2 -5 5 -5 -3 -6 0 
-5 4 -5 1 -6 7 -5 4 -5 -6 -6 6 -5 3 -6 1 
-5 -2 -5 0 -6 1 -5 -1 -5 4 -6 12 -5 0 -5 0 
-6 -22 -5 -11 -5 -3 -6 4 -5 0 -6 2 -5 -1 -5 4 
-6 -9 -5 1 -5 0 -6 0 -5 -1 -5 4 -6 -1 -5 4 
-6 0 -5 4 -5 1 -6 -5 -5 3 -5 -10 -6 2 -5 13 
-5 1 -6 3 -5 2 -6 6 -5 10 -5 -1 -6 -4 -5 0 
-5 1 -6 7 -5 8 -5 1 -6 4 -5 2 -5 -3 -6 5 
-5 8 -6 3 -5 1 -5 2 -6 7 -5 2 -5 9 -6 -2 
-5 2 -5 2 -6 -6 -5 4 -6 -7 -5 -3 -5 3 -6 3 
-5 -8 -5 1 -6 7 -5 0 -5 2 -6 3 -5 -2 -6 2 
-5 3 -5 0 -6 0 -5 0 -5 0 -6 0 -5 0 -5 0 
-6 0 -5 0 -6 0 0 -1094 100 AP
-5 1 -5 16 -6 2 -5 -4 -5 1 -6 -4 -5 2 -6 1 
-5 0 -5 4 -6 2 -5 3 -5 8 -6 12 -5 -5 -5 0 
-6 5 -5 -3 -5 1 -6 3 -5 0 -6 1 -5 -4 -5 1 
-6 -5 -5 -14 -5 12 -6 2 -5 -1 -5 -5 -6 2 -5 3 
-6 -4 -5 1 -5 -7 -6 -1 -5 10 -5 8 -6 -1 -5 0 
-5 0 -6 6 -5 1 -6 1 -5 4 -5 1 -6 1 -5 3 
-5 0 -6 1 -5 0 -5 0 -6 2 -5 -2 -5 -1 -6 5 
-5 10 -6 -4 -5 -11 -5 2 -6 0 -5 -18 -5 -5 -6 -1 
-5 4 -5 -3 -6 2 -5 25 -6 1 -5 -6 -5 -3 -6 3 
-5 -2 -5 -6 -6 1 -5 5 -5 0 -6 0 -5 -18 -6 1 
-5 1 -5 10 -6 8 -5 -4 -5 -1 -6 4 -5 -1 -5 0 
-6 1 -5 -4 -5 -1 -6 7 -5 1 -6 -3 -5 -5 -5 -1 
-6 0 -5 0 -5 1 -6 2 100 AP
-5 1 -5 3 -6 6 -5 0 -5 0 -6 0 -5 -1 -5 0 
-6 8 -5 1 -5 6 -6 11 -5 15 -6 4 -5 1 -5 3 
-6 4 -5 4 -5 -1 -6 1 -5 -4 -5 -5 -6 4 -5 2 
-6 4 -5 -2 -5 1 -6 4 -5 -5 -5 4 -6 13 -5 4 
-5 4 -6 0 -5 1 -6 1 -5 1 -5 7 -6 -1 -5 -1 
-5 0 -6 -5 -5 -1 -5 2 -6 1 -5 6 -5 0 -6 -2 
-5 3 -6 5 -5 0 -5 -2 -6 9 -5 -2 -5 -2 -6 2 
-5 -7 -5 3 -6 2 -5 8 -6 0 -5 1 -5 10 -6 8 
-5 0 -5 4 -6 -12 -5 8 -5 3 -6 5 -5 2 -6 -2 
-5 0 -5 11 -6 -2 -5 -4 -5 2 -6 -1 -5 -1 -5 1 
-6 2 -5 2 -5 2 -6 0 -5 -4 -6 -1 -5 0 -5 -1 
-6 -10 -5 8 -5 12 -6 3 -5 10 -5 -2 -6 14 -5 -2 
-6 0 -5 1 -5 1 -6 0 100 AP
-6 1 -5 -4 -5 2 -6 1 -5 0 -6 16 -5 -2 -5 6 
-6 5 -5 5 -5 1 -6 6 -5 -3 -5 -4 -6 5 -5 -8 
-6 1 -5 7 -5 2 -6 1 -5 0 -5 0 -6 9 -5 13 
-5 -4 -6 6 -5 21 -5 0 -6 4 -5 -1 -6 0 -5 -1 
-5 9 -6 -3 -5 4 -5 3 -6 12 -5 0 -5 7 -6 0 
-5 0 -6 -3 -5 -1 -5 0 -6 0 -5 12 -5 8 -6 0 
-5 1 -5 -2 -6 -2 -5 -2 -6 2 -5 7 -5 -3 -6 -1 
-5 1 -5 0 -6 12 -5 4 -5 1 -6 2 -5 5 -5 4 
-6 1 -5 -4 -6 -10 -5 -2 -5 0 -6 1 -5 -3 -5 -2 
-6 16 -5 0 -5 2 -6 16 -5 0 -6 1 -5 0 -5 2 
-6 0 -5 0 -5 11 -6 7 -5 -1 -5 1 -6 9 -5 4 
-6 2 -5 0 -5 0 -6 9 -5 10 -5 7 -6 -4 -5 0 
-5 7 -6 -5 -5 2 -6 4 100 AP
-6 5 -5 5 -5 0 -6 5 -5 9 -5 -2 -6 1 -5 1 
-6 5 -5 5 -5 5 -6 4 -5 5 -5 3 -6 2 -5 -4 
-5 6 -6 4 -5 0 -5 -5 -6 3 -5 6 -6 8 -5 4 
-5 3 -6 -5 -5 -1 -5 5 -6 0 -5 0 -5 13 -6 9 
-5 6 -6 -6 -5 7 -5 0 -6 6 -5 2 -5 -3 -6 9 
-5 7 -5 3 -6 -7 -5 1 -6 3 -5 -3 -5 -4 -6 -5 
-5 5 -5 15 -6 3 -5 4 -5 3 -6 18 -5 5 -5 1 
-6 -3 -5 3 -6 7 -5 -1 -5 -4 -6 -1 -5 -4 -5 3 
-6 -2 -5 5 -5 6 -6 3 -5 -1 -6 -1 -5 3 -5 7 
-6 -8 -5 3 -5 -4 -6 0 -5 23 -5 0 -6 4 -5 0 
-6 -7 -5 4 -5 1 -6 -6 -5 -1 -5 0 -6 10 -5 4 
-5 3 -6 -3 -5 1 -5 -5 -6 0 -5 0 -6 1 -5 5 
-5 4 -6 8 -5 11 -5 6 100 AP
-6 5 -5 1 -5 -5 -6 -5 -5 10 -5 0 -6 5 -5 5 
-5 3 -6 7 -5 5 -5 0 -6 5 -5 3 -6 1 -5 -4 
-5 12 -6 -3 -5 -2 -5 0 -6 4 -5 -5 -5 0 -6 -1 
-5 6 -6 -10 -5 -6 -5 0 -6 3 -5 -1 -5 -4 -6 -13 
-5 6 -5 12 -6 6 -5 1 -6 -4 -5 0 -5 2 -6 7 
-5 0 -5 7 -6 6 -5 0 -5 6 -6 14 -5 -2 -5 0 
-6 3 -5 2 -6 4 -5 1 -5 5 -6 29 -5 -8 -5 5 
-6 3 -5 -8 -5 0 -6 1 -5 -3 -6 -3 -5 6 -5 9 
-6 -3 -5 6 -5 1 -6 6 -5 0 -5 3 -6 2 -5 1 
-6 9 -5 2 -5 3 -6 8 -5 3 -5 -1 -6 8 -5 4 
-5 -3 -6 4 -5 5 -5 0 -6 15 -5 -1 -6 13 -5 5 
-5 1 -6 9 -5 5 -5 10 -6 2 -5 -8 -5 -2 -6 0 
-5 -8 -6 14 -5 0 -5 6 100 AP
-5 6 -6 3 -5 8 -5 -16 -6 -1 -5 3 -6 3 -5 3 
-5 -6 -6 0 -5 4 -5 -4 -6 -8 -5 18 -5 2 -6 5 
-5 0 -6 -1 -5 5 -5 8 -6 7 -5 0 -5 3 -6 13 
-5 7 -5 -4 -6 -1 -5 -2 -5 9 -6 -1 -5 1 -6 -6 
-5 -3 -5 2 -6 2 -5 -1 -5 6 -6 4 -5 1 -5 -3 
-6 -2 -5 7 -6 3 -5 5 -5 -1 -6 -3 -5 -7 -5 0 
-6 -3 -5 -1 -5 -4 -6 7 -5 -4 -6 3 -5 2 -5 2 
-6 3 -5 9 -5 0 -6 0 -5 5 -5 3 -6 -2 -5 1 
-5 0 -6 -4 -5 5 -6 -1 -5 0 -5 4 -6 -3 -5 -7 
-5 0 -6 -5 -5 4 -5 2 -6 2 -5 10 -6 -10 -5 -2 
-5 -12 -6 0 -5 -2 -5 4 -6 0 -5 -1 -5 11 -6 13 
-5 1 -6 -10 -5 -1 -5 7 -6 -7 -5 3 -5 3 -6 7 
-5 3 -5 8 -6 -9 -5 3 100 AP
-5 5 -6 -8 -5 2 -5 13 -6 4 -5 5 -5 -4 -6 3 
-5 4 -6 1 -5 3 -5 12 -6 1 -5 1 -5 3 -6 3 
-5 4 -5 0 -6 11 -5 -8 -5 0 -6 3 -5 1 -6 5 
-5 4 -5 0 -6 4 -5 2 -5 5 -6 -1 -5 11 -5 -2 
-6 7 -5 6 -6 0 -5 2 -5 8 -6 7 -5 -1 -5 -11 
-6 -17 -5 0 -5 -1 -6 3 -5 -5 -6 1 -5 1 -5 -1 
-6 6 -5 0 -5 -5 -6 -5 -5 5 -5 -2 -6 13 -5 -2 
-5 2 -6 -2 -5 -2 -6 2 -5 5 -5 1 -6 2 -5 12 
-5 -1 -6 -16 -5 5 -5 8 -6 -2 -5 -3 -6 10 -5 0 
-5 0 -6 8 -5 2 -5 2 -6 -2 -5 0 -5 -1 -6 0 
-5 0 -6 1 -5 6 -5 12 -6 3 -5 8 -5 -1 -6 7 
-5 0 -5 2 -6 -5 -5 6 -5 1 -6 15 -5 2 -6 -2 
-5 3 -5 -3 -6 -1 -5 8 100 AP
-5 -1 -6 2 -5 1 -5 7 -6 6 -5 5 -5 10 -6 -1 
-5 5 -5 -16 -6 -5 -5 1 -5 0 -6 12 -5 5 -6 -13 
-5 3 -5 3 -6 0 -5 7 -5 9 -6 -2 -5 -3 -5 14 
-6 3 -5 1 -6 1 -5 6 -5 6 -6 4 -5 0 -5 22 
-6 2 -5 8 -5 -3 -6 -1 -5 -2 -6 12 -5 5 -5 5 
-6 21 -5 1 -5 -4 -6 2 -5 9 -5 -3 -6 10 -5 -8 
-5 6 -6 7 -5 6 -6 0 -5 11 -5 6 -6 1 -5 1 
-5 2 -6 -1 -5 11 -5 0 -6 2 -5 0 -6 21 -5 2 
-5 -1 -6 -3 -5 10 -5 -7 -6 7 -5 0 -5 -5 -6 1 
-5 -3 -6 1 -5 -1 -5 0 -6 2 -5 0 -5 1 -6 -4 
-5 4 -5 -3 -6 2 -5 10 -5 8 -6 0 -5 0 -6 4 
-5 3 -5 3 -6 -1 -5 7 -5 9 -6 2 -5 17 -5 2 
-6 0 -5 4 -6 12 -5 0 100 AP
-5 -1 -5 2 -6 1 -5 0 -5 1 -6 -4 -5 4 -6 6 
-5 -3 -5 0 -6 5 -5 2 -5 -1 -6 1 -5 3 -5 8 
-6 -11 -5 -1 -6 -5 -5 2 -5 0 -6 6 -5 1 -5 6 
-6 -4 -5 7 -5 0 -6 0 -5 -7 -5 -1 -6 4 -5 2 
-6 2 -5 1 -5 0 -6 7 -5 7 -5 7 -6 1 -5 6 
-5 5 -6 11 -5 0 -6 3 -5 3 -5 5 -6 14 -5 3 
-5 17 -6 3 -5 17 -5 -1 -6 3 -5 -4 -6 5 -5 0 
-5 7 -6 -4 -5 2 -5 11 -6 0 -5 1 -5 5 -6 1 
-5 0 -6 14 -5 -1 -5 1 -6 -2 -5 1 -5 0 -6 8 
-5 -3 -5 -5 -6 10 -5 2 -5 4 -6 12 -5 1 -6 0 
-5 -2 -5 5 -6 -1 -5 4 -5 8 -6 1 -5 10 -5 1 
-6 0 -5 5 -6 9 -5 22 -5 0 -6 2 -5 0 -5 6 
-6 1 -5 3 -5 -6 -6 1 100 AP
-5 1 -5 1 -6 13 -5 12 -5 -15 -6 5 -5 -1 -5 0 
-6 -1 -5 5 -6 14 -5 -1 -5 -10 -6 1 -5 4 -5 1 
-6 1 -5 11 -5 22 -6 3 -5 -8 -5 1 -6 -1 -5 0 
-6 -3 -5 5 -5 14 -6 3 -5 2 -5 2 -6 0 -5 9 
-5 4 -6 4 -5 1 -6 0 -5 2 -5 -8 -6 5 -5 1 
-5 0 -6 4 -5 1 -5 0 -6 2 -5 2 -6 -1 -5 1 
-5 -4 -6 3 -5 -1 -5 7 -6 4 -5 -6 -5 6 -6 12 
-5 1 -5 5 -6 3 -5 9 -6 0 -5 2 -5 9 -6 -1 
-5 -3 -5 12 -6 0 -5 -2 -5 -4 -6 1 -5 4 -6 1 
-5 19 -5 -1 -6 1 -5 0 -5 12 -6 2 -5 2 -5 3 
-6 4 -5 -6 -6 1 -5 3 -5 2 -6 0 -5 0 -5 1 
-6 0 -5 9 -5 3 -6 -2 -5 8 -5 20 -6 4 -5 1 
-6 1 -5 18 -5 1 -6 2 100 AP
-6 -1 -5 -4 -6 0 -5 7 -5 1 -6 5 -5 -2 -5 11 
-6 -3 -5 -2 -5 5 -6 2 -5 13 -5 1 -6 3 -5 3 
-6 -1 -5 9 -5 4 -6 8 -5 5 -5 10 -6 4 -5 10 
-5 1 -6 2 -5 1 -6 -4 -5 2 -5 0 -6 0 -5 2 
-5 10 -6 8 -5 16 -5 0 -6 -3 -5 1 -6 6 -5 3 
-5 2 -6 -6 -5 5 -5 -5 -6 7 -5 3 -5 2 -6 0 
-5 2 -5 -27 -6 2 -5 -3 -6 -1 -5 6 -5 -2 -6 2 
-5 18 -5 6 -6 7 -5 3 -5 -8 -6 -3 -5 7 -6 1 
-5 5 -5 8 -6 2 -5 3 -5 8 -6 3 -5 5 -5 3 
-6 6 -5 1 -6 0 -5 -2 -5 -1 -6 0 -5 0 -5 11 
-6 5 -5 3 -5 3 -6 3 -5 1 -5 5 -6 5 -5 1 
-6 9 -5 0 -5 7 -6 -3 -5 0 -5 -1 -6 2 -5 1 
-5 -3 -6 13 -5 4 -6 3 100 AP
-6 -6 -5 0 -5 -2 -6 4 -5 -2 -5 -17 -6 2 -5 3 
-6 10 -5 -2 -5 -5 -6 -4 -5 1 -5 8 -6 11 -5 -5 
-5 1 -6 4 -5 -3 -6 3 -5 -5 -5 1 -6 4 -5 6 
-5 6 -6 1 -5 7 -5 2 -6 3 -5 -1 -5 2 -6 5 
-5 0 -6 7 -5 -3 -5 21 -6 6 -5 -2 -5 7 -6 0 
-5 -6 -5 -1 -6 -13 -5 2 -6 -5 -5 -1 -5 3 -6 2 
-5 -1 -5 1 -6 7 -5 2 -5 8 -6 2 -5 -3 -6 2 
-5 9 -5 10 -6 13 -5 1 -5 -1 -6 6 -5 -1 -5 8 
-6 -1 -5 2 -6 -3 -5 12 -5 2 -6 2 -5 13 -5 17 
-6 0 -5 -3 -5 1 -6 6 -5 4 -5 -1 -6 3 -5 1 
-6 1 -5 -3 -5 3 -6 -1 -5 2 -5 -3 -6 -1 -5 -4 
-5 5 -6 7 -5 7 -6 5 -5 0 -5 -2 -6 3 -5 6 
-5 -3 -6 -2 -5 6 -5 9 100 AP
-6 0 -5 3 -5 -1 -6 6 -5 2 -5 13 -6 3 -5 -1 
-5 6 -6 0 -5 3 -6 2 -5 -2 -5 1 -6 -4 -5 3 
-5 0 -6 16 -5 3 -5 3 -6 7 -5 2 -5 7 -6 0 
-5 5 -6 10 -5 4 -5 3 -6 -1 -5 7 -5 -2 -6 13 
-5 2 -5 0 -6 0 -5 2 -6 -6 -5 -2 -5 11 -6 4 
-5 0 -5 5 -6 5 -5 3 -5 3 -6 17 -5 -2 -6 7 
-5 1 -5 -9 -6 -2 -5 -1 -5 -12 -6 6 -5 -2 -5 5 
-6 -2 -5 2 -5 3 -6 -2 -5 8 -6 2 -5 -1 -5 -2 
-6 -3 -5 -5 -5 4 -6 8 -5 3 -5 0 -6 1 -5 -3 
-6 3 -5 11 -5 -1 -6 2 -5 1 -5 4 -6 -7 -5 4 
-5 6 -6 -4 -5 6 -6 10 -5 1 -5 11 -6 4 -5 3 
-5 -2 -6 -8 -5 -6 -5 11 -6 0 -5 -1 -5 0 -6 2 
-5 0 -6 4 -5 -1 -5 -8 100 AP
-5 -5 -6 1 -5 8 -6 0 -5 1 -5 2 -6 13 -5 4 
-5 0 -6 5 -5 8 -5 0 -6 9 -5 11 -5 3 -6 9 
-5 6 -6 -4 -5 -5 -5 6 -6 4 -5 12 -5 2 -6 0 
-5 14 -5 4 -6 2 -5 6 -6 6 -5 0 -5 2 -6 0 
-5 12 -5 -3 -6 -1 -5 -2 -5 12 -6 1 -5 4 -6 6 
-5 12 -5 2 -6 -5 -5 2 -5 3 -6 24 -5 1 -5 3 
-6 6 -5 -5 -5 -1 -6 8 -5 4 -6 1 -5 2 -5 0 
-6 0 -5 7 -5 6 -6 -1 -5 -1 -5 -2 -6 3 -5 0 
-6 5 -5 1 -5 7 -6 11 -5 -3 -5 3 -6 5 -5 -4 
-5 5 -6 -1 -5 0 -6 4 -5 6 -5 5 -6 2 -5 11 
-5 -1 -6 7 -5 3 -5 11 -6 4 -5 4 -5 5 -6 0 
-5 2 -6 11 -5 2 -5 7 -6 -9 -5 -8 -5 16 -6 7 
-5 5 -5 2 -6 0 -5 0 100 AP
-5 11 -6 4 -5 1 -5 1 -6 -1 -5 3 -5 10 -6 3 
-5 -3 -6 7 -5 16 -5 6 -6 1 -5 3 -5 -2 -6 7 
-5 0 -5 11 -6 1 -5 -10 -6 -6 -5 4 -5 3 -6 -3 
-5 7 -5 1 -6 2 -5 4 -5 -3 -6 2 -5 5 -5 -3 
-6 12 -5 0 -6 0 -5 1 -5 -1 -6 8 -5 1 -5 5 
-6 7 -5 3 -5 12 -6 -5 -5 4 -6 8 -5 8 -5 -15 
-6 0 -5 -1 -5 -4 -6 -6 -5 5 -5 -2 -6 10 -5 0 
-6 11 -5 9 -5 0 -6 7 -5 12 -5 0 -6 6 -5 19 
-5 1 -6 -3 -5 -2 -6 0 -5 -1 -5 4 -6 13 -5 4 
-5 2 -6 3 -5 8 -5 1 -6 11 -5 -1 -5 3 -6 1 
-5 6 -6 -2 -5 14 -5 3 -6 -4 -5 -5 -5 11 -6 -1 
-5 9 -5 4 -6 11 -5 12 -6 3 -5 0 -5 2 -6 3 
-5 -3 -5 -3 -6 -1 -5 4 100 AP
-5 -3 -6 2 -5 4 -5 3 -6 -8 -5 -1 -5 2 -6 8 
-5 15 -5 -5 -6 1 -5 -12 -6 1 -5 -2 -5 8 -6 5 
-5 5 -5 -4 -6 -7 -5 -2 -5 8 -6 5 -5 4 -5 11 
-6 1 -5 5 -6 11 -5 2 -5 0 -6 11 -5 4 -5 0 
-6 10 -5 -9 -5 -7 -6 11 -5 2 -6 -9 -5 2 -5 2 
-6 3 -5 1 -5 -4 -6 15 -5 4 -5 5 -6 7 -5 -5 
-6 6 -5 -1 -5 3 -6 1 -5 0 -5 -6 -6 11 -5 1 
-5 -1 -6 -3 -5 0 -5 0 -6 0 -5 3 -6 -8 -5 3 
-5 -10 -6 5 -5 9 -5 4 -6 2 -5 3 -5 7 -6 9 
-5 -9 -6 -2 -5 1 -5 -3 -6 5 -5 1 -5 6 -6 1 
-5 2 -5 7 -6 7 -5 -6 -6 0 -5 -3 -5 0 -6 4 
-5 6 -5 4 -6 0 -5 6 -5 3 -6 11 -5 4 -5 3 
-6 12 -5 4 -6 3 -5 -8 100 AP
-5 -6 -5 -6 -6 3 -5 5 -6 5 -5 3 -5 0 -6 5 
-5 12 -5 3 -6 4 -5 5 -5 -7 -6 0 -5 6 -5 -2 
-6 0 -5 7 -6 0 -5 15 -5 -7 -6 -9 -5 9 -5 8 
-6 -2 -5 -1 -5 9 -6 0 -5 5 -6 -3 -5 -4 -5 -6 
-6 6 -5 2 -5 1 -6 -9 -5 4 -5 -3 -6 -1 -5 8 
-6 -1 -5 4 -5 1 -6 7 -5 7 -5 -2 -6 3 -5 8 
-5 7 -6 -3 -5 2 -5 0 -6 16 -5 -2 -6 2 -5 -2 
-5 10 -6 7 -5 7 -5 1 -6 9 -5 12 -5 9 -6 2 
-5 9 -6 1 -5 5 -5 8 -6 8 -5 6 -5 11 -6 -5 
-5 1 -5 -1 -6 -2 -5 0 -6 4 -5 -1 -5 3 -6 1 
-5 6 -5 1 -6 1 -5 5 -5 1 -6 -3 -5 -2 -5 -13 
-6 7 -5 4 -6 8 -5 -3 -5 7 -6 4 -5 4 -5 6 
-6 3 -5 -5 -5 -4 -6 -9 100 AP
-5 1 -5 -7 -6 2 -5 6 -5 18 -6 6 -5 -7 -5 6 
-6 2 -5 10 -6 4 -5 6 -5 9 -6 -4 -5 -7 -5 2 
-6 2 -5 -1 -5 -2 -6 -6 -5 0 -6 1 -5 7 -5 0 
-6 -4 -5 0 -5 1 -6 1 -5 5 -5 2 -6 5 -5 1 
-6 1 -5 -4 -5 4 -6 -6 -5 2 -5 2 -6 5 -5 2 
-5 -6 -6 1 -5 5 -5 1 -6 8 -5 12 -6 8 -5 2 
-5 0 -6 2 -5 13 -5 -2 -6 3 -5 3 -5 6 -6 -1 
-5 5 -6 7 -5 7 -5 11 -6 1 -5 0 -5 5 -6 -5 
-5 9 -5 3 -6 10 -5 4 -6 -4 -5 8 -5 7 -6 9 
-5 0 -5 8 -6 3 -5 0 -5 -2 -6 3 -5 3 -5 4 
-6 10 -5 10 -6 1 -5 0 -5 -1 -6 10 -5 -1 -5 0 
-6 -5 -5 -1 -5 4 -6 4 -5 5 -6 17 -5 4 -5 5 
-6 6 -5 2 -5 3 -6 0 100 AP
-6 -8 -5 8 -6 3 -5 4 -5 7 -6 -3 -5 -5 -5 3 
-6 1 -5 12 -5 3 -6 2 -5 -2 -6 2 -5 -3 -5 8 
-6 2 -5 -8 -5 -1 -6 7 -5 1 -5 -1 -6 3 -5 2 
-5 -12 -6 1 -5 0 -6 4 -5 11 -5 6 -6 -2 -5 12 
-5 6 -6 4 -5 12 -5 3 -6 14 -5 2 -6 0 -5 -1 
-5 14 -6 -3 -5 6 -5 3 -6 1 -5 8 -5 -1 -6 0 
-5 3 -6 -7 -5 -1 -5 9 -6 10 -5 -4 -5 4 -6 2 
-5 -7 -5 1 -6 0 -5 5 -5 0 -6 8 -5 2 -6 3 
-5 14 -5 1 -6 -1 -5 4 -5 -5 -6 10 -5 1 -5 4 
-6 3 -5 -10 -6 -5 -5 6 -5 3 -6 0 -5 4 -5 10 
-6 3 -5 -3 -5 -2 -6 10 -5 7 -6 2 -5 2 -5 6 
-6 7 -5 5 -5 6 -6 2 -5 8 -5 5 -6 -2 -5 0 
-5 0 -6 3 -5 6 -6 6 100 AP
-6 4 -5 -2 -5 3 -6 -1 -5 0 -6 5 -5 3 -5 20 
-6 10 -5 10 -5 8 -6 0 -5 -2 -5 -2 -6 8 -5 2 
-5 -3 -6 0 -5 3 -6 -2 -5 12 -5 0 -6 -2 -5 4 
-5 3 -6 11 -5 3 -5 -3 -6 -5 -5 -6 -6 2 -5 -5 
-5 3 -6 -3 -5 3 -5 19 -6 2 -5 4 -5 16 -6 1 
-5 5 -6 13 -5 6 -5 -1 -6 7 -5 -2 -5 3 -6 -6 
-5 -2 -5 0 -6 13 -5 11 -5 5 -6 8 -5 12 -6 4 
-5 0 -5 5 -6 17 -5 -1 -5 3 -6 -3 -5 2 -5 -1 
-6 5 -5 7 -6 15 -5 10 -5 15 -6 11 -5 1 -5 5 
-6 -3 -5 -6 -5 5 -6 7 -5 2 -6 -2 -5 12 -5 4 
-6 8 -5 8 -5 1 -6 5 -5 11 -5 1 -6 6 -5 4 
-5 10 -6 17 -5 -6 -6 5 -5 7 -5 5 -6 5 -5 -3 
-5 -8 -6 1 -5 2 -5 4 100 AP
-6 14 -5 0 -5 15 -6 4 -5 -2 -5 -1 -6 12 -5 12 
-5 1 -6 5 -5 5 -6 -2 -5 3 -5 7 -6 -8 -5 6 
-5 4 -6 2 -5 1 -5 4 -6 5 -5 11 -6 2 -5 8 
-5 2 -6 1 -5 3 -5 6 -6 5 -5 -2 -5 -3 -6 4 
-5 8 -6 11 -5 -4 -5 8 -6 4 -5 9 -5 10 -6 8 
-5 11 -5 11 -6 6 -5 -9 -5 8 -6 5 -5 2 -6 4 
-5 12 -5 7 -6 14 -5 -14 -5 9 -6 12 -5 2 -5 6 
-6 -1 -5 3 -6 -1 -5 7 -5 9 -6 1 -5 0 -5 1 
-6 1 -5 4 -5 -1 -6 4 -5 14 -6 -5 -5 7 -5 6 
-6 0 -5 -1 -5 9 -6 -1 -5 3 -5 7 -6 2 -5 10 
-5 -4 -6 5 -5 1 -6 1 -5 3 -5 3 -6 1 -5 -7 
-5 -9 -6 9 -5 7 -5 3 -6 -2 -5 -9 -6 8 -5 -3 
-5 -2 -6 1 -5 -6 -5 -2 100 AP
-5 -6 -6 7 -5 0 -6 -9 -5 11 -5 8 -6 -8 -5 -4 
-5 11 -6 2 -5 4 -5 9 -6 8 -5 10 -6 -3 -5 4 
-5 -4 -6 7 -5 0 -5 4 -6 22 -5 0 -5 -4 -6 -3 
-5 6 -5 6 -6 5 -5 -2 -6 2 -5 16 -5 5 -6 1 
-5 1 -5 2 -6 -10 -5 5 -5 7 -6 16 -5 2 -6 3 
-5 4 -5 -1 -6 10 -5 6 -5 -10 -6 5 -5 10 -5 -2 
-6 4 -5 2 -6 15 -5 2 -5 -4 -6 5 -5 5 -5 -4 
-6 15 -5 1 -5 9 -6 2 -5 -7 -5 2 -6 2 -5 5 
-6 3 -5 0 -5 3 -6 -5 -5 8 -5 -6 -6 5 -5 7 
-5 -1 -6 -8 -5 19 -6 4 -5 -3 -5 3 -6 9 -5 0 
-5 6 -6 5 -5 -3 -5 12 -6 1 -5 0 -6 13 -5 5 
-5 11 -6 8 -5 5 -5 0 -6 0 -5 -2 -5 1 -6 -2 
-5 4 -5 4 -6 8 -5 1 100 AP
-5 -2 -6 -3 -5 18 -5 -3 -6 0 -5 9 -6 6 -5 5 
-5 4 -6 -4 -5 1 -5 -6 -6 1 -5 3 -5 12 -6 -7 
-5 9 -5 6 -6 13 -5 3 -6 -1 -5 -3 -5 9 -6 9 
-5 6 -5 1 -6 5 -5 1 -5 -8 -6 -1 -5 1 -6 4 
-5 -1 -5 11 -6 14 -5 9 -5 7 -6 0 -5 5 -5 4 
-6 6 -5 10 -6 5 -5 5 -5 -2 -6 1 -5 8 -5 7 
-6 -1 -5 3 -5 6 -6 -1 -5 -1 -5 2 -6 4 -5 8 
-6 7 -5 -8 -5 11 -6 -3 -5 1 -5 12 -6 4 -5 4 
-5 -5 -6 3 -5 10 -6 8 -5 8 -5 0 -6 18 -5 -1 
-5 4 -6 10 -5 4 -5 18 -6 2 -5 8 -6 -3 -5 0 
-5 7 -6 -3 -5 -2 -5 6 -6 8 -5 6 -5 9 -6 -1 
-5 9 -5 -2 -6 4 -5 -6 -6 -6 -5 -1 -5 -1 -6 -3 
-5 5 -5 4 -6 18 -5 6 100 AP
-5 13 -6 29 -5 15 -5 14 -6 13 -5 4 -5 18 -6 11 
-5 13 -5 19 -6 21 -5 3 -6 3 -5 12 -5 2 -6 15 
-5 5 -5 13 -6 5 -5 -1 -5 17 -6 -1 -5 11 -6 2 
-5 13 -5 9 -6 5 -5 13 -5 18 -6 -4 -5 -2 -5 11 
-6 7 -5 13 -6 17 -5 9 -5 12 -6 3 -5 -6 -5 0 
-6 10 -5 13 -5 11 -6 12 -5 10 -5 7 -6 -2 -5 6 
-6 7 -5 2 -5 -1 -6 6 -5 -4 -5 -3 -6 4 -5 20 
-5 5 -6 12 -5 -8 -6 2 -5 0 -5 3 -6 3 -5 17 
-5 12 -6 12 -5 6 -5 2 -6 12 -5 4 -6 6 -5 6 
-5 13 -6 14 -5 -3 -5 10 -6 8 -5 -8 -5 1 -6 12 
-5 1 -5 14 -6 2 -5 13 -6 1 -5 8 -5 11 -6 -6 
-5 2 -5 -9 -6 19 -5 -3 -5 7 -6 7 -5 7 -6 6 
-5 -2 -5 7 -6 4 -5 8 100 AP
PP
DA
24 w
/c9 { 1.000000 0.000000 0.000000 sr} bdef
c9
6 0 5 0 6 0 5 0 5 0 6 0 5 0 5 0 
6 0 5 0 5 -3 6 -1 5 -6 6 -3 5 -1 5 0 
6 2 5 -7 5 1 6 -6 5 0 5 1 6 5 5 -3 
6 4 5 2 5 4 6 5 5 -6 5 -2 6 -4 5 -2 
5 1 6 -6 5 -5 6 -2 5 -4 5 -7 6 -6 5 -2 
5 -3 6 -2 5 -2 5 -3 6 1 5 -2 5 -4 6 -9 
5 -3 6 -2 5 -1 5 -8 6 -1 5 -2 5 3 6 0 
5 -1 5 -3 6 -1 5 -5 6 -1 5 -3 5 2 6 2 
5 -1 5 0 6 3 5 -3 5 0 6 -3 5 0 6 -3 
5 4 5 0 6 8 5 1 5 0 6 -7 5 -4 5 -1 
6 1 5 -4 5 4 6 -1 5 -1 6 -2 5 4 5 -5 
6 -5 5 -2 5 -6 6 -1 5 4 5 -4 6 -1 5 -1 
6 1 5 -18 5 -2 6 -2 5 0 5 0 6 0 5 1 
5 -5 6 1 5 0 6 -8 5 2 5 1 6 0 5 0 
5 0 6 -1 5 0 5 4 6 -3 5 -10 5 -1 6 -3 
5 14 6 0 5 -1 5 -3 6 -2 5 -1 5 -1 6 -3 
5 -7 5 4 6 -1 5 -11 6 1 5 2 5 -7 6 3 
5 -4 5 3 6 0 5 -3 5 5 6 2 5 -5 6 -2 
5 2 5 6 6 -3 5 1 5 0 6 -1 5 0 5 -1 
6 -12 5 -2 5 -6 6 -1 5 -1 6 -5 5 0 5 -1 
6 -1 5 -2 5 -6 6 -6 5 2 5 -1 6 -6 5 -2 
6 1 5 0 5 1 6 -4 5 -3 5 6 6 -5 5 0 
5 0 6 -4 5 0 6 0 5 -1 5 1 6 -5 5 -3 
5 3 6 -2 5 -4 5 -1 6 -2 5 -2 5 -2 6 0 
5 -7 6 3 5 -3 5 2 6 2 5 -8 5 -1 6 -3 
5 -4 5 -3 6 -1 5 4 6 -8 5 3 5 -7 6 -4 
5 4 5 -4 6 1 5 -1 5 0 6 1 5 0 6 2 
5 -10 5 -2 6 1 5 0 5 0 6 1 5 -2 5 -2 
6 1 5 -8 5 2 6 1 5 -2 6 -3 5 -3 5 -4 
6 4 5 -2 5 -2 6 -5 5 -5 5 1 6 -1 5 -8 
6 -2 5 -5 5 4 6 -4 5 1 5 2 6 -5 5 -6 
5 0 6 -5 5 -2 6 -1 5 -1 5 -3 6 1 5 -2 
5 -2 6 -1 5 1 5 -2 6 0 5 -3 5 -5 6 -1 
5 -3 6 0 5 -5 5 -3 6 -5 5 -1 5 2 6 -2 
5 0 5 1 6 -4 5 -1 6 -4 5 -3 5 3 6 2 
5 1 5 -1 6 -2 5 -5 5 1 6 -3 5 -8 6 -8 
5 -5 5 2 6 -6 5 -6 5 -6 6 0 5 0 5 -1 
6 -5 5 -5 5 1 14048 1790 300 MP stroke
6 -2 5 -5 6 2 5 -4 5 0 6 0 5 -2 5 -9 
6 0 5 0 5 -1 6 -2 5 -5 6 -10 5 -10 5 -2 
6 -6 5 -5 5 2 6 -1 5 -3 5 0 6 -4 5 -1 
6 -4 5 -2 5 0 6 -10 5 0 5 -1 6 -7 5 0 
5 2 6 5 5 2 6 -1 5 -4 5 -2 6 2 5 0 
5 -2 6 -7 5 -2 5 0 6 -4 5 -2 5 -2 6 -3 
5 3 6 -3 5 -3 5 6 6 0 5 -9 5 -9 6 -1 
5 1 5 0 6 1 5 -2 6 0 5 -9 5 0 6 -12 
5 -2 5 -2 6 -3 5 -5 5 1 6 -1 5 0 6 -1 
5 -3 5 -10 6 -4 5 3 5 -12 6 -6 5 0 5 0 
6 -1 5 -1 5 -5 6 -4 5 2 6 -5 5 1 5 2 
6 -2 5 0 5 -4 6 2 5 -3 5 1 6 -11 5 0 
6 -4 5 -5 5 -1 6 -2 5 -5 5 -6 6 -4 5 1 
5 -4 6 -1 5 3 6 1 5 6 5 0 6 -2 5 5 
5 -8 6 -1 5 1 5 -1 6 2 5 -1 5 -1 6 -1 
5 2 6 -7 5 0 5 -9 6 0 5 -5 5 1 6 6 
5 -4 5 -3 6 1 5 6 6 -7 5 -7 5 -3 6 0 
5 1 5 4 6 1 5 -5 5 0 6 -3 5 -2 6 4 
5 1 5 0 6 -5 5 -5 5 0 6 -3 5 -9 5 -4 
6 1 5 -6 5 -2 6 -4 5 -1 6 0 5 -4 5 -12 
6 -10 5 2 5 -3 6 -4 5 -3 5 -8 6 0 5 -4 
6 -6 5 -3 5 2 6 -1 5 -3 5 1 6 2 5 -4 
5 -1 6 -14 5 -4 6 -5 5 1 5 -2 6 -5 5 -3 
5 5 6 -2 5 -5 5 2 6 -3 5 -2 5 -4 6 -1 
5 -3 6 0 5 1 5 -10 6 -3 5 -3 5 -3 6 -4 
5 -5 5 3 6 -4 5 7 6 4 5 4 5 3 6 1 
5 -3 5 -6 6 -6 5 -1 5 -2 6 -7 5 8 6 -10 
5 -4 5 -4 6 -2 5 2 5 -3 6 2 5 -1 5 -2 
6 -2 5 -1 5 -2 6 -10 5 5 6 -3 5 -4 5 0 
6 -6 5 -3 5 -4 6 6 5 -8 5 -3 6 3 5 -2 
6 2 5 0 5 -2 6 -3 5 -9 5 2 6 -13 5 -2 
5 -2 6 -5 5 -2 6 -4 5 -4 5 2 6 -10 5 -3 
5 -4 6 -2 5 -9 5 0 6 -6 5 -3 5 0 6 -5 
5 0 6 -5 5 -9 5 -3 6 3 5 3 5 -2 6 11 
5 -2 5 4 6 2 5 -2 6 -1 5 -1 5 0 6 1 
5 0 5 0 6 2 5 -6 5 1 6 0 5 -7 6 -1 
5 0 5 -6 6 -5 5 -5 5 -4 6 -10 5 0 5 -6 
6 3 5 4 5 -3 12445 2416 300 MP stroke
6 -5 5 -3 6 0 5 -3 5 0 6 -5 5 -11 5 -1 
6 1 5 -6 5 -2 6 5 5 1 6 -4 5 -9 5 4 
6 0 5 -3 5 0 6 0 5 9 5 1 6 3 5 -8 
6 -2 5 -2 5 -2 6 1 5 1 5 1 6 3 5 -4 
5 -1 6 -8 5 -3 6 -1 5 -4 5 -2 6 2 5 -2 
5 -7 6 0 5 -5 5 -8 6 -2 5 1 5 -3 6 -2 
5 3 6 -3 5 1 5 0 6 2 5 -8 5 4 6 0 
5 -1 5 -4 6 -4 5 -5 6 2 5 1 5 0 6 -2 
5 -4 5 -1 6 1 5 -4 5 0 6 1 5 -4 6 -1 
5 -8 5 -4 6 1 5 3 5 0 6 -7 5 -2 5 3 
6 -9 5 -5 5 -7 6 0 5 0 6 -6 5 -2 5 -6 
6 3 5 -6 5 -3 6 1 5 4 5 -7 6 -5 5 5 
6 3 5 2 5 -4 6 -9 5 -10 5 -6 6 1 5 3 
5 -4 6 2 5 -10 6 -6 5 -3 5 -2 6 1 5 -3 
5 0 6 -3 5 1 5 -1 6 -5 5 -8 5 -2 6 5 
5 0 6 -1 5 -2 5 -1 6 -4 5 -4 5 -7 6 -3 
5 0 5 -3 6 -6 5 -5 6 0 5 -6 5 -4 6 2 
5 3 5 -6 6 -2 5 -1 5 -4 6 -1 5 4 6 -1 
5 0 5 1 6 -5 5 3 5 -7 6 -5 5 4 5 -2 
6 -4 5 4 5 -3 6 -6 5 2 6 -5 5 2 5 0 
6 5 5 2 5 5 6 -6 5 -8 5 -4 6 -1 5 -1 
6 -2 5 0 5 -7 6 1 5 -4 5 1 6 -2 5 0 
5 -6 6 -3 5 -4 6 -4 5 -2 5 7 6 -7 5 -2 
5 -6 6 -4 5 -2 5 -4 6 -1 5 -8 5 1 6 -2 
5 -3 6 -3 5 2 5 -5 6 0 5 -8 5 3 6 4 
5 -11 5 -1 6 -5 5 -3 6 -4 5 -2 5 -10 6 -1 
5 -5 5 -1 6 5 5 -2 5 -2 6 -3 5 -4 6 -2 
5 -1 5 -5 6 -5 5 -1 5 0 6 2 5 3 5 0 
6 -3 5 0 5 -6 6 -1 5 -2 6 1 5 2 5 0 
6 1 5 4 5 -10 6 4 5 0 5 0 6 -6 5 0 
6 2 5 3 5 -10 6 1 5 -5 5 -2 6 2 5 -4 
5 -8 6 0 5 -7 6 -4 5 -7 5 4 6 -4 5 1 
5 -6 6 -2 5 -5 5 -2 6 -11 5 0 5 -2 6 -11 
5 -10 6 0 5 2 5 -5 6 -4 5 -15 5 -10 6 -5 
5 -1 5 0 6 -2 5 0 6 2 5 -8 5 4 6 0 
5 -6 5 -5 6 0 5 -1 5 -4 6 5 5 -4 6 -5 
5 3 5 -3 6 1 5 5 5 -4 6 1 5 -7 5 -4 
6 -10 5 -4 5 0 10842 3038 300 MP stroke
6 -2 5 -6 6 3 5 1 5 -2 6 -3 5 -5 5 1 
6 -4 5 -1 5 -11 6 -6 5 -5 6 -3 5 0 5 -4 
6 -2 5 -6 5 -1 6 1 5 -3 5 2 6 0 5 -2 
6 -6 5 -8 5 -3 6 -3 5 1 5 0 6 -7 5 -1 
5 0 6 -3 5 2 5 0 6 -3 5 -4 6 1 5 -5 
5 -1 6 0 5 -3 5 -2 6 3 5 -4 5 -3 6 -5 
5 5 6 -7 5 2 5 -12 6 -3 5 -10 5 -3 6 -8 
5 -2 5 -4 6 -3 5 -2 6 -14 5 -2 5 -3 6 -1 
5 -5 5 -5 6 -5 5 -1 5 0 6 0 5 -1 6 -12 
5 0 5 3 6 -2 5 1 5 -2 6 3 5 -3 5 -2 
6 -8 5 0 5 -1 6 3 5 -2 6 5 5 -6 5 1 
6 -1 5 -1 5 -2 6 -3 5 -4 5 -4 6 -5 5 -5 
6 0 5 -1 5 3 6 -1 5 -1 5 -7 6 -1 5 1 
5 -8 6 -1 5 -2 6 -4 5 -14 5 -3 6 -6 5 -3 
5 -2 6 0 5 0 5 0 6 3 5 1 5 -2 6 -2 
5 -2 6 -2 5 5 5 -2 6 -6 5 -8 5 1 6 -1 
5 6 5 -7 6 -3 5 -1 6 -2 5 0 5 -1 6 0 
5 -3 5 1 6 0 5 -4 5 0 6 -1 5 -5 6 -6 
5 -3 5 1 6 -6 5 -5 5 2 6 -6 5 -7 5 0 
6 -3 5 4 5 4 6 0 5 -4 6 -1 5 0 5 1 
6 -1 5 -1 5 -2 6 -4 5 4 5 -4 6 -6 5 0 
6 -3 5 -6 5 -5 6 2 5 -4 5 -1 6 -2 5 -8 
5 -6 6 3 5 0 6 4 5 -2 5 0 6 -1 5 -9 
5 -9 6 2 5 -3 5 -4 6 -1 5 7 5 -4 6 -4 
5 -1 6 2 5 -4 5 0 6 -3 5 10 5 -9 6 -4 
5 -1 5 -5 6 -5 5 -4 6 -8 5 -1 5 1 6 2 
5 0 5 0 6 3 5 -7 5 0 6 -5 5 1 6 -4 
5 -4 5 -3 6 -3 5 -2 5 -1 6 -2 5 -4 5 -4 
6 2 5 2 5 0 6 -2 5 -2 6 -6 5 -3 5 -3 
6 -3 5 -6 5 -3 6 -3 5 -5 5 -3 6 0 5 -6 
6 6 5 5 5 -5 6 -4 5 -6 5 -6 6 -2 5 2 
5 -4 6 0 5 -4 6 -1 5 6 5 -4 6 -1 5 0 
5 -2 6 -5 5 6 5 -2 6 1 5 -2 5 1 6 -6 
5 -1 6 -2 5 -4 5 -8 6 -11 5 -9 5 -3 6 0 
5 -1 5 -1 6 -1 5 -1 6 -2 5 0 5 -5 6 0 
5 -7 5 -11 6 -3 5 2 5 -10 6 -5 5 -3 6 -3 
5 -2 5 -4 6 0 5 -2 5 3 6 1 5 -8 5 3 
6 0 5 5 5 -5 9239 3694 300 MP stroke
6 2 5 4 6 -5 5 -3 5 -5 6 -6 5 2 5 -6 
6 -6 5 3 5 -2 6 0 5 -6 6 -9 5 -4 5 -2 
6 -5 5 1 5 0 6 0 5 -2 5 3 6 0 5 -1 
6 -5 5 -3 5 2 6 -4 5 6 5 1 6 -1 5 -13 
5 -7 6 0 5 -2 5 -5 6 -1 5 -7 6 -3 5 -5 
5 -4 6 -7 5 -3 5 -2 6 -5 5 -5 5 -4 6 -3 
5 3 6 -4 5 -9 5 0 6 -6 5 0 5 2 6 -3 
5 -6 5 3 6 4 5 2 6 4 5 -3 5 7 6 1 
5 -3 5 -6 6 0 5 -9 5 1 6 -6 5 -3 6 0 
5 -2 5 1 6 0 5 -4 5 -5 6 0 5 -5 5 -5 
6 0 5 0 5 9 6 -2 5 -6 6 -3 5 -3 5 2 
6 -4 5 -7 5 -1 6 1 5 4 5 0 6 -2 5 -4 
6 -5 5 6 5 0 6 -9 5 1 5 1 6 2 5 -3 
5 0 6 1 5 2 6 -5 5 -7 5 -2 6 0 5 -6 
5 4 6 2 5 1 5 3 6 -2 5 -2 5 -2 6 -7 
5 -2 6 -2 5 -7 5 -1 6 0 5 1 5 -2 6 -5 
5 0 5 -5 6 1 5 1 6 -3 5 -3 5 -3 6 -4 
5 -6 5 2 6 1 5 -1 5 1 6 -2 5 -5 6 2 
5 -7 5 0 6 -2 5 -7 5 -1 6 -4 5 0 5 1 
6 -1 5 3 5 1 6 -3 5 -1 6 -9 5 -3 5 -3 
6 -3 5 -2 5 -4 6 -4 5 -6 5 3 6 5 5 -2 
6 1 5 0 5 3 6 -8 5 3 5 -2 6 1 5 3 
5 -3 6 -9 5 -4 6 -4 5 -2 5 -2 6 -6 5 -8 
5 0 6 -7 5 1 5 0 6 6 5 -3 5 3 6 0 
5 -4 6 -1 5 -8 5 -2 6 4 5 -15 5 -1 6 -6 
5 2 5 -4 6 -1 5 3 6 0 5 -2 5 2 6 -4 
5 -10 5 3 6 -2 5 -12 5 -6 6 -10 5 -2 6 1 
5 -3 5 -3 6 0 5 -5 5 -1 6 -4 5 0 5 -8 
6 -2 5 -2 5 0 6 -3 5 -1 6 5 5 -2 5 1 
6 -5 5 -3 5 2 6 -7 5 -3 5 -4 6 -3 5 -3 
6 -2 5 0 5 3 6 0 5 -5 5 -5 6 1 5 -4 
5 -2 6 0 5 0 6 -2 5 -6 5 6 6 -2 5 -4 
5 -5 6 -18 5 -4 5 -2 6 2 5 -10 5 -11 6 -1 
5 -2 6 0 5 -5 5 2 6 -4 5 2 5 -5 6 1 
5 -1 5 -1 6 -2 5 -3 6 -8 5 -5 5 -12 6 0 
5 -5 5 -1 6 -1 5 -5 5 -2 6 -2 5 -4 6 -8 
5 0 5 -2 6 -5 5 -2 5 -5 6 -8 5 1 5 -3 
6 -7 5 -4 5 -2 7636 4351 300 MP stroke
6 1 5 -5 6 0 5 1 5 -3 6 -5 5 2 5 4 
6 -2 5 -1 5 -2 6 -2 5 -9 6 -8 5 -7 5 -9 
6 -1 5 -7 5 3 6 5 5 -3 5 -7 6 3 5 -9 
6 -6 5 2 5 2 6 -8 5 -6 5 -3 6 -3 5 4 
5 -7 6 -3 5 -5 5 5 6 -4 5 2 6 0 5 -2 
5 -11 6 -2 5 0 5 -15 6 -6 5 -1 5 -6 6 -10 
5 -1 6 -6 5 1 5 -9 6 1 5 3 5 -1 6 -4 
5 8 5 -7 6 -2 5 0 6 2 5 -6 5 -3 6 -4 
5 -5 5 -2 6 -8 5 0 5 -2 6 -1 5 -1 6 -11 
5 -2 5 -6 6 -1 5 -3 5 -3 6 -3 5 -4 5 -3 
6 2 5 -6 5 0 6 7 5 2 6 -3 5 -8 5 -1 
6 -9 5 1 5 -4 6 -4 5 -6 5 -7 6 -6 5 0 
6 -2 5 -10 5 -6 6 -3 5 -8 5 1 6 -6 5 -7 
5 4 6 -3 5 -5 6 -6 5 -5 5 -2 6 -9 5 0 
5 -11 6 -1 5 -4 5 -2 6 0 5 2 5 1 6 2 
5 2 6 -5 5 -4 5 -2 6 -3 5 -4 5 -3 6 -1 
5 0 5 -6 6 -2 5 9 6 -2 5 -5 5 -2 6 -2 
5 -6 5 -9 6 -4 5 4 5 1 6 4 5 -1 6 -2 
5 -1 5 -6 6 1 5 -2 5 4 6 -5 5 4 5 2 
6 -1 5 -2 5 -1 6 -7 5 0 6 -8 5 1 5 -4 
6 -12 5 0 5 -3 6 -1 5 -3 5 -1 6 4 5 1 
6 -10 5 0 5 3 6 -5 5 0 5 -1 6 5 5 0 
5 -3 6 -4 5 0 6 -3 5 -2 5 -2 6 8 5 -3 
5 2 6 4 5 -3 5 -7 6 -1 5 -3 5 4 6 -2 
5 3 6 2 5 1 5 -4 6 -7 5 0 5 -3 6 -5 
5 -1 5 -3 6 1 5 5 6 0 5 1 5 3 6 -1 
5 -4 5 -1 6 -2 5 -5 5 -4 6 -8 5 -2 6 -12 
5 4 5 0 6 2 5 -5 5 -2 6 -2 5 1 5 -1 
6 0 5 -3 5 2 6 -10 5 0 6 3 5 -4 5 1 
6 4 5 -9 5 -7 6 -8 5 -7 5 2 6 -4 5 -6 
6 2 5 -2 5 -12 6 -10 5 -1 5 -7 6 -3 5 -15 
5 -2 6 -2 5 -1 6 -8 5 0 5 -1 6 0 5 -9 
5 -6 6 4 5 0 5 -7 6 -6 5 0 5 0 6 2 
5 -8 6 3 5 0 5 -1 6 4 5 -2 5 -1 6 -2 
5 -5 5 1 6 -3 5 -5 6 -2 5 -5 5 2 6 0 
5 -3 5 3 6 4 5 1 5 -9 6 -1 5 -5 6 -1 
5 -4 5 -1 6 1 5 -1 5 -4 6 -1 5 -3 5 -11 
6 -3 5 4 5 -1 6033 5044 300 MP stroke
6 -3 5 -4 6 -3 5 -1 5 -1 6 -6 5 -1 5 -4 
6 -1 5 -6 5 -5 6 -10 5 -5 6 -5 5 -10 5 -2 
6 -3 5 -1 5 -2 6 -9 5 2 5 2 6 -1 5 -8 
6 -5 5 -5 5 -5 6 -2 5 2 5 -1 6 -4 5 -10 
5 -2 6 -15 5 -4 5 -7 6 3 5 -2 6 -11 5 -3 
5 -7 6 3 5 -1 5 -2 6 -4 5 -8 5 -7 6 -7 
5 -3 6 -3 5 -6 5 -2 6 -3 5 -4 5 -9 6 1 
5 -2 5 -5 6 -3 5 -7 6 -9 5 -4 5 -4 6 -3 
5 3 5 -2 6 -1 5 0 5 0 6 0 5 -6 5 2 
6 -3 5 1 6 -4 5 -5 5 -5 6 -2 5 -3 5 2 
6 5 5 4 5 -8 6 -4 5 -1 6 1 5 2 5 2 
6 3 5 -2 5 1 6 0 5 -8 5 -7 6 -6 5 -7 
6 -8 5 -3 5 5 6 -2 5 -10 5 -5 6 -2 5 3 
5 -2 6 -3 5 -6 6 -3 5 -5 5 -6 6 -1 5 -1 
5 -3 6 -4 5 -5 5 -2 6 -3 5 2 5 -4 6 0 
5 1 6 -11 5 0 5 5 6 -1 5 -7 5 -5 6 3 
5 -5 5 -4 6 -1 5 4 6 -5 5 -5 5 -4 6 -5 
5 4 5 -2 6 0 5 -1 5 -5 6 -5 5 -1 6 -4 
5 -1 5 1 6 4 5 -4 5 4 6 -5 5 -7 5 3 
6 -5 5 -9 5 4 6 6 5 -2 6 0 5 -2 5 -5 
6 -2 5 -2 5 -3 6 0 5 -5 5 -5 6 -6 5 -2 
6 -7 5 -5 5 -9 6 -5 5 -5 5 -4 6 0 5 -3 
5 -7 6 -7 5 -1 6 0 5 6 5 -1 6 -5 5 1 
5 -6 6 -7 5 -2 5 -3 6 -2 5 -6 5 1 6 -1 
5 6 6 -4 5 -5 5 -2 6 2 5 -4 5 3 6 -3 
5 1 5 3 6 -4 5 -7 6 2 5 -7 5 -4 6 -3 
5 -1 5 5 6 -3 5 -2 5 -3 6 -6 5 2 6 -12 
5 -6 5 -5 6 -9 5 5 5 -4 6 -2 5 -1 5 -6 
6 -2 5 1 5 -9 6 4 5 -1 6 -3 5 -1 5 -3 
6 -4 5 -2 5 -5 6 -6 5 -9 5 -6 6 -9 5 -6 
6 -6 5 1 5 -3 6 2 5 -5 5 1 6 -9 5 -6 
5 -1 6 -6 5 -7 6 -5 5 -1 5 -8 6 -12 5 0 
5 -1 6 0 5 -4 5 -2 6 -8 5 -6 5 -4 6 -7 
5 -1 6 3 5 -11 5 -3 6 -4 5 -8 5 1 6 5 
5 -5 5 -1 6 3 5 4 6 4 5 -2 5 -1 6 -6 
5 -7 5 -10 6 0 5 -4 5 -3 6 -2 5 -3 6 0 
5 0 5 -4 6 -9 5 0 5 0 6 6 5 -7 5 -8 
6 -8 5 -15 5 -1 4430 5921 300 MP stroke
6 -8 5 4 6 2 5 -1 5 0 6 -5 5 -6 5 3 
6 -8 5 3 5 2 6 -5 5 4 6 0 5 1 5 -8 
6 -2 5 5 5 5 6 -1 5 -2 5 -7 6 0 5 -2 
6 -1 5 -3 5 -7 6 0 5 -6 5 -5 6 0 5 -3 
5 -1 6 1 5 -2 5 1 6 1 5 -14 6 -4 5 -2 
5 -6 6 0 5 -2 5 7 6 0 5 -9 5 -8 6 1 
5 1 6 0 5 -8 5 -6 6 -4 5 -6 5 3 6 -5 
5 -5 5 -10 6 -2 5 -1 6 -3 5 -2 5 -1 6 -3 
5 -9 5 -10 6 -9 5 -4 5 -7 6 -6 5 -6 5 -4 
6 -8 5 -5 6 -4 5 1 5 -1 6 -9 5 0 5 -1 
6 -2 5 1 5 -7 6 -7 5 -9 6 4 5 0 5 -3 
6 0 5 -6 5 -6 6 8 5 -1 5 -7 6 -1 5 -4 
6 -6 5 -3 5 -11 6 -7 5 3 5 -4 6 0 5 -12 
5 1 6 -7 5 1 6 -8 5 -6 5 -2 6 0 5 -2 
5 1 6 -2 5 -6 5 -6 6 -7 5 -2 5 -7 6 -5 
5 -1 6 -2 5 -4 5 -2 6 -2 5 -1 5 -1 6 -7 
5 6 5 -2 6 -3 5 -3 6 6 5 -2 5 -11 6 -3 
5 0 5 -10 6 10 5 -3 5 -2 6 -1 5 -4 6 -3 
5 5 5 0 6 -6 5 -7 5 -5 6 -7 5 -2 5 -7 
6 -7 5 1 5 -1 6 -11 5 3 6 -9 5 4 5 -10 
6 -1 5 6 5 -3 6 -7 5 -1 5 -6 6 -3 5 -9 
6 -8 5 -3 5 -5 6 -1 5 1 5 1 6 -3 5 -5 
5 -8 6 -4 5 3 6 -7 5 -7 5 -2 6 4 5 6 
5 2 6 -9 5 -5 5 2 6 -7 5 6 5 -5 6 3 
5 -5 6 -3 5 -9 5 -4 6 -1 5 -10 5 1 6 -4 
5 -3 5 -3 6 10 5 1 6 -3 5 -2 5 -6 6 -6 
5 -3 5 0 6 0 5 -5 5 -6 6 -1 5 1 6 -5 
5 -3 5 -6 6 -1 5 1 5 -6 6 -4 5 -7 5 1 
6 0 5 -9 5 1 6 -1 5 -5 6 -7 5 -14 5 -7 
6 -4 5 -2 5 4 6 -10 5 -2 5 -2 6 -8 5 -7 
6 -6 5 2 5 -4 6 1 5 -1 5 -2 6 -6 5 -9 
5 -2 6 -4 5 -5 6 -1 5 -6 5 -3 6 2 5 -5 
5 1 6 0 5 -3 5 -8 6 0 5 0 5 -4 6 -5 
5 2 6 -6 5 -5 5 -7 6 -5 5 -9 5 -10 6 -6 
5 -6 5 -2 6 -7 5 -4 6 1 5 5 5 -4 6 -7 
5 -7 5 -3 6 -12 5 -3 5 1 6 9 5 0 6 -8 
5 -11 5 -5 6 4 5 -7 5 -6 6 0 5 5 5 -5 
6 -1 5 -8 5 -6 2827 6824 300 MP stroke
6 -2 5 -11 6 -2 5 7 5 -10 6 -8 5 -3 5 -3 
6 -3 5 -8 5 0 6 -6 5 0 6 -8 5 1 5 -4 
6 -16 5 5 5 -1 6 -1 5 -6 5 -7 6 0 5 -13 
6 -1 5 -3 5 -2 6 -8 5 -2 5 5 6 -7 5 -7 
5 -5 6 -12 5 -8 5 -2 6 -7 5 -8 6 -9 5 1 
5 -5 6 -13 5 -6 5 -10 6 -6 5 2 5 -3 6 -7 
5 2 6 -10 5 -6 5 -12 6 -4 5 0 5 6 6 -3 
5 -6 5 -7 6 -3 5 0 6 0 5 0 5 -8 6 -6 
5 -10 5 -5 6 -11 5 -3 5 -2 6 -3 5 -6 5 4 
6 -16 5 -8 6 -4 5 -13 5 -6 6 1 5 -10 5 -15 
6 -3 5 -6 5 -11 6 -5 5 -7 6 -4 5 -9 5 -1 
6 -4 5 -12 5 -2 6 -10 5 -10 5 -11 6 -4 5 -6 
6 -17 5 -11 5 -7 6 -12 5 -11 5 -6 6 -8 5 -14 
5 -11 6 -22 5 -8 2253 7442 108 MP stroke
/c10 { 1.000000 0.800000 1.000000 sr} bdef
c10
10 -2 11 -3 11 5 11 0 10 -6 11 6 11 -2 10 -2 
11 -1 11 3 11 1 10 1 11 -7 11 0 10 4 11 0 
11 -2 11 0 10 0 11 5 11 -1 11 1 10 -3 11 3 
11 -2 10 -2 11 -3 11 -1 11 3 10 -4 11 0 11 -5 
10 11 11 -6 11 3 11 -2 10 -3 11 -10 11 -6 11 8 
10 -3 11 2 11 6 10 -6 11 -2 11 9 11 -9 10 4 
11 2 11 0 10 -11 11 -11 11 -20 11 5 10 1 11 11 
11 -16 11 -3 10 -19 11 -12 11 1 10 -14 11 -12 11 18 
11 -19 10 -16 11 -3 11 -8 10 -6 11 -19 11 -22 11 -4 
10 -21 11 11 11 -13 11 -20 10 -8 11 -11 11 -19 10 -18 
11 -15 11 4 11 -1 10 -13 11 -23 11 -18 10 -14 11 -19 
11 -6 11 -13 10 -22 11 -16 11 1 11 -27 10 -17 11 -26 
11 -11 10 -32 11 -19 2253 7422 100 MP
11 0 11 0 11 0 10 0 11 0 11 0 10 0 11 0 
11 -2 11 2 10 0 11 0 11 0 10 0 11 0 11 0 
11 0 10 0 11 0 11 0 11 0 10 0 11 0 11 0 
10 0 11 0 11 0 11 0 10 0 11 0 11 0 10 0 
11 0 11 -2 11 2 10 -3 11 3 11 0 11 0 10 0 
11 0 11 -1 10 1 11 -1 11 -2 11 3 10 0 11 -1 
11 0 11 1 10 -2 11 2 11 0 10 0 11 0 11 0 
11 0 10 0 11 0 11 0 10 -1 11 1 11 0 11 -4 
10 1 11 3 11 0 11 -1 10 1 11 0 11 -2 10 2 
11 0 11 -1 11 -3 10 3 11 1 11 -2 10 2 11 -1 
11 -1 11 2 10 0 11 0 11 -1 11 1 10 0 11 -3 
11 3 10 -3 11 0 11 2 11 1 10 0 11 -1 11 1 
10 0 11 0 11 0 11 0 100 AP
11 0 11 0 10 0 11 0 11 0 10 0 11 0 11 0 
11 0 10 0 11 0 11 0 11 0 10 0 11 0 11 0 
10 0 11 0 11 0 11 0 10 0 11 0 11 0 10 0 
11 0 11 0 11 0 10 0 11 0 11 0 11 0 10 0 
11 0 11 0 10 0 11 0 11 0 11 0 10 0 11 0 
11 0 10 0 11 0 11 0 11 0 10 0 11 0 11 0 
11 0 10 0 11 0 11 0 10 0 11 0 11 0 11 0 
10 0 11 0 11 0 10 0 11 0 11 0 11 0 10 0 
11 0 11 0 11 -2 10 2 11 0 11 0 10 0 11 0 
11 0 11 0 10 0 11 0 11 0 10 0 11 0 11 0 
11 0 10 0 11 0 11 0 11 0 10 0 11 0 11 0 
10 0 11 0 11 0 11 0 10 0 11 0 11 0 10 0 
11 0 11 0 11 0 10 0 100 AP
11 0 10 0 11 0 11 0 11 0 10 0 11 0 11 0 
10 0 11 0 11 0 11 0 10 0 11 0 11 0 10 0 
11 0 11 0 11 0 10 0 11 0 11 0 11 0 10 0 
11 0 11 0 10 0 11 -1 11 1 11 0 10 0 11 0 
11 0 10 0 11 0 11 0 11 0 10 -1 11 1 11 0 
11 0 10 0 11 0 11 0 10 0 11 0 11 0 11 0 
10 0 11 0 11 0 10 0 11 0 11 0 11 0 10 0 
11 0 11 0 11 0 10 0 11 0 11 0 10 0 11 0 
11 0 11 0 10 0 11 0 11 0 10 0 11 0 11 0 
11 0 10 0 11 0 11 0 11 0 10 0 11 -1 11 1 
10 0 11 0 11 0 11 0 10 0 11 0 11 0 10 0 
11 0 11 0 11 0 10 0 11 0 11 0 11 0 10 0 
11 0 11 -1 10 1 11 0 100 AP
10 0 11 0 11 0 11 0 10 0 11 0 11 0 10 0 
11 0 11 0 11 0 10 0 11 0 11 0 10 0 11 0 
11 0 11 0 10 0 11 0 11 0 11 0 10 0 11 0 
11 0 10 0 11 0 11 0 11 0 10 0 11 0 11 0 
11 0 10 0 11 0 11 0 10 0 11 0 11 0 11 0 
10 0 11 0 11 0 10 0 11 0 11 0 11 0 10 0 
11 0 11 0 11 0 10 0 11 0 11 0 10 0 11 0 
11 0 11 0 10 0 11 0 11 0 10 0 11 0 11 0 
11 0 10 0 11 0 11 0 11 0 10 0 11 0 11 0 
10 0 11 0 11 0 11 0 10 0 11 0 11 0 10 0 
11 0 11 0 11 0 10 0 11 0 11 0 11 0 10 0 
11 0 11 0 10 0 11 0 11 0 11 0 10 0 11 0 
11 -1 10 1 11 0 11 0 100 AP
11 0 11 0 11 0 10 0 11 0 11 0 10 0 11 0 
11 0 11 0 10 0 11 0 11 0 11 0 10 0 11 0 
11 0 10 0 11 0 11 0 11 0 10 0 11 0 11 0 
10 0 11 0 11 0 11 0 10 0 11 0 11 0 11 0 
10 0 11 0 11 0 10 0 11 0 11 0 11 0 10 0 
11 0 11 0 10 0 11 0 11 0 11 0 10 0 11 0 
11 0 11 0 10 0 11 0 11 0 10 0 11 0 11 0 
11 0 10 0 11 0 11 0 10 0 11 0 11 0 11 0 
10 0 11 0 11 0 11 0 10 0 11 0 11 0 10 0 
11 0 11 0 11 0 10 0 11 0 11 0 10 0 11 0 
11 0 11 0 10 0 11 0 11 0 11 0 10 0 11 0 
11 0 10 0 11 0 11 0 11 0 10 0 11 0 11 0 
10 0 11 0 11 0 11 0 100 AP
11 0 11 0 10 0 11 0 11 0 11 0 10 0 11 0 
11 0 10 0 11 0 11 0 11 0 10 0 11 0 11 0 
10 0 11 0 11 0 11 0 10 0 11 0 11 0 11 0 
10 0 11 0 11 0 10 0 11 0 11 0 11 0 10 0 
11 0 11 0 10 0 11 0 11 0 11 0 10 0 11 0 
11 0 11 0 10 0 11 0 11 0 10 0 11 0 11 0 
11 0 10 0 11 0 11 0 10 0 11 0 11 0 11 0 
10 0 11 0 11 0 11 0 10 0 11 0 11 0 10 0 
11 0 11 0 11 0 10 0 11 0 11 0 10 0 11 0 
11 0 11 0 10 0 11 0 11 0 11 0 10 0 11 0 
11 0 10 0 11 0 11 0 11 0 10 0 11 0 11 0 
10 0 11 0 11 0 11 0 10 0 11 0 11 0 11 0 
10 0 11 0 11 0 10 0 100 AP
11 0 10 0 11 0 11 0 11 0 10 0 11 0 11 0 
10 0 11 0 11 0 11 0 10 0 11 0 11 0 10 0 
11 0 11 0 11 0 10 0 11 0 11 0 11 0 10 0 
11 0 11 0 10 0 11 0 11 0 11 0 10 0 11 0 
11 0 11 0 10 0 11 0 11 0 10 0 11 0 11 0 
11 0 10 0 11 0 11 0 10 0 11 0 11 0 11 0 
10 0 11 0 11 0 11 0 10 0 11 0 11 0 10 0 
11 0 11 0 11 0 10 0 11 0 11 0 10 0 11 0 
11 0 11 0 10 0 11 0 11 0 11 0 10 0 11 0 
11 0 10 0 11 0 11 0 11 0 10 0 11 0 11 0 
10 0 11 0 11 0 11 0 10 0 11 0 11 0 11 0 
10 0 11 0 11 0 10 0 11 0 11 0 11 0 10 0 
11 0 11 0 10 0 11 0 100 AP
10 0 11 0 11 0 11 0 10 0 11 0 11 0 10 0 
11 0 11 0 11 0 10 0 11 0 11 0 11 0 10 0 
11 0 11 0 10 0 11 0 11 0 11 0 10 0 11 0 
11 0 10 0 11 0 11 0 11 0 10 0 11 0 11 0 
11 0 10 0 11 0 11 0 10 0 11 0 11 0 11 0 
10 0 11 0 11 0 10 0 11 0 11 0 11 0 10 0 
11 0 11 0 11 0 10 0 11 0 11 0 10 0 11 0 
11 0 11 0 10 0 11 0 11 0 10 0 11 0 11 0 
11 0 10 0 11 0 11 0 11 0 10 0 11 0 11 0 
10 0 11 0 11 0 11 0 10 0 11 0 11 0 10 0 
11 0 11 0 11 0 10 0 11 0 11 0 11 0 10 0 
11 0 11 0 10 0 11 0 11 0 11 0 10 0 11 0 
11 0 10 0 11 0 11 0 100 AP
11 0 11 0 11 0 10 0 11 0 11 0 11 0 10 0 
11 0 11 0 10 0 11 0 11 0 11 0 10 0 11 0 
11 0 10 0 11 0 11 0 11 0 10 0 11 0 11 0 
11 0 10 0 11 0 11 0 10 0 11 0 11 0 11 0 
10 0 11 0 11 0 10 0 11 0 11 0 11 0 10 0 
11 0 11 0 11 0 10 0 11 0 11 0 10 0 11 0 
11 0 11 0 10 0 11 0 11 0 10 0 11 0 11 0 
11 0 10 0 11 0 11 0 11 0 10 0 11 0 11 0 
10 0 11 0 11 0 11 0 10 0 11 0 11 0 10 0 
11 0 11 0 11 0 10 0 11 0 11 0 11 0 10 0 
11 0 11 0 10 0 11 0 11 0 11 0 10 0 11 0 
11 0 10 0 11 0 11 0 11 0 10 0 11 0 11 0 
11 0 10 0 11 0 11 0 100 AP
11 0 11 0 10 0 11 0 11 0 11 0 10 0 11 0 
11 0 10 0 11 0 11 0 11 0 10 0 11 0 11 0 
11 0 10 0 11 0 11 0 10 0 11 0 11 0 11 0 
10 0 11 0 11 0 10 0 11 0 11 0 11 0 10 0 
11 0 11 0 11 0 10 0 11 0 11 0 10 0 11 0 
11 0 11 0 10 0 11 0 11 0 10 0 11 0 11 0 
11 0 10 0 11 0 11 0 11 0 10 0 11 0 11 0 
10 0 11 0 11 0 11 0 10 0 11 0 11 0 10 0 
11 0 11 0 11 0 10 0 11 0 11 0 11 0 10 0 
11 0 11 0 10 0 11 0 11 0 11 0 10 0 11 0 
11 0 10 0 11 0 11 0 11 0 10 0 11 0 11 0 
11 0 10 0 11 0 11 0 10 0 11 0 11 0 11 0 
10 0 11 0 11 0 10 0 100 AP
11 0 10 0 11 0 11 0 11 0 10 0 11 0 11 0 
10 0 11 0 11 0 11 0 10 0 11 0 11 0 11 0 
10 0 11 0 11 0 10 0 11 0 11 0 11 0 10 0 
11 0 11 0 10 0 11 0 11 0 11 0 10 0 11 0 
11 0 11 0 10 0 11 0 11 0 10 0 11 0 11 0 
11 0 10 0 11 0 11 0 10 0 11 0 11 0 11 0 
10 0 11 0 11 0 11 0 10 0 11 0 11 0 10 0 
11 0 11 0 11 0 10 0 11 0 11 0 10 0 11 0 
11 0 11 0 10 0 11 0 11 0 11 0 10 0 11 0 
11 0 10 0 11 0 11 0 11 0 10 0 11 0 11 0 
10 0 11 0 11 0 11 0 10 0 11 0 11 0 11 0 
10 0 11 0 11 0 10 0 11 0 11 0 11 0 10 0 
11 0 11 0 10 0 11 0 100 AP
-10 0 -11 0 -11 0 -11 0 -10 0 -11 0 -11 0 -11 0 
-10 0 -11 0 -11 0 -10 0 -11 0 -11 0 -11 0 -10 0 
-11 0 -11 0 -10 0 -11 0 -11 0 -11 0 -10 0 -11 0 
-11 0 -11 0 -10 0 -11 0 -11 0 -10 0 -11 0 -11 0 
-11 0 -10 0 -11 0 -11 0 -10 0 -11 0 -11 0 -11 0 
-10 0 -11 0 -11 0 -11 0 -10 0 -11 0 -11 0 -10 0 
-11 0 0 0 11 0 10 0 11 0 11 0 10 0 11 0 
11 0 11 0 10 0 11 0 11 0 11 0 10 0 11 0 
11 0 10 0 11 0 11 0 11 0 10 0 11 0 11 0 
10 0 11 0 11 0 11 0 10 0 11 0 11 0 11 0 
10 0 11 0 11 0 10 0 11 0 11 0 11 0 10 0 
11 0 11 0 10 0 11 0 11 0 11 0 10 0 11 0 
11 0 11 0 10 0 11 0 100 AP
-10 0 -11 0 -11 0 -10 0 -11 0 -11 0 -11 0 -10 0 
-11 0 -11 0 -10 0 -11 0 -11 0 -11 0 -10 0 -11 0 
-11 0 -11 0 -10 0 -11 0 -11 0 -10 0 -11 0 -11 0 
-11 0 -10 0 -11 0 -11 0 -10 0 -11 0 -11 0 -11 0 
-10 0 -11 0 -11 0 -11 0 -10 0 -11 0 -11 0 -10 0 
-11 0 -11 0 -11 0 -10 0 -11 0 -11 0 -10 0 -11 0 
-11 0 -11 0 -10 0 -11 0 -11 0 -11 0 -10 0 -11 0 
-11 0 -10 0 -11 0 -11 0 -11 0 -10 0 -11 0 -11 0 
-10 0 -11 0 -11 0 -11 0 -10 0 -11 0 -11 0 -11 0 
-10 0 -11 0 -11 0 -10 0 -11 0 -11 0 -11 0 -10 0 
-11 0 -11 0 -10 0 -11 0 -11 0 -11 0 -10 0 -11 0 
-11 0 -11 0 -10 0 -11 0 -11 0 -10 0 -11 0 -11 0 
-11 0 -10 0 -11 0 -11 0 100 AP
-11 0 -11 0 -10 0 -11 0 -11 0 -11 0 -10 0 -11 0 
-11 0 -10 0 -11 0 -11 0 -11 0 -10 0 -11 0 -11 0 
-11 0 -10 0 -11 0 -11 0 -10 0 -11 0 -11 0 -11 0 
-10 0 -11 0 -11 0 -10 0 -11 0 -11 0 -11 0 -10 0 
-11 0 -11 0 -11 0 -10 0 -11 0 -11 0 -10 0 -11 0 
-11 0 -11 0 -10 0 -11 0 -11 0 -10 0 -11 0 -11 0 
-11 0 -10 0 -11 0 -11 0 -11 0 -10 0 -11 0 -11 0 
-10 0 -11 0 -11 0 -11 0 -10 0 -11 0 -11 0 -10 0 
-11 0 -11 0 -11 0 -10 0 -11 0 -11 0 -11 0 -10 0 
-11 0 -11 0 -10 0 -11 0 -11 0 -11 0 -10 0 -11 0 
-11 0 -10 0 -11 0 -11 0 -11 0 -10 0 -11 0 -11 0 
-11 0 -10 0 -11 0 -11 0 -10 0 -11 0 -11 0 -11 0 
-10 0 -11 0 -11 0 -11 0 100 AP
-11 0 -10 0 -11 0 -11 0 -11 0 -10 0 -11 0 -11 0 
-11 0 -10 0 -11 0 -11 0 -10 0 -11 0 -11 0 -11 0 
-10 0 -11 0 -11 0 -10 0 -11 0 -11 0 -11 0 -10 0 
-11 0 -11 0 -11 0 -10 0 -11 0 -11 0 -10 0 -11 0 
-11 0 -11 0 -10 0 -11 0 -11 0 -10 0 -11 0 -11 0 
-11 0 -10 0 -11 0 -11 0 -11 0 -10 0 -11 0 -11 0 
-10 0 -11 0 -11 0 -11 0 -10 0 -11 0 -11 0 -10 0 
-11 0 -11 0 -11 0 -10 0 -11 0 -11 0 -11 0 -10 0 
-11 0 -11 0 -10 0 -11 0 -11 0 -11 0 -10 0 -11 0 
-11 0 -10 0 -11 0 -11 0 -11 0 -10 0 -11 0 -11 0 
-11 0 -10 0 -11 0 -11 0 -10 0 -11 0 -11 0 -11 0 
-10 0 -11 0 -11 0 -10 0 -11 0 -11 0 -11 0 -10 0 
-11 0 -11 0 -11 0 -10 0 100 AP
-11 0 -10 0 -11 0 -11 0 -10 0 -11 0 -11 0 -11 0 
-10 0 -11 0 -11 0 -10 0 -11 0 -11 0 -11 0 -10 0 
-11 0 -11 0 -11 0 -10 0 -11 0 -11 0 -10 0 -11 0 
-11 0 -11 0 -10 0 -11 0 -11 0 -10 0 -11 0 -11 0 
-11 0 -10 0 -11 0 -11 0 -11 0 -10 0 -11 0 -11 0 
-10 0 -11 0 -11 0 -11 0 -10 0 -11 0 -11 0 -10 0 
-11 0 -11 0 -11 0 -10 0 -11 0 -11 0 -11 0 -10 0 
-11 0 -11 0 -10 0 -11 0 -11 0 -11 0 -10 0 -11 0 
-11 0 -10 0 -11 0 -11 0 -11 0 -10 0 -11 0 -11 0 
-11 0 -10 0 -11 0 -11 0 -10 0 -11 0 -11 0 -11 0 
-10 0 -11 0 -11 0 -10 0 -11 0 -11 0 -11 0 -10 0 
-11 0 -11 0 -11 0 -10 0 -11 0 -11 0 -10 0 -11 0 
-11 0 -11 0 -10 0 -11 0 100 AP
-10 0 -11 0 -11 0 -10 0 -11 0 -11 0 -11 0 -10 0 
-11 0 -11 0 -10 0 -11 0 -11 0 -11 0 -10 0 -11 0 
-11 0 -11 0 -10 0 -11 0 -11 0 -10 0 -11 0 -11 0 
-11 0 -10 0 -11 0 -11 0 -10 0 -11 0 -11 0 -11 0 
-10 0 -11 0 -11 0 -11 0 -10 0 -11 0 -11 0 -10 0 
-11 0 -11 0 -11 0 -10 0 -11 0 -11 0 -10 0 -11 0 
-11 0 -11 0 -10 0 -11 0 -11 0 -11 0 -10 0 -11 0 
-11 0 -10 0 -11 0 -11 0 -11 0 -10 0 -11 0 -11 0 
-10 0 -11 0 -11 0 -11 0 -10 0 -11 0 -11 0 -11 0 
-10 0 -11 0 -11 0 -10 0 -11 0 -11 0 -11 0 -10 0 
-11 0 -11 0 -11 0 -10 0 -11 0 -11 0 -10 0 -11 0 
-11 0 -11 0 -10 0 -11 0 -11 0 -10 0 -11 0 -11 0 
-11 0 -10 0 -11 0 -11 0 100 AP
-11 0 -11 0 -10 0 -11 0 -11 0 -11 0 -10 0 -11 0 
-11 0 -11 0 -10 0 -11 0 -11 0 -10 0 -11 0 -11 0 
-11 0 -10 0 -11 0 -11 0 -10 0 -11 0 -11 0 -11 0 
-10 0 -11 0 -11 0 -11 0 -10 0 -11 0 -11 0 -10 0 
-11 0 -11 0 -11 0 -10 0 -11 0 -11 0 -10 0 -11 0 
-11 0 -11 0 -10 0 -11 0 -11 0 -11 0 -10 0 -11 0 
-11 0 -10 0 -11 0 -11 0 -11 0 -10 0 -11 0 -11 0 
-10 0 -11 0 -11 0 -11 0 -10 0 -11 0 -11 0 -11 0 
-10 0 -11 0 -11 0 -10 0 -11 0 -11 0 -11 0 -10 0 
-11 0 -11 0 -10 0 -11 0 -11 0 -11 0 -10 0 -11 0 
-11 0 -11 0 -10 0 -11 0 -11 0 -10 0 -11 0 -11 0 
-11 0 -10 0 -11 0 -11 0 -10 0 -11 0 -11 0 -11 0 
-10 0 -11 0 -11 0 -11 0 100 AP
-11 0 -11 0 -10 0 -11 0 -11 0 -10 0 -11 0 -11 0 
-11 0 -10 0 -11 0 -11 0 -10 0 -11 0 -11 0 -11 0 
-10 0 -11 0 -11 0 -11 0 -10 0 -11 0 -11 0 -10 0 
-11 0 -11 0 -11 0 -10 0 -11 0 -11 0 -10 0 -11 0 
-11 0 -11 0 -10 0 -11 0 -11 0 -11 0 -10 0 -11 0 
-11 0 -10 0 -11 0 -11 0 -11 0 -10 0 -11 0 -11 0 
-10 0 -11 0 -11 0 -11 0 -10 0 -11 0 -11 0 -11 0 
-10 0 -11 0 -11 0 -10 0 -11 0 -11 0 -11 0 -10 0 
-11 0 -11 0 -10 0 -11 0 -11 0 -11 0 -10 0 -11 0 
-11 0 -11 0 -10 0 -11 0 -11 0 -10 0 -11 0 -11 0 
-11 0 -10 0 -11 0 -11 0 -10 0 -11 0 -11 0 -11 0 
-10 0 -11 0 -11 0 -11 0 -10 0 -11 0 -11 0 -10 0 
-11 0 -11 0 -11 0 -10 0 100 AP
-11 0 -10 1 -11 -1 -11 0 -10 0 -11 0 -11 0 -11 0 
-10 0 -11 0 -11 0 -10 0 -11 0 -11 0 -11 0 -10 0 
-11 0 -11 0 -11 0 -10 0 -11 0 -11 0 -10 0 -11 0 
-11 0 -11 0 -10 0 -11 0 -11 0 -10 0 -11 0 -11 0 
-11 0 -10 0 -11 0 -11 0 -11 0 -10 0 -11 0 -11 0 
-10 0 -11 0 -11 0 -11 0 -10 0 -11 0 -11 0 -10 0 
-11 0 -11 0 -11 0 -10 0 -11 0 -11 0 -11 0 -10 0 
-11 0 -11 0 -10 0 -11 0 -11 0 -11 0 -10 0 -11 0 
-11 0 -10 0 -11 0 -11 0 -11 0 -10 0 -11 0 -11 0 
-11 0 -10 0 -11 0 -11 0 -10 0 -11 0 -11 0 -11 0 
-10 0 -11 0 -11 0 -11 0 -10 0 -11 0 -11 0 -10 0 
-11 0 -11 0 -11 0 -10 0 -11 0 -11 0 -10 0 -11 0 
-11 0 -11 0 -10 0 -11 0 100 AP
-10 1 -11 -1 -11 0 -10 0 -11 0 -11 0 -11 0 -10 0 
-11 0 -11 0 -11 0 -10 0 -11 0 -11 0 -10 0 -11 0 
-11 0 -11 0 -10 0 -11 2 -11 -2 -10 0 -11 0 -11 0 
-11 0 -10 0 -11 0 -11 0 -11 0 -10 0 -11 0 -11 0 
-10 0 -11 0 -11 0 -11 0 -10 0 -11 0 -11 0 -10 0 
-11 0 -11 0 -11 0 -10 0 -11 0 -11 0 -11 0 -10 0 
-11 0 -11 0 -10 0 -11 0 -11 0 -11 0 -10 0 -11 0 
-11 0 -10 0 -11 0 -11 0 -11 1 -10 -1 -11 0 -11 0 
-11 0 -10 0 -11 0 -11 0 -10 0 -11 0 -11 2 -11 -2 
-10 0 -11 0 -11 0 -10 0 -11 0 -11 0 -11 0 -10 0 
-11 0 -11 0 -11 0 -10 0 -11 0 -11 0 -10 0 -11 0 
-11 0 -11 0 -10 0 -11 0 -11 0 -10 0 -11 0 -11 0 
-11 0 -10 0 -11 0 -11 0 100 AP
-11 -1 -11 0 -11 0 -10 0 -11 0 -11 0 -10 0 -11 0 
-11 0 -11 0 -10 0 -11 0 -11 0 -10 0 -11 0 -11 0 
-11 0 -10 0 -11 0 -11 0 -11 0 -10 0 -11 1 -11 -1 
-10 0 -11 0 -11 0 -11 0 -10 1 -11 -1 -11 0 -10 2 
-11 -2 -11 0 -11 0 -10 0 -11 0 -11 0 -11 0 -10 0 
-11 0 -11 0 -10 0 -11 0 -11 0 -11 0 -10 0 -11 0 
-11 0 -10 0 -11 0 -11 0 -11 0 -10 0 -11 0 -11 0 
-11 0 -10 0 -11 0 -11 0 -10 0 -11 0 -11 0 -11 0 
-10 0 -11 0 -11 1 -10 -1 -11 0 -11 0 -11 0 -10 0 
-11 0 -11 0 -11 0 -10 0 -11 0 -11 0 -10 0 -11 0 
-11 0 -11 0 -10 0 -11 0 -11 0 -10 0 -11 0 -11 0 
-11 0 -10 0 -11 0 -11 0 -11 0 -10 0 -11 0 -11 0 
-10 0 -11 0 -11 0 -11 0 100 AP
-11 -1 -11 0 -10 1 -11 0 -11 0 -10 -1 -11 1 -11 1 
-11 1 -10 -2 -11 2 -11 -3 -10 0 -11 2 -11 -2 -11 0 
-10 0 -11 2 -11 -1 -11 0 -10 1 -11 -1 -11 1 -10 2 
-11 -3 -11 -1 -11 0 -10 2 -11 -1 -11 -1 -10 2 -11 -2 
-11 0 -11 3 -10 0 -11 -3 -11 0 -11 2 -10 -2 -11 0 
-11 0 -10 0 -11 0 -11 0 -11 0 -10 0 -11 0 -11 2 
-10 -1 -11 0 -11 0 -11 0 -10 -1 -11 3 -11 -1 -11 -2 
-10 2 -11 -1 -11 -1 -10 1 -11 -1 -11 0 -11 3 -10 -3 
-11 2 -11 -2 -11 0 -10 0 -11 0 -11 1 -10 -1 -11 0 
-11 0 -11 0 -10 1 -11 -1 -11 0 -10 0 -11 0 -11 0 
-11 0 -10 1 -11 -1 -11 0 -11 0 -10 0 -11 0 -11 0 
-10 0 -11 2 -11 -2 -11 0 -10 0 -11 0 -11 1 -10 0 
-11 -1 -11 0 -11 0 -10 1 100 AP
-11 32 -10 40 -11 33 -11 36 -10 31 -11 38 -11 30 -11 16 
-10 25 -11 25 -11 18 -11 13 -10 14 -11 13 -11 17 -10 14 
-11 14 -11 14 -11 8 -10 5 -11 17 -11 16 -10 16 -11 4 
-11 10 -11 -4 -10 15 -11 10 -11 16 -11 7 -10 -2 -11 7 
-11 1 -10 11 -11 8 -11 -9 -11 4 -10 2 -11 6 -11 0 
-10 1 -11 -7 -11 4 -11 3 -10 1 -11 -1 -11 2 -11 -4 
-10 -2 -11 -1 -11 0 -10 0 -11 0 -11 4 -11 1 -10 -5 
-11 3 -11 3 -10 -3 -11 4 -11 -3 -11 -5 -10 0 -11 -2 
-11 3 -11 -3 -10 5 -11 -4 -11 1 -10 -1 -11 2 -11 -1 
-11 -3 -10 0 -11 -2 -11 2 -10 -1 -11 0 -11 -1 -11 3 
-10 1 -11 -1 -11 0 -11 0 -10 2 -11 -1 -11 -3 -10 1 
-11 0 -11 2 -11 -1 -10 -1 -11 -1 -11 4 -10 -4 -11 -1 
-11 4 -11 -2 -10 -2 -11 1 100 AP
PP
DO
/c11 { 1.000000 0.000000 1.000000 sr} bdef
c11
11 0 10 0 11 0 11 0 10 0 11 0 11 0 11 0 
10 0 11 0 11 0 11 0 10 0 11 0 11 0 10 0 
11 0 11 0 11 0 10 0 11 0 11 0 10 0 11 0 
11 0 11 0 10 0 11 0 11 0 11 0 10 0 11 0 
11 0 10 0 11 0 11 0 11 0 10 0 11 0 11 0 
10 0 11 0 11 0 11 0 10 0 11 0 11 0 11 0 
10 0 11 0 11 0 10 0 11 0 11 0 11 0 10 0 
11 0 11 0 10 0 11 0 11 0 11 0 10 0 11 0 
11 0 11 0 10 0 11 0 11 0 10 0 11 0 11 0 
11 0 10 0 11 0 11 0 10 0 11 0 11 0 11 0 
10 0 11 0 11 0 11 0 10 0 11 0 11 0 10 0 
11 0 11 0 11 0 10 0 11 0 11 0 10 0 11 0 
11 0 11 0 10 0 11 0 11 0 11 0 10 0 11 0 
11 0 10 0 11 0 11 0 11 0 10 0 11 0 11 0 
10 0 11 0 11 0 11 0 10 0 11 0 11 0 11 0 
10 0 11 0 11 0 10 0 11 0 11 0 11 0 10 0 
11 0 11 0 10 0 11 0 11 0 11 0 10 0 11 0 
11 0 11 0 10 0 11 0 11 0 10 0 11 0 11 0 
11 0 10 0 11 0 11 0 10 0 11 0 11 0 11 0 
10 0 11 0 11 0 11 0 10 0 11 0 11 0 10 0 
11 0 11 0 11 0 10 0 11 0 11 0 11 0 10 0 
11 0 11 0 10 0 11 0 11 0 11 0 10 0 11 0 
11 0 10 0 11 0 11 0 11 0 10 0 11 0 11 0 
11 0 10 0 11 0 11 0 10 0 11 0 11 0 11 0 
10 0 11 0 11 0 10 0 11 0 11 0 11 0 10 0 
11 0 11 0 11 0 10 0 11 0 11 0 10 0 11 0 
11 0 11 0 10 0 11 0 11 0 10 0 11 0 11 0 
11 0 10 0 11 0 11 0 11 0 10 0 11 0 11 0 
10 0 11 0 11 0 11 0 10 0 11 0 11 0 10 0 
11 0 11 0 11 0 10 0 11 0 11 0 11 0 10 0 
11 0 11 0 10 0 11 0 11 0 11 0 10 0 11 0 
11 0 10 0 11 0 11 0 11 0 10 0 11 0 11 0 
11 0 10 0 11 0 11 0 10 0 11 0 11 0 11 0 
10 0 11 0 11 0 10 0 11 0 11 0 11 0 10 0 
11 0 11 0 11 0 10 0 11 0 11 0 10 0 11 0 
11 0 11 0 10 0 11 0 11 0 10 0 11 0 11 0 
11 0 10 0 11 0 11 0 11 0 10 0 11 0 11 0 
10 0 11 0 11 0 12439 6841 300 MP stroke
11 0 10 0 11 0 11 0 10 0 11 0 11 0 11 0 
10 0 11 0 11 0 11 0 10 0 11 0 11 0 10 0 
11 0 11 0 11 0 10 0 11 0 11 0 10 0 11 0 
11 0 11 0 10 0 11 0 11 0 11 0 10 0 11 0 
11 0 10 0 11 0 11 0 11 0 10 0 11 0 11 0 
10 0 11 0 11 0 11 0 10 0 11 0 11 0 11 0 
10 0 11 0 11 0 10 0 11 0 11 0 11 0 10 0 
11 0 11 0 10 0 11 0 11 0 11 0 10 0 11 0 
11 0 11 0 10 0 11 0 11 0 10 0 11 0 11 0 
11 0 10 0 11 0 11 0 10 0 11 0 11 0 11 0 
10 0 11 0 11 0 11 0 10 0 11 0 11 0 10 0 
11 0 11 0 11 0 10 0 11 0 11 0 10 0 11 0 
11 0 11 0 10 0 11 0 11 0 11 0 10 0 11 0 
11 0 10 0 11 0 11 0 11 0 10 0 11 0 11 0 
10 0 11 0 11 0 11 0 10 0 11 0 11 0 11 0 
10 0 11 0 11 0 10 0 11 0 11 0 11 0 10 0 
11 0 11 0 10 0 11 0 11 0 11 0 10 0 11 0 
11 0 11 0 10 0 11 0 11 0 10 0 11 0 11 0 
11 0 10 0 11 0 11 0 10 0 11 0 11 0 11 0 
10 0 11 0 11 0 11 0 10 0 11 0 11 0 10 0 
11 0 11 0 11 0 10 0 11 0 11 0 10 0 11 0 
11 0 11 0 10 0 11 0 11 0 11 0 10 0 11 0 
11 0 10 0 11 0 11 0 11 0 10 0 11 0 11 0 
11 0 10 0 11 0 11 0 10 0 11 0 11 0 11 0 
10 0 11 0 11 0 10 0 11 0 11 0 11 0 10 0 
11 0 11 0 11 0 10 0 11 0 11 0 10 0 11 0 
11 0 11 0 10 0 11 0 11 0 10 0 11 0 11 0 
11 0 10 0 11 0 11 0 11 0 10 0 11 0 11 0 
10 0 11 0 11 0 11 0 10 0 11 0 11 0 10 0 
11 0 11 0 11 0 10 0 11 0 11 0 11 0 10 0 
11 0 11 0 10 0 11 0 11 0 11 0 10 0 11 0 
11 0 10 0 11 0 11 0 11 0 10 0 11 0 11 0 
11 0 10 0 11 0 11 0 10 0 11 0 11 0 11 0 
10 0 11 0 11 0 10 0 11 0 11 0 11 0 10 0 
11 0 11 0 11 0 10 0 11 0 11 0 10 0 11 0 
11 0 11 0 10 0 11 0 11 0 10 0 11 0 11 0 
11 0 10 0 11 0 11 0 11 0 10 0 11 0 11 0 
10 0 11 0 11 0 9233 6841 300 MP stroke
11 0 10 0 11 0 11 0 10 0 11 0 11 0 11 0 
10 0 11 0 11 0 11 0 10 0 11 0 11 0 10 0 
11 0 11 0 11 0 10 0 11 0 11 0 10 0 11 0 
11 0 11 0 10 0 11 0 11 0 11 0 10 0 11 0 
11 0 10 0 11 0 11 0 11 0 10 0 11 0 11 0 
10 0 11 0 11 0 11 0 10 0 11 0 11 0 11 0 
10 0 11 0 11 0 10 0 11 0 11 0 11 0 10 0 
11 0 11 0 10 0 11 0 11 0 11 0 10 0 11 0 
11 0 11 0 10 0 11 0 11 0 10 0 11 0 11 0 
11 0 10 0 11 0 11 0 10 0 11 0 11 0 11 0 
10 0 11 0 11 0 11 0 10 0 11 0 11 0 10 0 
11 0 11 0 11 0 10 0 11 0 11 0 10 0 11 0 
11 0 11 0 10 0 11 0 11 0 11 0 10 0 11 0 
11 0 10 0 11 0 11 0 11 0 10 0 11 0 11 0 
10 0 11 0 11 0 11 0 10 0 11 0 11 0 11 0 
10 0 11 0 11 0 10 0 11 0 11 0 11 0 10 0 
11 0 11 0 10 0 11 0 11 0 11 0 10 0 11 0 
11 0 11 0 10 0 11 0 11 0 10 0 11 0 11 0 
11 0 10 0 11 0 11 0 10 0 11 0 11 0 11 0 
10 0 11 0 11 0 11 0 10 0 11 0 11 0 10 0 
11 0 11 0 11 0 10 0 11 0 11 0 10 0 11 0 
11 0 11 0 10 0 11 0 11 0 11 0 10 0 11 0 
11 0 10 0 11 0 11 0 11 0 10 0 11 0 11 0 
11 0 10 0 11 0 11 0 10 0 11 0 11 0 11 0 
10 0 11 0 11 0 10 0 11 0 11 0 11 0 10 0 
11 0 11 0 11 0 10 0 11 0 11 0 10 0 11 0 
11 0 11 0 10 0 11 0 11 0 10 0 11 0 11 0 
11 0 10 0 11 0 11 0 11 0 10 0 11 0 11 0 
10 0 11 0 11 0 11 0 10 0 11 0 11 0 10 0 
11 0 11 0 11 0 10 0 11 0 11 0 11 0 10 0 
11 0 11 0 10 0 11 0 11 0 11 0 10 0 11 0 
11 0 10 0 11 0 11 0 11 0 10 0 11 0 11 0 
11 0 10 0 11 0 11 0 10 0 11 0 11 0 11 0 
10 0 11 0 11 0 10 0 11 0 11 0 11 0 10 0 
11 0 11 0 11 0 10 0 11 0 11 0 10 0 11 0 
11 0 11 0 10 0 11 0 11 0 10 0 11 0 11 0 
11 0 10 0 11 0 11 0 11 0 10 0 11 0 11 0 
10 0 11 0 11 0 6027 6841 300 MP stroke
11 0 10 0 11 0 11 0 10 0 11 0 11 0 11 0 
10 0 11 0 11 0 11 0 10 0 11 0 11 0 10 0 
11 0 11 0 11 0 10 0 11 0 11 0 10 0 11 0 
11 0 11 0 10 0 11 0 11 0 11 0 10 0 11 0 
11 0 10 0 11 0 11 0 11 0 10 0 11 0 11 0 
10 0 11 0 11 0 11 0 10 0 11 0 11 0 11 0 
10 0 11 0 11 0 10 0 11 0 11 0 11 0 10 0 
11 0 11 0 10 0 11 0 11 0 11 0 10 0 11 0 
11 0 11 0 10 0 11 0 11 0 10 0 11 0 11 0 
11 0 10 0 11 0 11 0 10 0 11 0 11 0 11 0 
10 0 11 0 11 0 11 0 10 0 11 0 11 0 10 0 
11 0 11 0 11 0 10 0 11 0 11 0 10 0 11 0 
11 0 11 0 10 0 11 0 11 0 11 0 10 0 11 0 
11 0 10 0 11 0 11 0 11 0 10 0 11 0 11 0 
10 0 11 0 11 0 11 0 10 0 11 0 11 0 11 0 
10 0 11 0 11 0 10 0 11 0 11 0 11 0 10 0 
11 0 11 0 10 0 11 0 11 0 11 0 10 0 11 0 
11 0 11 0 10 0 11 0 11 0 10 0 11 0 11 0 
11 0 10 0 11 0 11 0 10 0 11 0 11 0 11 0 
10 0 11 0 11 0 11 0 10 0 11 0 11 0 10 0 
11 0 11 0 11 0 10 0 11 0 11 0 10 0 11 0 
11 0 11 0 10 0 11 0 11 0 11 0 10 0 11 0 
11 0 10 0 11 0 11 0 11 0 10 0 11 0 11 0 
10 0 11 0 11 0 11 0 10 0 11 0 11 0 11 0 
10 0 11 0 11 0 10 0 11 0 11 0 11 0 10 0 
11 0 11 0 11 0 10 0 11 0 11 0 10 0 11 0 
11 0 11 0 10 0 11 0 11 0 10 0 11 0 11 0 
11 0 10 0 11 0 11 0 11 0 10 0 11 0 11 0 
10 0 11 0 11 0 11 0 10 0 11 0 11 0 10 0 
11 0 11 0 11 0 10 0 11 0 11 0 11 0 10 0 
11 0 11 0 10 0 11 0 11 0 11 0 10 0 11 0 
11 0 10 0 11 0 11 0 11 0 10 0 11 0 11 0 
11 0 10 0 11 0 11 0 10 -1 11 0 11 1 11 0 
10 0 11 -1 11 0 10 1 11 0 11 -1 11 1 10 -1 
11 1 11 0 11 0 10 -1 11 1 11 0 10 -1 11 0 
11 0 11 0 10 -1 11 -1 11 0 10 3 11 -2 11 1 
11 -1 10 -1 11 -3 11 -1 11 2 10 0 11 0 11 1 
10 0 11 -2 11 3 2821 6844 300 MP stroke
11 -5 10 2 11 1 11 1 10 -5 11 -3 11 -11 11 2 
10 1 11 3 11 -9 11 2 10 -10 11 -7 11 -2 10 -8 
11 -8 11 14 11 -14 10 -14 11 -1 11 -8 10 -2 11 -13 
11 -19 11 -7 10 -18 11 8 11 -12 11 -12 10 -12 11 -14 
11 -18 10 -11 11 -12 11 -5 11 -7 10 -14 11 -19 11 -16 
10 -14 11 -16 11 -12 11 -19 10 -24 11 -15 11 -15 11 -32 
10 -24 11 -31 11 -23 10 -35 11 -26 2253 7412 54 MP stroke
gr

24 w
c11
DO
0 sg
7717 8534 mt 
(Iterations) s
 689 6063 mt  -90 rotate
(Population size) s
90 rotate
%%IncludeResource: font Helvetica
/Helvetica /WindowsLatin1Encoding 120 FMSR

2231 7488 mt 
( ) s
15635  692 mt 
( ) s
SO
6 w
1 sg
0 1444 2723 0 0 -1444 12805 5203 4 MP
PP
-2723 0 0 1444 2723 0 0 -1444 12805 5203 5 MP stroke
4 w
DO
SO
6 w
0 sg
12805 3759 mt 15528 3759 L
12805 5203 mt 15528 5203 L
15528 5203 mt 15528 3759 L
12805 5203 mt 12805 3759 L
12805 5203 mt 15528 5203 L
12805 5203 mt 12805 3759 L
12805 3759 mt 15528 3759 L
12805 5203 mt 15528 5203 L
15528 5203 mt 15528 3759 L
12805 5203 mt 12805 3759 L
%%IncludeResource: font Helvetica
/Helvetica /WindowsLatin1Encoding 600 FMSR

13295 4343 mt 
(GC-AIS) s
gs 12805 3759 2724 1445 rc
DA
24 w
c9
377 0 12880 4130 2 MP stroke
SO
gr

24 w
c9
0 sg
13295 5044 mt 
(NSGAII) s
gs 12805 3759 2724 1445 rc
DO
c11
377 0 12880 4831 2 MP stroke
SO
6 w
gr

6 w
c11

end %%Color Dict

eplot
%%EndObject

epage
end

showpage

%%Trailer
%%EOF
