%!PS-Adobe-3.0 EPSF-3.0
%%Creator: MATLAB, The MathWorks, Inc. Version 8.2.0.701 (R2013b). Operating System: Microsoft Windows 8.
%%Title: C:\Users\Ayush\Desktop\Thesis\Ch1images\popmodkp\pop7503.eps
%%CreationDate: 06/17/2016  15:44:02
%%DocumentNeededFonts: Helvetica
%%DocumentProcessColors: Cyan Magenta Yellow Black
%%LanguageLevel: 2
%%Pages: 1
%%BoundingBox:  -422    59  1019   782
%%EndComments

%%BeginProlog
% MathWorks dictionary
/MathWorks 160 dict begin
% definition operators
/bdef {bind def} bind def
/ldef {load def} bind def
/xdef {exch def} bdef
/xstore {exch store} bdef
% operator abbreviations
/c  /clip ldef
/cc /concat ldef
/cp /closepath ldef
/gr /grestore ldef
/gs /gsave ldef
/mt /moveto ldef
/np /newpath ldef
/cm /currentmatrix ldef
/sm /setmatrix ldef
/rm /rmoveto ldef
/rl /rlineto ldef
/s {show newpath} bdef
/sc {setcmykcolor} bdef
/sr /setrgbcolor ldef
/sg /setgray ldef
/w /setlinewidth ldef
/j /setlinejoin ldef
/cap /setlinecap ldef
/rc {rectclip} bdef
/rf {rectfill} bdef
% page state control
/pgsv () def
/bpage {/pgsv save def} bdef
/epage {pgsv restore} bdef
/bplot /gsave ldef
/eplot {stroke grestore} bdef
% orientation switch
/portraitMode 0 def /landscapeMode 1 def /rotateMode 2 def
% coordinate system mappings
/dpi2point 0 def
% font control
/FontSize 0 def
/FMS {/FontSize xstore findfont [FontSize 0 0 FontSize neg 0 0]
  makefont setfont} bdef
/ISOLatin1Encoding where {pop /WindowsLatin1Encoding 256 array bdef
ISOLatin1Encoding WindowsLatin1Encoding copy pop
/.notdef/.notdef/quotesinglbase/florin/quotedblbase/ellipsis/dagger
/daggerdbl/circumflex/perthousand/Scaron/guilsinglleft/OE/.notdef/.notdef
/.notdef/.notdef/quoteleft/quoteright/quotedblleft/quotedblright/bullet
/endash/emdash/tilde/trademark/scaron/guilsinglright/oe/.notdef/.notdef
/Ydieresis WindowsLatin1Encoding 128 32 getinterval astore pop}
{/WindowsLatin1Encoding StandardEncoding bdef} ifelse
/reencode {exch dup where {pop load} {pop StandardEncoding} ifelse
  exch dup 3 1 roll findfont dup length dict begin
  { 1 index /FID ne {def}{pop pop} ifelse } forall
  /Encoding exch def currentdict end definefont pop} bdef
/isroman {findfont /CharStrings get /Agrave known} bdef
/FMSR {3 1 roll 1 index dup isroman {reencode} {pop pop} ifelse
  exch FMS} bdef
/csm {1 dpi2point div -1 dpi2point div scale neg translate
 dup landscapeMode eq {pop -90 rotate}
  {rotateMode eq {90 rotate} if} ifelse} bdef
% line types: solid, dotted, dashed, dotdash
/SO { [] 0 setdash } bdef
/DO { [.5 dpi2point mul 4 dpi2point mul] 0 setdash } bdef
/DA { [6 dpi2point mul] 0 setdash } bdef
/DD { [.5 dpi2point mul 4 dpi2point mul 6 dpi2point mul 4
  dpi2point mul] 0 setdash } bdef
% macros for lines and objects
/L {lineto stroke} bdef
/MP {3 1 roll moveto 1 sub {rlineto} repeat} bdef
/AP {{rlineto} repeat} bdef
/PDlw -1 def
/W {/PDlw currentlinewidth def setlinewidth} def
/PP {closepath eofill} bdef
/DP {closepath stroke} bdef
/MR {4 -2 roll moveto dup  0 exch rlineto exch 0 rlineto
  neg 0 exch rlineto closepath} bdef
/FR {MR stroke} bdef
/PR {MR fill} bdef
/L1i {{currentfile picstr readhexstring pop} image} bdef
/tMatrix matrix def
/MakeOval {newpath tMatrix currentmatrix pop translate scale
0 0 1 0 360 arc tMatrix setmatrix} bdef
/FO {MakeOval stroke} bdef
/PO {MakeOval fill} bdef
/PD {currentlinewidth 2 div 0 360 arc fill
   PDlw -1 eq not {PDlw w /PDlw -1 def} if} def
/FA {newpath tMatrix currentmatrix pop translate scale
  0 0 1 5 -2 roll arc tMatrix setmatrix stroke} bdef
/PA {newpath tMatrix currentmatrix pop	translate 0 0 moveto scale
  0 0 1 5 -2 roll arc closepath tMatrix setmatrix fill} bdef
/FAn {newpath tMatrix currentmatrix pop translate scale
  0 0 1 5 -2 roll arcn tMatrix setmatrix stroke} bdef
/PAn {newpath tMatrix currentmatrix pop translate 0 0 moveto scale
  0 0 1 5 -2 roll arcn closepath tMatrix setmatrix fill} bdef
/vradius 0 def /hradius 0 def /lry 0 def
/lrx 0 def /uly 0 def /ulx 0 def /rad 0 def
/MRR {/vradius xdef /hradius xdef /lry xdef /lrx xdef /uly xdef
  /ulx xdef newpath tMatrix currentmatrix pop ulx hradius add uly
  vradius add translate hradius vradius scale 0 0 1 180 270 arc 
  tMatrix setmatrix lrx hradius sub uly vradius add translate
  hradius vradius scale 0 0 1 270 360 arc tMatrix setmatrix
  lrx hradius sub lry vradius sub translate hradius vradius scale
  0 0 1 0 90 arc tMatrix setmatrix ulx hradius add lry vradius sub
  translate hradius vradius scale 0 0 1 90 180 arc tMatrix setmatrix
  closepath} bdef
/FRR {MRR stroke } bdef
/PRR {MRR fill } bdef
/MlrRR {/lry xdef /lrx xdef /uly xdef /ulx xdef /rad lry uly sub 2 div def
  newpath tMatrix currentmatrix pop ulx rad add uly rad add translate
  rad rad scale 0 0 1 90 270 arc tMatrix setmatrix lrx rad sub lry rad
  sub translate rad rad scale 0 0 1 270 90 arc tMatrix setmatrix
  closepath} bdef
/FlrRR {MlrRR stroke } bdef
/PlrRR {MlrRR fill } bdef
/MtbRR {/lry xdef /lrx xdef /uly xdef /ulx xdef /rad lrx ulx sub 2 div def
  newpath tMatrix currentmatrix pop ulx rad add uly rad add translate
  rad rad scale 0 0 1 180 360 arc tMatrix setmatrix lrx rad sub lry rad
  sub translate rad rad scale 0 0 1 0 180 arc tMatrix setmatrix
  closepath} bdef
/FtbRR {MtbRR stroke } bdef
/PtbRR {MtbRR fill } bdef
/stri 6 array def /dtri 6 array def
/smat 6 array def /dmat 6 array def
/tmat1 6 array def /tmat2 6 array def /dif 3 array def
/asub {/ind2 exch def /ind1 exch def dup dup
  ind1 get exch ind2 get sub exch } bdef
/tri_to_matrix {
  2 0 asub 3 1 asub 4 0 asub 5 1 asub
  dup 0 get exch 1 get 7 -1 roll astore } bdef
/compute_transform {
  dmat dtri tri_to_matrix tmat1 invertmatrix 
  smat stri tri_to_matrix tmat2 concatmatrix } bdef
/ds {stri astore pop} bdef
/dt {dtri astore pop} bdef
/db {2 copy /cols xdef /rows xdef mul dup 3 mul string
  currentfile 
  3 index 0 eq {/ASCIIHexDecode filter}
  {/ASCII85Decode filter 3 index 2 eq {/RunLengthDecode filter} if }
  ifelse exch readstring pop
  dup 0 3 index getinterval /rbmap xdef
  dup 2 index dup getinterval /gbmap xdef
  1 index dup 2 mul exch getinterval /bbmap xdef pop pop}bdef
/it {gs np dtri aload pop moveto lineto lineto cp c
  cols rows 8 compute_transform 
  rbmap gbmap bbmap true 3 colorimage gr}bdef
/il {newpath moveto lineto stroke}bdef
currentdict end def
%%EndProlog

%%BeginSetup
MathWorks begin

0 cap

end
%%EndSetup

%%Page: 1 1
%%BeginPageSetup
%%PageBoundingBox:  -422    59  1019   782
MathWorks begin
bpage
%%EndPageSetup

%%BeginObject: obj1
bplot

/dpi2point 12 def
portraitMode -5064 9384 csm

    0     0 17294  8671 rc
88 dict begin %Colortable dictionary
/c0 { 0.000000 0.000000 0.000000 sr} bdef
/c1 { 1.000000 1.000000 1.000000 sr} bdef
/c2 { 0.900000 0.000000 0.000000 sr} bdef
/c3 { 0.000000 0.820000 0.000000 sr} bdef
/c4 { 0.000000 0.000000 0.800000 sr} bdef
/c5 { 0.910000 0.820000 0.320000 sr} bdef
/c6 { 1.000000 0.260000 0.820000 sr} bdef
/c7 { 0.000000 0.820000 0.820000 sr} bdef
c0
1 j
1 sg
   0    0 17295 8672 rf
6 w
0 6795 13402 0 0 -6795 2248 7445 4 MP
PP
-13402 0 0 6795 13402 0 0 -6795 2248 7445 5 MP stroke
4 w
DO
SO
6 w
0 sg
2248 7445 mt 15650 7445 L
2248 7445 mt 2248  650 L
2248 7445 mt 2248 7310 L
%%IncludeResource: font Helvetica
/Helvetica /WindowsLatin1Encoding 600 FMSR

2082 8037 mt 
(0) s
4258 7445 mt 4258 7310 L
3758 8037 mt 
(500) s
6268 7445 mt 6268 7310 L
5601 8037 mt 
(1000) s
8278 7445 mt 8278 7310 L
7611 8037 mt 
(1500) s
10288 7445 mt 10288 7310 L
9621 8037 mt 
(2000) s
12298 7445 mt 12298 7310 L
11631 8037 mt 
(2500) s
14308 7445 mt 14308 7310 L
13641 8037 mt 
(3000) s
2248 7445 mt 2382 7445 L
1880 7668 mt 
(0) s
2248 5746 mt 2382 5746 L
1213 5969 mt 
(500) s
2248 4047 mt 2382 4047 L
 879 4270 mt 
(1000) s
2248 2348 mt 2382 2348 L
 879 2571 mt 
(1500) s
2248  650 mt 2382  650 L
 879  873 mt 
(2000) s
gs 2248 650 13404 6796 rc
/c8 { 1.000000 0.800000 0.800000 sr} bdef
c8
5 -13 4 0 4 -3 4 0 4 -11 4 -3 4 -1 4 2 
4 -1 4 -1 4 -23 4 -11 4 8 4 -3 4 -14 4 9 
4 -6 4 -8 4 6 4 -8 4 -15 4 -9 4 5 4 9 
4 -2 4 0 4 -4 4 2 4 -5 4 9 4 -17 4 3 
4 -1 4 -14 4 5 4 -7 4 5 4 -4 4 0 4 2 
4 -11 4 -10 4 0 4 2 4 18 4 -4 4 -3 4 3 
4 -13 4 -8 5 -9 4 -4 4 -2 4 2 4 -17 4 -1 
4 -6 4 -2 4 -5 4 -5 4 -4 4 3 4 -2 4 0 
4 2 4 -1 4 -7 4 0 4 -3 4 -10 4 1 4 -2 
4 -4 4 -3 4 -5 4 2 4 3 4 -11 4 -4 4 3 
4 -7 4 11 4 -10 4 -4 4 1 4 -10 4 -6 4 21 
4 -30 4 -10 4 -6 4 -4 4 -2 4 -11 4 -5 4 -10 
4 0 4 -12 4 0 2252 7442 100 MP
5 -1 4 12 4 -5 4 -3 4 1 4 -8 4 5 4 -13 
4 7 4 -4 4 -6 4 -7 4 -6 4 0 4 2 4 -5 
4 -3 4 -7 4 18 4 7 4 -1 4 -1 4 -17 4 -6 
4 -3 4 4 4 -9 4 -7 4 1 4 10 4 -5 4 1 
4 -14 4 -6 4 8 4 19 4 -14 4 -8 4 -11 4 -15 
4 7 4 -5 4 -2 4 -4 4 0 4 -7 4 -4 4 0 
4 -7 4 -3 5 -3 4 4 4 10 4 6 4 1 4 -6 
4 -1 4 3 4 -3 4 3 4 2 4 10 4 3 4 -12 
4 0 4 -2 4 -11 4 -12 4 -7 4 -3 4 -13 4 -4 
4 -11 4 -13 4 3 4 -11 4 0 4 2 4 7 4 5 
4 -11 4 -2 4 -10 4 9 4 -8 4 -5 4 -7 4 9 
4 -2 4 -3 4 -8 4 -11 4 13 4 1 4 -9 4 8 
4 3 4 -1 4 2 4 -8 100 AP
4 -2 5 -3 4 -3 4 -3 4 3 4 3 4 5 4 0 
4 -8 4 0 4 3 4 -10 4 3 4 -3 4 -10 4 -5 
4 -16 4 -7 4 -1 4 8 4 -3 4 1 4 -5 4 5 
4 -1 4 4 4 -2 4 -11 4 10 4 8 4 -4 4 0 
4 -5 4 20 4 -11 4 -8 4 -8 4 -5 4 -2 4 -2 
4 -8 4 3 4 -1 4 2 4 -1 4 -10 4 11 4 -2 
4 -6 4 -3 4 -6 5 -10 4 -1 4 10 4 -6 4 2 
4 -4 4 2 4 -8 4 -10 4 -7 4 4 4 20 4 -6 
4 0 4 10 4 -6 4 -13 4 -13 4 -3 4 -7 4 -8 
4 -2 4 -3 4 6 4 3 4 3 4 -12 4 -9 4 -10 
4 -9 4 0 4 -5 4 3 4 -1 4 -5 4 -17 4 2 
4 -3 4 10 4 3 4 6 4 -6 4 4 4 -15 4 -2 
4 -1 4 -11 4 -1 4 3 100 AP
4 -12 5 0 4 -3 4 -3 4 2 4 -2 4 -10 4 14 
4 -5 4 14 4 -7 4 -4 4 -1 4 -4 4 3 4 -3 
4 -7 4 0 4 3 4 -10 4 10 4 -15 4 -8 4 9 
4 -12 4 6 4 -5 4 1 4 -6 4 0 4 9 4 -2 
4 -15 4 -7 4 -3 4 0 4 -14 4 -3 4 4 4 -3 
4 -2 4 12 4 0 4 -4 4 -13 4 5 4 9 4 -2 
4 -16 4 -11 4 14 5 -10 4 -2 4 -6 4 9 4 1 
4 1 4 -11 4 -4 4 -5 4 -4 4 -9 4 -3 4 -2 
4 5 4 -5 4 -3 4 5 4 -1 4 0 4 -5 4 -1 
4 -7 4 -4 4 -8 4 -6 4 -7 4 -8 4 -1 4 10 
4 6 4 5 4 14 4 -10 4 -8 4 -7 4 -3 4 -11 
4 -3 4 -9 4 4 4 1 4 2 4 -3 4 -3 4 1 
4 0 4 -6 4 -19 4 7 100 AP
4 -12 4 -6 5 -15 4 -5 4 -6 4 2 4 6 4 15 
4 -10 4 5 4 -2 4 -10 4 -7 4 -3 4 -8 4 2 
4 -5 4 -14 4 1 4 -6 4 3 4 14 4 -1 4 -6 
4 -2 4 7 4 3 4 -1 4 -3 4 -1 4 1 4 -4 
4 -12 4 4 4 -12 4 10 4 -11 4 -1 4 4 4 -2 
4 1 4 1 4 13 4 -3 4 -8 4 -5 4 -12 4 2 
4 3 4 -2 4 -2 4 -9 5 -4 4 -1 4 0 4 9 
4 2 4 -5 4 -6 4 -8 4 15 4 6 4 -4 4 -6 
4 -2 4 -9 4 -2 4 -13 4 5 4 -6 4 8 4 -1 
4 -3 4 3 4 12 4 -7 4 -7 4 -9 4 -15 4 -1 
4 -2 4 -8 4 -2 4 5 4 -14 4 4 4 4 4 -8 
4 -17 4 -1 4 -9 4 2 4 -3 4 2 4 -3 4 1 
4 7 4 14 4 -7 4 -1 100 AP
4 -10 4 2 5 2 4 5 4 -6 4 -2 4 -6 4 2 
4 -5 4 -2 4 -4 4 -7 4 4 4 0 4 -7 4 -7 
4 0 4 14 4 -5 4 -2 4 -16 4 -5 4 4 4 -6 
4 -17 4 7 4 2 4 -1 4 -2 4 5 4 -2 4 -6 
4 -8 4 -2 4 -3 4 -5 4 2 4 -11 4 -9 4 -8 
4 -5 4 9 4 9 4 -8 4 -5 4 -9 4 -6 4 -13 
4 16 4 8 4 -10 4 -7 5 3 4 -5 4 -5 4 -11 
4 1 4 -7 4 5 4 3 4 -3 4 11 4 -3 4 9 
4 -6 4 -6 4 -5 4 -1 4 4 4 -1 4 -12 4 -2 
4 -8 4 -1 4 1 4 -1 4 -7 4 -9 4 -12 4 -11 
4 -7 4 -3 4 -4 4 -9 4 5 4 -1 4 -12 4 -1 
4 -10 4 -8 4 6 4 -8 4 4 4 4 4 -10 4 -8 
4 1 4 -9 4 13 4 -1 100 AP
4 3 4 11 4 -6 5 3 4 -5 4 -5 4 -2 4 5 
4 -2 4 1 4 -7 4 -6 4 -2 4 9 4 -3 4 -10 
4 -6 4 -4 4 -2 4 -6 4 -4 4 -7 4 -7 4 -5 
4 6 4 -6 4 7 4 8 4 4 4 -1 4 13 4 0 
4 -2 4 0 4 -5 4 2 4 -7 4 -5 4 6 4 -2 
4 2 4 -6 4 5 4 7 4 5 4 10 4 -1 4 1 
4 -6 4 -8 4 0 4 7 4 -3 5 -7 4 -2 4 2 
4 -4 4 -2 4 -7 4 -2 4 -6 4 -3 4 -4 4 -2 
4 -4 4 4 4 -3 4 1 4 -13 4 -1 4 -4 4 -10 
4 5 4 -2 4 5 4 6 4 -10 4 -9 4 0 4 3 
4 -7 4 -15 4 6 4 8 4 1 4 0 4 1 4 -7 
4 1 4 -3 4 -4 4 -7 4 -8 4 7 4 15 4 7 
4 -5 4 7 4 -1 4 -9 100 AP
4 -8 4 -5 4 -3 5 -6 4 -13 4 -3 4 -1 4 -7 
4 -4 4 -3 4 4 4 -3 4 3 4 2 4 8 4 -1 
4 -6 4 -4 4 -3 4 -3 4 -1 4 -2 4 -10 4 3 
4 2 4 9 4 0 4 -7 4 -5 4 -1 4 0 4 -2 
4 -6 4 2 4 10 4 -10 4 -9 4 6 4 -12 4 3 
4 -4 4 6 4 -5 4 -5 4 3 4 13 4 -2 4 3 
4 -2 4 -2 4 2 4 -9 4 -2 5 -13 4 -6 4 -4 
4 -3 4 4 4 4 4 -4 4 -13 4 -4 4 3 4 -3 
4 -4 4 -3 4 -5 4 0 4 -1 4 -7 4 -2 4 -2 
4 -4 4 7 4 -12 4 -9 4 4 4 -2 4 -6 4 4 
4 -6 4 10 4 2 4 -7 4 3 4 -2 4 -10 4 -4 
4 9 4 -2 4 -15 4 5 4 -5 4 -6 4 2 4 5 
4 -6 4 -7 4 0 4 4 100 AP
4 5 4 9 4 1 4 -4 5 -2 4 -9 4 -1 4 4 
4 6 4 7 4 -6 4 5 4 1 4 2 4 2 4 -12 
4 -7 4 -5 4 -6 4 -3 4 3 4 -2 4 -5 4 5 
4 11 4 3 4 4 4 0 4 -5 4 -3 4 -5 4 5 
4 -3 4 -3 4 3 4 -4 4 -4 4 10 4 -1 4 2 
4 -4 4 -4 4 0 4 -1 4 6 4 -3 4 -8 4 5 
4 -2 4 -8 4 -12 4 8 4 8 4 -7 5 -12 4 -4 
4 7 4 8 4 5 4 2 4 2 4 -2 4 1 4 -5 
4 -3 4 -9 4 -5 4 -7 4 -7 4 -1 4 3 4 -6 
4 3 4 -1 4 -5 4 6 4 10 4 -6 4 -18 4 -8 
4 -8 4 3 4 -6 4 6 4 4 4 -2 4 6 4 7 
4 1 4 -2 4 1 4 -10 4 -1 4 -5 4 1 4 -12 
4 -14 4 1 4 -5 4 -8 100 AP
4 6 4 3 4 -3 4 0 5 1 4 -5 4 -10 4 -6 
4 -9 4 1 4 8 4 2 4 5 4 -7 4 17 4 -5 
4 -5 4 -7 4 -7 4 -12 4 3 4 -8 4 -1 4 1 
4 10 4 -4 4 -7 4 -11 4 -20 4 -9 4 5 4 -2 
4 -2 4 15 4 -9 4 -7 4 -2 4 2 4 3 4 -2 
4 -2 4 -18 4 -1 4 -9 4 -2 4 -3 4 -1 4 -4 
4 -1 4 -9 4 1 4 0 4 -4 4 -8 5 -12 4 -2 
4 -1 4 3 4 5 4 3 4 -4 4 1 4 6 4 5 
4 -3 4 6 4 -8 4 5 4 0 4 6 4 -1 4 15 
4 3 4 1 4 -2 4 -3 4 -8 4 -1 4 -7 4 -6 
4 4 4 -6 4 9 4 -5 4 -8 4 -1 4 10 4 -8 
4 -5 4 0 4 3 4 1 4 3 4 -4 4 -8 4 1 
4 0 4 -3 4 -11 4 4 100 AP
4 -6 4 -1 4 5 4 1 4 4 5 5 4 4 4 -12 
4 -7 4 5 4 -9 4 -1 4 1 4 7 4 -12 4 0 
4 2 4 7 4 8 4 3 4 -10 4 -4 4 3 4 7 
4 1 4 10 4 -6 4 11 4 -8 4 8 4 -1 4 -2 
4 0 4 11 4 -1 4 -4 4 -3 4 -10 4 0 4 0 
4 -4 4 -10 4 -6 4 -13 4 -2 4 -4 4 2 4 6 
4 -2 4 -6 4 -1 4 1 4 -6 4 -8 4 1 5 -1 
4 8 4 -1 4 0 4 4 4 -5 4 2 4 -7 4 8 
4 -5 4 -5 4 0 4 0 4 3 4 8 4 -9 4 -2 
4 -3 4 -2 4 2 4 8 4 3 4 1 4 -4 4 0 
4 3 4 1 4 -14 4 -2 4 0 4 -5 4 -3 4 -13 
4 -2 4 -6 4 5 4 -7 4 -1 4 -9 4 2 4 -9 
4 -1 4 -1 4 -5 4 -8 100 AP
4 3 4 -5 4 -7 4 -7 4 -4 5 -2 4 5 4 -6 
4 -2 4 4 4 -7 4 1 4 5 4 6 4 -4 4 1 
4 -11 4 -2 4 -1 4 -1 4 -5 4 -5 4 -1 4 -7 
4 1 4 -7 4 -3 4 2 4 7 4 0 4 -4 4 1 
4 -4 4 -1 4 4 4 -10 4 6 4 -6 4 0 4 0 
4 -4 4 -2 4 -3 4 4 4 2 4 -5 4 -10 4 1 
4 -6 4 -3 4 -11 4 -1 4 -10 4 -1 4 -5 5 -2 
4 10 4 -1 4 0 4 -16 4 -5 4 1 4 -1 4 -3 
4 5 4 -3 4 -11 4 0 4 -5 4 2 4 -5 4 -8 
4 -8 4 11 4 -9 4 4 4 -5 4 -3 4 -3 4 -9 
4 -4 4 0 4 -1 4 3 4 4 4 2 4 -5 4 -2 
4 5 4 -2 4 2 4 4 4 1 4 -10 4 -2 4 -6 
4 -5 4 3 4 2 4 2 100 AP
4 3 4 1 4 -5 4 2 4 0 4 -2 5 -2 4 -3 
4 9 4 -7 4 3 4 -1 4 0 4 1 4 -11 4 -5 
4 3 4 -5 4 8 4 3 4 -9 4 4 4 -7 4 -4 
4 5 4 -4 4 5 4 1 4 -1 4 -4 4 -4 4 -8 
4 -4 4 -5 4 -3 4 -7 4 8 4 -3 4 2 4 -6 
4 -3 4 0 4 -4 4 -6 4 5 4 -2 4 7 4 -6 
4 -4 4 5 4 -4 4 1 4 16 4 -4 4 -9 5 1 
4 5 4 3 4 5 4 7 4 2 4 -1 4 -2 4 -1 
4 3 4 -7 4 -1 4 4 4 -7 4 -1 4 -1 4 -1 
4 -8 4 -2 4 -4 4 1 4 1 4 -1 4 2 4 3 
4 1 4 3 4 -4 4 1 4 -1 4 0 4 2 4 2 
4 5 4 -2 4 -7 4 0 4 12 4 -1 4 -7 4 -7 
4 3 4 -1 4 2 4 -1 100 AP
4 -5 4 -1 4 1 4 -1 4 -4 4 -6 5 5 4 -7 
4 -3 4 -5 4 5 4 -4 4 -5 4 0 4 -6 4 5 
4 -4 4 -3 4 -1 4 -2 4 2 4 -1 4 -8 4 0 
4 -3 4 4 4 3 4 -3 4 -10 4 -2 4 -1 4 2 
4 4 4 4 4 -10 4 -5 4 3 4 2 4 -3 4 0 
4 -1 4 -5 4 -1 4 -7 4 2 4 1 4 6 4 -3 
4 -3 4 2 4 7 4 4 4 -4 4 -9 4 -2 4 -4 
5 -3 4 -6 4 -2 4 -2 4 0 4 -4 4 1 4 -5 
4 -2 4 4 4 1 4 0 4 2 4 1 4 4 4 -8 
4 -7 4 -3 4 -2 4 -4 4 -4 4 -4 4 3 4 -6 
4 -1 4 -6 4 -5 4 -7 4 6 4 -1 4 -1 4 -1 
4 6 4 0 4 -3 4 -7 4 -6 4 -8 4 -2 4 10 
4 -1 4 -2 4 -6 4 2 100 AP
4 5 4 12 4 -5 4 -11 4 4 4 2 4 6 5 1 
4 -5 4 -4 4 -3 4 8 4 3 4 -5 4 3 4 -7 
4 7 4 2 4 1 4 -5 4 1 4 3 4 -2 4 -7 
4 -2 4 -5 4 -5 4 -4 4 -2 4 -9 4 -5 4 3 
4 -4 4 -9 4 -1 4 2 4 -3 4 12 4 -1 4 -3 
4 -5 4 3 4 4 4 -9 4 -1 4 -7 4 -6 4 -3 
4 -2 4 -5 4 3 4 -1 4 -7 4 1 4 4 4 4 
5 -5 4 -8 4 5 4 2 4 -3 4 -11 4 4 4 -4 
4 3 4 -3 4 -3 4 1 4 -4 4 -10 4 -5 4 -1 
4 1 4 0 4 5 4 -3 4 -4 4 -2 4 -7 4 5 
4 -6 4 3 4 -12 4 1 4 -3 4 3 4 -4 4 -1 
4 -7 4 11 4 3 4 -8 4 -1 4 -6 4 8 4 3 
4 -5 4 -4 4 7 4 -1 100 AP
4 -2 4 1 4 -6 4 -1 4 4 4 -1 4 0 5 9 
4 -4 4 -8 4 6 4 3 4 -5 4 -4 4 -6 4 -4 
4 -7 4 -2 4 -8 4 -1 4 -3 4 3 4 19 4 -5 
4 5 4 6 4 -1 4 -5 4 -7 4 6 4 -1 4 -10 
4 7 4 5 4 -1 4 -7 4 -3 4 -2 4 -5 4 -4 
4 1 4 -5 4 1 4 5 4 -2 4 -7 4 -3 4 -5 
4 -2 4 -4 4 -8 4 -1 4 -2 4 -6 4 -1 4 2 
4 -5 5 -2 4 -1 4 3 4 -1 4 8 4 5 4 -5 
4 1 4 -3 4 9 4 -5 4 -2 4 -6 4 -3 4 -6 
4 -2 4 -2 4 1 4 -6 4 -4 4 3 4 -3 4 -5 
4 2 4 -6 4 -4 4 4 4 -3 4 -2 4 -5 4 -11 
4 -4 4 0 4 -8 4 -5 4 -5 4 4 4 3 4 0 
4 -8 4 -4 4 0 4 -6 100 AP
4 4 4 -11 4 -2 4 7 4 -2 4 -1 4 -2 4 2 
5 -4 4 9 4 -3 4 -4 4 2 4 1 4 9 4 3 
4 -2 4 -13 4 -1 4 -1 4 -5 4 1 4 1 4 -2 
4 0 4 -12 4 1 4 -5 4 3 4 -2 4 -7 4 -4 
4 -3 4 -13 4 -2 4 -4 4 5 4 -3 4 -6 4 0 
4 -7 4 -7 4 5 4 2 4 9 4 -8 4 6 4 -2 
4 -7 4 -8 4 -7 4 -1 4 -6 4 -5 4 8 4 -4 
4 -5 5 -2 4 0 4 4 4 -1 4 1 4 7 4 7 
4 -7 4 -12 4 -3 4 -8 4 -8 4 2 4 1 4 -4 
4 1 4 -3 4 -6 4 -5 4 -3 4 -5 4 0 4 -2 
4 11 4 -1 4 -9 4 -2 4 -12 4 -5 4 3 4 13 
4 -10 4 -4 4 -7 4 -6 4 -5 4 -5 4 2 4 9 
4 -3 4 -12 4 -10 4 -2 100 AP
4 6 4 -2 4 -1 4 -8 4 -6 4 -6 4 6 4 -8 
5 -11 4 -3 4 4 4 -3 4 -2 4 -2 4 -5 4 -11 
4 3 4 -7 4 3 4 -1 4 1 4 4 4 -3 4 -1 
4 2 4 1 4 -6 4 -4 4 -1 4 -4 4 -2 4 12 
4 1 4 -1 4 3 4 -10 4 2 4 -13 4 -2 4 3 
4 6 4 2 4 -3 4 -2 4 -7 4 -6 4 -3 4 -5 
4 -2 4 -1 4 0 4 -2 4 -2 4 -10 4 -3 4 3 
4 7 4 -1 5 -2 4 0 4 1 4 -4 4 -3 4 -1 
4 5 4 -8 4 8 4 -4 4 2 4 -5 4 0 4 0 
4 0 4 -8 4 -12 4 -7 4 -2 4 0 4 1 4 -10 
4 -1 4 0 4 -3 4 0 4 -1 4 -7 4 0 4 -4 
4 -2 4 -2 4 0 4 7 4 6 4 -4 4 -4 4 -8 
4 3 4 6 4 1 4 7 100 AP
4 2 4 -3 4 -3 4 -3 4 0 4 -4 4 2 4 -2 
4 -2 5 1 4 3 4 4 4 -5 4 -4 4 -7 4 -6 
4 -7 4 5 4 12 4 11 4 -1 4 -12 4 -6 4 -6 
4 6 4 1 4 3 4 -1 4 -7 4 -1 4 9 4 -9 
4 3 4 -2 4 -2 4 -4 4 5 4 -6 4 4 4 -3 
4 2 4 -5 4 0 4 -4 4 -6 4 6 4 4 4 -6 
4 1 4 -9 4 -7 4 4 4 -2 4 -6 4 3 4 7 
4 6 4 -3 5 -3 4 -2 4 -2 4 -5 4 0 4 1 
4 -3 4 -5 4 -3 4 2 4 -13 4 -1 4 -8 4 1 
4 -5 4 6 4 1 4 3 4 1 4 -2 4 1 4 -6 
4 0 4 -7 4 1 4 -3 4 4 4 1 4 1 4 0 
4 0 4 -1 4 -9 4 3 4 3 4 -16 4 6 4 -4 
4 -3 4 -3 4 1 4 5 100 AP
4 4 4 6 4 -15 4 -2 4 -7 4 -5 4 -8 4 -5 
4 -2 5 -6 4 2 4 -1 4 -3 4 0 4 -1 4 4 
4 3 4 -3 4 0 4 -3 4 15 4 -1 4 1 4 -10 
4 -5 4 0 4 5 4 -1 4 -1 4 1 4 2 4 3 
4 2 4 3 4 -6 4 2 4 2 4 -1 4 -3 4 -5 
4 -2 4 -3 4 4 4 7 4 -4 4 -6 4 -2 4 0 
4 4 4 -9 4 -4 4 -3 4 4 4 -4 4 6 4 -4 
4 -5 4 2 4 1 5 0 4 9 4 2 4 -2 4 1 
4 -1 4 8 4 10 4 -7 4 4 4 -1 4 2 4 1 
4 -1 4 -7 4 -7 4 -4 4 0 4 -2 4 -4 4 -9 
4 1 4 -3 4 -8 4 -3 4 -2 4 3 4 0 4 3 
4 -5 4 2 4 -1 4 1 4 -2 4 -5 4 -8 4 -5 
4 2 4 -7 4 -2 4 -5 100 AP
4 -3 4 3 4 -15 4 1 4 9 4 -9 4 1 4 0 
4 12 4 -5 5 2 4 8 4 5 4 -1 4 3 4 14 
4 8 4 3 4 -4 4 6 4 -2 4 2 4 4 4 1 
4 -7 4 -5 4 0 4 -6 4 7 4 0 4 -7 4 -2 
4 -3 4 3 4 -5 4 -2 4 2 4 -6 4 -6 4 -8 
4 1 4 2 4 -1 4 0 4 -2 4 -2 4 -5 4 -3 
4 -1 4 -4 4 -1 4 12 4 -6 4 -10 4 -3 4 -2 
4 5 4 -8 4 -5 5 -5 4 -1 4 3 4 1 4 0 
4 -5 4 0 4 -1 4 -11 4 1 4 -2 4 -12 4 12 
4 -5 4 2 4 2 4 -5 4 1 4 -3 4 -8 4 -7 
4 3 4 -4 4 -3 4 -5 4 -8 4 2 4 -4 4 2 
4 -2 4 11 4 2 4 -2 4 -2 4 -4 4 -6 4 -2 
4 -7 4 1 4 -2 4 -5 100 AP
4 1 4 -4 4 -7 4 1 4 -1 4 -4 4 -7 4 -2 
4 -5 4 -1 5 2 4 2 4 -7 4 2 4 -2 4 -1 
4 5 4 3 4 2 4 11 4 -3 4 5 4 -1 4 3 
4 -5 4 -8 4 -8 4 5 4 -4 4 7 4 -5 4 -3 
4 -4 4 -7 4 1 4 -5 4 3 4 -5 4 -4 4 0 
4 -3 4 4 4 2 4 -5 4 -10 4 -8 4 -4 4 -6 
4 1 4 -2 4 0 4 1 4 -11 4 0 4 3 4 -2 
4 3 4 10 4 -2 4 -1 5 -1 4 -3 4 -2 4 -3 
4 -4 4 -6 4 6 4 3 4 -2 4 -2 4 -7 4 0 
4 6 4 0 4 -3 4 2 4 -6 4 0 4 5 4 -2 
4 12 4 -14 4 -2 4 -2 4 8 4 -1 4 -13 4 -2 
4 1 4 -2 4 -3 4 -6 4 -4 4 0 4 4 4 -7 
4 5 4 -2 4 2 4 -4 100 AP
4 -13 4 1 4 0 4 -1 4 0 4 -9 4 4 4 -10 
4 -1 4 -1 5 0 4 -5 4 -5 4 -6 4 9 4 -1 
4 -1 4 -6 4 -2 4 1 4 -5 4 -1 4 -1 4 5 
4 -2 4 0 4 -5 4 3 4 12 4 -3 4 8 4 1 
4 8 4 -3 4 0 4 -2 4 2 4 2 4 -6 4 -8 
4 -1 4 1 4 -3 4 2 4 6 4 -1 4 6 4 -8 
4 -3 4 -4 4 -4 4 7 4 0 4 -4 4 -16 4 5 
4 3 4 -1 4 4 4 -5 5 -3 4 -5 4 -2 4 -6 
4 -5 4 -7 4 1 4 4 4 -10 4 4 4 -3 4 7 
4 1 4 -9 4 -7 4 -2 4 -4 4 -11 4 -3 4 -3 
4 5 4 3 4 0 4 0 4 -10 4 5 4 -6 4 7 
4 0 4 5 4 -9 4 0 4 -5 4 -3 4 1 4 -5 
4 0 4 -3 4 -3 4 -1 100 AP
4 8 4 0 4 -1 4 -1 4 0 4 -12 4 1 4 4 
4 0 4 4 4 -5 5 -4 4 -1 4 -6 4 3 4 -4 
4 0 4 -2 4 -1 4 -8 4 3 4 -4 4 -1 4 1 
4 -1 4 -2 4 -9 4 -5 4 7 4 0 4 -3 4 -6 
4 1 4 -2 4 1 4 0 4 -3 4 0 4 -2 4 -7 
4 -4 4 -6 4 -2 4 4 4 -7 4 -3 4 2 4 5 
4 -4 4 -6 4 -1 4 -9 4 3 4 -1 4 -9 4 -5 
4 7 4 1 4 7 4 1 4 2 5 -6 4 1 4 10 
4 2 4 -6 4 -3 4 1 4 3 4 -1 4 6 4 3 
4 0 4 -2 4 -9 4 3 4 -3 4 -4 4 2 4 -1 
4 -4 4 -16 4 2 4 -2 4 -4 4 -2 4 0 4 -2 
4 2 4 -6 4 -3 4 12 4 -4 4 0 4 -3 4 7 
4 0 4 -4 4 3 4 -3 100 AP
4 0 4 0 4 -3 4 13 4 5 4 -3 4 -7 4 -5 
4 -2 4 -4 4 -17 5 -3 4 -9 4 -3 4 0 4 2 
4 5 4 3 4 0 4 1 4 -5 4 -10 4 3 4 1 
4 -2 4 3 4 -4 4 -1 4 -9 4 -3 4 0 4 2 
4 -4 4 0 4 -1 4 -3 4 -3 4 -8 4 -2 4 -5 
4 0 4 -6 4 2 4 0 4 2 4 3 4 -4 4 1 
4 -3 4 -3 4 -7 4 -3 4 3 4 -4 4 -4 4 -8 
4 -8 4 -1 4 0 4 -9 4 4 5 7 4 8 4 -5 
4 -1 4 10 4 0 4 -3 4 -2 4 -5 4 -4 4 0 
4 -2 4 -17 4 5 4 -7 4 1 4 3 4 2 4 -4 
4 -5 4 -1 4 0 4 -7 4 6 4 -7 4 -3 4 5 
4 4 4 0 4 1 4 -2 4 5 4 -2 4 -5 4 -5 
4 10 4 -1 4 -7 4 -6 100 AP
4 -6 4 -2 4 4 4 6 4 -1 4 -8 4 -1 4 3 
4 -3 4 0 4 3 4 -2 5 -8 4 -4 4 7 4 3 
4 -3 4 3 4 -5 4 3 4 -4 4 -4 4 10 4 -1 
4 5 4 6 4 1 4 -2 4 -7 4 -7 4 3 4 -1 
4 -8 4 4 4 3 4 0 4 2 4 -5 4 -4 4 -1 
4 2 4 -4 4 -4 4 5 4 -4 4 -9 4 4 4 -1 
4 -4 4 2 4 -2 4 4 4 -2 4 -1 4 3 4 7 
4 -4 4 -5 4 7 4 -5 4 -3 4 -4 5 -3 4 -1 
4 -8 4 0 4 -1 4 -2 4 12 4 3 4 -4 4 1 
4 -2 4 -6 4 -1 4 10 4 6 4 -5 4 2 4 1 
4 17 4 -1 4 3 4 -2 4 -8 4 -8 4 -3 4 -4 
4 -5 4 1 4 -2 4 -8 4 -9 4 -5 4 -6 4 3 
4 -2 4 -6 4 2 4 -9 100 AP
4 11 4 -1 4 -4 4 -4 4 -3 4 -6 4 2 4 -6 
4 3 4 0 4 -6 4 -11 5 -2 4 3 4 0 4 -2 
4 -1 4 -5 4 5 4 -2 4 -2 4 -5 4 -4 4 -4 
4 -5 4 -1 4 0 4 3 4 -7 4 -4 4 0 4 12 
4 -3 4 -2 4 2 4 4 4 -1 4 0 4 3 4 -5 
4 -9 4 -1 4 26 4 0 4 -6 4 2 4 2 4 2 
4 -4 4 3 4 -5 4 -6 4 -1 4 -12 4 9 4 -2 
4 -6 4 -4 4 -10 4 -2 4 -5 4 -2 5 2 4 -8 
4 5 4 4 4 -3 4 1 4 6 4 6 4 -5 4 -4 
4 -10 4 -3 4 -6 4 2 4 -9 4 2 4 0 4 12 
4 -9 4 -2 4 0 4 -6 4 10 4 -1 4 0 4 -4 
4 -1 4 -7 4 0 4 -2 4 -2 4 5 4 1 4 -4 
4 5 4 8 4 -1 4 2 100 AP
4 0 4 6 4 1 4 -1 4 -7 4 3 4 -10 4 -6 
4 -9 4 -4 4 -1 4 -7 4 7 5 1 4 0 4 -5 
4 -8 4 2 4 -1 4 3 4 -4 4 -5 4 0 4 -1 
4 8 4 3 4 -5 4 6 4 -5 4 0 4 -4 4 -5 
4 -5 4 -1 4 0 4 -5 4 2 4 -2 4 8 4 -7 
4 18 4 -1 4 2 4 6 4 0 4 0 4 -1 4 0 
4 -4 4 -13 4 -1 4 3 4 1 4 -2 4 -5 4 -2 
4 -3 4 -3 4 4 4 -1 4 1 4 -2 4 -2 5 4 
4 -8 4 -5 4 -12 4 2 4 -1 4 -3 4 -3 4 -4 
4 8 4 -8 4 -7 4 3 4 -9 4 14 4 -6 4 -3 
4 -4 4 -5 4 2 4 6 4 -8 4 -7 4 -1 4 -2 
4 3 4 -2 4 0 4 -1 4 1 4 -5 4 -2 4 -1 
4 -12 4 7 4 4 4 -3 100 AP
4 -2 4 0 4 -1 4 -3 4 1 4 -6 4 -5 4 -2 
4 6 4 0 4 -2 4 -5 4 -5 5 -1 4 -4 4 -12 
4 -3 4 -2 4 -9 4 -10 4 -2 4 -2 4 -3 4 4 
4 7 4 0 4 5 4 0 4 0 4 -11 4 -5 4 -3 
4 -7 4 -2 4 0 4 6 4 2 4 -2 4 1 4 -6 
4 1 4 17 4 -1 4 -6 4 3 4 7 4 1 4 -1 
4 5 4 -3 4 -3 4 -3 4 1 4 -8 4 -4 4 3 
4 -7 4 -2 4 14 4 4 4 -1 4 -2 4 -2 5 -7 
4 -6 4 4 4 7 4 -4 4 -7 4 -4 4 3 4 6 
4 -4 4 -11 4 -6 4 3 4 0 4 -1 4 4 4 3 
4 -2 4 6 4 0 4 0 4 0 4 3 4 1 4 -1 
4 3 4 3 4 -3 4 1 4 -9 4 -2 4 -2 4 -4 
4 -8 4 -4 4 0 4 0 100 AP
4 0 4 2 4 -4 4 -2 4 0 4 2 4 0 4 6 
4 6 4 -5 4 -6 4 5 4 -8 4 -1 5 -5 4 -5 
4 -5 4 0 4 -4 4 -2 4 -3 4 -4 4 4 4 -3 
4 -2 4 0 4 -4 4 -1 4 2 4 -2 4 -1 4 0 
4 -7 4 4 4 0 4 -2 4 2 4 -1 4 -1 4 -2 
4 -2 4 2 4 -3 4 2 4 -4 4 -2 4 -6 4 -1 
4 6 4 -11 4 -4 4 1 4 -3 4 3 4 1 4 4 
4 -7 4 -2 4 -3 4 0 4 3 4 -1 4 -2 4 -3 
5 -2 4 -3 4 -1 4 -5 4 -4 4 -2 4 -1 4 -8 
4 -3 4 -3 4 7 4 2 4 -2 4 -1 4 3 4 -7 
4 1 4 -2 4 -6 4 6 4 0 4 -8 4 -1 4 -2 
4 -7 4 -6 4 -7 4 2 4 11 4 5 4 -4 4 -1 
4 -4 4 1 4 -4 4 -10 100 AP
4 5 4 3 4 -3 4 -4 4 0 4 -1 4 8 4 -9 
4 -6 4 -1 4 -2 4 -9 4 -8 4 6 5 7 4 11 
4 -2 4 -7 4 -3 4 -1 4 2 4 3 4 -5 4 -11 
4 -1 4 5 4 -3 4 1 4 4 4 -5 4 0 4 -5 
4 -6 4 4 4 -2 4 -4 4 -2 4 -5 4 -3 4 -6 
4 1 4 -1 4 -2 4 -6 4 -2 4 -5 4 -2 4 -3 
4 -6 4 -2 4 3 4 11 4 -5 4 11 4 -2 4 -4 
4 6 4 2 4 5 4 -6 4 -11 4 -2 4 -2 4 -7 
5 3 4 3 4 -5 4 -10 4 -12 4 -1 4 9 4 -6 
4 3 4 -8 4 6 4 -2 4 -2 4 1 4 9 4 7 
4 -3 4 11 4 0 4 -3 4 -1 4 -2 4 -3 4 1 
4 0 4 -2 4 -3 4 0 4 0 4 0 4 -1 4 -4 
4 -2 4 -1 4 -4 4 3 100 AP
4 0 4 3 4 5 4 -3 4 -2 4 -6 4 -4 4 -3 
4 1 4 -8 4 1 4 10 4 -2 4 -3 4 3 5 2 
4 3 4 0 4 -6 4 -4 4 -4 4 -1 4 -1 4 -4 
4 4 4 -1 4 5 4 -3 4 3 4 -1 4 -6 4 -1 
4 -1 4 3 4 -1 4 3 4 -4 4 1 4 -1 4 -8 
4 5 4 -1 4 3 4 4 4 7 4 0 4 6 4 -4 
4 -6 4 1 4 6 4 -7 4 -5 4 4 4 -2 4 -5 
4 -8 4 8 4 -1 4 1 4 -7 4 -4 4 0 4 -5 
4 -3 5 -5 4 -4 4 0 4 1 4 -2 4 -11 4 7 
4 0 4 -9 4 -6 4 0 4 -2 4 0 4 -3 4 -1 
4 -7 4 1 4 -5 4 6 4 -1 4 -9 4 6 4 -5 
4 -9 4 2 4 3 4 7 4 2 4 -3 4 2 4 -2 
4 3 4 -10 4 -3 4 -11 100 AP
4 -4 4 -5 4 7 4 -2 4 5 4 5 4 -4 4 -3 
4 -1 4 -10 4 2 4 -5 4 -3 4 -1 4 1 5 6 
4 1 4 0 4 4 4 -3 4 -5 4 0 4 8 4 -6 
4 -7 4 -7 4 1 4 -3 4 4 4 1 4 4 4 -5 
4 7 4 5 4 4 4 6 4 -3 4 1 4 -1 4 7 
4 0 4 -2 4 -4 4 -3 4 4 4 -3 4 0 4 -6 
4 -3 4 1 4 -4 4 0 4 3 4 -9 4 -6 4 -6 
4 -2 4 4 4 -3 4 10 4 8 4 -3 4 -3 4 1 
4 4 5 1 4 -7 4 -3 4 -1 4 3 4 4 4 1 
4 -1 4 -5 4 0 4 3 4 -5 4 -1 4 -3 4 -6 
4 -5 4 0 4 -4 4 -4 4 3 4 -3 4 5 4 -3 
4 -4 4 4 4 5 4 -3 4 3 4 2 4 1 4 2 
4 -7 4 0 4 -3 4 -6 100 AP
-4 8 -4 8 -4 1 -4 2 -4 6 -4 1 -4 11 -4 5 
-4 4 -4 6 -4 7 -4 5 -4 3 -4 6 -4 -1 -4 0 
-4 5 -5 2 -4 5 -4 -3 -4 -1 -4 0 -4 -1 -4 -3 
-4 -7 -4 8 -4 0 -4 -4 -4 -4 -4 3 -4 1 -4 -4 
-4 2 -4 4 -4 5 -4 -2 -4 -1 -4 -4 -4 2 -4 0 
-4 6 -4 4 -4 11 -4 5 -4 0 -4 4 -4 -8 -4 1 
-4 -3 -4 -1 -4 1 -4 4 -4 3 -4 2 -4 -1 -4 7 
-4 1 -4 0 -4 2 -4 -4 -4 -7 -4 6 -4 0 -4 0 
-4 0 -4 0 0 -859 4 0 4 0 4 0 4 0 4 -3 
4 0 4 -4 4 1 4 -2 4 -6 4 -5 4 4 4 -1 
4 -5 4 -6 4 -2 4 2 4 -6 4 -5 4 -2 4 0 
4 0 4 -6 4 1 4 -6 4 2 4 -4 4 -4 4 -6 
4 3 4 3 4 -10 4 0 100 AP
-4 -6 -4 8 -4 0 -4 5 -4 0 -4 6 -4 2 -4 10 
-4 4 -4 7 -4 4 -4 -1 -4 1 -4 -10 -4 1 -4 9 
-4 0 -5 -1 -4 -2 -4 -4 -4 6 -4 13 -4 -3 -4 4 
-4 -2 -4 12 -4 6 -4 -6 -4 -4 -4 4 -4 -10 -4 -5 
-4 1 -4 10 -4 -4 -4 1 -4 6 -4 -4 -4 0 -4 -6 
-4 3 -4 1 -4 7 -4 2 -4 -1 -4 11 -4 -1 -4 0 
-4 -1 -4 2 -4 2 -4 -1 -4 0 -4 2 -4 -9 -4 3 
-4 6 -4 -1 -4 -1 -4 3 -4 -6 -4 5 -4 -4 -4 6 
-4 2 -4 6 -4 -9 -5 0 -4 -1 -4 5 -4 0 -4 3 
-4 3 -4 4 -4 -1 -4 -6 -4 3 -4 -7 -4 0 -4 -7 
-4 0 -4 3 -4 3 -4 -4 -4 0 -4 -1 -4 4 -4 4 
-4 2 -4 5 -4 -2 -4 -1 -4 2 -4 -1 -4 -2 -4 -5 
-4 2 -4 -7 -4 2 -4 -2 100 AP
-4 2 -4 4 -4 -2 -4 -7 -4 -6 -4 -3 -4 -1 -4 -3 
-4 6 -4 -15 -4 0 -4 2 -4 -1 -4 0 -4 -1 -4 -19 
-4 1 -4 4 -5 3 -4 -7 -4 -3 -4 -4 -4 6 -4 0 
-4 1 -4 6 -4 1 -4 4 -4 4 -4 4 -4 2 -4 -10 
-4 -2 -4 -5 -4 2 -4 6 -4 1 -4 -2 -4 3 -4 -1 
-4 0 -4 8 -4 4 -4 -2 -4 5 -4 0 -4 0 -4 5 
-4 -1 -4 6 -4 0 -4 9 -4 2 -4 -12 -4 1 -4 3 
-4 -4 -4 -2 -4 8 -4 2 -4 0 -4 5 -4 -1 -4 3 
-4 9 -4 2 -4 2 -5 3 -4 -1 -4 7 -4 4 -4 3 
-4 3 -4 -1 -4 2 -4 12 -4 -7 -4 7 -4 2 -4 -2 
-4 5 -4 -6 -4 -8 -4 5 -4 -2 -4 4 -4 6 -4 -5 
-4 1 -4 -10 -4 -4 -4 9 -4 -1 -4 0 -4 2 -4 9 
-4 1 -4 6 -4 4 -4 -3 100 AP
-4 -6 -4 4 -4 -2 -4 3 -4 -3 -4 9 -4 2 -4 3 
-4 -4 -4 -3 -4 0 -4 1 -4 -1 -4 2 -4 0 -4 0 
-4 6 -4 4 -5 4 -4 -3 -4 2 -4 0 -4 5 -4 -6 
-4 3 -4 -1 -4 -8 -4 1 -4 2 -4 -6 -4 0 -4 -3 
-4 4 -4 -4 -4 4 -4 2 -4 3 -4 5 -4 7 -4 -2 
-4 9 -4 -5 -4 0 -4 -3 -4 -8 -4 7 -4 4 -4 5 
-4 6 -4 3 -4 3 -4 -2 -4 0 -4 3 -4 2 -4 -6 
-4 0 -4 -6 -4 3 -4 6 -4 7 -4 1 -4 -6 -4 0 
-4 4 -4 -8 -4 6 -4 -6 -5 8 -4 -3 -4 3 -4 1 
-4 2 -4 -1 -4 11 -4 -3 -4 5 -4 -6 -4 2 -4 -3 
-4 -1 -4 6 -4 -1 -4 3 -4 2 -4 6 -4 3 -4 3 
-4 2 -4 0 -4 1 -4 15 -4 4 -4 1 -4 2 -4 2 
-4 2 -4 6 -4 -1 -4 2 100 AP
-4 0 -4 -4 -4 3 -4 -5 -4 -2 -4 -3 -4 -2 -4 -1 
-4 15 -4 6 -4 2 -4 2 -4 6 -4 4 -4 -4 -4 -3 
-4 2 -4 0 -4 1 -5 -7 -4 3 -4 -1 -4 -1 -4 2 
-4 1 -4 -2 -4 6 -4 -2 -4 2 -4 -5 -4 -2 -4 5 
-4 3 -4 4 -4 0 -4 5 -4 6 -4 4 -4 12 -4 0 
-4 7 -4 1 -4 -4 -4 -1 -4 2 -4 -9 -4 9 -4 8 
-4 2 -4 -14 -4 1 -4 -1 -4 9 -4 3 -4 -2 -4 -1 
-4 -2 -4 9 -4 -7 -4 2 -4 1 -4 3 -4 -2 -4 0 
-4 -5 -4 -1 -4 6 -4 2 -5 3 -4 7 -4 1 -4 1 
-4 2 -4 0 -4 2 -4 3 -4 -2 -4 -7 -4 -13 -4 6 
-4 -4 -4 0 -4 -15 -4 1 -4 3 -4 0 -4 7 -4 2 
-4 1 -4 8 -4 -3 -4 -3 -4 0 -4 2 -4 1 -4 -10 
-4 4 -4 5 -4 0 -4 -4 100 AP
-4 7 -4 -1 -4 2 -4 -5 -4 -3 -4 -3 -4 5 -4 -2 
-4 -3 -4 5 -4 1 -4 5 -4 -2 -4 5 -4 5 -4 -2 
-4 2 -4 6 -4 1 -5 0 -4 3 -4 1 -4 2 -4 -10 
-4 4 -4 2 -4 3 -4 -3 -4 8 -4 1 -4 2 -4 -6 
-4 6 -4 1 -4 0 -4 7 -4 -8 -4 2 -4 1 -4 4 
-4 12 -4 -2 -4 6 -4 0 -4 3 -4 -2 -4 6 -4 8 
-4 3 -4 -5 -4 2 -4 2 -4 -1 -4 3 -4 3 -4 -7 
-4 -5 -4 6 -4 4 -4 -1 -4 6 -4 -5 -4 4 -4 5 
-4 4 -4 1 -4 1 -4 3 -4 -3 -5 2 -4 1 -4 -5 
-4 0 -4 0 -4 5 -4 6 -4 1 -4 -5 -4 1 -4 -1 
-4 7 -4 -8 -4 -1 -4 -7 -4 -3 -4 2 -4 3 -4 -1 
-4 1 -4 5 -4 7 -4 10 -4 1 -4 0 -4 2 -4 4 
-4 0 -4 0 -4 0 -4 -8 100 AP
-4 2 -4 4 -4 8 -4 -4 -4 8 -4 0 -4 2 -4 5 
-4 9 -4 1 -4 8 -4 3 -4 3 -4 4 -4 3 -4 -6 
-4 3 -4 4 -4 -7 -4 0 -5 0 -4 -13 -4 -2 -4 4 
-4 0 -4 -2 -4 2 -4 8 -4 7 -4 0 -4 -6 -4 -13 
-4 13 -4 11 -4 -5 -4 4 -4 6 -4 2 -4 0 -4 4 
-4 -6 -4 1 -4 -3 -4 11 -4 7 -4 3 -4 0 -4 -3 
-4 -1 -4 6 -4 2 -4 5 -4 1 -4 1 -4 2 -4 -6 
-4 7 -4 2 -4 15 -4 -20 -4 1 -4 0 -4 1 -4 -2 
-4 5 -4 3 -4 -1 -4 1 -4 -2 -5 0 -4 0 -4 6 
-4 7 -4 4 -4 -2 -4 3 -4 2 -4 3 -4 -3 -4 3 
-4 0 -4 9 -4 8 -4 -7 -4 2 -4 -3 -4 3 -4 -1 
-4 3 -4 -6 -4 7 -4 4 -4 6 -4 0 -4 4 -4 -4 
-4 5 -4 -3 -4 8 -4 1 100 AP
-4 -2 -4 0 -4 -3 -4 10 -4 4 -4 2 -4 1 -4 -5 
-4 4 -4 -7 -4 -4 -4 -5 -4 3 -4 6 -4 -8 -4 -7 
-4 -2 -4 1 -4 2 -4 5 -5 6 -4 6 -4 -1 -4 16 
-4 -2 -4 0 -4 11 -4 3 -4 -3 -4 14 -4 -3 -4 3 
-4 -3 -4 9 -4 10 -4 9 -4 2 -4 5 -4 -2 -4 14 
-4 -3 -4 0 -4 4 -4 7 -4 2 -4 1 -4 0 -4 2 
-4 -2 -4 4 -4 0 -4 9 -4 1 -4 -1 -4 5 -4 -6 
-4 -2 -4 1 -4 4 -4 -1 -4 1 -4 -3 -4 0 -4 3 
-4 8 -4 0 -4 8 -4 3 -4 -3 -4 19 -5 -2 -4 2 
-4 0 -4 -1 -4 -2 -4 1 -4 0 -4 14 -4 -4 -4 6 
-4 4 -4 6 -4 1 -4 8 -4 -1 -4 1 -4 2 -4 -3 
-4 5 -4 3 -4 11 -4 3 -4 -2 -4 1 -4 3 -4 0 
-4 0 -4 0 -4 8 -4 7 100 AP
-4 -1 -4 -4 -4 -3 -4 2 -4 4 -4 -9 -4 4 -4 9 
-4 -10 -4 -2 -4 9 -4 2 -4 1 -4 9 -4 5 -4 0 
-4 2 -4 10 -4 1 -4 8 -4 -6 -5 -7 -4 -4 -4 -5 
-4 -5 -4 0 -4 2 -4 1 -4 3 -4 7 -4 -2 -4 1 
-4 9 -4 0 -4 -5 -4 -1 -4 3 -4 3 -4 7 -4 5 
-4 1 -4 3 -4 -5 -4 -2 -4 -8 -4 -1 -4 -7 -4 5 
-4 1 -4 5 -4 -8 -4 0 -4 1 -4 3 -4 2 -4 4 
-4 0 -4 4 -4 0 -4 5 -4 1 -4 2 -4 2 -4 -4 
-4 7 -4 -3 -4 3 -4 3 -4 10 -4 8 -5 2 -4 2 
-4 9 -4 -8 -4 7 -4 0 -4 0 -4 -6 -4 1 -4 6 
-4 -1 -4 -4 -4 0 -4 1 -4 1 -4 1 -4 -6 -4 2 
-4 3 -4 3 -4 -1 -4 -6 -4 -3 -4 5 -4 0 -4 1 
-4 -2 -4 -2 -4 8 -4 -1 100 AP
-4 1 -4 4 -4 1 -4 5 -4 4 -4 -6 -4 -1 -4 -2 
-4 -11 -4 7 -4 2 -4 2 -4 3 -4 7 -4 -8 -4 6 
-4 0 -4 2 -4 -1 -4 -6 -4 4 -5 4 -4 2 -4 0 
-4 2 -4 -10 -4 -1 -4 5 -4 1 -4 -6 -4 0 -4 7 
-4 -9 -4 4 -4 -1 -4 -1 -4 -6 -4 6 -4 4 -4 2 
-4 -7 -4 -4 -4 0 -4 -5 -4 3 -4 1 -4 4 -4 4 
-4 3 -4 14 -4 2 -4 3 -4 2 -4 13 -4 -8 -4 4 
-4 -1 -4 2 -4 1 -4 -2 -4 0 -4 -2 -4 -1 -4 -8 
-4 1 -4 1 -4 8 -4 3 -4 11 -4 7 -4 2 -5 -3 
-4 4 -4 -3 -4 2 -4 3 -4 2 -4 -2 -4 2 -4 1 
-4 2 -4 6 -4 -9 -4 4 -4 1 -4 1 -4 3 -4 -3 
-4 6 -4 0 -4 3 -4 -5 -4 -1 -4 15 -4 1 -4 0 
-4 0 -4 -17 -4 7 -4 1 100 AP
-4 1 -4 5 -4 -1 -4 9 -4 4 -4 1 -4 0 -4 4 
-4 -1 -4 5 -4 -7 -4 1 -4 13 -4 -1 -4 -3 -4 11 
-4 1 -4 -3 -4 4 -4 6 -4 0 -4 5 -5 8 -4 1 
-4 6 -4 9 -4 -5 -4 15 -4 4 -4 7 -4 2 -4 2 
-4 1 -4 15 -4 1 -4 8 -4 1 -4 -22 -4 -2 -4 -1 
-4 -6 -4 -3 -4 -3 -4 1 -4 3 -4 -9 -4 0 -4 2 
-4 5 -4 9 -4 6 -4 -2 -4 1 -4 5 -4 -1 -4 0 
-4 -12 -4 -3 -4 -7 -4 8 -4 1 -4 2 -4 2 -4 7 
-4 1 -4 7 -4 4 -4 2 -4 0 -4 3 -4 7 -5 0 
-4 3 -4 4 -4 1 -4 4 -4 -2 -4 3 -4 5 -4 1 
-4 7 -4 7 -4 -2 -4 6 -4 4 -4 5 -4 0 -4 -4 
-4 3 -4 7 -4 3 -4 3 -4 6 -4 -1 -4 -1 -4 5 
-4 -6 -4 1 -4 1 -4 0 100 AP
-4 5 -4 8 -4 -8 -4 -3 -4 1 -4 -8 -4 2 -4 5 
-4 -3 -4 1 -4 -1 -4 5 -4 2 -4 6 -4 -2 -4 9 
-4 1 -4 -7 -4 5 -4 6 -4 3 -4 0 -5 5 -4 7 
-4 8 -4 10 -4 -1 -4 5 -4 1 -4 -4 -4 -2 -4 -5 
-4 1 -4 3 -4 4 -4 -11 -4 -1 -4 0 -4 7 -4 6 
-4 2 -4 1 -4 2 -4 2 -4 2 -4 -1 -4 3 -4 4 
-4 0 -4 0 -4 2 -4 1 -4 10 -4 -1 -4 3 -4 -1 
-4 -7 -4 6 -4 5 -4 1 -4 6 -4 6 -4 3 -4 -4 
-4 9 -4 1 -4 2 -4 2 -4 -1 -4 4 -4 5 -4 -1 
-5 0 -4 4 -4 14 -4 -4 -4 5 -4 -4 -4 0 -4 5 
-4 -1 -4 6 -4 -1 -4 -1 -4 4 -4 7 -4 -1 -4 0 
-4 5 -4 1 -4 7 -4 -4 -4 -2 -4 8 -4 -1 -4 1 
-4 2 -4 2 -4 8 -4 1 100 AP
-4 1 -4 0 -4 7 -4 1 -4 4 -4 -4 -4 4 -4 -2 
-4 1 -4 -10 -4 5 -4 2 -4 -3 -4 -2 -4 5 -4 -1 
-4 -2 -4 8 -4 2 -4 2 -4 9 -4 5 -5 2 -4 0 
-4 8 -4 9 -4 1 -4 -1 -4 3 -4 3 -4 -1 -4 1 
-4 -3 -4 -1 -4 0 -4 3 -4 2 -4 -2 -4 4 -4 1 
-4 3 -4 -4 -4 -1 -4 -1 -4 -2 -4 6 -4 3 -4 -7 
-4 10 -4 5 -4 12 -4 -8 -4 4 -4 6 -4 7 -4 -6 
-4 1 -4 1 -4 0 -4 -7 -4 -3 -4 0 -4 14 -4 0 
-4 5 -4 -5 -4 -6 -4 8 -4 -3 -4 1 -4 2 -4 -6 
-5 -6 -4 3 -4 4 -4 -6 -4 -2 -4 -2 -4 -1 -4 -6 
-4 -8 -4 -5 -4 1 -4 4 -4 8 -4 7 -4 1 -4 1 
-4 14 -4 -2 -4 -2 -4 -3 -4 3 -4 6 -4 -1 -4 2 
-4 4 -4 -1 -4 6 -4 1 100 AP
-4 5 -4 -4 -4 1 -4 -1 -4 3 -4 -1 -4 12 -4 -2 
-4 3 -4 12 -4 0 -4 -2 -4 -6 -4 -2 -4 0 -4 -1 
-4 -2 -4 6 -4 -3 -4 5 -4 0 -4 0 -4 2 -5 -4 
-4 -4 -4 10 -4 7 -4 8 -4 -3 -4 3 -4 -10 -4 0 
-4 2 -4 1 -4 -6 -4 6 -4 3 -4 7 -4 -2 -4 3 
-4 2 -4 2 -4 7 -4 -3 -4 3 -4 1 -4 6 -4 -1 
-4 -10 -4 -4 -4 1 -4 3 -4 6 -4 3 -4 9 -4 -1 
-4 0 -4 1 -4 15 -4 4 -4 -3 -4 -1 -4 4 -4 2 
-4 -5 -4 -2 -4 12 -4 0 -4 -1 -4 -7 -4 0 -4 3 
-4 -1 -5 -1 -4 4 -4 2 -4 -2 -4 -1 -4 0 -4 0 
-4 0 -4 4 -4 14 -4 7 -4 7 -4 3 -4 7 -4 6 
-4 0 -4 -1 -4 6 -4 5 -4 0 -4 -12 -4 8 -4 2 
-4 3 -4 4 -4 6 -4 -6 100 AP
-4 -6 -4 1 -4 5 -4 8 -4 1 -4 -4 -4 5 -4 -5 
-4 12 -4 0 -4 0 -4 6 -4 0 -4 1 -4 9 -4 8 
-4 4 -4 5 -4 -12 -4 1 -4 4 -4 -3 -4 6 -5 -1 
-4 3 -4 2 -4 -2 -4 -14 -4 -2 -4 4 -4 10 -4 14 
-4 2 -4 0 -4 6 -4 6 -4 -6 -4 4 -4 0 -4 -5 
-4 5 -4 10 -4 -15 -4 1 -4 5 -4 -7 -4 7 -4 7 
-4 2 -4 2 -4 -3 -4 7 -4 0 -4 -4 -4 -2 -4 10 
-4 -8 -4 5 -4 2 -4 -1 -4 -6 -4 -3 -4 -2 -4 13 
-4 3 -4 2 -4 3 -4 4 -4 -5 -4 0 -4 5 -4 9 
-4 3 -5 -4 -4 2 -4 -5 -4 -4 -4 2 -4 0 -4 6 
-4 -2 -4 0 -4 11 -4 0 -4 2 -4 8 -4 -1 -4 5 
-4 4 -4 15 -4 -2 -4 1 -4 3 -4 5 -4 0 -4 -7 
-4 1 -4 6 -4 -5 -4 4 100 AP
-4 5 -4 -8 -4 4 -4 8 -4 -5 -4 14 -4 -1 -4 0 
-4 0 -4 3 -4 -1 -4 1 -4 -8 -4 9 -4 9 -4 3 
-4 0 -4 4 -4 9 -4 -1 -4 -2 -4 -3 -4 -4 -4 11 
-5 -4 -4 2 -4 -3 -4 5 -4 3 -4 6 -4 -5 -4 -1 
-4 5 -4 7 -4 -3 -4 2 -4 -9 -4 10 -4 -1 -4 -3 
-4 1 -4 12 -4 -1 -4 -1 -4 -16 -4 1 -4 -4 -4 -1 
-4 10 -4 -3 -4 1 -4 3 -4 -1 -4 -4 -4 7 -4 3 
-4 -3 -4 6 -4 6 -4 7 -4 6 -4 -1 -4 3 -4 -4 
-4 0 -4 -7 -4 3 -4 3 -4 2 -4 0 -4 1 -4 3 
-4 9 -4 -7 -5 9 -4 -1 -4 -3 -4 1 -4 2 -4 -1 
-4 0 -4 14 -4 1 -4 6 -4 -4 -4 5 -4 7 -4 3 
-4 -2 -4 2 -4 -11 -4 3 -4 5 -4 2 -4 -8 -4 5 
-4 7 -4 4 -4 2 -4 0 100 AP
-4 3 -4 -2 -4 10 -4 0 -4 0 -4 5 -4 8 -4 1 
-4 2 -4 -2 -4 1 -4 0 -4 5 -4 -7 -4 5 -4 5 
-4 -1 -4 -9 -4 -3 -4 2 -4 6 -4 14 -4 4 -4 -1 
-5 4 -4 0 -4 4 -4 10 -4 8 -4 3 -4 -3 -4 9 
-4 6 -4 1 -4 2 -4 6 -4 3 -4 -1 -4 3 -4 6 
-4 -5 -4 -1 -4 5 -4 1 -4 -2 -4 -6 -4 11 -4 -6 
-4 5 -4 -1 -4 3 -4 -3 -4 3 -4 -7 -4 5 -4 1 
-4 -4 -4 0 -4 4 -4 -6 -4 8 -4 -7 -4 6 -4 4 
-4 7 -4 0 -4 7 -4 0 -4 6 -4 1 -4 1 -4 2 
-4 5 -4 10 -5 6 -4 11 -4 4 -4 9 -4 4 -4 0 
-4 0 -4 6 -4 8 -4 -10 -4 -9 -4 0 -4 3 -4 -7 
-4 11 -4 -4 -4 4 -4 -9 -4 -4 -4 -3 -4 -5 -4 5 
-4 2 -4 0 -4 10 -4 3 100 AP
-4 -11 -4 8 -4 -2 -4 -11 -4 0 -4 3 -4 8 -4 1 
-4 1 -4 -2 -4 1 -4 4 -4 5 -4 7 -4 3 -4 0 
-4 3 -4 -2 -4 5 -4 4 -4 3 -4 8 -4 -3 -4 7 
-4 -1 -5 -2 -4 1 -4 -7 -4 3 -4 -2 -4 -1 -4 5 
-4 7 -4 2 -4 3 -4 5 -4 2 -4 7 -4 2 -4 -1 
-4 1 -4 1 -4 -6 -4 2 -4 7 -4 4 -4 0 -4 15 
-4 1 -4 0 -4 3 -4 4 -4 0 -4 0 -4 8 -4 1 
-4 4 -4 6 -4 6 -4 0 -4 2 -4 6 -4 0 -4 -8 
-4 0 -4 2 -4 -3 -4 2 -4 -4 -4 0 -4 0 -4 -3 
-4 9 -4 1 -4 2 -5 -2 -4 0 -4 8 -4 6 -4 -5 
-4 -3 -4 6 -4 0 -4 9 -4 7 -4 3 -4 4 -4 6 
-4 -8 -4 0 -4 5 -4 0 -4 2 -4 -1 -4 1 -4 9 
-4 -16 -4 0 -4 2 -4 -2 100 AP
-4 5 -4 11 -4 5 -4 7 -4 2 -4 7 -4 4 -4 8 
-4 0 -4 4 -4 4 -4 -2 -4 0 -4 0 -4 14 -4 1 
-4 -2 -4 7 -4 4 -4 0 -4 8 -4 9 -4 4 -4 -2 
-4 -2 -5 4 -4 -7 -4 -2 -4 -8 -4 -3 -4 4 -4 -3 
-4 7 -4 0 -4 1 -4 -2 -4 -6 -4 -4 -4 6 -4 -2 
-4 7 -4 7 -4 1 -4 3 -4 -1 -4 -1 -4 3 -4 7 
-4 -6 -4 5 -4 1 -4 -8 -4 5 -4 3 -4 -6 -4 6 
-4 4 -4 -4 -4 -7 -4 -2 -4 4 -4 1 -4 10 -4 3 
-4 1 -4 6 -4 4 -4 3 -4 0 -4 10 -4 -1 -4 0 
-4 7 -4 3 -4 2 -5 -1 -4 6 -4 -1 -4 4 -4 10 
-4 3 -4 -2 -4 4 -4 6 -4 6 -4 0 -4 10 -4 4 
-4 4 -4 3 -4 0 -4 8 -4 -2 -4 3 -4 1 -4 5 
-4 6 -4 1 -4 6 -4 -9 100 AP
-4 10 -4 -1 -4 6 -4 -4 -4 4 -4 2 -4 3 -4 -17 
-4 0 -4 -5 -4 5 -4 7 -4 4 -4 7 -4 10 -4 0 
-4 2 -4 10 -4 5 -4 0 -4 -6 -4 2 -4 7 -4 -1 
-4 0 -4 4 -5 5 -4 5 -4 -3 -4 -8 -4 6 -4 2 
-4 4 -4 3 -4 2 -4 13 -4 1 -4 0 -4 5 -4 1 
-4 -6 -4 2 -4 4 -4 1 -4 0 -4 -1 -4 -1 -4 7 
-4 4 -4 6 -4 4 -4 7 -4 -3 -4 -8 -4 -7 -4 3 
-4 0 -4 5 -4 -1 -4 7 -4 -4 -4 5 -4 -3 -4 0 
-4 3 -4 -4 -4 0 -4 9 -4 -2 -4 2 -4 -11 -4 5 
-4 0 -4 5 -4 12 -4 -6 -5 6 -4 6 -4 -2 -4 -8 
-4 9 -4 6 -4 10 -4 3 -4 6 -4 8 -4 2 -4 -9 
-4 2 -4 -7 -4 -2 -4 -3 -4 0 -4 -5 -4 -3 -4 5 
-4 8 -4 -2 -4 2 -4 7 100 AP
-4 1 -4 3 -4 -2 -4 1 -4 8 -4 9 -4 4 -4 -1 
-4 -1 -4 9 -4 2 -4 -2 -4 4 -4 6 -4 8 -4 -4 
-4 7 -4 2 -4 -3 -4 7 -4 -5 -4 5 -4 12 -4 1 
-4 0 -4 2 -5 4 -4 2 -4 8 -4 0 -4 -4 -4 -6 
-4 3 -4 4 -4 -1 -4 6 -4 0 -4 -6 -4 4 -4 4 
-4 -11 -4 -8 -4 4 -4 2 -4 -8 -4 -1 -4 6 -4 -2 
-4 -3 -4 -6 -4 1 -4 7 -4 1 -4 10 -4 0 -4 -1 
-4 8 -4 -1 -4 2 -4 -4 -4 3 -4 1 -4 -12 -4 5 
-4 6 -4 7 -4 7 -4 3 -4 5 -4 -4 -4 6 -4 -3 
-4 0 -4 7 -4 -1 -4 5 -5 -2 -4 7 -4 -2 -4 3 
-4 16 -4 -2 -4 1 -4 5 -4 1 -4 -7 -4 -23 -4 -3 
-4 -1 -4 8 -4 2 -4 4 -4 -2 -4 -7 -4 1 -4 3 
-4 -1 -4 1 -4 3 -4 3 100 AP
-4 -8 -4 -1 -4 17 -4 -1 -4 -6 -4 2 -4 -14 -4 6 
-4 2 -4 5 -4 3 -4 2 -4 12 -4 2 -4 5 -4 -4 
-4 -9 -4 2 -4 1 -4 -11 -4 -1 -4 4 -4 4 -4 -1 
-4 1 -4 -15 -4 -11 -5 -2 -4 3 -4 -4 -4 3 -4 -5 
-4 -1 -4 8 -4 5 -4 -2 -4 2 -4 5 -4 3 -4 4 
-4 -9 -4 -1 -4 17 -4 6 -4 -5 -4 0 -4 0 -4 -3 
-4 8 -4 0 -4 0 -4 -1 -4 4 -4 17 -4 0 -4 0 
-4 -3 -4 -1 -4 4 -4 -5 -4 -1 -4 1 -4 9 -4 7 
-4 3 -4 5 -4 2 -4 3 -4 -3 -4 2 -4 -3 -4 5 
-4 -3 -4 4 -4 2 -4 6 -4 0 -5 -4 -4 5 -4 -3 
-4 -2 -4 2 -4 6 -4 6 -4 6 -4 13 -4 11 -4 6 
-4 8 -4 5 -4 2 -4 2 -4 4 -4 -4 -4 -6 -4 -1 
-4 4 -4 3 -4 -6 -4 7 100 AP
-4 13 -4 3 -4 -7 -4 12 -4 1 -4 4 -4 -1 -4 1 
-4 -6 -4 2 -4 -4 -4 -4 -4 6 -4 3 -4 -2 -4 -7 
-4 -4 -4 3 -4 4 -4 7 -4 -3 -4 6 -4 -1 -4 4 
-4 -2 -4 7 -4 -1 -5 14 -4 2 -4 3 -4 7 -4 1 
-4 -3 -4 -14 -4 1 -4 14 -4 3 -4 2 -4 17 -4 -2 
-4 6 -4 13 -4 4 -4 6 -4 4 -4 0 -4 -1 -4 3 
-4 3 -4 3 -4 -4 -4 -1 -4 8 -4 -1 -4 1 -4 -6 
-4 -11 -4 -3 -4 5 -4 -5 -4 11 -4 -1 -4 -4 -4 -4 
-4 -3 -4 0 -4 0 -4 7 -4 8 -4 -6 -4 6 -4 2 
-4 -2 -4 -2 -4 -5 -4 -1 -4 4 -5 1 -4 -4 -4 2 
-4 9 -4 1 -4 -2 -4 0 -4 3 -4 4 -4 1 -4 5 
-4 13 -4 3 -4 4 -4 -1 -4 3 -4 3 -4 -2 -4 5 
-4 -3 -4 -6 -4 -6 -4 -2 100 AP
-4 7 -4 15 -4 4 -4 6 -4 -12 -4 7 -4 -3 -4 4 
-4 5 -4 1 -4 5 -4 4 -4 -13 -4 6 -4 0 -4 9 
-4 -1 -4 1 -4 -5 -4 4 -4 -3 -4 6 -4 6 -4 -4 
-4 3 -4 -7 -4 3 -4 9 -5 3 -4 8 -4 7 -4 7 
-4 8 -4 -3 -4 5 -4 10 -4 2 -4 2 -4 -1 -4 7 
-4 0 -4 1 -4 7 -4 3 -4 0 -4 5 -4 -1 -4 -4 
-4 3 -4 7 -4 0 -4 3 -4 7 -4 10 -4 5 -4 -3 
-4 -8 -4 1 -4 16 -4 0 -4 -4 -4 0 -4 3 -4 -5 
-4 0 -4 -2 -4 8 -4 6 -4 5 -4 -8 -4 8 -4 -6 
-4 4 -4 5 -4 -2 -4 4 -4 12 -5 -1 -4 -4 -4 1 
-4 -8 -4 7 -4 6 -4 10 -4 7 -4 7 -4 3 -4 -2 
-4 3 -4 1 -4 -1 -4 -6 -4 3 -4 -7 -4 1 -4 5 
-4 1 -4 -1 -4 0 -4 1 100 AP
-4 2 -4 -7 -4 9 -4 3 -4 5 -4 8 -4 8 -4 3 
-4 10 -4 -14 -4 -8 -4 3 -4 4 -4 3 -4 0 -4 -4 
-4 3 -4 -1 -4 -1 -4 1 -4 -3 -4 1 -4 5 -4 -2 
-4 2 -4 3 -4 -6 -4 3 -5 4 -4 -1 -4 7 -4 4 
-4 9 -4 3 -4 13 -4 4 -4 -2 -4 4 -4 11 -4 4 
-4 2 -4 -5 -4 -4 -4 -3 -4 -8 -4 -1 -4 -6 -4 -4 
-4 1 -4 6 -4 4 -4 8 -4 6 -4 3 -4 -5 -4 -5 
-4 10 -4 -2 -4 12 -4 4 -4 1 -4 4 -4 3 -4 3 
-4 9 -4 6 -4 2 -4 -4 -4 3 -4 2 -4 -2 -4 3 
-4 7 -4 2 -4 -2 -4 -9 -4 5 -4 -1 -5 -6 -4 -1 
-4 2 -4 6 -4 8 -4 9 -4 8 -4 -1 -4 6 -4 21 
-4 -6 -4 5 -4 -4 -4 7 -4 4 -4 0 -4 -1 -4 -3 
-4 4 -4 4 -4 -1 -4 13 100 AP
-4 10 -4 -8 -4 -2 -4 0 -4 -4 -4 2 -4 14 -4 0 
-4 4 -4 -6 -4 7 -4 3 -4 -4 -4 1 -4 13 -4 12 
-4 -1 -4 10 -4 9 -4 2 -4 3 -4 5 -4 5 -4 5 
-4 -7 -4 -6 -4 11 -4 1 -4 -3 -5 -8 -4 4 -4 1 
-4 0 -4 2 -4 2 -4 8 -4 6 -4 1 -4 -8 -4 -3 
-4 14 -4 -8 -4 3 -4 14 -4 4 -4 -3 -4 6 -4 -8 
-4 3 -4 10 -4 -3 -4 5 -4 1 -4 -2 -4 0 -4 -2 
-4 0 -4 -5 -4 -2 -4 6 -4 4 -4 0 -4 2 -4 8 
-4 5 -4 1 -4 0 -4 -3 -4 2 -4 6 -4 2 -4 -3 
-4 -4 -4 0 -4 -4 -4 7 -4 3 -4 -5 -5 6 -4 2 
-4 -1 -4 -2 -4 0 -4 8 -4 7 -4 5 -4 6 -4 2 
-4 -6 -4 3 -4 9 -4 -1 -4 -5 -4 4 -4 2 -4 -11 
-4 4 -4 6 -4 -1 -4 13 100 AP
-4 -5 -4 2 -4 7 -4 0 -4 3 -4 0 -4 -1 -4 -4 
-4 6 -4 3 -4 6 -4 14 -4 0 -4 -10 -4 7 -4 6 
-4 9 -4 -4 -4 4 -4 -7 -4 17 -4 -4 -4 -3 -4 -3 
-4 -11 -4 5 -4 9 -4 3 -4 6 -5 17 -4 3 -4 -10 
-4 3 -4 12 -4 0 -4 -5 -4 -1 -4 2 -4 -7 -4 1 
-4 0 -4 1 -4 2 -4 7 -4 2 -4 13 -4 8 -4 -3 
-4 -8 -4 5 -4 -1 -4 -2 -4 -5 -4 -7 -4 -3 -4 -5 
-4 11 -4 2 -4 -6 -4 0 -4 5 -4 -1 -4 6 -4 8 
-4 0 -4 3 -4 -10 -4 0 -4 2 -4 9 -4 -3 -4 7 
-4 7 -4 -3 -4 9 -4 2 -4 5 -4 -1 -4 -1 -5 -4 
-4 -9 -4 -11 -4 4 -4 4 -4 -2 -4 2 -4 5 -4 -8 
-4 -7 -4 -1 -4 6 -4 1 -4 1 -4 -3 -4 1 -4 3 
-4 -4 -4 -10 -4 -2 -4 4 100 AP
-4 10 -4 -1 -4 1 -4 1 -4 -1 -4 4 -4 3 -4 7 
-4 0 -4 -13 -4 -6 -4 1 -4 7 -4 -6 -4 1 -4 -4 
-4 0 -4 13 -4 7 -4 6 -4 -16 -4 3 -4 -10 -4 6 
-4 -5 -4 -4 -4 17 -4 4 -4 11 -4 5 -5 -1 -4 10 
-4 20 -4 -5 -4 5 -4 5 -4 1 -4 0 -4 1 -4 0 
-4 3 -4 -6 -4 0 -4 5 -4 -9 -4 3 -4 7 -4 5 
-4 5 -4 10 -4 -1 -4 8 -4 5 -4 8 -4 12 -4 1 
-4 -3 -4 8 -4 -2 -4 -8 -4 15 -4 -2 -4 -10 -4 -3 
-4 -6 -4 4 -4 -3 -4 1 -4 3 -4 7 -4 -16 -4 9 
-4 1 -4 1 -4 -7 -4 -16 -4 0 -4 14 -4 -6 -5 4 
-4 9 -4 -7 -4 4 -4 15 -4 8 -4 8 -4 2 -4 13 
-4 4 -4 0 -4 -4 -4 2 -4 6 -4 -7 -4 2 -4 -5 
-4 2 -4 9 -4 8 -4 9 100 AP
-4 5 -4 1 -4 -3 -4 6 -4 5 -4 4 -4 6 -4 0 
-4 9 -4 -1 -4 10 -4 10 -4 -2 -4 13 -4 8 -4 3 
-4 -6 -4 4 -4 0 -4 -10 -4 9 -4 -4 -4 7 -4 -10 
-4 2 -4 13 -4 -5 -4 3 -4 -2 -4 4 -5 7 -4 13 
-4 5 -4 11 -4 2 -4 -2 -4 9 -4 5 -4 3 -4 -10 
-4 11 -4 6 -4 12 -4 16 -4 -3 -4 -1 -4 -1 -4 6 
-4 4 -4 0 -4 3 -4 7 -4 -5 -4 10 -4 10 -4 -2 
-4 2 -4 0 -4 12 -4 4 -4 -10 -4 5 -4 2 -4 5 
-4 8 -4 15 -4 -4 -4 -11 -4 8 -4 8 -4 12 -4 2 
-4 -7 -4 2 -4 12 -4 0 -4 0 -4 -6 -4 5 -4 16 
-5 1 -4 1 -4 2 -4 6 -4 -1 -4 12 -4 -7 -4 -13 
-4 2 -4 5 -4 2 -4 -7 -4 2 -4 10 -4 6 -4 11 
-4 13 -4 7 -4 -1 -4 0 100 AP
-4 5 -4 11 -4 2 -4 7 -4 2 -4 -3 -4 4 -4 7 
-4 7 -4 8 -4 9 -4 0 -4 3 -4 5 -4 10 -4 -3 
-4 -3 -4 2 -4 3 -4 1 -4 -1 -4 1 -4 -8 -4 5 
-4 5 -4 2 -4 4 -4 -8 -4 5 -4 -1 -4 9 -5 -11 
-4 4 -4 -2 -4 16 -4 8 -4 13 -4 -8 -4 9 -4 1 
-4 4 -4 5 -4 6 -4 1 -4 0 -4 -6 -4 1 -4 -7 
-4 7 -4 6 -4 6 -4 9 -4 -8 -4 9 -4 -8 -4 11 
-4 -3 -4 5 -4 5 -4 7 -4 3 -4 -2 -4 18 -4 2 
-4 1 -4 1 -4 -9 -4 4 -4 13 -4 9 -4 12 -4 4 
-4 -8 -4 -3 -4 12 -4 1 -4 6 -4 -17 -4 -9 -4 12 
-5 -6 -4 -5 -4 -10 -4 -3 -4 8 -4 0 -4 5 -4 -8 
-4 2 -4 5 -4 5 -4 1 -4 3 -4 -11 -4 -6 -4 5 
-4 4 -4 -9 -4 3 -4 -2 100 AP
-4 14 -4 0 -4 11 -4 6 -4 5 -4 8 -4 3 -4 -3 
-4 12 -4 2 -4 4 -4 -3 -4 -6 -4 1 -4 -3 -4 9 
-4 4 -4 -2 -4 15 -4 0 -4 -2 -4 5 -4 7 -4 12 
-4 -2 -4 -4 -4 8 -4 5 -4 -1 -4 -8 -4 -3 -5 -5 
-4 3 -4 10 -4 3 -4 2 -4 7 -4 -1 -4 17 -4 -9 
-4 3 -4 9 -4 1 -4 2 -4 6 -4 -1 -4 -3 -4 10 
-4 7 -4 5 -4 7 -4 -14 -4 -3 -4 12 -4 -7 -4 -3 
-4 3 -4 -2 -4 1 -4 5 -4 3 -4 7 -4 1 -4 3 
-4 8 -4 -1 -4 6 -4 0 -4 -8 -4 7 -4 -8 -4 12 
-4 5 -4 -3 -4 2 -4 6 -4 0 -4 0 -4 4 -4 5 
-4 -6 -5 -12 -4 -1 -4 -7 -4 11 -4 4 -4 5 -4 9 
-4 10 -4 -3 -4 3 -4 7 -4 4 -4 5 -4 6 -4 10 
-4 6 -4 -18 -4 1 -4 3 100 AP
-4 3 -4 2 -4 -3 -4 10 -4 -2 -4 -4 -4 2 -4 6 
-4 -5 -4 -2 -4 7 -4 9 -4 8 -4 -7 -4 5 -4 -3 
-4 -3 -4 3 -4 22 -4 8 -4 0 -4 1 -4 7 -4 -2 
-4 10 -4 2 -4 -9 -4 7 -4 5 -4 4 -4 1 -4 -4 
-5 4 -4 3 -4 3 -4 -2 -4 -12 -4 2 -4 -5 -4 8 
-4 -2 -4 5 -4 16 -4 5 -4 4 -4 8 -4 11 -4 -5 
-4 0 -4 4 -4 -5 -4 -3 -4 3 -4 4 -4 8 -4 1 
-4 2 -4 -14 -4 6 -4 9 -4 14 -4 3 -4 8 -4 7 
-4 -4 -4 7 -4 4 -4 3 -4 4 -4 15 -4 4 -4 -13 
-4 7 -4 16 -4 17 -4 0 -4 2 -4 4 -4 13 -4 1 
-4 -3 -5 3 -4 -4 -4 7 -4 -5 -4 7 -4 7 -4 -15 
-4 -4 -4 0 -4 -13 -4 5 -4 -4 -4 8 -4 6 -4 11 
-4 -1 -4 -1 -4 10 -4 1 100 AP
-4 13 -4 -1 -4 9 -4 5 -4 4 -4 3 -4 6 -4 -5 
-4 -4 -4 16 -4 -6 -4 -6 -4 0 -4 6 -4 -16 -4 14 
-4 7 -4 1 -4 11 -4 -6 -4 2 -4 10 -4 16 -4 11 
-4 -6 -4 19 -4 10 -4 8 -4 -8 -4 -3 -4 0 -4 -4 
-5 -1 -4 -4 -4 1 -4 -4 -4 26 -4 15 -4 -2 -4 6 
-4 -4 -4 -11 -4 8 -4 -2 -4 -9 -4 18 -4 -6 -4 -3 
-4 3 -4 0 -4 -3 -4 1 -4 4 -4 9 -4 7 -4 2 
-4 8 -4 5 -4 -12 -4 13 -4 13 -4 10 -4 4 -4 2 
-4 -5 -4 6 -4 2 -4 5 -4 8 -4 14 -4 7 -4 8 
-4 -3 -4 -8 -4 19 -4 6 -4 14 -4 4 -4 -11 -4 0 
-4 2 -4 9 -5 12 -4 1 -4 5 -4 17 -4 -1 -4 -4 
-4 5 -4 4 -4 3 -4 1 -4 6 -4 -2 -4 1 -4 0 
-4 10 -4 -9 -4 10 -4 1 100 AP
-4 0 -4 33 -4 14 -4 15 -4 8 -4 16 -4 -2 -4 5 
-4 21 -4 24 -4 -13 -4 18 -4 20 -4 5 -4 -10 -4 1 
-4 26 -4 2 -4 21 -4 2 -4 0 -4 -4 -4 -6 -4 11 
-4 7 -4 -10 -4 14 -4 8 -4 -3 -4 15 -4 11 -4 9 
-4 11 -4 -2 -4 -4 -4 2 -4 -4 -4 8 -4 12 -4 10 
-4 -6 -4 5 -4 11 -4 11 -4 10 -4 9 -4 -8 -4 10 
-5 2 -4 -10 -4 -11 -4 5 -4 1 -4 6 -4 6 -4 3 
-4 2 -4 -7 -4 -5 -4 16 -4 9 -4 12 -4 5 -4 7 
-4 -1 -4 -5 66 AP
PP
DA
24 w
/c9 { 1.000000 0.000000 0.000000 sr} bdef
c9
4 0 4 0 4 0 4 0 4 -4 4 4 4 0 4 -1 
4 -1 4 -4 4 -6 4 3 4 -2 4 -3 4 -6 4 -1 
4 2 4 -2 4 -3 4 3 4 -2 4 0 4 -6 4 -5 
4 -5 4 -1 4 -2 4 -4 4 0 4 1 4 3 4 -7 
4 -3 4 -2 4 -1 4 3 4 -3 4 5 4 5 4 -2 
4 -6 4 3 4 -3 4 1 4 -3 4 -1 4 1 4 -1 
5 1 4 -1 4 0 4 2 4 -5 4 -4 4 -2 4 0 
4 -6 4 -5 4 -6 4 -5 4 -2 4 -1 4 -1 4 2 
4 -7 4 0 4 4 4 1 4 6 4 -2 4 3 4 0 
4 4 4 -1 4 -1 4 -1 4 -4 4 2 4 -4 4 -2 
4 -3 4 -1 4 2 4 -3 4 -1 4 1 4 -1 4 -3 
4 0 4 -2 4 5 4 -1 4 3 4 3 4 -4 4 -1 
4 -2 4 2 5 1 4 1 4 -5 4 -1 4 -1 4 4 
4 -2 4 2 4 -4 4 0 4 2 4 -5 4 -2 4 3 
4 -4 4 -3 4 1 4 -3 4 -3 4 2 4 -2 4 3 
4 -6 4 -2 4 1 4 -1 4 -2 4 0 4 4 4 0 
4 4 4 -7 4 -1 4 1 4 -8 4 0 4 4 4 7 
4 -3 4 0 4 1 4 -6 4 -7 4 2 4 -6 4 1 
4 -1 4 -4 4 1 4 2 5 1 4 2 4 -4 4 -4 
4 3 4 -2 4 -1 4 -2 4 -6 4 1 4 -6 4 1 
4 -4 4 2 4 -4 4 -2 4 -5 4 3 4 3 4 -3 
4 -1 4 -3 4 -4 4 -2 4 -4 4 3 4 -4 4 3 
4 7 4 3 4 3 4 -1 4 -3 4 -2 4 -3 4 7 
4 0 4 -5 4 3 4 -2 4 -6 4 -1 4 -1 4 -2 
4 1 4 -5 4 -4 4 -1 4 -6 4 -2 5 -4 4 -3 
4 -1 4 -4 4 -2 4 -5 4 1 4 0 4 -5 4 -7 
4 0 4 1 4 -1 4 -2 4 6 4 -5 4 -4 4 -3 
4 1 4 0 4 -7 4 3 4 -3 4 -7 4 2 4 -1 
4 0 4 1 4 -1 4 -1 4 0 4 1 4 -8 4 -2 
4 -3 4 3 4 7 4 -2 4 -4 4 -3 4 -2 4 4 
4 -8 4 -3 4 -1 4 -4 4 -3 4 -2 4 7 5 1 
4 4 4 -1 4 5 4 0 4 -1 4 2 4 0 4 -3 
4 3 4 -4 4 4 4 -1 4 2 4 5 4 1 4 1 
4 -4 4 -5 4 2 4 -1 4 -5 4 -2 4 -3 4 -3 
4 -3 4 -2 4 -8 4 -1 4 -3 4 -3 4 -4 4 -2 
4 -4 4 -4 4 -3 4 2 4 3 4 -3 4 7 4 -1 
4 1 4 0 4 2 4 -3 4 -2 4 -7 4 -1 4 -3 
4 -2 5 -2 4 4 14444 2345 300 MP stroke
4 -5 4 -1 4 -8 4 0 4 7 4 -3 4 -2 4 -7 
4 1 4 2 4 -1 4 4 4 3 4 2 4 -1 4 6 
4 -2 4 -2 4 -4 4 -3 4 -4 4 -3 4 4 4 0 
4 -1 4 3 4 -5 4 1 4 -4 4 -4 4 -3 4 -1 
4 -4 4 3 4 -2 4 3 4 -3 4 2 4 -1 4 1 
4 4 4 4 4 1 4 0 4 -5 4 2 4 -5 4 1 
5 -4 4 -4 4 -6 4 0 4 -2 4 -2 4 -1 4 -3 
4 3 4 -1 4 1 4 -1 4 -3 4 -5 4 3 4 -3 
4 1 4 -2 4 -1 4 4 4 0 4 -4 4 0 4 4 
4 -1 4 -2 4 -1 4 2 4 1 4 -3 4 -3 4 -2 
4 -6 4 -1 4 1 4 -6 4 6 4 0 4 1 4 -1 
4 6 4 6 4 -2 4 -3 4 -2 4 0 4 0 4 -1 
4 -1 4 -5 5 -3 4 -3 4 -3 4 -2 4 0 4 0 
4 0 4 -6 4 -1 4 -3 4 7 4 -3 4 -1 4 0 
4 3 4 -5 4 -4 4 0 4 -4 4 10 4 -1 4 -8 
4 -5 4 3 4 -4 4 -2 4 -2 4 1 4 1 4 3 
4 -8 4 -2 4 -5 4 -3 4 -2 4 -7 4 -2 4 -2 
4 0 4 1 4 0 4 -2 4 -6 4 0 4 3 4 -2 
4 0 4 -2 4 -4 5 3 4 -2 4 -6 4 -3 4 1 
4 -3 4 -7 4 -4 4 -2 4 -3 4 0 4 -5 4 1 
4 3 4 2 4 1 4 -3 4 -4 4 0 4 -3 4 3 
4 0 4 3 4 1 4 -3 4 0 4 -4 4 1 4 3 
4 -4 4 -5 4 1 4 3 4 0 4 -2 4 4 4 2 
4 -1 4 2 4 -2 4 -4 4 -2 4 3 4 -4 4 -3 
4 4 4 2 4 0 4 1 4 -2 5 -4 4 -1 4 0 
4 3 4 -3 4 -5 4 -5 4 0 4 6 4 -6 4 -5 
4 -4 4 -2 4 3 4 2 4 1 4 0 4 -1 4 3 
4 -1 4 2 4 -1 4 -3 4 -3 4 1 4 0 4 2 
4 -5 4 1 4 -10 4 -3 4 -1 4 -4 4 1 4 -6 
4 0 4 -1 4 -2 4 5 4 0 4 -1 4 -7 4 3 
4 -7 4 -4 4 -6 4 2 4 -1 4 -4 4 2 5 0 
4 0 4 -6 4 -4 4 1 4 -3 4 -1 4 -1 4 -4 
4 -1 4 -3 4 6 4 2 4 -5 4 4 4 0 4 2 
4 -3 4 -2 4 -6 4 -1 4 -4 4 -1 4 -2 4 1 
4 3 4 -4 4 6 4 -3 4 -2 4 6 4 -2 4 1 
4 -2 4 2 4 -3 4 -3 4 -5 4 -3 4 0 4 -2 
4 -1 4 -2 4 -3 4 -3 4 3 4 -2 4 -4 4 -3 
4 -2 5 3 4 -4 13242 2659 300 MP stroke
4 -2 4 -6 4 0 4 -4 4 0 4 -2 4 -2 4 3 
4 7 4 -11 4 0 4 -8 4 10 4 -4 4 -2 4 -2 
4 -5 4 -1 4 1 4 -4 4 -2 4 -1 4 -2 4 -2 
4 -7 4 2 4 -1 4 4 4 -5 4 -1 4 -2 4 -8 
4 1 4 5 4 -7 4 -2 4 7 4 0 4 -1 4 -5 
4 -7 4 0 4 -3 4 2 4 -2 4 -2 4 1 5 -1 
4 2 4 3 4 -3 4 -2 4 1 4 0 4 -2 4 -3 
4 -4 4 -6 4 -3 4 -7 4 -3 4 -1 4 2 4 -8 
4 1 4 -5 4 5 4 -3 4 -4 4 -3 4 2 4 -1 
4 0 4 0 4 -3 4 -4 4 -2 4 8 4 -1 4 -6 
4 3 4 -1 4 1 4 -1 4 -3 4 -3 4 -6 4 -3 
4 -8 4 6 4 -8 4 -3 4 -3 4 -3 4 -1 4 -3 
4 -1 5 2 4 -14 4 4 4 0 4 -5 4 0 4 0 
4 1 4 -3 4 0 4 -6 4 -1 4 -5 4 1 4 -4 
4 4 4 -2 4 6 4 -4 4 -6 4 0 4 -5 4 6 
4 -1 4 -1 4 -2 4 -2 4 -6 4 -3 4 -1 4 1 
4 -5 4 2 4 -4 4 1 4 0 4 -6 4 -3 4 -2 
4 -3 4 4 4 -4 4 1 4 -5 4 -6 4 1 4 0 
4 -9 4 2 4 -3 5 -8 4 -4 4 2 4 2 4 -1 
4 5 4 1 4 -1 4 -4 4 1 4 7 4 3 4 1 
4 5 4 0 4 -2 4 -5 4 -9 4 3 4 0 4 -4 
4 3 4 -2 4 0 4 2 4 -2 4 -3 4 -3 4 3 
4 1 4 -1 4 1 4 -4 4 -5 4 4 4 0 4 -3 
4 1 4 -1 4 3 4 0 4 -3 4 0 4 7 4 -2 
4 -3 4 0 4 2 4 -6 4 -3 5 -2 4 -5 4 -9 
4 -1 4 -2 4 0 4 3 4 3 4 -3 4 0 4 -2 
4 -5 4 -1 4 3 4 3 4 -5 4 0 4 0 4 8 
4 -1 4 6 4 -4 4 -5 4 -6 4 2 4 -2 4 2 
4 1 4 2 4 -5 4 -6 4 -5 4 -6 4 0 4 -2 
4 -3 4 3 4 -4 4 -4 4 -1 4 0 4 2 4 1 
4 -2 4 -4 4 -2 4 1 4 0 4 -6 5 2 4 -2 
4 -5 4 0 4 -4 4 1 4 1 4 -2 4 -4 4 -3 
4 -6 4 -3 4 1 4 5 4 -4 4 -3 4 4 4 -7 
4 -2 4 1 4 3 4 -1 4 -1 4 -4 4 7 4 -1 
4 -4 4 -2 4 -10 4 0 4 0 4 0 4 0 4 -3 
4 4 4 -4 4 0 4 -2 4 -3 4 1 4 -5 4 1 
4 -3 4 -3 4 -3 4 -5 4 -2 4 -1 4 -3 4 0 
5 5 4 3 4 -6 12040 3059 300 MP stroke
4 -6 4 3 4 -4 4 -2 4 -1 4 1 4 -1 4 1 
4 -1 4 -8 4 2 4 -4 4 1 4 0 4 4 4 -8 
4 -3 4 -3 4 -1 4 -10 4 2 4 -6 4 -3 4 2 
4 0 4 3 4 0 4 1 4 6 4 -2 4 -5 4 -5 
4 8 4 0 4 -3 4 -5 4 8 4 -3 4 0 4 2 
4 -1 4 -8 4 1 4 7 4 -1 4 2 4 -4 5 -3 
4 -3 4 0 4 2 4 -3 4 0 4 -4 4 4 4 -8 
4 0 4 -3 4 -2 4 -2 4 5 4 -1 4 -4 4 1 
4 1 4 -2 4 -2 4 -5 4 0 4 -1 4 0 4 -1 
4 2 4 -3 4 0 4 -3 4 -5 4 -5 4 -2 4 -1 
4 -6 4 1 4 1 4 0 4 -4 4 -6 4 0 4 -8 
4 -1 4 -2 4 -6 4 -5 4 5 4 -1 4 2 4 -1 
4 -1 5 -3 4 -2 4 3 4 1 4 -4 4 -4 4 -2 
4 0 4 -3 4 2 4 0 4 0 4 -5 4 -2 4 3 
4 5 4 -2 4 2 4 -4 4 -2 4 -7 4 -2 4 -6 
4 -4 4 -2 4 0 4 3 4 0 4 -4 4 0 4 8 
4 1 4 0 4 0 4 14 4 0 4 -6 4 1 4 -9 
4 -7 4 -1 4 -1 4 -4 4 -1 4 -12 4 4 4 -10 
4 -3 4 -1 5 -4 4 -5 4 -2 4 -6 4 2 4 1 
4 -1 4 -8 4 0 4 1 4 -9 4 -1 4 3 4 0 
4 -1 4 -1 4 -3 4 1 4 4 4 -6 4 5 4 -3 
4 4 4 -2 4 -4 4 -2 4 0 4 0 4 -2 4 -8 
4 1 4 2 4 -5 4 1 4 0 4 -1 4 4 4 -8 
4 -3 4 -1 4 -2 4 0 4 1 4 -5 4 -7 4 4 
4 -1 4 1 4 -5 4 -4 5 -2 4 -2 4 -3 4 -5 
4 -2 4 -4 4 -1 4 1 4 -9 4 4 4 -3 4 1 
4 -3 4 -5 4 -6 4 -4 4 2 4 -5 4 -4 4 -1 
4 -2 4 1 4 -1 4 0 4 -5 4 1 4 -5 4 4 
4 -1 4 2 4 -6 4 0 4 -4 4 -5 4 -2 4 -3 
4 0 4 4 4 -3 4 -2 4 0 4 1 4 -3 4 3 
4 -2 4 -4 4 -3 4 -6 4 -7 4 -4 5 -1 4 1 
4 -5 4 -2 4 -3 4 2 4 3 4 -4 4 2 4 3 
4 -2 4 -1 4 1 4 0 4 0 4 -7 4 -5 4 6 
4 -2 4 5 4 2 4 -6 4 -4 4 -5 4 -2 4 -2 
4 -1 4 -3 4 -1 4 -3 4 -4 4 4 4 2 4 -2 
4 -11 4 -5 4 -3 4 -6 4 -4 4 -2 4 -1 4 3 
4 -1 4 2 4 2 4 0 4 3 4 8 4 -3 4 -2 
5 3 4 1 4 -2 10838 3479 300 MP stroke
4 -2 4 0 4 -7 4 5 4 5 4 -4 4 -1 4 -10 
4 0 4 4 4 3 4 -1 4 0 4 -3 4 3 4 -1 
4 -4 4 4 4 -3 4 -7 4 -4 4 -1 4 3 4 -8 
4 -3 4 1 4 -1 4 0 4 -2 4 -3 4 -1 4 0 
4 -2 4 1 4 -2 4 1 4 -2 4 0 4 2 4 -8 
4 0 4 2 4 -4 4 0 4 -4 4 2 4 -2 5 -1 
4 2 4 -2 4 -1 4 0 4 3 4 5 4 2 4 -4 
4 4 4 0 4 0 4 -1 4 6 4 -4 4 -1 4 -3 
4 0 4 1 4 0 4 -8 4 0 4 -2 4 4 4 -6 
4 -2 4 -1 4 -4 4 -7 4 2 4 0 4 -1 4 -3 
4 0 4 -1 4 -4 4 -6 4 -3 4 -4 4 -5 4 -8 
4 4 4 -3 4 -5 4 -2 4 0 4 3 4 -5 4 -4 
5 -2 4 0 4 0 4 0 4 4 4 -2 4 0 4 -6 
4 -5 4 3 4 -2 4 -8 4 7 4 -2 4 -1 4 -6 
4 -3 4 0 4 -1 4 -8 4 -5 4 -1 4 -4 4 -2 
4 -1 4 1 4 2 4 -5 4 0 4 -2 4 7 4 -3 
4 -2 4 -2 4 -3 4 -2 4 -5 4 -4 4 -3 4 2 
4 -3 4 1 4 3 4 -3 4 -2 4 -2 4 -7 4 -7 
4 -7 4 1 5 -1 4 0 4 -1 4 -1 4 -3 4 1 
4 -1 4 3 4 -2 4 0 4 0 4 10 4 1 4 0 
4 -10 4 -4 4 0 4 -3 4 0 4 -2 4 1 4 1 
4 3 4 -1 4 -1 4 -1 4 -2 4 1 4 3 4 -1 
4 -5 4 -3 4 -2 4 3 4 -4 4 -4 4 -5 4 -1 
4 -4 4 1 4 -4 4 -8 4 -1 4 2 4 -4 4 3 
4 -3 4 -1 4 3 4 0 5 2 4 3 4 -3 4 -4 
4 1 4 2 4 1 4 4 4 -5 4 1 4 -7 4 2 
4 2 4 3 4 -3 4 -5 4 -4 4 3 4 -5 4 -2 
4 -2 4 1 4 -5 4 -3 4 -3 4 -2 4 -2 4 -3 
4 5 4 -5 4 1 4 7 4 -5 4 -3 4 -1 4 -3 
4 -5 4 4 4 -7 4 -3 4 -3 4 0 4 -9 4 -6 
4 -3 4 0 4 5 4 3 4 -3 4 -2 5 1 4 -1 
4 3 4 -4 4 -3 4 2 4 -5 4 -5 4 -2 4 2 
4 4 4 0 4 -9 4 -3 4 -3 4 -3 4 3 4 -1 
4 2 4 -4 4 -5 4 2 4 -5 4 4 4 -1 4 -2 
4 -3 4 -2 4 -5 4 6 4 -3 4 -1 4 -4 4 5 
4 -2 4 -2 4 1 4 -2 4 -5 4 2 4 -7 4 -4 
4 -5 4 -1 4 -3 4 1 4 3 4 4 4 0 5 -6 
4 2 4 -6 4 -4 9636 3875 300 MP stroke
4 0 4 0 4 -2 4 -4 4 -3 4 5 4 -7 4 2 
4 -6 4 1 4 -6 4 0 4 -2 4 -2 4 2 4 -2 
4 -3 4 -1 4 0 4 -5 4 0 4 0 4 -3 4 1 
4 2 4 0 4 8 4 0 4 -4 4 -5 4 2 4 -7 
4 3 4 -6 4 3 4 -3 4 2 4 -1 4 1 4 -1 
4 2 4 -7 4 -5 4 -5 4 4 4 -4 5 -4 4 -7 
4 4 4 0 4 0 4 -1 4 -7 4 -7 4 2 4 -5 
4 -3 4 -5 4 4 4 1 4 -1 4 -1 4 1 4 0 
4 -2 4 -9 4 1 4 -5 4 -3 4 10 4 -3 4 -2 
4 -3 4 -5 4 0 4 -9 4 2 4 3 4 4 4 6 
4 -4 4 2 4 -10 4 1 4 -3 4 -3 4 4 4 5 
4 -5 4 -3 4 -1 4 -6 4 -3 4 -3 4 2 4 -7 
5 -3 4 -5 4 -2 4 -3 4 -3 4 0 4 -1 4 -4 
4 0 4 -1 4 -3 4 -5 4 -2 4 3 4 -4 4 -1 
4 -8 4 -4 4 2 4 -1 4 -2 4 -2 4 -1 4 1 
4 -3 4 1 4 -3 4 -1 4 -5 4 1 4 -1 4 -1 
4 -2 4 4 4 5 4 -5 4 -4 4 -3 4 0 4 0 
4 -1 4 3 4 -1 4 -9 4 0 4 2 4 -5 4 -5 
4 -4 4 2 5 -5 4 6 4 -4 4 -9 4 -2 4 0 
4 6 4 6 4 -1 4 -9 4 -3 4 3 4 -5 4 1 
4 0 4 -1 4 -1 4 -6 4 -4 4 -4 4 1 4 -1 
4 -9 4 0 4 -3 4 -6 4 -2 4 -2 4 11 4 -6 
4 -4 4 1 4 -5 4 -3 4 0 4 0 4 9 4 -7 
4 1 4 -2 4 -7 4 -9 4 -3 4 -4 4 -1 4 0 
4 1 4 -6 4 -3 5 0 4 -1 4 2 4 -6 4 2 
4 4 4 3 4 -1 4 -7 4 0 4 -5 4 -4 4 5 
4 0 4 -5 4 0 4 -2 4 -6 4 -5 4 -4 4 -2 
4 -5 4 -1 4 6 4 -2 4 -7 4 -1 4 -6 4 -10 
4 2 4 4 4 -9 4 -3 4 0 4 -4 4 -3 4 -2 
4 0 4 2 4 -3 4 -8 4 -7 4 -2 4 -5 4 -2 
4 -2 4 1 4 0 4 3 4 -1 5 6 4 -2 4 -7 
4 4 4 -2 4 -4 4 -4 4 -6 4 -1 4 -5 4 0 
4 -6 4 -4 4 -4 4 0 4 8 4 -1 4 2 4 2 
4 -4 4 -4 4 -3 4 8 4 1 4 -9 4 9 4 6 
4 -3 4 -4 4 -5 4 -3 4 -3 4 -4 4 2 4 -6 
4 0 4 1 4 -3 4 -5 4 -7 4 -2 4 -4 4 -6 
4 -6 4 1 4 -2 4 -8 4 -3 4 1 4 -5 5 -1 
4 -1 4 0 4 -4 8434 4381 300 MP stroke
4 4 4 3 4 -8 4 1 4 -3 4 2 4 -5 4 -2 
4 -4 4 -6 4 -4 4 -3 4 0 4 4 4 -1 4 -4 
4 -2 4 2 4 -4 4 -1 4 1 4 -3 4 0 4 1 
4 -4 4 -5 4 -5 4 -1 4 -1 4 -5 4 -6 4 -6 
4 3 4 -2 4 2 4 -1 4 -1 4 0 4 -3 4 -1 
4 7 4 -4 4 -4 4 6 4 2 4 7 5 -2 4 -2 
4 0 4 -4 4 0 4 -3 4 -2 4 -1 4 -7 4 4 
4 1 4 -6 4 -3 4 1 4 2 4 -3 4 -6 4 0 
4 -7 4 -4 4 -6 4 -2 4 -8 4 -5 4 -4 4 -5 
4 -7 4 -2 4 2 4 -6 4 4 4 1 4 1 4 -2 
4 3 4 2 4 0 4 -2 4 1 4 -4 4 -6 4 -4 
4 -4 4 -3 4 -4 4 -8 4 5 4 3 4 -1 5 -5 
4 -1 4 -4 4 -2 4 -1 4 -8 4 7 4 -2 4 2 
4 -6 4 -1 4 2 4 -3 4 -5 4 -2 4 -3 4 3 
4 -4 4 3 4 -4 4 -1 4 -3 4 0 4 7 4 -2 
4 -2 4 -8 4 -3 4 -3 4 -2 4 -2 4 1 4 -4 
4 5 4 0 4 -6 4 3 4 -3 4 1 4 1 4 -3 
4 -8 4 3 4 -2 4 -5 4 -1 4 -3 4 4 4 -1 
4 -6 5 1 4 -6 4 -1 4 -3 4 -1 4 -3 4 1 
4 0 4 -6 4 -2 4 -3 4 -1 4 -6 4 -5 4 0 
4 -4 4 -7 4 2 4 -1 4 11 4 -1 4 -2 4 -7 
4 1 4 -4 4 2 4 -3 4 1 4 -7 4 -3 4 2 
4 -1 4 -2 4 4 4 0 4 -4 4 -2 4 -7 4 1 
4 3 4 14 4 2 4 -2 4 -1 4 2 4 3 4 -9 
4 -7 4 0 4 -5 5 0 4 -6 4 0 4 -5 4 0 
4 -1 4 -2 4 -1 4 -3 4 1 4 -3 4 -4 4 -2 
4 -2 4 8 4 -5 4 -5 4 1 4 -2 4 -2 4 -6 
4 -1 4 2 4 -8 4 -2 4 -6 4 -3 4 0 4 4 
4 0 4 -3 4 0 4 7 4 -1 4 -4 4 1 4 2 
4 -5 4 -3 4 7 4 0 4 -4 4 -2 4 -2 4 1 
4 3 4 0 4 1 4 -4 4 -3 5 -2 4 -3 4 4 
4 -4 4 -4 4 -3 4 3 4 -4 4 -3 4 -4 4 -2 
4 -1 4 0 4 -1 4 -6 4 3 4 -5 4 -7 4 3 
4 -1 4 0 4 -3 4 -5 4 -2 4 -2 4 -5 4 -3 
4 -6 4 2 4 -5 4 2 4 -1 4 4 4 -1 4 -4 
4 0 4 -3 4 -6 4 -1 4 -4 4 -3 4 -9 4 -5 
4 -1 4 -5 4 0 4 9 4 -1 4 -7 5 3 4 2 
4 -1 4 2 4 1 7232 4838 300 MP stroke
4 3 4 -3 4 0 4 -1 4 3 4 -6 4 -1 4 -1 
4 -5 4 -4 4 -5 4 0 4 -4 4 2 4 -4 4 1 
4 2 4 -1 4 1 4 -7 4 -1 4 1 4 -2 4 1 
4 -4 4 1 4 1 4 1 4 5 4 -4 4 -12 4 1 
4 10 4 -2 4 -5 4 -6 4 0 4 0 4 -1 4 -5 
4 3 4 -1 4 -5 4 -1 4 -3 5 0 4 8 4 4 
4 -2 4 3 4 -6 4 -1 4 3 4 9 4 -3 4 0 
4 -2 4 1 4 -2 4 -2 4 -9 4 -3 4 -2 4 -6 
4 0 4 -7 4 6 4 0 4 6 4 0 4 -10 4 1 
4 2 4 0 4 6 4 -3 4 5 4 -5 4 1 4 -2 
4 -4 4 0 4 -3 4 0 4 -6 4 -5 4 -5 4 -2 
4 -4 4 -2 4 -4 4 -1 4 -9 4 -2 4 0 5 -2 
4 3 4 0 4 3 4 -8 4 -1 4 0 4 -4 4 2 
4 -2 4 -5 4 -5 4 0 4 -2 4 4 4 -1 4 -4 
4 -9 4 8 4 -7 4 4 4 2 4 2 4 -2 4 -4 
4 -6 4 0 4 2 4 0 4 1 4 -1 4 -2 4 -1 
4 0 4 -4 4 -1 4 -4 4 -3 4 -4 4 -9 4 -4 
4 -4 4 -5 4 0 4 8 4 -1 4 -2 4 0 4 -1 
4 1 5 -5 4 3 4 -10 4 -3 4 1 4 -4 4 -3 
4 2 4 -1 4 -8 4 -1 4 3 4 7 4 5 4 0 
4 -8 4 0 4 4 4 2 4 3 4 5 4 -2 4 3 
4 -5 4 -2 4 4 4 -3 4 -6 4 5 4 -1 4 -1 
4 -2 4 -8 4 -1 4 4 4 -4 4 -2 4 -2 4 -7 
4 -2 4 -2 4 0 4 0 4 -5 4 -8 4 -4 4 -3 
4 1 4 -4 4 3 5 -1 4 -2 4 -2 4 1 4 -1 
4 -4 4 4 4 -7 4 7 4 -5 4 -5 4 -4 4 1 
4 1 4 7 4 -6 4 -1 4 0 4 0 4 -8 4 4 
4 6 4 1 4 -4 4 -5 4 -2 4 -1 4 -7 4 -5 
4 -1 4 -1 4 -1 4 -9 4 0 4 -5 4 -1 4 -4 
4 0 4 -8 4 1 4 -5 4 -2 4 -6 4 -5 4 -2 
4 -1 4 -2 4 -5 4 -4 5 -1 4 -7 4 -6 4 0 
4 -6 4 2 4 2 4 -2 4 3 4 -5 4 11 4 -3 
4 -2 4 -8 4 -4 4 -9 4 8 4 -5 4 -3 4 -1 
4 3 4 -4 4 -2 4 -9 4 -4 4 -8 4 1 4 -8 
4 -5 4 1 4 -4 4 -6 4 -3 4 3 4 2 4 -1 
4 -3 4 -13 4 2 4 -7 4 2 4 -12 4 -4 4 -1 
4 -4 4 -9 4 -4 4 -3 4 -3 4 -4 5 -3 4 0 
4 -3 4 6 4 4 6030 5321 300 MP stroke
4 0 4 -5 4 -1 4 3 4 2 4 -3 4 5 4 -5 
4 0 4 -5 4 1 4 -2 4 6 4 1 4 -2 4 -7 
4 0 4 -9 4 2 4 -1 4 -5 4 -1 4 -7 4 3 
4 -5 4 -5 4 1 4 8 4 -3 4 2 4 1 4 3 
4 4 4 0 4 -4 4 -10 4 -1 4 1 4 -4 4 -12 
4 1 4 -2 4 3 4 -3 4 -2 5 -3 4 -6 4 2 
4 1 4 2 4 4 4 -5 4 2 4 2 4 1 4 1 
4 -6 4 -5 4 0 4 -3 4 -3 4 0 4 -3 4 2 
4 9 4 1 4 0 4 -2 4 -5 4 -4 4 -3 4 -7 
4 6 4 -3 4 -8 4 2 4 -5 4 -4 4 11 4 -2 
4 -1 4 0 4 -1 4 -5 4 -1 4 5 4 -2 4 -7 
4 0 4 -5 4 -8 4 -6 4 6 4 4 4 -5 5 -8 
4 0 4 2 4 1 4 4 4 1 4 3 4 1 4 -1 
4 -5 4 -3 4 -3 4 -3 4 -4 4 -5 4 -5 4 1 
4 -3 4 -1 4 -3 4 -2 4 5 4 5 4 -1 4 -10 
4 -2 4 -5 4 -1 4 -1 4 -2 4 0 4 3 4 0 
4 5 4 -2 4 -7 4 -1 4 -2 4 -7 4 -1 4 5 
4 -7 4 -10 4 -3 4 -4 4 -5 4 -4 4 -3 4 -3 
5 0 4 -4 4 -3 4 -5 4 -1 4 2 4 -5 4 0 
4 -4 4 0 4 0 4 0 4 -6 4 -3 4 -7 4 -8 
4 -2 4 1 4 -2 4 -9 4 5 4 -1 4 4 4 -7 
4 -5 4 0 4 -1 4 2 4 3 4 -9 4 0 4 6 
4 0 4 -3 4 1 4 -6 4 3 4 -2 4 2 4 -5 
4 -2 4 4 4 11 4 -3 4 0 4 0 4 -3 4 -1 
4 1 4 4 5 -5 4 -3 4 -1 4 -4 4 1 4 -2 
4 -1 4 -10 4 -6 4 3 4 -6 4 -3 4 -1 4 3 
4 -2 4 -1 4 -7 4 -4 4 0 4 -5 4 3 4 -2 
4 -6 4 -3 4 1 4 -2 4 6 4 0 4 6 4 1 
4 -6 4 5 4 1 4 -9 4 -8 4 3 4 -4 4 -9 
4 2 4 -2 4 -4 4 4 4 2 4 -3 4 0 4 -1 
4 -3 4 -1 4 11 4 -4 5 -7 4 -6 4 -4 4 -5 
4 0 4 4 4 2 4 -2 4 -1 4 -9 4 7 4 -3 
4 -3 4 -7 4 -6 4 -4 4 2 4 -2 4 -11 4 -6 
4 -4 4 0 4 -1 4 4 4 4 4 1 4 -1 4 3 
4 -1 4 2 4 -5 4 -6 4 -4 4 -5 4 1 4 2 
4 2 4 -2 4 -4 4 4 4 4 4 0 4 -1 4 -1 
4 -4 4 -7 4 -12 4 -2 4 7 4 -6 5 -5 4 2 
4 -6 4 -2 4 7 4828 5757 300 MP stroke
4 0 4 -2 4 -3 4 -6 4 6 4 -4 4 -4 4 2 
4 -1 4 -1 4 -4 4 2 4 2 4 -3 4 -5 4 3 
4 3 4 -1 4 -4 4 -4 4 -7 4 -2 4 -6 4 -12 
4 4 4 -1 4 -2 4 -2 4 -4 4 -4 4 5 4 -4 
4 -3 4 0 4 -5 4 3 4 7 4 3 4 -2 4 0 
4 -3 4 -1 4 -15 4 -4 5 1 4 0 4 -9 4 -3 
4 -11 4 3 4 0 4 -4 4 3 4 -5 4 10 4 -3 
4 -7 4 -10 4 0 4 9 4 -3 4 2 4 -11 4 -3 
4 5 4 3 4 -8 4 0 4 -1 4 -3 4 0 4 2 
4 -1 4 -3 4 -9 4 -1 4 -1 4 -6 4 -6 4 -10 
4 -8 4 -9 4 -4 4 9 4 3 4 -7 4 -3 4 2 
4 0 4 -12 4 8 4 1 4 -5 4 -5 5 2 4 -11 
4 -5 4 -3 4 1 4 -3 4 -4 4 0 4 3 4 4 
4 -7 4 0 4 -7 4 3 4 -1 4 -8 4 -2 4 -3 
4 -7 4 -3 4 0 4 -2 4 -6 4 0 4 -5 4 -3 
4 -11 4 -10 4 -2 4 -5 4 -3 4 -5 4 1 4 -4 
4 -5 4 0 4 -3 4 -13 4 -3 4 -7 4 -3 4 7 
4 -6 4 -7 4 -4 4 -3 4 5 4 -6 4 -8 4 -10 
5 -11 4 -4 4 -2 4 -1 4 6 4 0 4 -5 4 7 
4 -4 4 -4 4 -8 4 4 4 -4 4 -1 4 1 4 -9 
4 -4 4 -9 4 2 4 2 4 -5 4 -2 4 -6 4 3 
4 -1 4 -2 4 -4 4 -4 4 2 4 -3 4 -8 4 3 
4 -8 4 10 4 -7 4 -4 4 5 4 5 4 -1 4 0 
4 4 4 -4 4 -5 4 2 4 -9 4 1 4 -2 4 0 
4 4 4 -2 5 1 4 -6 4 4 4 13 4 -2 4 -3 
4 -9 4 -3 4 12 4 1 4 -8 4 -7 4 -8 4 -6 
4 3 4 -7 4 2 4 -4 4 -5 4 1 4 -4 4 -2 
4 4 4 -6 4 -2 4 -10 4 -3 4 -5 4 2 4 -8 
4 -4 4 -1 4 -10 4 5 4 2 4 -1 4 -9 4 -1 
4 -7 4 -2 4 -3 4 1 4 -6 4 4 4 -3 4 3 
4 -11 4 0 4 -8 5 5 4 -6 4 0 4 -2 4 3 
4 -7 4 6 4 -5 4 4 4 1 4 -2 4 -1 4 -2 
4 0 4 -3 4 -1 4 1 4 -4 4 -7 4 4 4 -8 
4 -8 4 0 4 -10 4 0 4 -4 4 1 4 -3 4 -4 
4 3 4 -6 4 -10 4 -5 4 -2 4 9 4 -10 4 -6 
4 -1 4 -4 4 -3 4 2 4 -2 4 0 4 -11 4 -2 
4 1 4 -3 4 -13 4 -2 4 7 5 2 4 2 4 -6 
4 2 4 1 4 1 3626 6424 300 MP stroke
4 -9 4 -3 4 -1 4 -5 4 -10 4 3 4 -5 4 7 
4 -3 4 -4 4 3 4 -5 4 -2 4 -2 4 -4 4 -6 
4 -4 4 -4 4 -3 4 -4 4 -3 4 3 4 -1 4 4 
4 10 4 3 4 -7 4 -7 4 -9 4 0 4 -5 4 -4 
4 -6 4 1 4 -4 4 0 4 3 4 -10 4 1 4 -4 
4 -4 4 -11 4 -1 4 -2 5 0 4 0 4 3 4 2 
4 -1 4 -2 4 2 4 -2 4 -7 4 -2 4 -7 4 3 
4 -2 4 -12 4 -2 4 -10 4 -8 4 1 4 4 4 1 
4 2 4 -5 4 2 4 -6 4 3 4 -3 4 -9 4 2 
4 2 4 -8 4 0 4 -9 4 9 4 -10 4 -4 4 -4 
4 -7 4 -4 4 -5 4 -3 4 0 4 6 4 0 4 2 
4 3 4 1 4 -4 4 -1 4 -5 4 -1 5 -6 4 1 
4 4 4 -9 4 -1 4 -3 4 1 4 -12 4 -13 4 -8 
4 9 4 8 4 -10 4 -3 4 4 4 -5 4 -10 4 -5 
4 -5 4 -7 4 -5 4 -9 4 -6 4 1 4 8 4 1 
4 -7 4 -8 4 -8 4 -5 4 1 4 0 4 -1 4 0 
4 0 4 -14 4 -3 4 -3 4 2 4 -6 4 0 4 -2 
4 -2 4 -5 4 -2 4 5 4 -4 4 -2 4 0 5 -2 
4 8 4 -3 4 -4 4 -2 4 -8 4 7 4 -7 4 -1 
4 -2 4 -6 4 -4 4 -3 4 -4 4 -10 4 -4 4 0 
4 -2 4 6 4 7 4 -4 4 -5 4 -12 4 -2 4 1 
4 -1 4 -5 4 -2 4 1 4 0 4 0 4 -1 4 -8 
4 -4 4 -1 4 14 4 -12 4 -4 4 -6 4 -7 4 1 
4 -3 4 -2 4 -4 4 -3 4 -1 4 -2 4 -8 4 -6 
4 -3 5 -7 4 -2 4 4 4 3 4 6 4 -5 4 -8 
4 -2 4 -10 4 5 4 2 4 2 4 -2 4 -14 4 -4 
4 -3 4 -7 4 -8 4 -1 4 -3 4 -8 4 -7 4 -13 
4 -13 4 8 4 -8 4 -4 4 0 4 0 4 -2 4 -7 
4 -2 4 -4 4 5 4 -6 4 -1 4 0 4 -5 4 4 
4 0 4 -9 4 0 4 9 4 -3 4 -3 4 -3 4 -12 
4 1 4 1 4 -2 5 -6 4 2 4 -1 4 1 4 -1 
4 -6 4 -6 4 -8 4 3 4 -6 4 -20 4 -10 4 3 
4 1 4 -13 4 4 4 -6 4 -11 4 11 4 -7 4 -7 
4 -2 4 6 4 -4 4 1 4 3 4 -6 4 0 4 -4 
4 1 4 -12 4 1 4 -7 4 -4 4 3 4 -7 4 0 
4 -8 4 -4 4 -7 4 -3 4 -2 4 -1 4 -1 4 6 
4 -4 4 -3 4 0 4 -1 4 1 5 -6 4 -7 4 3 
4 -4 4 -13 4 -6 2424 7212 300 MP stroke
4 -8 4 -4 4 1 4 -8 4 -8 4 -3 4 2 4 -2 
4 4 4 0 4 -9 4 -5 4 -7 4 -12 4 2 4 -5 
4 -9 4 4 4 -6 4 -5 4 4 4 -3 4 -2 4 1 
4 -14 4 4 4 -18 4 -2 4 5 4 -7 4 -14 4 2 
4 -9 4 -16 4 -14 4 -4 4 0 4 -14 4 -7 4 -12 
4 -7 4 -23 4 0 2252 7440 44 MP stroke
/c10 { 1.000000 0.800000 1.000000 sr} bdef
c10
12 -21 12 -26 12 -22 12 0 12 1 12 -12 12 -4 12 -29 
12 -22 12 4 12 -20 12 -24 12 -7 12 15 12 -10 12 -8 
13 5 12 0 12 -7 12 -29 12 -2 12 7 12 -1 12 18 
12 -12 12 0 12 0 12 -15 12 -13 12 -19 12 -4 12 5 
13 -15 12 -10 12 2 12 -6 12 2 12 -30 12 8 12 -8 
12 14 12 -10 12 3 12 -16 12 -4 12 -21 12 -4 12 1 
12 -9 13 -4 12 -18 12 0 12 8 12 -16 12 -9 12 -23 
12 -21 12 5 12 -14 12 -16 12 -17 12 -1 12 -4 12 -22 
12 9 12 -21 13 -5 12 9 12 -19 12 11 12 -7 12 11 
12 -7 12 -5 12 -12 12 -13 12 -13 12 -18 12 -3 12 -18 
12 10 12 -15 13 -5 12 -25 12 -12 12 -10 12 0 12 -11 
12 -6 12 -6 12 -16 12 -9 12 -14 12 -19 12 -16 12 -19 
12 -15 12 -26 12 -25 2252 7414 100 MP
13 15 12 -8 12 -3 12 -3 12 2 12 0 12 8 12 -16 
12 -2 12 9 12 6 12 2 12 -2 12 -1 12 0 12 -12 
13 14 12 -10 12 -13 12 9 12 -15 12 4 12 8 12 12 
12 -13 12 -4 12 10 12 8 12 -9 12 1 12 -2 12 -5 
12 -9 13 4 12 -7 12 1 12 2 12 8 12 -4 12 12 
12 -9 12 -10 12 -14 12 1 12 15 12 9 12 -13 12 3 
12 -1 12 -2 13 -21 12 12 12 11 12 -22 12 3 12 -16 
12 14 12 1 12 -25 12 22 12 -12 12 -18 12 -13 12 -4 
12 8 12 3 13 6 12 -2 12 2 12 4 12 -11 12 -4 
12 0 12 1 12 17 12 -4 12 -19 12 8 12 12 12 -1 
12 9 12 1 12 -9 13 1 12 7 12 4 12 -21 12 -18 
12 -22 12 -17 12 -21 12 4 12 16 12 -15 12 21 12 10 
12 -3 12 4 12 -7 13 10 100 AP
13 1 12 -3 12 0 12 -1 12 -2 12 6 12 0 12 -5 
12 6 12 -1 12 -1 12 -7 12 6 12 1 12 -2 12 0 
12 -5 13 -2 12 12 12 -12 12 2 12 10 12 0 12 -3 
12 -9 12 4 12 3 12 0 12 -4 12 4 12 -5 12 -1 
12 6 13 -3 12 2 12 -14 12 -4 12 18 12 2 12 -12 
12 2 12 -6 12 14 12 3 12 -8 12 -5 12 7 12 3 
12 -11 12 4 13 5 12 4 12 -1 12 2 12 -15 12 1 
12 12 12 -6 12 4 12 -4 12 -8 12 3 12 7 12 -1 
12 -6 12 10 12 -9 13 -5 12 8 12 -4 12 5 12 -1 
12 7 12 3 12 -11 12 5 12 -4 12 -6 12 10 12 2 
12 -14 12 2 12 -4 13 14 12 2 12 -3 12 2 12 -5 
12 7 12 -5 12 -1 12 9 12 -4 12 -14 12 8 12 -9 
12 9 12 -10 12 4 12 -5 100 AP
12 14 13 -3 12 -1 12 0 12 -1 12 4 12 3 12 -3 
12 -13 12 14 12 2 12 -3 12 -5 12 8 12 0 12 -2 
12 -7 13 5 12 2 12 2 12 -11 12 7 12 2 12 0 
12 0 12 -6 12 0 12 2 12 6 12 -5 12 2 12 -3 
12 6 12 -2 13 -3 12 5 12 -2 12 -1 12 -3 12 1 
12 3 12 0 12 -3 12 -4 12 6 12 -2 12 -2 12 5 
12 -5 12 4 12 3 13 -9 12 6 12 -5 12 4 12 -2 
12 2 12 -11 12 8 12 5 12 -6 12 2 12 1 12 2 
12 1 12 1 12 -1 13 0 12 0 12 -1 12 -6 12 2 
12 3 12 -1 12 -4 12 2 12 4 12 1 12 -2 12 2 
12 -2 12 1 12 -4 12 1 13 2 12 -1 12 1 12 4 
12 -2 12 -7 12 1 12 -1 12 7 12 0 12 -13 12 0 
12 6 12 2 12 -5 12 8 100 AP
12 1 13 0 12 1 12 0 12 -5 12 1 12 3 12 1 
12 -2 12 3 12 0 12 -2 12 2 12 -2 12 -3 12 5 
12 -5 12 5 13 -2 12 2 12 -4 12 4 12 -5 12 0 
12 2 12 3 12 -3 12 3 12 -1 12 -2 12 -1 12 -2 
12 -2 12 -2 13 1 12 4 12 4 12 -2 12 -2 12 3 
12 -2 12 3 12 0 12 -1 12 -1 12 -1 12 2 12 0 
12 -5 12 5 12 -5 13 5 12 -2 12 0 12 0 12 4 
12 -5 12 4 12 -4 12 4 12 -6 12 7 12 -8 12 3 
12 0 12 0 12 -2 12 5 13 2 12 -4 12 -1 12 3 
12 -2 12 0 12 0 12 4 12 -7 12 5 12 0 12 2 
12 0 12 -3 12 1 12 -1 13 -2 12 -1 12 6 12 -4 
12 -2 12 -3 12 9 12 -4 12 1 12 -3 12 1 12 5 
12 -2 12 2 12 -9 12 -7 100 AP
12 6 12 0 13 -4 12 5 12 0 12 -1 12 1 12 -5 
12 5 12 -2 12 -1 12 0 12 1 12 2 12 -2 12 2 
12 -2 12 -3 13 3 12 0 12 2 12 0 12 -2 12 2 
12 -1 12 1 12 -2 12 0 12 2 12 -2 12 0 12 0 
12 0 12 1 12 -7 13 7 12 -3 12 2 12 -1 12 3 
12 -1 12 1 12 0 12 0 12 -4 12 2 12 0 12 0 
12 2 12 -6 12 2 13 2 12 -1 12 0 12 2 12 0 
12 1 12 -1 12 -2 12 -1 12 -1 12 5 12 0 12 -4 
12 2 12 -3 12 1 12 4 13 -1 12 -5 12 4 12 0 
12 0 12 -2 12 0 12 3 12 -1 12 -1 12 -1 12 1 
12 3 12 0 12 -5 12 -2 12 5 13 2 12 -3 12 -2 
12 2 12 -1 12 -1 12 3 12 1 12 1 12 -4 12 -1 
12 5 12 -1 12 1 12 -3 100 AP
12 8 12 2 13 1 12 -4 12 -4 12 8 12 0 12 0 
12 -1 12 -1 12 -2 12 4 12 -4 12 4 12 -6 12 3 
12 3 12 0 12 -7 13 4 12 3 12 0 12 0 12 0 
12 -1 12 1 12 -5 12 0 12 5 12 -5 12 3 12 -2 
12 1 12 1 12 -3 13 1 12 4 12 -1 12 -4 12 1 
12 3 12 -3 12 -1 12 5 12 0 12 -1 12 -6 12 7 
12 -2 12 2 12 -1 12 -2 13 3 12 -4 12 4 12 -1 
12 1 12 0 12 -1 12 -4 12 5 12 -1 12 1 12 -1 
12 1 12 0 12 -2 12 -1 12 1 13 2 12 0 12 -2 
12 -1 12 0 12 1 12 1 12 1 12 0 12 0 12 -1 
12 -1 12 -1 12 0 12 0 12 2 13 -1 12 -5 12 1 
12 1 12 5 12 -1 12 -3 12 -3 12 6 12 -1 12 0 
12 2 12 0 12 -5 12 -2 100 AP
12 2 12 0 12 -2 13 2 12 -2 12 -3 12 4 12 1 
12 -2 12 0 12 2 12 0 12 -2 12 -1 12 1 12 2 
12 0 12 0 12 -1 13 -2 12 2 12 0 12 -1 12 -3 
12 3 12 -6 12 8 12 0 12 0 12 0 12 0 12 -1 
12 1 12 0 12 0 12 -1 13 -5 12 6 12 -1 12 -1 
12 2 12 0 12 -2 12 -1 12 3 12 -2 12 1 12 1 
12 -3 12 3 12 -7 12 7 13 -2 12 0 12 -2 12 2 
12 -2 12 4 12 -3 12 -3 12 4 12 2 12 -1 12 1 
12 -2 12 2 12 -1 12 -6 12 6 13 1 12 -1 12 -1 
12 2 12 0 12 -2 12 2 12 -2 12 2 12 0 12 -2 
12 2 12 -7 12 7 12 -2 12 1 12 -2 13 0 12 1 
12 2 12 -2 12 2 12 -1 12 0 12 1 12 -1 12 -2 
12 3 12 0 12 -3 12 -8 100 AP
12 1 12 2 12 0 13 -1 12 1 12 0 12 0 12 0 
12 -1 12 1 12 -6 12 4 12 2 12 -1 12 1 12 0 
12 -5 12 5 12 -1 12 1 13 -3 12 -1 12 3 12 1 
12 -2 12 2 12 -3 12 3 12 -3 12 3 12 0 12 -2 
12 2 12 -6 12 5 12 0 13 0 12 1 12 0 12 0 
12 -2 12 -3 12 2 12 2 12 1 12 0 12 0 12 -3 
12 1 12 0 12 -6 12 5 12 3 13 -7 12 7 12 0 
12 0 12 -8 12 5 12 1 12 0 12 1 12 0 12 0 
12 -3 12 2 12 -3 12 2 12 3 13 -2 12 0 12 1 
12 -2 12 3 12 0 12 0 12 -1 12 1 12 0 12 -1 
12 1 12 0 12 -5 12 4 12 1 12 -1 13 1 12 0 
12 -1 12 1 12 -4 12 -1 12 5 12 -2 12 -1 12 3 
12 0 12 -2 12 1 12 -1 100 AP
12 -1 12 1 12 0 12 2 13 0 12 -1 12 1 12 -5 
12 5 12 -2 12 2 12 -1 12 -2 12 2 12 1 12 -2 
12 2 12 0 12 0 12 0 13 0 12 -1 12 1 12 0 
12 0 12 -2 12 2 12 0 12 -1 12 1 12 -5 12 5 
12 0 12 -1 12 1 12 0 12 -2 13 2 12 0 12 0 
12 0 12 -2 12 0 12 1 12 1 12 0 12 0 12 -2 
12 1 12 1 12 0 12 -2 12 -4 13 6 12 -2 12 1 
12 -1 12 1 12 -1 12 1 12 0 12 1 12 -2 12 2 
12 -1 12 1 12 0 12 0 12 -3 12 2 13 -4 12 5 
12 -2 12 2 12 -3 12 3 12 0 12 0 12 0 12 -2 
12 2 12 0 12 -2 12 0 12 -3 12 5 12 -3 13 2 
12 -2 12 3 12 0 12 -3 12 2 12 -2 12 3 12 0 
12 0 12 -1 12 -1 12 -1 100 AP
12 1 12 -2 12 2 12 -2 13 0 12 2 12 -5 12 5 
12 0 12 0 12 -2 12 -4 12 6 12 -2 12 2 12 -4 
12 3 12 0 12 -4 12 5 12 -2 13 2 12 -6 12 6 
12 -3 12 3 12 0 12 0 12 0 12 -1 12 1 12 -2 
12 2 12 -2 12 2 12 -5 12 3 13 -2 12 4 12 0 
12 -1 12 -1 12 -1 12 0 12 3 12 -3 12 2 12 1 
12 -5 12 4 12 0 12 -3 12 4 12 -2 13 1 12 1 
12 0 12 0 12 -2 12 2 12 0 12 0 12 0 12 -3 
12 3 12 -1 12 1 12 0 12 -2 12 1 13 1 12 -1 
12 1 12 -2 12 0 12 -3 12 5 12 -2 12 2 12 -3 
12 3 12 -2 12 -3 12 5 12 -1 12 -1 12 2 13 0 
12 0 12 0 12 0 12 0 12 0 12 -2 12 2 12 0 
12 0 12 -2 12 0 12 0 100 AP
-12 3 -12 -2 -12 0 -12 -1 -12 0 -12 0 -13 0 -12 1 
-12 -1 -12 0 -12 0 -12 0 -12 1 -12 -1 -12 0 -12 0 
-12 0 -12 1 -12 -1 -12 0 -12 0 -12 0 -13 1 -12 -1 
-12 2 -12 -2 -12 0 -12 3 -12 -3 -12 0 -12 1 -12 -1 
-12 1 -12 0 -12 0 -12 -1 -12 0 -12 0 -12 2 -13 -1 
-12 2 -12 -3 -12 1 -12 -1 -12 1 -12 -1 -12 0 -12 0 
-12 0 -12 0 -12 0 -12 1 -12 -1 -12 4 -12 -4 -13 1 
-12 -1 -12 3 -12 -3 -12 0 -12 2 -12 -2 -12 1 -12 -1 
-12 3 -12 -2 -12 -1 -12 0 -12 0 -12 3 -12 -3 -12 1 
-13 0 -12 -1 -12 1 -12 -1 -12 0 -12 0 -12 0 -12 0 
-12 0 -12 1 -12 -1 -12 0 -12 0 -12 0 -12 0 -12 1 
0 -3 12 2 12 0 12 0 12 0 12 -1 12 -1 12 2 
12 0 12 0 12 0 12 -1 100 AP
-12 0 -12 1 -12 -1 -12 1 -12 -1 -12 3 -13 -3 -12 2 
-12 -2 -12 0 -12 0 -12 0 -12 0 -12 1 -12 -1 -12 0 
-12 0 -12 1 -12 -1 -12 1 -12 -1 -12 1 -12 -1 -13 4 
-12 -3 -12 -1 -12 0 -12 0 -12 1 -12 -1 -12 0 -12 0 
-12 0 -12 1 -12 0 -12 -1 -12 0 -12 0 -12 0 -13 1 
-12 -1 -12 0 -12 0 -12 0 -12 0 -12 3 -12 -3 -12 0 
-12 0 -12 0 -12 1 -12 -1 -12 0 -12 0 -12 0 -12 0 
-13 0 -12 0 -12 0 -12 0 -12 1 -12 -1 -12 0 -12 1 
-12 -1 -12 0 -12 1 -12 -1 -12 3 -12 -3 -12 0 -12 0 
-13 0 -12 1 -12 0 -12 1 -12 -1 -12 0 -12 0 -12 -1 
-12 0 -12 0 -12 1 -12 -1 -12 0 -12 0 -12 0 -12 0 
-12 0 -13 0 -12 1 -12 -1 -12 0 -12 3 -12 -2 -12 -1 
-12 1 -12 -1 -12 1 -12 -1 100 AP
-12 0 -12 0 -12 0 -12 1 -12 -1 -12 1 -12 0 -13 -1 
-12 1 -12 2 -12 -2 -12 1 -12 -2 -12 0 -12 0 -12 1 
-12 0 -12 1 -12 3 -12 -5 -12 0 -12 0 -12 4 -13 -4 
-12 2 -12 2 -12 -3 -12 0 -12 1 -12 -2 -12 0 -12 0 
-12 0 -12 2 -12 1 -12 -2 -12 -1 -12 0 -12 0 -12 0 
-13 0 -12 0 -12 3 -12 -3 -12 1 -12 -1 -12 0 -12 2 
-12 -2 -12 2 -12 -2 -12 1 -12 -1 -12 0 -12 2 -12 0 
-13 -2 -12 0 -12 0 -12 3 -12 -3 -12 0 -12 0 -12 0 
-12 1 -12 2 -12 -3 -12 0 -12 0 -12 0 -12 0 -12 0 
-12 0 -13 0 -12 0 -12 1 -12 1 -12 -1 -12 -1 -12 0 
-12 0 -12 0 -12 1 -12 -1 -12 2 -12 -2 -12 0 -12 1 
-12 -1 -13 1 -12 -1 -12 2 -12 -1 -12 0 -12 -1 -12 0 
-12 1 -12 -1 -12 0 -12 0 100 AP
-12 -1 -12 1 -12 -1 -12 0 -12 1 -12 -1 -12 0 -13 0 
-12 5 -12 -5 -12 0 -12 1 -12 -1 -12 0 -12 0 -12 1 
-12 3 -12 -3 -12 -1 -12 2 -12 -1 -12 1 -12 -1 -12 0 
-13 -1 -12 4 -12 -4 -12 1 -12 -1 -12 0 -12 1 -12 -1 
-12 2 -12 -1 -12 -1 -12 0 -12 1 -12 -1 -12 0 -12 4 
-13 -4 -12 0 -12 0 -12 0 -12 0 -12 0 -12 0 -12 0 
-12 0 -12 0 -12 4 -12 -3 -12 1 -12 -1 -12 -1 -12 0 
-12 1 -13 -1 -12 0 -12 0 -12 0 -12 1 -12 1 -12 -1 
-12 -1 -12 0 -12 1 -12 0 -12 -1 -12 0 -12 2 -12 -1 
-12 -1 -13 1 -12 -1 -12 0 -12 1 -12 -1 -12 1 -12 -1 
-12 0 -12 2 -12 -1 -12 -1 -12 3 -12 -1 -12 -2 -12 0 
-12 0 -12 0 -13 0 -12 0 -12 0 -12 3 -12 -3 -12 0 
-12 0 -12 0 -12 0 -12 0 100 AP
-12 0 -12 1 -12 0 -12 1 -12 -1 -12 -1 -12 0 -13 1 
-12 1 -12 -1 -12 -1 -12 0 -12 0 -12 0 -12 0 -12 0 
-12 3 -12 -3 -12 0 -12 0 -12 0 -12 0 -12 2 -12 -2 
-13 1 -12 -1 -12 0 -12 1 -12 -1 -12 5 -12 -5 -12 0 
-12 0 -12 3 -12 -1 -12 -2 -12 2 -12 1 -12 -3 -12 0 
-12 2 -13 0 -12 -1 -12 1 -12 0 -12 -1 -12 1 -12 -2 
-12 3 -12 -1 -12 -2 -12 0 -12 0 -12 0 -12 0 -12 0 
-12 1 -13 3 -12 -4 -12 0 -12 1 -12 2 -12 -3 -12 2 
-12 -2 -12 2 -12 -1 -12 -1 -12 0 -12 0 -12 0 -12 4 
-12 -2 -12 -2 -13 0 -12 2 -12 5 -12 -6 -12 -1 -12 0 
-12 2 -12 -2 -12 0 -12 0 -12 0 -12 0 -12 1 -12 -1 
-12 1 -12 1 -13 0 -12 -2 -12 1 -12 -1 -12 3 -12 -3 
-12 1 -12 -1 -12 0 -12 1 100 AP
-12 -1 -12 2 -12 0 -12 -1 -12 0 -12 0 -12 3 -12 -4 
-13 0 -12 2 -12 0 -12 -1 -12 1 -12 -2 -12 0 -12 3 
-12 -1 -12 0 -12 -2 -12 0 -12 0 -12 0 -12 2 -12 -1 
-12 0 -13 1 -12 2 -12 -4 -12 1 -12 0 -12 0 -12 1 
-12 -2 -12 0 -12 0 -12 0 -12 0 -12 1 -12 0 -12 1 
-12 -2 -13 5 -12 -5 -12 1 -12 0 -12 0 -12 0 -12 -1 
-12 1 -12 0 -12 -1 -12 0 -12 0 -12 1 -12 -1 -12 0 
-12 1 -12 0 -13 2 -12 -2 -12 -1 -12 1 -12 -1 -12 1 
-12 1 -12 0 -12 -1 -12 -1 -12 3 -12 -3 -12 0 -12 0 
-12 0 -12 3 -13 -3 -12 0 -12 5 -12 -2 -12 -3 -12 0 
-12 1 -12 0 -12 -1 -12 4 -12 -2 -12 -2 -12 0 -12 3 
-12 1 -12 1 -12 -4 -13 -1 -12 2 -12 0 -12 0 -12 -1 
-12 -1 -12 0 -12 0 -12 0 100 AP
-12 -3 -12 2 -12 -1 -12 1 -12 -1 -12 2 -12 -1 -12 -2 
-13 1 -12 3 -12 -2 -12 1 -12 0 -12 1 -12 -4 -12 3 
-12 -3 -12 3 -12 -3 -12 3 -12 -3 -12 2 -12 0 -12 0 
-12 -1 -13 2 -12 -2 -12 2 -12 -2 -12 0 -12 1 -12 0 
-12 -1 -12 -1 -12 0 -12 2 -12 -1 -12 2 -12 -2 -12 -1 
-12 2 -12 4 -13 0 -12 -1 -12 -1 -12 -2 -12 0 -12 -2 
-12 0 -12 2 -12 -2 -12 2 -12 1 -12 -1 -12 -2 -12 2 
-12 -2 -12 1 -13 -1 -12 2 -12 -2 -12 3 -12 -2 -12 -1 
-12 1 -12 -1 -12 0 -12 2 -12 -2 -12 1 -12 1 -12 1 
-12 -3 -12 0 -12 1 -13 0 -12 0 -12 -1 -12 0 -12 0 
-12 3 -12 -2 -12 -1 -12 0 -12 1 -12 1 -12 0 -12 -1 
-12 2 -12 -1 -12 -2 -13 1 -12 3 -12 -2 -12 -2 -12 0 
-12 1 -12 1 -12 -1 -12 0 100 AP
-12 2 -12 0 -12 -1 -12 -2 -12 1 -12 3 -12 -4 -12 0 
-12 0 -13 0 -12 -1 -12 1 -12 1 -12 0 -12 1 -12 0 
-12 -2 -12 3 -12 4 -12 -6 -12 1 -12 -1 -12 0 -12 0 
-12 1 -13 -3 -12 1 -12 1 -12 -1 -12 2 -12 0 -12 -2 
-12 3 -12 -1 -12 -2 -12 0 -12 2 -12 0 -12 -2 -12 0 
-12 -1 -12 3 -13 -2 -12 -1 -12 3 -12 -2 -12 1 -12 -2 
-12 2 -12 2 -12 0 -12 -3 -12 0 -12 0 -12 1 -12 4 
-12 -6 -12 1 -12 1 -13 2 -12 -4 -12 0 -12 0 -12 4 
-12 -3 -12 -1 -12 1 -12 7 -12 -7 -12 -1 -12 2 -12 2 
-12 0 -12 -1 -12 -1 -13 -1 -12 9 -12 -6 -12 -4 -12 1 
-12 -1 -12 3 -12 0 -12 -2 -12 1 -12 -2 -12 4 -12 -1 
-12 -1 -12 -2 -12 3 -12 0 -13 -2 -12 0 -12 0 -12 -1 
-12 0 -12 1 -12 0 -12 2 100 AP
-12 0 -12 0 -12 -3 -12 1 -12 4 -12 -2 -12 1 -12 0 
-12 2 -13 -3 -12 -2 -12 4 -12 -2 -12 -4 -12 7 -12 -3 
-12 2 -12 -3 -12 0 -12 -1 -12 5 -12 0 -12 -6 -12 0 
-12 1 -12 1 -13 1 -12 5 -12 -8 -12 2 -12 4 -12 -3 
-12 -4 -12 2 -12 8 -12 -4 -12 0 -12 -4 -12 0 -12 7 
-12 -3 -12 -4 -12 0 -13 -1 -12 4 -12 -1 -12 -1 -12 0 
-12 -1 -12 0 -12 2 -12 1 -12 -4 -12 -2 -12 0 -12 5 
-12 2 -12 -7 -12 5 -13 0 -12 -3 -12 0 -12 0 -12 0 
-12 3 -12 -3 -12 -1 -12 0 -12 3 -12 -2 -12 -1 -12 3 
-12 -1 -12 0 -12 0 -12 -1 -13 0 -12 3 -12 -2 -12 0 
-12 5 -12 -2 -12 -5 -12 0 -12 3 -12 1 -12 -1 -12 -3 
-12 -1 -12 2 -12 1 -12 -1 -13 1 -12 1 -12 -3 -12 1 
-12 -1 -12 1 -12 -1 -12 1 100 AP
-12 -3 -12 5 -12 7 -12 -6 -12 4 -12 8 -12 -4 -12 -3 
-12 10 -12 -5 -13 -8 -12 10 -12 -2 -12 -7 -12 -7 -12 -1 
-12 -2 -12 11 -12 -4 -12 -2 -12 5 -12 -7 -12 11 -12 -8 
-12 -2 -12 -4 -13 3 -12 -1 -12 -2 -12 7 -12 -4 -12 -5 
-12 10 -12 1 -12 -4 -12 -4 -12 -3 -12 9 -12 -9 -12 7 
-12 -2 -12 0 -12 -3 -13 -3 -12 -2 -12 1 -12 0 -12 -1 
-12 1 -12 4 -12 4 -12 -6 -12 -1 -12 4 -12 7 -12 -1 
-12 -7 -12 0 -12 -4 -12 -1 -13 5 -12 -4 -12 0 -12 0 
-12 0 -12 0 -12 3 -12 4 -12 -5 -12 -4 -12 2 -12 3 
-12 3 -12 -6 -12 0 -12 -3 -13 5 -12 2 -12 0 -12 -5 
-12 5 -12 -6 -12 7 -12 -8 -12 -2 -12 4 -12 0 -12 -2 
-12 4 -12 -3 -12 -1 -12 -1 -12 2 -13 5 -12 -4 -12 1 
-12 -3 -12 0 -12 5 -12 -3 100 AP
-12 8 -12 -5 -12 14 -12 37 -12 19 -12 1 -12 17 -12 -19 
-12 -3 -12 34 -13 16 -12 5 -12 25 -12 31 -12 -11 -12 6 
-12 -4 -12 -1 -12 17 -12 23 -12 29 -12 -3 -12 9 -12 0 
-12 24 -12 -30 -12 4 -13 3 -12 20 -12 25 -12 0 -12 19 
-12 14 -12 -11 -12 24 -12 6 -12 0 -12 -3 -12 6 -12 -6 
-12 23 -12 0 -12 1 -12 -10 -13 15 -12 14 -12 23 -12 -2 
-12 11 -12 19 -12 17 -12 -13 -12 -2 -12 20 -12 1 -12 14 
-12 23 -12 -4 -12 2 -12 -3 -13 4 -12 8 -12 0 -12 1 
-12 6 -12 8 -12 11 -12 -3 -12 9 -12 20 -12 1 -12 3 
-12 -3 -12 4 -12 -1 -12 -1 -12 4 -13 -5 -12 4 -12 14 
-12 0 -12 1 -12 -6 -12 1 -12 7 -12 -7 -12 -8 -12 12 
-12 -1 -12 -7 -12 -10 -12 -7 -12 15 -13 -10 -12 -4 -12 4 
-12 12 -12 -6 -12 -1 -12 10 100 AP
-12 57 -12 41 -12 35 -12 9 -12 15 -12 5 -12 29 -12 29 
-12 37 -12 1 -12 5 -12 21 -12 10 -12 1 -12 18 -12 14 
-13 25 -12 17 -12 20 -12 -2 -12 12 -12 7 22 AP
PP
DO
/c11 { 1.000000 0.000000 1.000000 sr} bdef
c11
12 0 12 0 12 0 12 0 12 0 12 0 12 0 12 0 
12 0 12 0 12 0 12 0 12 -1 12 1 12 0 13 0 
12 0 12 -1 12 1 12 0 12 0 12 -1 12 0 12 1 
12 -1 12 1 12 -1 12 1 12 0 12 -1 12 1 12 -1 
13 1 12 -1 12 1 12 -1 12 1 12 0 12 0 12 0 
12 0 12 0 12 0 12 0 12 -1 12 1 12 -1 12 1 
13 -1 12 1 12 0 12 0 12 0 12 -1 12 0 12 1 
12 -1 12 1 12 0 12 -1 12 1 12 0 12 -1 12 1 
12 -1 13 1 12 0 12 0 12 0 12 0 12 0 12 0 
12 0 12 0 12 -1 12 1 12 0 12 0 12 0 12 -1 
12 1 13 0 12 0 12 0 12 -1 12 0 12 0 12 1 
12 0 12 0 12 -1 12 1 12 -1 12 0 12 1 12 0 
12 0 12 0 13 0 12 0 12 0 12 0 12 0 12 0 
12 0 12 0 12 0 12 0 12 -1 12 0 12 0 12 0 
12 0 12 1 12 0 13 0 12 0 12 0 12 -1 12 1 
12 -1 12 1 12 0 12 -1 12 1 12 0 12 -1 12 1 
12 0 12 0 12 0 13 0 12 0 12 0 12 0 12 0 
12 0 12 0 12 0 12 0 12 0 12 -1 12 1 12 0 
12 0 12 0 12 0 12 -1 13 1 12 0 12 0 12 0 
12 -1 12 1 12 0 12 0 12 0 12 0 12 -1 12 1 
12 0 12 0 12 0 12 -1 13 1 12 0 12 0 12 -1 
12 1 12 0 12 0 12 0 12 0 12 -1 12 1 12 0 
12 0 12 0 12 0 12 -1 12 1 13 -1 12 1 12 -1 
12 1 12 -1 12 1 12 0 12 0 12 0 12 0 12 0 
12 0 12 -1 12 1 12 -1 12 1 12 -1 13 1 12 -1 
12 1 12 0 12 -1 12 1 12 -1 12 1 12 0 12 0 
12 0 12 0 12 -1 12 0 12 1 12 0 13 0 12 0 
12 0 12 0 12 0 12 0 12 0 12 -1 12 1 12 0 
12 0 12 0 12 0 12 -1 12 1 12 0 12 0 13 -1 
12 0 12 1 12 0 12 -1 12 1 12 -1 12 1 12 -1 
12 1 12 0 12 -1 12 1 12 -1 12 1 12 0 13 0 
12 0 12 0 12 0 12 0 12 -1 12 0 12 1 12 0 
12 0 12 0 12 -1 12 0 12 0 12 -1 12 1 12 1 
13 -2 12 2 12 0 12 0 12 -1 12 0 12 0 12 1 
12 0 12 0 12 0 12 -1 12 0 12 0 12 0 12 1 
13 -1 12 0 12 1 12 -1 12 1 12 0 12 0 12 0 
12 0 12 0 12 0 12 0 12 0 12 -1 12 1 12 0 
12 0 13 0 12 0 12032 6425 300 MP stroke
12 0 12 0 12 -1 12 0 12 1 12 0 12 -1 12 1 
12 0 12 -1 12 1 12 -1 12 1 12 0 12 0 13 0 
12 -1 12 0 12 1 12 0 12 -1 12 0 12 1 12 0 
12 0 12 -1 12 0 12 1 12 0 12 0 12 0 13 -1 
12 1 12 0 12 -1 12 0 12 1 12 -2 12 2 12 0 
12 0 12 0 12 0 12 0 12 0 12 0 12 0 12 0 
13 -1 12 1 12 0 12 0 12 0 12 0 12 -1 12 0 
12 1 12 0 12 0 12 0 12 -1 12 1 12 -2 12 2 
13 -1 12 0 12 0 12 1 12 -1 12 1 12 -1 12 0 
12 1 12 0 12 0 12 0 12 0 12 0 12 0 12 -1 
12 1 13 0 12 0 12 -1 12 1 12 0 12 0 12 0 
12 -1 12 1 12 0 12 0 12 0 12 -2 12 2 12 0 
12 0 12 -1 13 0 12 0 12 1 12 -1 12 1 12 0 
12 0 12 0 12 0 12 -1 12 1 12 0 12 -1 12 -1 
12 1 12 1 13 0 12 -1 12 -1 12 2 12 0 12 0 
12 0 12 0 12 -1 12 1 12 -1 12 1 12 -1 12 0 
12 1 12 0 12 -1 13 0 12 1 12 0 12 0 12 0 
12 0 12 0 12 -1 12 0 12 1 12 -1 12 0 12 0 
12 0 12 0 12 0 13 0 12 1 12 0 12 -1 12 0 
12 1 12 -1 12 0 12 1 12 0 12 0 12 -1 12 1 
12 0 12 0 12 0 12 -1 13 1 12 -1 12 1 12 0 
12 0 12 0 12 0 12 -1 12 1 12 0 12 0 12 0 
12 0 12 0 12 -1 12 0 12 0 13 1 12 0 12 -1 
12 0 12 0 12 1 12 0 12 0 12 0 12 0 12 0 
12 -1 12 0 12 0 12 0 12 1 13 -1 12 0 12 0 
12 0 12 1 12 0 12 -1 12 0 12 1 12 0 12 -1 
12 1 12 0 12 -1 12 0 12 1 12 0 13 -1 12 1 
12 0 12 0 12 0 12 -1 12 1 12 0 12 -1 12 0 
12 1 12 0 12 0 12 0 12 0 12 -1 13 1 12 -1 
12 1 12 0 12 -1 12 1 12 0 12 0 12 -1 12 1 
12 0 12 -1 12 1 12 -1 12 1 12 0 12 -1 13 1 
12 -1 12 0 12 0 12 1 12 0 12 0 12 0 12 0 
12 -1 12 1 12 0 12 0 12 0 12 -1 12 0 13 1 
12 -1 12 0 12 1 12 0 12 0 12 0 12 -1 12 0 
12 0 12 1 12 0 12 -1 12 0 12 0 12 0 12 1 
13 0 12 -1 12 0 12 1 12 -1 12 0 12 0 12 1 
12 0 12 -1 12 0 12 0 12 1 12 0 12 -1 12 -1 
12 2 13 0 12 -1 8426 6426 300 MP stroke
12 0 12 0 12 0 12 0 12 0 12 1 12 0 12 -1 
12 0 12 1 12 0 12 0 12 -1 12 1 13 0 12 0 
12 0 12 -1 12 0 12 0 12 1 12 -1 12 1 12 0 
12 0 12 0 12 0 12 -1 12 1 12 -1 12 1 13 0 
12 0 12 -1 12 1 12 -1 12 0 12 0 12 1 12 -1 
12 1 12 0 12 -1 12 0 12 0 12 -1 12 0 13 0 
12 1 12 1 12 -1 12 0 12 0 12 0 12 1 12 0 
12 -1 12 0 12 0 12 0 12 1 12 -2 12 1 12 -1 
13 1 12 0 12 0 12 0 12 1 12 -1 12 1 12 -1 
12 1 12 -2 12 2 12 -2 12 1 12 0 12 0 12 0 
12 0 13 1 12 -1 12 0 12 0 12 0 12 0 12 0 
12 1 12 -2 12 1 12 0 12 1 12 0 12 -1 12 0 
12 0 13 0 12 0 12 1 12 -1 12 0 12 -1 12 2 
12 -1 12 0 12 0 12 0 12 1 12 0 12 0 12 -3 
12 0 12 2 13 0 12 -1 12 1 12 -1 12 1 12 1 
12 -1 12 -3 12 4 12 0 12 -1 12 -1 12 2 12 0 
12 -1 12 -2 13 2 12 0 12 1 12 -3 12 2 12 0 
12 1 12 -1 12 -1 12 0 12 0 12 2 12 -1 12 0 
12 0 12 1 12 -1 13 0 12 1 12 0 12 -1 12 0 
12 0 12 0 12 1 12 -1 12 -2 12 2 12 0 12 -1 
12 2 12 -2 12 1 12 1 13 -3 12 2 12 -2 12 2 
12 -1 12 1 12 -2 12 1 12 2 12 -2 12 0 12 1 
12 0 12 0 12 1 12 -1 13 0 12 0 12 0 12 -1 
12 0 12 1 12 0 12 -1 12 0 12 1 12 1 12 -1 
12 1 12 -1 12 0 12 0 12 -1 13 1 12 0 12 0 
12 1 12 -1 12 -1 12 0 12 0 12 2 12 0 12 -4 
12 0 12 1 12 1 12 -1 12 2 13 0 12 -1 12 1 
12 -1 12 -1 12 2 12 0 12 -1 12 1 12 0 12 0 
12 -2 12 1 12 1 12 -1 12 0 12 -1 13 -1 12 4 
12 -3 12 0 12 3 12 0 12 -1 12 -2 12 1 12 1 
12 -1 12 -1 12 2 12 -2 12 0 12 1 13 -1 12 1 
12 -5 12 0 12 5 12 1 12 -4 12 1 12 -1 12 3 
12 0 12 -1 12 -2 12 2 12 0 12 -1 12 -1 13 3 
12 1 12 -1 12 1 12 -4 12 0 12 3 12 -2 12 2 
12 -1 12 -5 12 3 12 1 12 1 12 -2 12 3 12 -4 
13 0 12 2 12 -1 12 2 12 0 12 2 12 0 12 -3 
12 2 12 -2 12 -2 12 3 12 1 12 -5 12 0 12 0 
13 4 12 1 12 -1 4820 6428 300 MP stroke
12 1 12 -1 12 1 12 -1 12 0 12 2 12 -1 12 -3 
12 1 12 -2 12 2 12 -2 12 1 12 -3 13 5 12 -3 
12 -1 12 2 12 -1 12 -1 12 2 12 -6 12 2 12 3 
12 1 12 1 12 -1 12 0 12 -1 12 -4 13 5 12 -4 
12 -5 12 5 12 -5 12 3 12 0 12 4 12 -6 12 1 
12 3 12 3 12 -6 12 1 12 0 12 -4 12 -3 13 3 
12 -1 12 0 12 2 12 1 12 2 12 1 12 -3 12 -2 
12 -6 12 1 12 2 12 7 12 -5 12 -1 12 0 12 0 
13 -12 12 7 12 7 12 -7 12 -4 12 -4 12 4 12 2 
12 -11 12 6 12 -5 12 -9 12 -3 12 2 12 4 12 -3 
13 7 12 2 12 -5 12 4 12 -4 12 -5 12 -3 12 4 
12 5 12 -5 12 -8 12 0 12 6 12 3 12 -2 12 -1 
12 -3 13 6 12 -4 12 5 12 -6 12 -5 12 -11 12 -14 
12 -7 12 6 12 4 12 -8 12 14 12 4 12 -1 12 -5 
12 -5 13 7 12 -13 12 -12 12 -11 12 -1 12 2 12 -8 
12 -3 12 -24 12 -16 12 4 12 -15 12 -16 12 -7 12 7 
12 -5 12 -8 13 1 12 1 12 -5 12 -12 12 -13 12 -3 
12 -1 12 -1 12 -5 12 7 12 -9 12 -17 12 -12 12 -9 
12 -13 12 -4 13 -15 12 -1 12 1 12 -3 12 -10 12 -12 
12 0 12 -2 12 7 12 -8 12 -11 12 -2 12 -9 12 -20 
12 -2 12 -12 12 -14 13 -4 12 -11 12 15 12 -8 12 -8 
12 -9 12 -10 12 -25 12 -9 12 -15 12 -8 12 -6 12 -4 
12 4 12 -27 12 -8 12 -13 13 -10 12 -13 12 -8 12 15 
12 -12 12 5 12 -13 12 -21 12 -13 12 -4 12 -11 12 -12 
12 -7 12 -8 12 -5 12 -17 13 -15 12 -19 12 -15 12 -5 
12 -6 12 -15 12 -6 12 -3 12 -27 12 -19 12 -22 12 -11 
12 -16 12 -14 12 -25 12 -34 12 -41 2252 7400 214 MP stroke
gr

24 w
c11
DO
0 sg
7717 8534 mt 
(Iterations) s
 689 6063 mt  -90 rotate
(Population size) s
90 rotate
%%IncludeResource: font Helvetica
/Helvetica /WindowsLatin1Encoding 120 FMSR

2231 7488 mt 
( ) s
15635  692 mt 
( ) s
SO
6 w
1 sg
0 1444 2723 0 0 -1444 12878 5257 4 MP
PP
-2723 0 0 1444 2723 0 0 -1444 12878 5257 5 MP stroke
4 w
DO
SO
6 w
0 sg
12878 3813 mt 15601 3813 L
12878 5257 mt 15601 5257 L
15601 5257 mt 15601 3813 L
12878 5257 mt 12878 3813 L
12878 5257 mt 15601 5257 L
12878 5257 mt 12878 3813 L
12878 3813 mt 15601 3813 L
12878 5257 mt 15601 5257 L
15601 5257 mt 15601 3813 L
12878 5257 mt 12878 3813 L
%%IncludeResource: font Helvetica
/Helvetica /WindowsLatin1Encoding 600 FMSR

13368 4397 mt 
(GC-AIS) s
gs 12878 3813 2724 1445 rc
DA
24 w
c9
377 0 12953 4184 2 MP stroke
SO
gr

24 w
c9
0 sg
13368 5098 mt 
(NSGAII) s
gs 12878 3813 2724 1445 rc
DO
c11
377 0 12953 4885 2 MP stroke
SO
6 w
gr

6 w
c11

end %%Color Dict

eplot
%%EndObject

epage
end

showpage

%%Trailer
%%EOF
